ARM GAS  /tmp/ccjamcrO.s 			page 1


   1              		.syntax unified
   2              		.cpu cortex-m4
   3              		.fpu softvfp
   4              		.eabi_attribute 20, 1
   5              		.eabi_attribute 21, 1
   6              		.eabi_attribute 23, 3
   7              		.eabi_attribute 24, 1
   8              		.eabi_attribute 25, 1
   9              		.eabi_attribute 26, 1
  10              		.eabi_attribute 30, 2
  11              		.eabi_attribute 34, 1
  12              		.eabi_attribute 18, 4
  13              		.thumb
  14              		.file	"chdynamic.c"
  15              		.text
  16              	.Ltext0:
  17              		.cfi_sections	.debug_frame
  18              		.section	.text.chThdAddRef,"ax",%progbits
  19              		.align	2
  20              		.p2align 4,,15
  21              		.global	chThdAddRef
  22              		.thumb
  23              		.thumb_func
  24              		.type	chThdAddRef, %function
  25              	chThdAddRef:
  26              	.LFB7:
  27              		.file 1 "../../os/kernel/src/chdynamic.c"
  28              		.loc 1 52 0
  29              		.cfi_startproc
  30              		@ args = 0, pretend = 0, frame = 0
  31              		@ frame_needed = 0, uses_anonymous_args = 0
  32              		@ link register save eliminated.
  33              	.LVL0:
  34              	.LBB2:
  35              		.loc 1 54 0
  36 0000 2023     		movs	r3, #32
  37              	@ 54 "../../os/kernel/src/chdynamic.c" 1
  38 0002 83F31188 		msr     BASEPRI, r3
  39              	@ 0 "" 2
  40              		.thumb
  41              	.LBE2:
  42              		.loc 1 56 0
  43 0006 837F     		ldrb	r3, [r0, #30]	@ zero_extendqisi2
  44 0008 0133     		adds	r3, r3, #1
  45 000a 8377     		strb	r3, [r0, #30]
  46              	.LBB3:
  47              		.loc 1 57 0
  48 000c 0023     		movs	r3, #0
  49              	@ 57 "../../os/kernel/src/chdynamic.c" 1
  50 000e 83F31188 		msr     BASEPRI, r3
  51              	@ 0 "" 2
  52              		.thumb
  53              	.LBE3:
  54              		.loc 1 59 0
  55 0012 7047     		bx	lr
  56              		.cfi_endproc
  57              	.LFE7:
ARM GAS  /tmp/ccjamcrO.s 			page 2


  58              		.size	chThdAddRef, .-chThdAddRef
  59 0014 AFF30080 		.section	.text.chThdRelease,"ax",%progbits
  59      AFF30080 
  59      AFF30080 
  60              		.align	2
  61              		.p2align 4,,15
  62              		.global	chThdRelease
  63              		.thumb
  64              		.thumb_func
  65              		.type	chThdRelease, %function
  66              	chThdRelease:
  67              	.LFB8:
  68              		.loc 1 74 0
  69              		.cfi_startproc
  70              		@ args = 0, pretend = 0, frame = 0
  71              		@ frame_needed = 0, uses_anonymous_args = 0
  72              		@ link register save eliminated.
  73              	.LVL1:
  74              		.loc 1 74 0
  75 0000 0146     		mov	r1, r0
  76              	.LBB4:
  77              		.loc 1 77 0
  78 0002 2023     		movs	r3, #32
  79              	@ 77 "../../os/kernel/src/chdynamic.c" 1
  80 0004 83F31188 		msr     BASEPRI, r3
  81              	@ 0 "" 2
  82              		.thumb
  83              	.LBE4:
  84              		.loc 1 79 0
  85 0008 827F     		ldrb	r2, [r0, #30]	@ zero_extendqisi2
  86 000a 013A     		subs	r2, r2, #1
  87 000c D2B2     		uxtb	r2, r2
  88 000e 8277     		strb	r2, [r0, #30]
  89              	.LVL2:
  90              	.LBB5:
  91              		.loc 1 80 0
  92 0010 0023     		movs	r3, #0
  93              	@ 80 "../../os/kernel/src/chdynamic.c" 1
  94 0012 83F31188 		msr     BASEPRI, r3
  95              	@ 0 "" 2
  96              		.thumb
  97              	.LBE5:
  98              		.loc 1 85 0
  99 0016 12B9     		cbnz	r2, .L2
 100              		.loc 1 85 0 is_stmt 0 discriminator 1
 101 0018 037F     		ldrb	r3, [r0, #28]	@ zero_extendqisi2
 102 001a 0E2B     		cmp	r3, #14
 103 001c 00D0     		beq	.L7
 104              	.L2:
 105 001e 7047     		bx	lr
 106              	.L7:
 107              		.loc 1 86 0 is_stmt 1
 108 0020 437F     		ldrb	r3, [r0, #29]	@ zero_extendqisi2
 109 0022 03F00303 		and	r3, r3, #3
 110 0026 012B     		cmp	r3, #1
 111 0028 02D0     		beq	.L4
 112 002a 022B     		cmp	r3, #2
ARM GAS  /tmp/ccjamcrO.s 			page 3


 113 002c 07D0     		beq	.L5
 114 002e 7047     		bx	lr
 115              	.L4:
 116              		.loc 1 90 0
 117 0030 0269     		ldr	r2, [r0, #16]
 118              	.LVL3:
 119 0032 4369     		ldr	r3, [r0, #20]
 120 0034 1A61     		str	r2, [r3, #16]
 121 0036 0269     		ldr	r2, [r0, #16]
 122 0038 5361     		str	r3, [r2, #20]
 123              		.loc 1 92 0
 124 003a FFF7FEBF 		b	chHeapFree
 125              	.LVL4:
 126              	.L5:
 127              		.loc 1 98 0
 128 003e 0269     		ldr	r2, [r0, #16]
 129              	.LVL5:
 130 0040 4369     		ldr	r3, [r0, #20]
 131              		.loc 1 100 0
 132 0042 406C     		ldr	r0, [r0, #68]
 133              	.LVL6:
 134              		.loc 1 98 0
 135 0044 1A61     		str	r2, [r3, #16]
 136 0046 0A69     		ldr	r2, [r1, #16]
 137 0048 5361     		str	r3, [r2, #20]
 138              		.loc 1 100 0
 139 004a FFF7FEBF 		b	chPoolFree
 140              	.LVL7:
 141              		.cfi_endproc
 142              	.LFE8:
 143              		.size	chThdRelease, .-chThdRelease
 144 004e 00BF     		.section	.text.chThdCreateFromHeap,"ax",%progbits
 145              		.align	2
 146              		.p2align 4,,15
 147              		.global	chThdCreateFromHeap
 148              		.thumb
 149              		.thumb_func
 150              		.type	chThdCreateFromHeap, %function
 151              	chThdCreateFromHeap:
 152              	.LFB9:
 153              		.loc 1 131 0
 154              		.cfi_startproc
 155              		@ args = 4, pretend = 0, frame = 0
 156              		@ frame_needed = 0, uses_anonymous_args = 0
 157              	.LVL8:
 158 0000 70B5     		push	{r4, r5, r6, lr}
 159              		.cfi_def_cfa_offset 16
 160              		.cfi_offset 4, -16
 161              		.cfi_offset 5, -12
 162              		.cfi_offset 6, -8
 163              		.cfi_offset 14, -4
 164 0002 82B0     		sub	sp, sp, #8
 165              		.cfi_def_cfa_offset 24
 166              		.loc 1 131 0
 167 0004 1646     		mov	r6, r2
 168 0006 1C46     		mov	r4, r3
 169 0008 0D46     		mov	r5, r1
ARM GAS  /tmp/ccjamcrO.s 			page 4


 170              		.loc 1 135 0
 171 000a FFF7FEFF 		bl	chHeapAlloc
 172              	.LVL9:
 173              		.loc 1 136 0
 174 000e 98B1     		cbz	r0, .L9
 175              	.LBB6:
 176              		.loc 1 148 0
 177 0010 2023     		movs	r3, #32
 178              	@ 148 "../../os/kernel/src/chdynamic.c" 1
 179 0012 83F31188 		msr     BASEPRI, r3
 180              	@ 0 "" 2
 181              		.thumb
 182              	.LBE6:
 183              		.loc 1 149 0
 184 0016 069B     		ldr	r3, [sp, #24]
 185 0018 2946     		mov	r1, r5
 186 001a 0093     		str	r3, [sp]
 187 001c 3246     		mov	r2, r6
 188 001e 2346     		mov	r3, r4
 189 0020 FFF7FEFF 		bl	chThdCreateI
 190              	.LVL10:
 191              		.loc 1 150 0
 192 0024 0123     		movs	r3, #1
 193 0026 4377     		strb	r3, [r0, #29]
 194              		.loc 1 151 0
 195 0028 0021     		movs	r1, #0
 196              		.loc 1 149 0
 197 002a 0446     		mov	r4, r0
 198              	.LVL11:
 199              		.loc 1 151 0
 200 002c FFF7FEFF 		bl	chSchWakeupS
 201              	.LVL12:
 202              	.LBB7:
 203              		.loc 1 152 0
 204 0030 0023     		movs	r3, #0
 205              	@ 152 "../../os/kernel/src/chdynamic.c" 1
 206 0032 83F31188 		msr     BASEPRI, r3
 207              	@ 0 "" 2
 208              		.thumb
 209              	.LBE7:
 210              		.loc 1 153 0
 211 0036 2046     		mov	r0, r4
 212              	.LVL13:
 213              	.L9:
 214              		.loc 1 154 0
 215 0038 02B0     		add	sp, sp, #8
 216              		@ sp needed
 217 003a 70BD     		pop	{r4, r5, r6, pc}
 218              		.cfi_endproc
 219              	.LFE9:
 220              		.size	chThdCreateFromHeap, .-chThdCreateFromHeap
 221 003c AFF30080 		.section	.text.chThdCreateFromMemoryPool,"ax",%progbits
 222              		.align	2
 223              		.p2align 4,,15
 224              		.global	chThdCreateFromMemoryPool
 225              		.thumb
 226              		.thumb_func
ARM GAS  /tmp/ccjamcrO.s 			page 5


 227              		.type	chThdCreateFromMemoryPool, %function
 228              	chThdCreateFromMemoryPool:
 229              	.LFB10:
 230              		.loc 1 180 0
 231              		.cfi_startproc
 232              		@ args = 0, pretend = 0, frame = 0
 233              		@ frame_needed = 0, uses_anonymous_args = 0
 234              	.LVL14:
 235 0000 F0B5     		push	{r4, r5, r6, r7, lr}
 236              		.cfi_def_cfa_offset 20
 237              		.cfi_offset 4, -20
 238              		.cfi_offset 5, -16
 239              		.cfi_offset 6, -12
 240              		.cfi_offset 7, -8
 241              		.cfi_offset 14, -4
 242 0002 83B0     		sub	sp, sp, #12
 243              		.cfi_def_cfa_offset 32
 244              		.loc 1 180 0
 245 0004 0F46     		mov	r7, r1
 246 0006 1446     		mov	r4, r2
 247 0008 1E46     		mov	r6, r3
 248 000a 0546     		mov	r5, r0
 249              		.loc 1 186 0
 250 000c FFF7FEFF 		bl	chPoolAlloc
 251              	.LVL15:
 252              		.loc 1 187 0
 253 0010 98B1     		cbz	r0, .L12
 254              	.LBB8:
 255              		.loc 1 199 0
 256 0012 2023     		movs	r3, #32
 257              	@ 199 "../../os/kernel/src/chdynamic.c" 1
 258 0014 83F31188 		msr     BASEPRI, r3
 259              	@ 0 "" 2
 260              		.thumb
 261              	.LBE8:
 262              		.loc 1 200 0
 263 0018 6968     		ldr	r1, [r5, #4]
 264 001a 0096     		str	r6, [sp]
 265 001c 3A46     		mov	r2, r7
 266 001e 2346     		mov	r3, r4
 267 0020 FFF7FEFF 		bl	chThdCreateI
 268              	.LVL16:
 269              		.loc 1 201 0
 270 0024 0223     		movs	r3, #2
 271 0026 4377     		strb	r3, [r0, #29]
 272              		.loc 1 202 0
 273 0028 4564     		str	r5, [r0, #68]
 274              		.loc 1 203 0
 275 002a 0021     		movs	r1, #0
 276              		.loc 1 200 0
 277 002c 0446     		mov	r4, r0
 278              	.LVL17:
 279              		.loc 1 203 0
 280 002e FFF7FEFF 		bl	chSchWakeupS
 281              	.LVL18:
 282              	.LBB9:
 283              		.loc 1 204 0
ARM GAS  /tmp/ccjamcrO.s 			page 6


 284 0032 0023     		movs	r3, #0
 285              	@ 204 "../../os/kernel/src/chdynamic.c" 1
 286 0034 83F31188 		msr     BASEPRI, r3
 287              	@ 0 "" 2
 288              		.thumb
 289              	.LBE9:
 290              		.loc 1 205 0
 291 0038 2046     		mov	r0, r4
 292              	.LVL19:
 293              	.L12:
 294              		.loc 1 206 0
 295 003a 03B0     		add	sp, sp, #12
 296              		@ sp needed
 297 003c F0BD     		pop	{r4, r5, r6, r7, pc}
 298              		.cfi_endproc
 299              	.LFE10:
 300              		.size	chThdCreateFromMemoryPool, .-chThdCreateFromMemoryPool
 301 003e 00BF     		.text
 302              	.Letext0:
 303              		.file 2 "/usr/lib/gcc/arm-none-eabi/4.8.2/include/stddef.h"
 304              		.file 3 "/usr/include/newlib/machine/_default_types.h"
 305              		.file 4 "/usr/include/newlib/stdint.h"
 306              		.file 5 "../../os/ports/GCC/ARMCMx/chtypes.h"
 307              		.file 6 "../../os/kernel/include/chlists.h"
 308              		.file 7 "../../os/kernel/include/chthreads.h"
 309              		.file 8 "../../os/ports/GCC/ARMCMx/chcore_v7m.h"
 310              		.file 9 "../../os/kernel/include/chmtx.h"
 311              		.file 10 "../../os/kernel/include/chmemcore.h"
 312              		.file 11 "../../os/kernel/include/chheap.h"
 313              		.file 12 "../../os/kernel/include/chmempools.h"
 314              		.file 13 "../../os/kernel/include/chschd.h"
 315              		.section	.debug_info,"",%progbits
 316              	.Ldebug_info0:
 317 0000 90080000 		.4byte	0x890
 318 0004 0400     		.2byte	0x4
 319 0006 00000000 		.4byte	.Ldebug_abbrev0
 320 000a 04       		.byte	0x4
 321 000b 01       		.uleb128 0x1
 322 000c 67000000 		.4byte	.LASF92
 323 0010 01       		.byte	0x1
 324 0011 0E000000 		.4byte	.LASF93
 325 0015 2C040000 		.4byte	.LASF94
 326 0019 00000000 		.4byte	.Ldebug_ranges0+0
 327 001d 00000000 		.4byte	0
 328 0021 00000000 		.4byte	.Ldebug_line0
 329 0025 02       		.uleb128 0x2
 330 0026 04       		.byte	0x4
 331 0027 05       		.byte	0x5
 332 0028 696E7400 		.ascii	"int\000"
 333 002c 03       		.uleb128 0x3
 334 002d 2E000000 		.4byte	.LASF2
 335 0031 02       		.byte	0x2
 336 0032 D4       		.byte	0xd4
 337 0033 37000000 		.4byte	0x37
 338 0037 04       		.uleb128 0x4
 339 0038 04       		.byte	0x4
 340 0039 07       		.byte	0x7
ARM GAS  /tmp/ccjamcrO.s 			page 7


 341 003a 05020000 		.4byte	.LASF0
 342 003e 04       		.uleb128 0x4
 343 003f 01       		.byte	0x1
 344 0040 06       		.byte	0x6
 345 0041 4B010000 		.4byte	.LASF1
 346 0045 03       		.uleb128 0x3
 347 0046 45000000 		.4byte	.LASF3
 348 004a 03       		.byte	0x3
 349 004b 1C       		.byte	0x1c
 350 004c 50000000 		.4byte	0x50
 351 0050 04       		.uleb128 0x4
 352 0051 01       		.byte	0x1
 353 0052 08       		.byte	0x8
 354 0053 01030000 		.4byte	.LASF4
 355 0057 04       		.uleb128 0x4
 356 0058 02       		.byte	0x2
 357 0059 05       		.byte	0x5
 358 005a 24030000 		.4byte	.LASF5
 359 005e 04       		.uleb128 0x4
 360 005f 02       		.byte	0x2
 361 0060 07       		.byte	0x7
 362 0061 31020000 		.4byte	.LASF6
 363 0065 03       		.uleb128 0x3
 364 0066 BC030000 		.4byte	.LASF7
 365 006a 03       		.byte	0x3
 366 006b 37       		.byte	0x37
 367 006c 70000000 		.4byte	0x70
 368 0070 04       		.uleb128 0x4
 369 0071 04       		.byte	0x4
 370 0072 05       		.byte	0x5
 371 0073 8F010000 		.4byte	.LASF8
 372 0077 03       		.uleb128 0x3
 373 0078 DF010000 		.4byte	.LASF9
 374 007c 03       		.byte	0x3
 375 007d 38       		.byte	0x38
 376 007e 82000000 		.4byte	0x82
 377 0082 04       		.uleb128 0x4
 378 0083 04       		.byte	0x4
 379 0084 07       		.byte	0x7
 380 0085 12020000 		.4byte	.LASF10
 381 0089 04       		.uleb128 0x4
 382 008a 08       		.byte	0x8
 383 008b 05       		.byte	0x5
 384 008c 3D010000 		.4byte	.LASF11
 385 0090 03       		.uleb128 0x3
 386 0091 C4020000 		.4byte	.LASF12
 387 0095 03       		.byte	0x3
 388 0096 4E       		.byte	0x4e
 389 0097 9B000000 		.4byte	0x9b
 390 009b 04       		.uleb128 0x4
 391 009c 08       		.byte	0x8
 392 009d 07       		.byte	0x7
 393 009e 04010000 		.4byte	.LASF13
 394 00a2 03       		.uleb128 0x3
 395 00a3 FF030000 		.4byte	.LASF14
 396 00a7 04       		.byte	0x4
 397 00a8 2A       		.byte	0x2a
ARM GAS  /tmp/ccjamcrO.s 			page 8


 398 00a9 45000000 		.4byte	0x45
 399 00ad 03       		.uleb128 0x3
 400 00ae F9020000 		.4byte	.LASF15
 401 00b2 04       		.byte	0x4
 402 00b3 41       		.byte	0x41
 403 00b4 65000000 		.4byte	0x65
 404 00b8 03       		.uleb128 0x3
 405 00b9 8D030000 		.4byte	.LASF16
 406 00bd 04       		.byte	0x4
 407 00be 42       		.byte	0x42
 408 00bf 77000000 		.4byte	0x77
 409 00c3 03       		.uleb128 0x3
 410 00c4 3C000000 		.4byte	.LASF17
 411 00c8 04       		.byte	0x4
 412 00c9 4E       		.byte	0x4e
 413 00ca 90000000 		.4byte	0x90
 414 00ce 04       		.uleb128 0x4
 415 00cf 01       		.byte	0x1
 416 00d0 02       		.byte	0x2
 417 00d1 F3020000 		.4byte	.LASF18
 418 00d5 03       		.uleb128 0x3
 419 00d6 4A020000 		.4byte	.LASF19
 420 00da 05       		.byte	0x5
 421 00db 2C       		.byte	0x2c
 422 00dc A2000000 		.4byte	0xa2
 423 00e0 03       		.uleb128 0x3
 424 00e1 AC010000 		.4byte	.LASF20
 425 00e5 05       		.byte	0x5
 426 00e6 2D       		.byte	0x2d
 427 00e7 A2000000 		.4byte	0xa2
 428 00eb 03       		.uleb128 0x3
 429 00ec D7020000 		.4byte	.LASF21
 430 00f0 05       		.byte	0x5
 431 00f1 2E       		.byte	0x2e
 432 00f2 A2000000 		.4byte	0xa2
 433 00f6 03       		.uleb128 0x3
 434 00f7 78010000 		.4byte	.LASF22
 435 00fb 05       		.byte	0x5
 436 00fc 2F       		.byte	0x2f
 437 00fd A2000000 		.4byte	0xa2
 438 0101 03       		.uleb128 0x3
 439 0102 EB020000 		.4byte	.LASF23
 440 0106 05       		.byte	0x5
 441 0107 30       		.byte	0x30
 442 0108 B8000000 		.4byte	0xb8
 443 010c 03       		.uleb128 0x3
 444 010d 44020000 		.4byte	.LASF24
 445 0111 05       		.byte	0x5
 446 0112 31       		.byte	0x31
 447 0113 AD000000 		.4byte	0xad
 448 0117 03       		.uleb128 0x3
 449 0118 5E020000 		.4byte	.LASF25
 450 011c 05       		.byte	0x5
 451 011d 33       		.byte	0x33
 452 011e B8000000 		.4byte	0xb8
 453 0122 03       		.uleb128 0x3
 454 0123 A7030000 		.4byte	.LASF26
ARM GAS  /tmp/ccjamcrO.s 			page 9


 455 0127 05       		.byte	0x5
 456 0128 35       		.byte	0x35
 457 0129 B8000000 		.4byte	0xb8
 458 012d 03       		.uleb128 0x3
 459 012e 6F030000 		.4byte	.LASF27
 460 0132 06       		.byte	0x6
 461 0133 2A       		.byte	0x2a
 462 0134 38010000 		.4byte	0x138
 463 0138 05       		.uleb128 0x5
 464 0139 6F030000 		.4byte	.LASF27
 465 013d 48       		.byte	0x48
 466 013e 07       		.byte	0x7
 467 013f 5E       		.byte	0x5e
 468 0140 35020000 		.4byte	0x235
 469 0144 06       		.uleb128 0x6
 470 0145 53030000 		.4byte	.LASF28
 471 0149 07       		.byte	0x7
 472 014a 5F       		.byte	0x5f
 473 014b 56020000 		.4byte	0x256
 474 014f 00       		.byte	0
 475 0150 06       		.uleb128 0x6
 476 0151 E4020000 		.4byte	.LASF29
 477 0155 07       		.byte	0x7
 478 0156 61       		.byte	0x61
 479 0157 56020000 		.4byte	0x256
 480 015b 04       		.byte	0x4
 481 015c 06       		.uleb128 0x6
 482 015d 36010000 		.4byte	.LASF30
 483 0161 07       		.byte	0x7
 484 0162 63       		.byte	0x63
 485 0163 01010000 		.4byte	0x101
 486 0167 08       		.byte	0x8
 487 0168 06       		.uleb128 0x6
 488 0169 7F040000 		.4byte	.LASF31
 489 016d 07       		.byte	0x7
 490 016e 64       		.byte	0x64
 491 016f 1B030000 		.4byte	0x31b
 492 0173 0C       		.byte	0xc
 493 0174 06       		.uleb128 0x6
 494 0175 BD010000 		.4byte	.LASF32
 495 0179 07       		.byte	0x7
 496 017a 66       		.byte	0x66
 497 017b 56020000 		.4byte	0x256
 498 017f 10       		.byte	0x10
 499 0180 06       		.uleb128 0x6
 500 0181 90020000 		.4byte	.LASF33
 501 0185 07       		.byte	0x7
 502 0186 67       		.byte	0x67
 503 0187 56020000 		.4byte	0x256
 504 018b 14       		.byte	0x14
 505 018c 06       		.uleb128 0x6
 506 018d 25040000 		.4byte	.LASF34
 507 0191 07       		.byte	0x7
 508 0192 6E       		.byte	0x6e
 509 0193 DD040000 		.4byte	0x4dd
 510 0197 18       		.byte	0x18
 511 0198 06       		.uleb128 0x6
ARM GAS  /tmp/ccjamcrO.s 			page 10


 512 0199 2E030000 		.4byte	.LASF35
 513 019d 07       		.byte	0x7
 514 019e 79       		.byte	0x79
 515 019f E0000000 		.4byte	0xe0
 516 01a3 1C       		.byte	0x1c
 517 01a4 06       		.uleb128 0x6
 518 01a5 5A030000 		.4byte	.LASF36
 519 01a9 07       		.byte	0x7
 520 01aa 7D       		.byte	0x7d
 521 01ab D5000000 		.4byte	0xd5
 522 01af 1D       		.byte	0x1d
 523 01b0 06       		.uleb128 0x6
 524 01b1 F8030000 		.4byte	.LASF37
 525 01b5 07       		.byte	0x7
 526 01b6 82       		.byte	0x82
 527 01b7 EB000000 		.4byte	0xeb
 528 01bb 1E       		.byte	0x1e
 529 01bc 06       		.uleb128 0x6
 530 01bd 36030000 		.4byte	.LASF38
 531 01c1 07       		.byte	0x7
 532 01c2 88       		.byte	0x88
 533 01c3 F6000000 		.4byte	0xf6
 534 01c7 1F       		.byte	0x1f
 535 01c8 06       		.uleb128 0x6
 536 01c9 C6030000 		.4byte	.LASF39
 537 01cd 07       		.byte	0x7
 538 01ce 8F       		.byte	0x8f
 539 01cf 43030000 		.4byte	0x343
 540 01d3 20       		.byte	0x20
 541 01d4 07       		.uleb128 0x7
 542 01d5 705F7500 		.ascii	"p_u\000"
 543 01d9 07       		.byte	0x7
 544 01da B4       		.byte	0xb4
 545 01db A8040000 		.4byte	0x4a8
 546 01df 24       		.byte	0x24
 547 01e0 06       		.uleb128 0x6
 548 01e1 85040000 		.4byte	.LASF40
 549 01e5 07       		.byte	0x7
 550 01e6 B9       		.byte	0xb9
 551 01e7 7C020000 		.4byte	0x27c
 552 01eb 28       		.byte	0x28
 553 01ec 06       		.uleb128 0x6
 554 01ed D4030000 		.4byte	.LASF41
 555 01f1 07       		.byte	0x7
 556 01f2 BF       		.byte	0xbf
 557 01f3 5C020000 		.4byte	0x25c
 558 01f7 2C       		.byte	0x2c
 559 01f8 06       		.uleb128 0x6
 560 01f9 08000000 		.4byte	.LASF42
 561 01fd 07       		.byte	0x7
 562 01fe C3       		.byte	0xc3
 563 01ff 0C010000 		.4byte	0x10c
 564 0203 34       		.byte	0x34
 565 0204 06       		.uleb128 0x6
 566 0205 82030000 		.4byte	.LASF43
 567 0209 07       		.byte	0x7
 568 020a C9       		.byte	0xc9
ARM GAS  /tmp/ccjamcrO.s 			page 11


 569 020b 17010000 		.4byte	0x117
 570 020f 38       		.byte	0x38
 571 0210 06       		.uleb128 0x6
 572 0211 1A030000 		.4byte	.LASF44
 573 0215 07       		.byte	0x7
 574 0216 D0       		.byte	0xd0
 575 0217 EF040000 		.4byte	0x4ef
 576 021b 3C       		.byte	0x3c
 577 021c 06       		.uleb128 0x6
 578 021d B1030000 		.4byte	.LASF45
 579 0221 07       		.byte	0x7
 580 0222 D4       		.byte	0xd4
 581 0223 01010000 		.4byte	0x101
 582 0227 40       		.byte	0x40
 583 0228 06       		.uleb128 0x6
 584 0229 5D010000 		.4byte	.LASF46
 585 022d 07       		.byte	0x7
 586 022e DA       		.byte	0xda
 587 022f 92020000 		.4byte	0x292
 588 0233 44       		.byte	0x44
 589 0234 00       		.byte	0
 590 0235 08       		.uleb128 0x8
 591 0236 08       		.byte	0x8
 592 0237 06       		.byte	0x6
 593 0238 61       		.byte	0x61
 594 0239 56020000 		.4byte	0x256
 595 023d 06       		.uleb128 0x6
 596 023e 53030000 		.4byte	.LASF28
 597 0242 06       		.byte	0x6
 598 0243 62       		.byte	0x62
 599 0244 56020000 		.4byte	0x256
 600 0248 00       		.byte	0
 601 0249 06       		.uleb128 0x6
 602 024a E4020000 		.4byte	.LASF29
 603 024e 06       		.byte	0x6
 604 024f 64       		.byte	0x64
 605 0250 56020000 		.4byte	0x256
 606 0254 04       		.byte	0x4
 607 0255 00       		.byte	0
 608 0256 09       		.uleb128 0x9
 609 0257 04       		.byte	0x4
 610 0258 2D010000 		.4byte	0x12d
 611 025c 03       		.uleb128 0x3
 612 025d 98020000 		.4byte	.LASF47
 613 0261 06       		.byte	0x6
 614 0262 66       		.byte	0x66
 615 0263 35020000 		.4byte	0x235
 616 0267 08       		.uleb128 0x8
 617 0268 04       		.byte	0x4
 618 0269 06       		.byte	0x6
 619 026a 6B       		.byte	0x6b
 620 026b 7C020000 		.4byte	0x27c
 621 026f 06       		.uleb128 0x6
 622 0270 53030000 		.4byte	.LASF28
 623 0274 06       		.byte	0x6
 624 0275 6D       		.byte	0x6d
 625 0276 56020000 		.4byte	0x256
ARM GAS  /tmp/ccjamcrO.s 			page 12


 626 027a 00       		.byte	0
 627 027b 00       		.byte	0
 628 027c 03       		.uleb128 0x3
 629 027d 52020000 		.4byte	.LASF48
 630 0281 06       		.byte	0x6
 631 0282 70       		.byte	0x70
 632 0283 67020000 		.4byte	0x267
 633 0287 03       		.uleb128 0x3
 634 0288 F6010000 		.4byte	.LASF49
 635 028c 08       		.byte	0x8
 636 028d E5       		.byte	0xe5
 637 028e 92020000 		.4byte	0x292
 638 0292 0A       		.uleb128 0xa
 639 0293 04       		.byte	0x4
 640 0294 03       		.uleb128 0x3
 641 0295 7C020000 		.4byte	.LASF50
 642 0299 08       		.byte	0x8
 643 029a EB       		.byte	0xeb
 644 029b C3000000 		.4byte	0xc3
 645 029f 0B       		.uleb128 0xb
 646 02a0 CD030000 		.4byte	.LASF51
 647 02a4 24       		.byte	0x24
 648 02a5 08       		.byte	0x8
 649 02a6 0C01     		.2byte	0x10c
 650 02a8 1B030000 		.4byte	0x31b
 651 02ac 0C       		.uleb128 0xc
 652 02ad 723400   		.ascii	"r4\000"
 653 02b0 08       		.byte	0x8
 654 02b1 1F01     		.2byte	0x11f
 655 02b3 87020000 		.4byte	0x287
 656 02b7 00       		.byte	0
 657 02b8 0C       		.uleb128 0xc
 658 02b9 723500   		.ascii	"r5\000"
 659 02bc 08       		.byte	0x8
 660 02bd 2001     		.2byte	0x120
 661 02bf 87020000 		.4byte	0x287
 662 02c3 04       		.byte	0x4
 663 02c4 0C       		.uleb128 0xc
 664 02c5 723600   		.ascii	"r6\000"
 665 02c8 08       		.byte	0x8
 666 02c9 2101     		.2byte	0x121
 667 02cb 87020000 		.4byte	0x287
 668 02cf 08       		.byte	0x8
 669 02d0 0C       		.uleb128 0xc
 670 02d1 723700   		.ascii	"r7\000"
 671 02d4 08       		.byte	0x8
 672 02d5 2201     		.2byte	0x122
 673 02d7 87020000 		.4byte	0x287
 674 02db 0C       		.byte	0xc
 675 02dc 0C       		.uleb128 0xc
 676 02dd 723800   		.ascii	"r8\000"
 677 02e0 08       		.byte	0x8
 678 02e1 2301     		.2byte	0x123
 679 02e3 87020000 		.4byte	0x287
 680 02e7 10       		.byte	0x10
 681 02e8 0C       		.uleb128 0xc
 682 02e9 723900   		.ascii	"r9\000"
ARM GAS  /tmp/ccjamcrO.s 			page 13


 683 02ec 08       		.byte	0x8
 684 02ed 2401     		.2byte	0x124
 685 02ef 87020000 		.4byte	0x287
 686 02f3 14       		.byte	0x14
 687 02f4 0C       		.uleb128 0xc
 688 02f5 72313000 		.ascii	"r10\000"
 689 02f9 08       		.byte	0x8
 690 02fa 2501     		.2byte	0x125
 691 02fc 87020000 		.4byte	0x287
 692 0300 18       		.byte	0x18
 693 0301 0C       		.uleb128 0xc
 694 0302 72313100 		.ascii	"r11\000"
 695 0306 08       		.byte	0x8
 696 0307 2601     		.2byte	0x126
 697 0309 87020000 		.4byte	0x287
 698 030d 1C       		.byte	0x1c
 699 030e 0C       		.uleb128 0xc
 700 030f 6C7200   		.ascii	"lr\000"
 701 0312 08       		.byte	0x8
 702 0313 2701     		.2byte	0x127
 703 0315 87020000 		.4byte	0x287
 704 0319 20       		.byte	0x20
 705 031a 00       		.byte	0
 706 031b 0B       		.uleb128 0xb
 707 031c 24020000 		.4byte	.LASF52
 708 0320 04       		.byte	0x4
 709 0321 08       		.byte	0x8
 710 0322 3101     		.2byte	0x131
 711 0324 36030000 		.4byte	0x336
 712 0328 0C       		.uleb128 0xc
 713 0329 72313300 		.ascii	"r13\000"
 714 032d 08       		.byte	0x8
 715 032e 3201     		.2byte	0x132
 716 0330 36030000 		.4byte	0x336
 717 0334 00       		.byte	0
 718 0335 00       		.byte	0
 719 0336 09       		.uleb128 0x9
 720 0337 04       		.byte	0x4
 721 0338 9F020000 		.4byte	0x29f
 722 033c 04       		.uleb128 0x4
 723 033d 04       		.byte	0x4
 724 033e 07       		.byte	0x7
 725 033f 87020000 		.4byte	.LASF53
 726 0343 0D       		.uleb128 0xd
 727 0344 22010000 		.4byte	0x122
 728 0348 05       		.uleb128 0x5
 729 0349 6A020000 		.4byte	.LASF54
 730 034d 10       		.byte	0x10
 731 034e 09       		.byte	0x9
 732 034f 2C       		.byte	0x2c
 733 0350 79030000 		.4byte	0x379
 734 0354 06       		.uleb128 0x6
 735 0355 65010000 		.4byte	.LASF55
 736 0359 09       		.byte	0x9
 737 035a 2D       		.byte	0x2d
 738 035b 5C020000 		.4byte	0x25c
 739 035f 00       		.byte	0
ARM GAS  /tmp/ccjamcrO.s 			page 14


 740 0360 06       		.uleb128 0x6
 741 0361 77040000 		.4byte	.LASF56
 742 0365 09       		.byte	0x9
 743 0366 2F       		.byte	0x2f
 744 0367 56020000 		.4byte	0x256
 745 036b 08       		.byte	0x8
 746 036c 06       		.uleb128 0x6
 747 036d A0030000 		.4byte	.LASF57
 748 0371 09       		.byte	0x9
 749 0372 31       		.byte	0x31
 750 0373 79030000 		.4byte	0x379
 751 0377 0C       		.byte	0xc
 752 0378 00       		.byte	0
 753 0379 09       		.uleb128 0x9
 754 037a 04       		.byte	0x4
 755 037b 48030000 		.4byte	0x348
 756 037f 03       		.uleb128 0x3
 757 0380 6A020000 		.4byte	.LASF54
 758 0384 09       		.byte	0x9
 759 0385 33       		.byte	0x33
 760 0386 48030000 		.4byte	0x348
 761 038a 03       		.uleb128 0x3
 762 038b 5A000000 		.4byte	.LASF58
 763 038f 0A       		.byte	0xa
 764 0390 2C       		.byte	0x2c
 765 0391 95030000 		.4byte	0x395
 766 0395 09       		.uleb128 0x9
 767 0396 04       		.byte	0x4
 768 0397 9B030000 		.4byte	0x39b
 769 039b 0E       		.uleb128 0xe
 770 039c 92020000 		.4byte	0x292
 771 03a0 AA030000 		.4byte	0x3aa
 772 03a4 0F       		.uleb128 0xf
 773 03a5 2C000000 		.4byte	0x2c
 774 03a9 00       		.byte	0
 775 03aa 03       		.uleb128 0x3
 776 03ab B9020000 		.4byte	.LASF59
 777 03af 0B       		.byte	0xb
 778 03b0 34       		.byte	0x34
 779 03b1 B5030000 		.4byte	0x3b5
 780 03b5 05       		.uleb128 0x5
 781 03b6 8F040000 		.4byte	.LASF60
 782 03ba 20       		.byte	0x20
 783 03bb 0B       		.byte	0xb
 784 03bc 47       		.byte	0x47
 785 03bd E6030000 		.4byte	0x3e6
 786 03c1 06       		.uleb128 0x6
 787 03c2 0F030000 		.4byte	.LASF61
 788 03c6 0B       		.byte	0xb
 789 03c7 48       		.byte	0x48
 790 03c8 8A030000 		.4byte	0x38a
 791 03cc 00       		.byte	0
 792 03cd 06       		.uleb128 0x6
 793 03ce 24010000 		.4byte	.LASF62
 794 03d2 0B       		.byte	0xb
 795 03d3 4A       		.byte	0x4a
 796 03d4 05040000 		.4byte	0x405
ARM GAS  /tmp/ccjamcrO.s 			page 15


 797 03d8 08       		.byte	0x8
 798 03d9 06       		.uleb128 0x6
 799 03da 57010000 		.4byte	.LASF63
 800 03de 0B       		.byte	0xb
 801 03df 4C       		.byte	0x4c
 802 03e0 7F030000 		.4byte	0x37f
 803 03e4 10       		.byte	0x10
 804 03e5 00       		.byte	0
 805 03e6 10       		.uleb128 0x10
 806 03e7 04       		.byte	0x4
 807 03e8 0B       		.byte	0xb
 808 03e9 3C       		.byte	0x3c
 809 03ea 05040000 		.4byte	0x405
 810 03ee 11       		.uleb128 0x11
 811 03ef 31010000 		.4byte	.LASF64
 812 03f3 0B       		.byte	0xb
 813 03f4 3D       		.byte	0x3d
 814 03f5 26040000 		.4byte	0x426
 815 03f9 11       		.uleb128 0x11
 816 03fa 96030000 		.4byte	.LASF65
 817 03fe 0B       		.byte	0xb
 818 03ff 3E       		.byte	0x3e
 819 0400 2C040000 		.4byte	0x42c
 820 0404 00       		.byte	0
 821 0405 12       		.uleb128 0x12
 822 0406 40030000 		.4byte	.LASF95
 823 040a 08       		.byte	0x8
 824 040b 0B       		.byte	0xb
 825 040c 39       		.byte	0x39
 826 040d 26040000 		.4byte	0x426
 827 0411 11       		.uleb128 0x11
 828 0412 FF010000 		.4byte	.LASF66
 829 0416 0B       		.byte	0xb
 830 0417 3A       		.byte	0x3a
 831 0418 94020000 		.4byte	0x294
 832 041c 13       		.uleb128 0x13
 833 041d 6800     		.ascii	"h\000"
 834 041f 0B       		.byte	0xb
 835 0420 41       		.byte	0x41
 836 0421 32040000 		.4byte	0x432
 837 0425 00       		.byte	0
 838 0426 09       		.uleb128 0x9
 839 0427 04       		.byte	0x4
 840 0428 05040000 		.4byte	0x405
 841 042c 09       		.uleb128 0x9
 842 042d 04       		.byte	0x4
 843 042e AA030000 		.4byte	0x3aa
 844 0432 08       		.uleb128 0x8
 845 0433 08       		.byte	0x8
 846 0434 0B       		.byte	0xb
 847 0435 3B       		.byte	0x3b
 848 0436 51040000 		.4byte	0x451
 849 043a 07       		.uleb128 0x7
 850 043b 7500     		.ascii	"u\000"
 851 043d 0B       		.byte	0xb
 852 043e 3F       		.byte	0x3f
 853 043f E6030000 		.4byte	0x3e6
ARM GAS  /tmp/ccjamcrO.s 			page 16


 854 0443 00       		.byte	0
 855 0444 06       		.uleb128 0x6
 856 0445 2C020000 		.4byte	.LASF67
 857 0449 0B       		.byte	0xb
 858 044a 40       		.byte	0x40
 859 044b 2C000000 		.4byte	0x2c
 860 044f 04       		.byte	0x4
 861 0450 00       		.byte	0
 862 0451 05       		.uleb128 0x5
 863 0452 EC030000 		.4byte	.LASF68
 864 0456 04       		.byte	0x4
 865 0457 0C       		.byte	0xc
 866 0458 2C       		.byte	0x2c
 867 0459 6A040000 		.4byte	0x46a
 868 045d 06       		.uleb128 0x6
 869 045e CF020000 		.4byte	.LASF69
 870 0462 0C       		.byte	0xc
 871 0463 2D       		.byte	0x2d
 872 0464 6A040000 		.4byte	0x46a
 873 0468 00       		.byte	0
 874 0469 00       		.byte	0
 875 046a 09       		.uleb128 0x9
 876 046b 04       		.byte	0x4
 877 046c 51040000 		.4byte	0x451
 878 0470 08       		.uleb128 0x8
 879 0471 0C       		.byte	0xc
 880 0472 0C       		.byte	0xc
 881 0473 34       		.byte	0x34
 882 0474 9D040000 		.4byte	0x49d
 883 0478 06       		.uleb128 0x6
 884 0479 B5010000 		.4byte	.LASF70
 885 047d 0C       		.byte	0xc
 886 047e 35       		.byte	0x35
 887 047f 6A040000 		.4byte	0x46a
 888 0483 00       		.byte	0
 889 0484 06       		.uleb128 0x6
 890 0485 A5020000 		.4byte	.LASF71
 891 0489 0C       		.byte	0xc
 892 048a 36       		.byte	0x36
 893 048b 2C000000 		.4byte	0x2c
 894 048f 04       		.byte	0x4
 895 0490 06       		.uleb128 0x6
 896 0491 EA010000 		.4byte	.LASF72
 897 0495 0C       		.byte	0xc
 898 0496 38       		.byte	0x38
 899 0497 8A030000 		.4byte	0x38a
 900 049b 08       		.byte	0x8
 901 049c 00       		.byte	0
 902 049d 03       		.uleb128 0x3
 903 049e 4F000000 		.4byte	.LASF73
 904 04a2 0C       		.byte	0xc
 905 04a3 3A       		.byte	0x3a
 906 04a4 70040000 		.4byte	0x470
 907 04a8 10       		.uleb128 0x10
 908 04a9 04       		.byte	0x4
 909 04aa 07       		.byte	0x7
 910 04ab 96       		.byte	0x96
ARM GAS  /tmp/ccjamcrO.s 			page 17


 911 04ac DD040000 		.4byte	0x4dd
 912 04b0 11       		.uleb128 0x11
 913 04b1 35000000 		.4byte	.LASF74
 914 04b5 07       		.byte	0x7
 915 04b6 9D       		.byte	0x9d
 916 04b7 0C010000 		.4byte	0x10c
 917 04bb 11       		.uleb128 0x11
 918 04bc 1B010000 		.4byte	.LASF75
 919 04c0 07       		.byte	0x7
 920 04c1 A4       		.byte	0xa4
 921 04c2 0C010000 		.4byte	0x10c
 922 04c6 11       		.uleb128 0x11
 923 04c7 1E040000 		.4byte	.LASF76
 924 04cb 07       		.byte	0x7
 925 04cc AB       		.byte	0xab
 926 04cd 92020000 		.4byte	0x292
 927 04d1 11       		.uleb128 0x11
 928 04d2 4C030000 		.4byte	.LASF77
 929 04d6 07       		.byte	0x7
 930 04d7 B2       		.byte	0xb2
 931 04d8 17010000 		.4byte	0x117
 932 04dc 00       		.byte	0
 933 04dd 09       		.uleb128 0x9
 934 04de 04       		.byte	0x4
 935 04df E3040000 		.4byte	0x4e3
 936 04e3 14       		.uleb128 0x14
 937 04e4 E8040000 		.4byte	0x4e8
 938 04e8 04       		.uleb128 0x4
 939 04e9 01       		.byte	0x1
 940 04ea 08       		.byte	0x8
 941 04eb 9B030000 		.4byte	.LASF78
 942 04ef 09       		.uleb128 0x9
 943 04f0 04       		.byte	0x4
 944 04f1 7F030000 		.4byte	0x37f
 945 04f5 03       		.uleb128 0x3
 946 04f6 00000000 		.4byte	.LASF79
 947 04fa 07       		.byte	0x7
 948 04fb E5       		.byte	0xe5
 949 04fc 00050000 		.4byte	0x500
 950 0500 09       		.uleb128 0x9
 951 0501 04       		.byte	0x4
 952 0502 06050000 		.4byte	0x506
 953 0506 0E       		.uleb128 0xe
 954 0507 0C010000 		.4byte	0x10c
 955 050b 15050000 		.4byte	0x515
 956 050f 0F       		.uleb128 0xf
 957 0510 92020000 		.4byte	0x292
 958 0514 00       		.byte	0
 959 0515 15       		.uleb128 0x15
 960 0516 70020000 		.4byte	.LASF81
 961 051a 01       		.byte	0x1
 962 051b 34       		.byte	0x34
 963 051c 56020000 		.4byte	0x256
 964 0520 00000000 		.4byte	.LFB7
 965 0524 14000000 		.4byte	.LFE7-.LFB7
 966 0528 01       		.uleb128 0x1
 967 0529 9C       		.byte	0x9c
ARM GAS  /tmp/ccjamcrO.s 			page 18


 968 052a 6D050000 		.4byte	0x56d
 969 052e 16       		.uleb128 0x16
 970 052f 747000   		.ascii	"tp\000"
 971 0532 01       		.byte	0x1
 972 0533 34       		.byte	0x34
 973 0534 56020000 		.4byte	0x256
 974 0538 01       		.uleb128 0x1
 975 0539 50       		.byte	0x50
 976 053a 17       		.uleb128 0x17
 977 053b 00000000 		.4byte	.LBB2
 978 053f 06000000 		.4byte	.LBE2-.LBB2
 979 0543 55050000 		.4byte	0x555
 980 0547 18       		.uleb128 0x18
 981 0548 746D7000 		.ascii	"tmp\000"
 982 054c 01       		.byte	0x1
 983 054d 36       		.byte	0x36
 984 054e B8000000 		.4byte	0xb8
 985 0552 01       		.uleb128 0x1
 986 0553 53       		.byte	0x53
 987 0554 00       		.byte	0
 988 0555 19       		.uleb128 0x19
 989 0556 0C000000 		.4byte	.LBB3
 990 055a 06000000 		.4byte	.LBE3-.LBB3
 991 055e 18       		.uleb128 0x18
 992 055f 746D7000 		.ascii	"tmp\000"
 993 0563 01       		.byte	0x1
 994 0564 39       		.byte	0x39
 995 0565 B8000000 		.4byte	0xb8
 996 0569 01       		.uleb128 0x1
 997 056a 53       		.byte	0x53
 998 056b 00       		.byte	0
 999 056c 00       		.byte	0
 1000 056d 1A       		.uleb128 0x1a
 1001 056e 62030000 		.4byte	.LASF96
 1002 0572 01       		.byte	0x1
 1003 0573 4A       		.byte	0x4a
 1004 0574 00000000 		.4byte	.LFB8
 1005 0578 4E000000 		.4byte	.LFE8-.LFB8
 1006 057c 01       		.uleb128 0x1
 1007 057d 9C       		.byte	0x9c
 1008 057e FC050000 		.4byte	0x5fc
 1009 0582 1B       		.uleb128 0x1b
 1010 0583 747000   		.ascii	"tp\000"
 1011 0586 01       		.byte	0x1
 1012 0587 4A       		.byte	0x4a
 1013 0588 56020000 		.4byte	0x256
 1014 058c 00000000 		.4byte	.LLST0
 1015 0590 1C       		.uleb128 0x1c
 1016 0591 DF020000 		.4byte	.LASF80
 1017 0595 01       		.byte	0x1
 1018 0596 4B       		.byte	0x4b
 1019 0597 EB000000 		.4byte	0xeb
 1020 059b 45000000 		.4byte	.LLST1
 1021 059f 17       		.uleb128 0x17
 1022 05a0 02000000 		.4byte	.LBB4
 1023 05a4 06000000 		.4byte	.LBE4-.LBB4
 1024 05a8 BA050000 		.4byte	0x5ba
ARM GAS  /tmp/ccjamcrO.s 			page 19


 1025 05ac 18       		.uleb128 0x18
 1026 05ad 746D7000 		.ascii	"tmp\000"
 1027 05b1 01       		.byte	0x1
 1028 05b2 4D       		.byte	0x4d
 1029 05b3 B8000000 		.4byte	0xb8
 1030 05b7 01       		.uleb128 0x1
 1031 05b8 53       		.byte	0x53
 1032 05b9 00       		.byte	0
 1033 05ba 17       		.uleb128 0x17
 1034 05bb 10000000 		.4byte	.LBB5
 1035 05bf 06000000 		.4byte	.LBE5-.LBB5
 1036 05c3 D5050000 		.4byte	0x5d5
 1037 05c7 18       		.uleb128 0x18
 1038 05c8 746D7000 		.ascii	"tmp\000"
 1039 05cc 01       		.byte	0x1
 1040 05cd 50       		.byte	0x50
 1041 05ce B8000000 		.4byte	0xb8
 1042 05d2 01       		.uleb128 0x1
 1043 05d3 53       		.byte	0x53
 1044 05d4 00       		.byte	0
 1045 05d5 1D       		.uleb128 0x1d
 1046 05d6 3E000000 		.4byte	.LVL4
 1047 05da 01080000 		.4byte	0x801
 1048 05de EA050000 		.4byte	0x5ea
 1049 05e2 1E       		.uleb128 0x1e
 1050 05e3 01       		.uleb128 0x1
 1051 05e4 50       		.byte	0x50
 1052 05e5 03       		.uleb128 0x3
 1053 05e6 F3       		.byte	0xf3
 1054 05e7 01       		.uleb128 0x1
 1055 05e8 50       		.byte	0x50
 1056 05e9 00       		.byte	0
 1057 05ea 1F       		.uleb128 0x1f
 1058 05eb 4E000000 		.4byte	.LVL7
 1059 05ef 12080000 		.4byte	0x812
 1060 05f3 1E       		.uleb128 0x1e
 1061 05f4 01       		.uleb128 0x1
 1062 05f5 51       		.byte	0x51
 1063 05f6 03       		.uleb128 0x3
 1064 05f7 F3       		.byte	0xf3
 1065 05f8 01       		.uleb128 0x1
 1066 05f9 50       		.byte	0x50
 1067 05fa 00       		.byte	0
 1068 05fb 00       		.byte	0
 1069 05fc 15       		.uleb128 0x15
 1070 05fd 98010000 		.4byte	.LASF82
 1071 0601 01       		.byte	0x1
 1072 0602 82       		.byte	0x82
 1073 0603 56020000 		.4byte	0x256
 1074 0607 00000000 		.4byte	.LFB9
 1075 060b 3C000000 		.4byte	.LFE9-.LFB9
 1076 060f 01       		.uleb128 0x1
 1077 0610 9C       		.byte	0x9c
 1078 0611 0A070000 		.4byte	0x70a
 1079 0615 20       		.uleb128 0x20
 1080 0616 2B010000 		.4byte	.LASF83
 1081 061a 01       		.byte	0x1
ARM GAS  /tmp/ccjamcrO.s 			page 20


 1082 061b 82       		.byte	0x82
 1083 061c 2C040000 		.4byte	0x42c
 1084 0620 63000000 		.4byte	.LLST2
 1085 0624 20       		.uleb128 0x20
 1086 0625 2C020000 		.4byte	.LASF67
 1087 0629 01       		.byte	0x1
 1088 062a 82       		.byte	0x82
 1089 062b 2C000000 		.4byte	0x2c
 1090 062f 84000000 		.4byte	.LLST3
 1091 0633 20       		.uleb128 0x20
 1092 0634 B4020000 		.4byte	.LASF84
 1093 0638 01       		.byte	0x1
 1094 0639 83       		.byte	0x83
 1095 063a 01010000 		.4byte	0x101
 1096 063e A2000000 		.4byte	.LLST4
 1097 0642 1B       		.uleb128 0x1b
 1098 0643 706600   		.ascii	"pf\000"
 1099 0646 01       		.byte	0x1
 1100 0647 83       		.byte	0x83
 1101 0648 F5040000 		.4byte	0x4f5
 1102 064c C0000000 		.4byte	.LLST5
 1103 0650 16       		.uleb128 0x16
 1104 0651 61726700 		.ascii	"arg\000"
 1105 0655 01       		.byte	0x1
 1106 0656 83       		.byte	0x83
 1107 0657 92020000 		.4byte	0x292
 1108 065b 02       		.uleb128 0x2
 1109 065c 91       		.byte	0x91
 1110 065d 00       		.sleb128 0
 1111 065e 21       		.uleb128 0x21
 1112 065f 77737000 		.ascii	"wsp\000"
 1113 0663 01       		.byte	0x1
 1114 0664 84       		.byte	0x84
 1115 0665 92020000 		.4byte	0x292
 1116 0669 EC000000 		.4byte	.LLST6
 1117 066d 21       		.uleb128 0x21
 1118 066e 747000   		.ascii	"tp\000"
 1119 0671 01       		.byte	0x1
 1120 0672 85       		.byte	0x85
 1121 0673 56020000 		.4byte	0x256
 1122 0677 FF000000 		.4byte	.LLST7
 1123 067b 17       		.uleb128 0x17
 1124 067c 10000000 		.4byte	.LBB6
 1125 0680 06000000 		.4byte	.LBE6-.LBB6
 1126 0684 96060000 		.4byte	0x696
 1127 0688 18       		.uleb128 0x18
 1128 0689 746D7000 		.ascii	"tmp\000"
 1129 068d 01       		.byte	0x1
 1130 068e 94       		.byte	0x94
 1131 068f B8000000 		.4byte	0xb8
 1132 0693 01       		.uleb128 0x1
 1133 0694 53       		.byte	0x53
 1134 0695 00       		.byte	0
 1135 0696 17       		.uleb128 0x17
 1136 0697 30000000 		.4byte	.LBB7
 1137 069b 06000000 		.4byte	.LBE7-.LBB7
 1138 069f B1060000 		.4byte	0x6b1
ARM GAS  /tmp/ccjamcrO.s 			page 21


 1139 06a3 18       		.uleb128 0x18
 1140 06a4 746D7000 		.ascii	"tmp\000"
 1141 06a8 01       		.byte	0x1
 1142 06a9 98       		.byte	0x98
 1143 06aa B8000000 		.4byte	0xb8
 1144 06ae 01       		.uleb128 0x1
 1145 06af 53       		.byte	0x53
 1146 06b0 00       		.byte	0
 1147 06b1 22       		.uleb128 0x22
 1148 06b2 0E000000 		.4byte	.LVL9
 1149 06b6 28080000 		.4byte	0x828
 1150 06ba CC060000 		.4byte	0x6cc
 1151 06be 1E       		.uleb128 0x1e
 1152 06bf 01       		.uleb128 0x1
 1153 06c0 51       		.byte	0x51
 1154 06c1 02       		.uleb128 0x2
 1155 06c2 75       		.byte	0x75
 1156 06c3 00       		.sleb128 0
 1157 06c4 1E       		.uleb128 0x1e
 1158 06c5 01       		.uleb128 0x1
 1159 06c6 50       		.byte	0x50
 1160 06c7 03       		.uleb128 0x3
 1161 06c8 F3       		.byte	0xf3
 1162 06c9 01       		.uleb128 0x1
 1163 06ca 50       		.byte	0x50
 1164 06cb 00       		.byte	0
 1165 06cc 22       		.uleb128 0x22
 1166 06cd 24000000 		.4byte	.LVL10
 1167 06d1 42080000 		.4byte	0x842
 1168 06d5 F4060000 		.4byte	0x6f4
 1169 06d9 1E       		.uleb128 0x1e
 1170 06da 01       		.uleb128 0x1
 1171 06db 53       		.byte	0x53
 1172 06dc 02       		.uleb128 0x2
 1173 06dd 74       		.byte	0x74
 1174 06de 00       		.sleb128 0
 1175 06df 1E       		.uleb128 0x1e
 1176 06e0 01       		.uleb128 0x1
 1177 06e1 52       		.byte	0x52
 1178 06e2 02       		.uleb128 0x2
 1179 06e3 76       		.byte	0x76
 1180 06e4 00       		.sleb128 0
 1181 06e5 1E       		.uleb128 0x1e
 1182 06e6 01       		.uleb128 0x1
 1183 06e7 51       		.byte	0x51
 1184 06e8 02       		.uleb128 0x2
 1185 06e9 75       		.byte	0x75
 1186 06ea 00       		.sleb128 0
 1187 06eb 1E       		.uleb128 0x1e
 1188 06ec 02       		.uleb128 0x2
 1189 06ed 7D       		.byte	0x7d
 1190 06ee 00       		.sleb128 0
 1191 06ef 03       		.uleb128 0x3
 1192 06f0 91       		.byte	0x91
 1193 06f1 00       		.sleb128 0
 1194 06f2 06       		.byte	0x6
 1195 06f3 00       		.byte	0
ARM GAS  /tmp/ccjamcrO.s 			page 22


 1196 06f4 23       		.uleb128 0x23
 1197 06f5 30000000 		.4byte	.LVL12
 1198 06f9 6C080000 		.4byte	0x86c
 1199 06fd 1E       		.uleb128 0x1e
 1200 06fe 01       		.uleb128 0x1
 1201 06ff 51       		.byte	0x51
 1202 0700 01       		.uleb128 0x1
 1203 0701 30       		.byte	0x30
 1204 0702 1E       		.uleb128 0x1e
 1205 0703 01       		.uleb128 0x1
 1206 0704 50       		.byte	0x50
 1207 0705 02       		.uleb128 0x2
 1208 0706 74       		.byte	0x74
 1209 0707 00       		.sleb128 0
 1210 0708 00       		.byte	0
 1211 0709 00       		.byte	0
 1212 070a 15       		.uleb128 0x15
 1213 070b C5010000 		.4byte	.LASF85
 1214 070f 01       		.byte	0x1
 1215 0710 B3       		.byte	0xb3
 1216 0711 56020000 		.4byte	0x256
 1217 0715 00000000 		.4byte	.LFB10
 1218 0719 3E000000 		.4byte	.LFE10-.LFB10
 1219 071d 01       		.uleb128 0x1
 1220 071e 9C       		.byte	0x9c
 1221 071f FB070000 		.4byte	0x7fb
 1222 0723 1B       		.uleb128 0x1b
 1223 0724 6D7000   		.ascii	"mp\000"
 1224 0727 01       		.byte	0x1
 1225 0728 B3       		.byte	0xb3
 1226 0729 FB070000 		.4byte	0x7fb
 1227 072d 1D010000 		.4byte	.LLST8
 1228 0731 20       		.uleb128 0x20
 1229 0732 B4020000 		.4byte	.LASF84
 1230 0736 01       		.byte	0x1
 1231 0737 B3       		.byte	0xb3
 1232 0738 01010000 		.4byte	0x101
 1233 073c 3B010000 		.4byte	.LLST9
 1234 0740 1B       		.uleb128 0x1b
 1235 0741 706600   		.ascii	"pf\000"
 1236 0744 01       		.byte	0x1
 1237 0745 B4       		.byte	0xb4
 1238 0746 F5040000 		.4byte	0x4f5
 1239 074a 59010000 		.4byte	.LLST10
 1240 074e 1B       		.uleb128 0x1b
 1241 074f 61726700 		.ascii	"arg\000"
 1242 0753 01       		.byte	0x1
 1243 0754 B4       		.byte	0xb4
 1244 0755 92020000 		.4byte	0x292
 1245 0759 85010000 		.4byte	.LLST11
 1246 075d 21       		.uleb128 0x21
 1247 075e 77737000 		.ascii	"wsp\000"
 1248 0762 01       		.byte	0x1
 1249 0763 B5       		.byte	0xb5
 1250 0764 92020000 		.4byte	0x292
 1251 0768 A3010000 		.4byte	.LLST12
 1252 076c 21       		.uleb128 0x21
ARM GAS  /tmp/ccjamcrO.s 			page 23


 1253 076d 747000   		.ascii	"tp\000"
 1254 0770 01       		.byte	0x1
 1255 0771 B6       		.byte	0xb6
 1256 0772 56020000 		.4byte	0x256
 1257 0776 B6010000 		.4byte	.LLST13
 1258 077a 17       		.uleb128 0x17
 1259 077b 12000000 		.4byte	.LBB8
 1260 077f 06000000 		.4byte	.LBE8-.LBB8
 1261 0783 95070000 		.4byte	0x795
 1262 0787 18       		.uleb128 0x18
 1263 0788 746D7000 		.ascii	"tmp\000"
 1264 078c 01       		.byte	0x1
 1265 078d C7       		.byte	0xc7
 1266 078e B8000000 		.4byte	0xb8
 1267 0792 01       		.uleb128 0x1
 1268 0793 53       		.byte	0x53
 1269 0794 00       		.byte	0
 1270 0795 17       		.uleb128 0x17
 1271 0796 32000000 		.4byte	.LBB9
 1272 079a 06000000 		.4byte	.LBE9-.LBB9
 1273 079e B0070000 		.4byte	0x7b0
 1274 07a2 18       		.uleb128 0x18
 1275 07a3 746D7000 		.ascii	"tmp\000"
 1276 07a7 01       		.byte	0x1
 1277 07a8 CC       		.byte	0xcc
 1278 07a9 B8000000 		.4byte	0xb8
 1279 07ad 01       		.uleb128 0x1
 1280 07ae 53       		.byte	0x53
 1281 07af 00       		.byte	0
 1282 07b0 22       		.uleb128 0x22
 1283 07b1 10000000 		.4byte	.LVL15
 1284 07b5 82080000 		.4byte	0x882
 1285 07b9 C4070000 		.4byte	0x7c4
 1286 07bd 1E       		.uleb128 0x1e
 1287 07be 01       		.uleb128 0x1
 1288 07bf 50       		.byte	0x50
 1289 07c0 02       		.uleb128 0x2
 1290 07c1 75       		.byte	0x75
 1291 07c2 00       		.sleb128 0
 1292 07c3 00       		.byte	0
 1293 07c4 22       		.uleb128 0x22
 1294 07c5 24000000 		.4byte	.LVL16
 1295 07c9 42080000 		.4byte	0x842
 1296 07cd E5070000 		.4byte	0x7e5
 1297 07d1 1E       		.uleb128 0x1e
 1298 07d2 01       		.uleb128 0x1
 1299 07d3 53       		.byte	0x53
 1300 07d4 02       		.uleb128 0x2
 1301 07d5 74       		.byte	0x74
 1302 07d6 00       		.sleb128 0
 1303 07d7 1E       		.uleb128 0x1e
 1304 07d8 01       		.uleb128 0x1
 1305 07d9 52       		.byte	0x52
 1306 07da 02       		.uleb128 0x2
 1307 07db 77       		.byte	0x77
 1308 07dc 00       		.sleb128 0
 1309 07dd 1E       		.uleb128 0x1e
ARM GAS  /tmp/ccjamcrO.s 			page 24


 1310 07de 02       		.uleb128 0x2
 1311 07df 7D       		.byte	0x7d
 1312 07e0 00       		.sleb128 0
 1313 07e1 02       		.uleb128 0x2
 1314 07e2 76       		.byte	0x76
 1315 07e3 00       		.sleb128 0
 1316 07e4 00       		.byte	0
 1317 07e5 23       		.uleb128 0x23
 1318 07e6 32000000 		.4byte	.LVL18
 1319 07ea 6C080000 		.4byte	0x86c
 1320 07ee 1E       		.uleb128 0x1e
 1321 07ef 01       		.uleb128 0x1
 1322 07f0 51       		.byte	0x51
 1323 07f1 01       		.uleb128 0x1
 1324 07f2 30       		.byte	0x30
 1325 07f3 1E       		.uleb128 0x1e
 1326 07f4 01       		.uleb128 0x1
 1327 07f5 50       		.byte	0x50
 1328 07f6 02       		.uleb128 0x2
 1329 07f7 74       		.byte	0x74
 1330 07f8 00       		.sleb128 0
 1331 07f9 00       		.byte	0
 1332 07fa 00       		.byte	0
 1333 07fb 09       		.uleb128 0x9
 1334 07fc 04       		.byte	0x4
 1335 07fd 9D040000 		.4byte	0x49d
 1336 0801 24       		.uleb128 0x24
 1337 0802 6D010000 		.4byte	.LASF86
 1338 0806 0B       		.byte	0xb
 1339 0807 5A       		.byte	0x5a
 1340 0808 12080000 		.4byte	0x812
 1341 080c 0F       		.uleb128 0xf
 1342 080d 92020000 		.4byte	0x292
 1343 0811 00       		.byte	0
 1344 0812 24       		.uleb128 0x24
 1345 0813 13040000 		.4byte	.LASF87
 1346 0817 0C       		.byte	0xc
 1347 0818 84       		.byte	0x84
 1348 0819 28080000 		.4byte	0x828
 1349 081d 0F       		.uleb128 0xf
 1350 081e FB070000 		.4byte	0x7fb
 1351 0822 0F       		.uleb128 0xf
 1352 0823 92020000 		.4byte	0x292
 1353 0827 00       		.byte	0
 1354 0828 25       		.uleb128 0x25
 1355 0829 76030000 		.4byte	.LASF88
 1356 082d 0B       		.byte	0xb
 1357 082e 59       		.byte	0x59
 1358 082f 92020000 		.4byte	0x292
 1359 0833 42080000 		.4byte	0x842
 1360 0837 0F       		.uleb128 0xf
 1361 0838 2C040000 		.4byte	0x42c
 1362 083c 0F       		.uleb128 0xf
 1363 083d 2C000000 		.4byte	0x2c
 1364 0841 00       		.byte	0
 1365 0842 26       		.uleb128 0x26
 1366 0843 82010000 		.4byte	.LASF89
ARM GAS  /tmp/ccjamcrO.s 			page 25


 1367 0847 07       		.byte	0x7
 1368 0848 6E01     		.2byte	0x16e
 1369 084a 56020000 		.4byte	0x256
 1370 084e 6C080000 		.4byte	0x86c
 1371 0852 0F       		.uleb128 0xf
 1372 0853 92020000 		.4byte	0x292
 1373 0857 0F       		.uleb128 0xf
 1374 0858 2C000000 		.4byte	0x2c
 1375 085c 0F       		.uleb128 0xf
 1376 085d 01010000 		.4byte	0x101
 1377 0861 0F       		.uleb128 0xf
 1378 0862 F5040000 		.4byte	0x4f5
 1379 0866 0F       		.uleb128 0xf
 1380 0867 92020000 		.4byte	0x292
 1381 086b 00       		.byte	0
 1382 086c 24       		.uleb128 0x24
 1383 086d DF030000 		.4byte	.LASF90
 1384 0871 0D       		.byte	0xd
 1385 0872 99       		.byte	0x99
 1386 0873 82080000 		.4byte	0x882
 1387 0877 0F       		.uleb128 0xf
 1388 0878 56020000 		.4byte	0x256
 1389 087c 0F       		.uleb128 0xf
 1390 087d 0C010000 		.4byte	0x10c
 1391 0881 00       		.byte	0
 1392 0882 27       		.uleb128 0x27
 1393 0883 07040000 		.4byte	.LASF91
 1394 0887 0C       		.byte	0xc
 1395 0888 82       		.byte	0x82
 1396 0889 92020000 		.4byte	0x292
 1397 088d 0F       		.uleb128 0xf
 1398 088e FB070000 		.4byte	0x7fb
 1399 0892 00       		.byte	0
 1400 0893 00       		.byte	0
 1401              		.section	.debug_abbrev,"",%progbits
 1402              	.Ldebug_abbrev0:
 1403 0000 01       		.uleb128 0x1
 1404 0001 11       		.uleb128 0x11
 1405 0002 01       		.byte	0x1
 1406 0003 25       		.uleb128 0x25
 1407 0004 0E       		.uleb128 0xe
 1408 0005 13       		.uleb128 0x13
 1409 0006 0B       		.uleb128 0xb
 1410 0007 03       		.uleb128 0x3
 1411 0008 0E       		.uleb128 0xe
 1412 0009 1B       		.uleb128 0x1b
 1413 000a 0E       		.uleb128 0xe
 1414 000b 55       		.uleb128 0x55
 1415 000c 17       		.uleb128 0x17
 1416 000d 11       		.uleb128 0x11
 1417 000e 01       		.uleb128 0x1
 1418 000f 10       		.uleb128 0x10
 1419 0010 17       		.uleb128 0x17
 1420 0011 00       		.byte	0
 1421 0012 00       		.byte	0
 1422 0013 02       		.uleb128 0x2
 1423 0014 24       		.uleb128 0x24
ARM GAS  /tmp/ccjamcrO.s 			page 26


 1424 0015 00       		.byte	0
 1425 0016 0B       		.uleb128 0xb
 1426 0017 0B       		.uleb128 0xb
 1427 0018 3E       		.uleb128 0x3e
 1428 0019 0B       		.uleb128 0xb
 1429 001a 03       		.uleb128 0x3
 1430 001b 08       		.uleb128 0x8
 1431 001c 00       		.byte	0
 1432 001d 00       		.byte	0
 1433 001e 03       		.uleb128 0x3
 1434 001f 16       		.uleb128 0x16
 1435 0020 00       		.byte	0
 1436 0021 03       		.uleb128 0x3
 1437 0022 0E       		.uleb128 0xe
 1438 0023 3A       		.uleb128 0x3a
 1439 0024 0B       		.uleb128 0xb
 1440 0025 3B       		.uleb128 0x3b
 1441 0026 0B       		.uleb128 0xb
 1442 0027 49       		.uleb128 0x49
 1443 0028 13       		.uleb128 0x13
 1444 0029 00       		.byte	0
 1445 002a 00       		.byte	0
 1446 002b 04       		.uleb128 0x4
 1447 002c 24       		.uleb128 0x24
 1448 002d 00       		.byte	0
 1449 002e 0B       		.uleb128 0xb
 1450 002f 0B       		.uleb128 0xb
 1451 0030 3E       		.uleb128 0x3e
 1452 0031 0B       		.uleb128 0xb
 1453 0032 03       		.uleb128 0x3
 1454 0033 0E       		.uleb128 0xe
 1455 0034 00       		.byte	0
 1456 0035 00       		.byte	0
 1457 0036 05       		.uleb128 0x5
 1458 0037 13       		.uleb128 0x13
 1459 0038 01       		.byte	0x1
 1460 0039 03       		.uleb128 0x3
 1461 003a 0E       		.uleb128 0xe
 1462 003b 0B       		.uleb128 0xb
 1463 003c 0B       		.uleb128 0xb
 1464 003d 3A       		.uleb128 0x3a
 1465 003e 0B       		.uleb128 0xb
 1466 003f 3B       		.uleb128 0x3b
 1467 0040 0B       		.uleb128 0xb
 1468 0041 01       		.uleb128 0x1
 1469 0042 13       		.uleb128 0x13
 1470 0043 00       		.byte	0
 1471 0044 00       		.byte	0
 1472 0045 06       		.uleb128 0x6
 1473 0046 0D       		.uleb128 0xd
 1474 0047 00       		.byte	0
 1475 0048 03       		.uleb128 0x3
 1476 0049 0E       		.uleb128 0xe
 1477 004a 3A       		.uleb128 0x3a
 1478 004b 0B       		.uleb128 0xb
 1479 004c 3B       		.uleb128 0x3b
 1480 004d 0B       		.uleb128 0xb
ARM GAS  /tmp/ccjamcrO.s 			page 27


 1481 004e 49       		.uleb128 0x49
 1482 004f 13       		.uleb128 0x13
 1483 0050 38       		.uleb128 0x38
 1484 0051 0B       		.uleb128 0xb
 1485 0052 00       		.byte	0
 1486 0053 00       		.byte	0
 1487 0054 07       		.uleb128 0x7
 1488 0055 0D       		.uleb128 0xd
 1489 0056 00       		.byte	0
 1490 0057 03       		.uleb128 0x3
 1491 0058 08       		.uleb128 0x8
 1492 0059 3A       		.uleb128 0x3a
 1493 005a 0B       		.uleb128 0xb
 1494 005b 3B       		.uleb128 0x3b
 1495 005c 0B       		.uleb128 0xb
 1496 005d 49       		.uleb128 0x49
 1497 005e 13       		.uleb128 0x13
 1498 005f 38       		.uleb128 0x38
 1499 0060 0B       		.uleb128 0xb
 1500 0061 00       		.byte	0
 1501 0062 00       		.byte	0
 1502 0063 08       		.uleb128 0x8
 1503 0064 13       		.uleb128 0x13
 1504 0065 01       		.byte	0x1
 1505 0066 0B       		.uleb128 0xb
 1506 0067 0B       		.uleb128 0xb
 1507 0068 3A       		.uleb128 0x3a
 1508 0069 0B       		.uleb128 0xb
 1509 006a 3B       		.uleb128 0x3b
 1510 006b 0B       		.uleb128 0xb
 1511 006c 01       		.uleb128 0x1
 1512 006d 13       		.uleb128 0x13
 1513 006e 00       		.byte	0
 1514 006f 00       		.byte	0
 1515 0070 09       		.uleb128 0x9
 1516 0071 0F       		.uleb128 0xf
 1517 0072 00       		.byte	0
 1518 0073 0B       		.uleb128 0xb
 1519 0074 0B       		.uleb128 0xb
 1520 0075 49       		.uleb128 0x49
 1521 0076 13       		.uleb128 0x13
 1522 0077 00       		.byte	0
 1523 0078 00       		.byte	0
 1524 0079 0A       		.uleb128 0xa
 1525 007a 0F       		.uleb128 0xf
 1526 007b 00       		.byte	0
 1527 007c 0B       		.uleb128 0xb
 1528 007d 0B       		.uleb128 0xb
 1529 007e 00       		.byte	0
 1530 007f 00       		.byte	0
 1531 0080 0B       		.uleb128 0xb
 1532 0081 13       		.uleb128 0x13
 1533 0082 01       		.byte	0x1
 1534 0083 03       		.uleb128 0x3
 1535 0084 0E       		.uleb128 0xe
 1536 0085 0B       		.uleb128 0xb
 1537 0086 0B       		.uleb128 0xb
ARM GAS  /tmp/ccjamcrO.s 			page 28


 1538 0087 3A       		.uleb128 0x3a
 1539 0088 0B       		.uleb128 0xb
 1540 0089 3B       		.uleb128 0x3b
 1541 008a 05       		.uleb128 0x5
 1542 008b 01       		.uleb128 0x1
 1543 008c 13       		.uleb128 0x13
 1544 008d 00       		.byte	0
 1545 008e 00       		.byte	0
 1546 008f 0C       		.uleb128 0xc
 1547 0090 0D       		.uleb128 0xd
 1548 0091 00       		.byte	0
 1549 0092 03       		.uleb128 0x3
 1550 0093 08       		.uleb128 0x8
 1551 0094 3A       		.uleb128 0x3a
 1552 0095 0B       		.uleb128 0xb
 1553 0096 3B       		.uleb128 0x3b
 1554 0097 05       		.uleb128 0x5
 1555 0098 49       		.uleb128 0x49
 1556 0099 13       		.uleb128 0x13
 1557 009a 38       		.uleb128 0x38
 1558 009b 0B       		.uleb128 0xb
 1559 009c 00       		.byte	0
 1560 009d 00       		.byte	0
 1561 009e 0D       		.uleb128 0xd
 1562 009f 35       		.uleb128 0x35
 1563 00a0 00       		.byte	0
 1564 00a1 49       		.uleb128 0x49
 1565 00a2 13       		.uleb128 0x13
 1566 00a3 00       		.byte	0
 1567 00a4 00       		.byte	0
 1568 00a5 0E       		.uleb128 0xe
 1569 00a6 15       		.uleb128 0x15
 1570 00a7 01       		.byte	0x1
 1571 00a8 27       		.uleb128 0x27
 1572 00a9 19       		.uleb128 0x19
 1573 00aa 49       		.uleb128 0x49
 1574 00ab 13       		.uleb128 0x13
 1575 00ac 01       		.uleb128 0x1
 1576 00ad 13       		.uleb128 0x13
 1577 00ae 00       		.byte	0
 1578 00af 00       		.byte	0
 1579 00b0 0F       		.uleb128 0xf
 1580 00b1 05       		.uleb128 0x5
 1581 00b2 00       		.byte	0
 1582 00b3 49       		.uleb128 0x49
 1583 00b4 13       		.uleb128 0x13
 1584 00b5 00       		.byte	0
 1585 00b6 00       		.byte	0
 1586 00b7 10       		.uleb128 0x10
 1587 00b8 17       		.uleb128 0x17
 1588 00b9 01       		.byte	0x1
 1589 00ba 0B       		.uleb128 0xb
 1590 00bb 0B       		.uleb128 0xb
 1591 00bc 3A       		.uleb128 0x3a
 1592 00bd 0B       		.uleb128 0xb
 1593 00be 3B       		.uleb128 0x3b
 1594 00bf 0B       		.uleb128 0xb
ARM GAS  /tmp/ccjamcrO.s 			page 29


 1595 00c0 01       		.uleb128 0x1
 1596 00c1 13       		.uleb128 0x13
 1597 00c2 00       		.byte	0
 1598 00c3 00       		.byte	0
 1599 00c4 11       		.uleb128 0x11
 1600 00c5 0D       		.uleb128 0xd
 1601 00c6 00       		.byte	0
 1602 00c7 03       		.uleb128 0x3
 1603 00c8 0E       		.uleb128 0xe
 1604 00c9 3A       		.uleb128 0x3a
 1605 00ca 0B       		.uleb128 0xb
 1606 00cb 3B       		.uleb128 0x3b
 1607 00cc 0B       		.uleb128 0xb
 1608 00cd 49       		.uleb128 0x49
 1609 00ce 13       		.uleb128 0x13
 1610 00cf 00       		.byte	0
 1611 00d0 00       		.byte	0
 1612 00d1 12       		.uleb128 0x12
 1613 00d2 17       		.uleb128 0x17
 1614 00d3 01       		.byte	0x1
 1615 00d4 03       		.uleb128 0x3
 1616 00d5 0E       		.uleb128 0xe
 1617 00d6 0B       		.uleb128 0xb
 1618 00d7 0B       		.uleb128 0xb
 1619 00d8 3A       		.uleb128 0x3a
 1620 00d9 0B       		.uleb128 0xb
 1621 00da 3B       		.uleb128 0x3b
 1622 00db 0B       		.uleb128 0xb
 1623 00dc 01       		.uleb128 0x1
 1624 00dd 13       		.uleb128 0x13
 1625 00de 00       		.byte	0
 1626 00df 00       		.byte	0
 1627 00e0 13       		.uleb128 0x13
 1628 00e1 0D       		.uleb128 0xd
 1629 00e2 00       		.byte	0
 1630 00e3 03       		.uleb128 0x3
 1631 00e4 08       		.uleb128 0x8
 1632 00e5 3A       		.uleb128 0x3a
 1633 00e6 0B       		.uleb128 0xb
 1634 00e7 3B       		.uleb128 0x3b
 1635 00e8 0B       		.uleb128 0xb
 1636 00e9 49       		.uleb128 0x49
 1637 00ea 13       		.uleb128 0x13
 1638 00eb 00       		.byte	0
 1639 00ec 00       		.byte	0
 1640 00ed 14       		.uleb128 0x14
 1641 00ee 26       		.uleb128 0x26
 1642 00ef 00       		.byte	0
 1643 00f0 49       		.uleb128 0x49
 1644 00f1 13       		.uleb128 0x13
 1645 00f2 00       		.byte	0
 1646 00f3 00       		.byte	0
 1647 00f4 15       		.uleb128 0x15
 1648 00f5 2E       		.uleb128 0x2e
 1649 00f6 01       		.byte	0x1
 1650 00f7 3F       		.uleb128 0x3f
 1651 00f8 19       		.uleb128 0x19
ARM GAS  /tmp/ccjamcrO.s 			page 30


 1652 00f9 03       		.uleb128 0x3
 1653 00fa 0E       		.uleb128 0xe
 1654 00fb 3A       		.uleb128 0x3a
 1655 00fc 0B       		.uleb128 0xb
 1656 00fd 3B       		.uleb128 0x3b
 1657 00fe 0B       		.uleb128 0xb
 1658 00ff 27       		.uleb128 0x27
 1659 0100 19       		.uleb128 0x19
 1660 0101 49       		.uleb128 0x49
 1661 0102 13       		.uleb128 0x13
 1662 0103 11       		.uleb128 0x11
 1663 0104 01       		.uleb128 0x1
 1664 0105 12       		.uleb128 0x12
 1665 0106 06       		.uleb128 0x6
 1666 0107 40       		.uleb128 0x40
 1667 0108 18       		.uleb128 0x18
 1668 0109 9742     		.uleb128 0x2117
 1669 010b 19       		.uleb128 0x19
 1670 010c 01       		.uleb128 0x1
 1671 010d 13       		.uleb128 0x13
 1672 010e 00       		.byte	0
 1673 010f 00       		.byte	0
 1674 0110 16       		.uleb128 0x16
 1675 0111 05       		.uleb128 0x5
 1676 0112 00       		.byte	0
 1677 0113 03       		.uleb128 0x3
 1678 0114 08       		.uleb128 0x8
 1679 0115 3A       		.uleb128 0x3a
 1680 0116 0B       		.uleb128 0xb
 1681 0117 3B       		.uleb128 0x3b
 1682 0118 0B       		.uleb128 0xb
 1683 0119 49       		.uleb128 0x49
 1684 011a 13       		.uleb128 0x13
 1685 011b 02       		.uleb128 0x2
 1686 011c 18       		.uleb128 0x18
 1687 011d 00       		.byte	0
 1688 011e 00       		.byte	0
 1689 011f 17       		.uleb128 0x17
 1690 0120 0B       		.uleb128 0xb
 1691 0121 01       		.byte	0x1
 1692 0122 11       		.uleb128 0x11
 1693 0123 01       		.uleb128 0x1
 1694 0124 12       		.uleb128 0x12
 1695 0125 06       		.uleb128 0x6
 1696 0126 01       		.uleb128 0x1
 1697 0127 13       		.uleb128 0x13
 1698 0128 00       		.byte	0
 1699 0129 00       		.byte	0
 1700 012a 18       		.uleb128 0x18
 1701 012b 34       		.uleb128 0x34
 1702 012c 00       		.byte	0
 1703 012d 03       		.uleb128 0x3
 1704 012e 08       		.uleb128 0x8
 1705 012f 3A       		.uleb128 0x3a
 1706 0130 0B       		.uleb128 0xb
 1707 0131 3B       		.uleb128 0x3b
 1708 0132 0B       		.uleb128 0xb
ARM GAS  /tmp/ccjamcrO.s 			page 31


 1709 0133 49       		.uleb128 0x49
 1710 0134 13       		.uleb128 0x13
 1711 0135 02       		.uleb128 0x2
 1712 0136 18       		.uleb128 0x18
 1713 0137 00       		.byte	0
 1714 0138 00       		.byte	0
 1715 0139 19       		.uleb128 0x19
 1716 013a 0B       		.uleb128 0xb
 1717 013b 01       		.byte	0x1
 1718 013c 11       		.uleb128 0x11
 1719 013d 01       		.uleb128 0x1
 1720 013e 12       		.uleb128 0x12
 1721 013f 06       		.uleb128 0x6
 1722 0140 00       		.byte	0
 1723 0141 00       		.byte	0
 1724 0142 1A       		.uleb128 0x1a
 1725 0143 2E       		.uleb128 0x2e
 1726 0144 01       		.byte	0x1
 1727 0145 3F       		.uleb128 0x3f
 1728 0146 19       		.uleb128 0x19
 1729 0147 03       		.uleb128 0x3
 1730 0148 0E       		.uleb128 0xe
 1731 0149 3A       		.uleb128 0x3a
 1732 014a 0B       		.uleb128 0xb
 1733 014b 3B       		.uleb128 0x3b
 1734 014c 0B       		.uleb128 0xb
 1735 014d 27       		.uleb128 0x27
 1736 014e 19       		.uleb128 0x19
 1737 014f 11       		.uleb128 0x11
 1738 0150 01       		.uleb128 0x1
 1739 0151 12       		.uleb128 0x12
 1740 0152 06       		.uleb128 0x6
 1741 0153 40       		.uleb128 0x40
 1742 0154 18       		.uleb128 0x18
 1743 0155 9742     		.uleb128 0x2117
 1744 0157 19       		.uleb128 0x19
 1745 0158 01       		.uleb128 0x1
 1746 0159 13       		.uleb128 0x13
 1747 015a 00       		.byte	0
 1748 015b 00       		.byte	0
 1749 015c 1B       		.uleb128 0x1b
 1750 015d 05       		.uleb128 0x5
 1751 015e 00       		.byte	0
 1752 015f 03       		.uleb128 0x3
 1753 0160 08       		.uleb128 0x8
 1754 0161 3A       		.uleb128 0x3a
 1755 0162 0B       		.uleb128 0xb
 1756 0163 3B       		.uleb128 0x3b
 1757 0164 0B       		.uleb128 0xb
 1758 0165 49       		.uleb128 0x49
 1759 0166 13       		.uleb128 0x13
 1760 0167 02       		.uleb128 0x2
 1761 0168 17       		.uleb128 0x17
 1762 0169 00       		.byte	0
 1763 016a 00       		.byte	0
 1764 016b 1C       		.uleb128 0x1c
 1765 016c 34       		.uleb128 0x34
ARM GAS  /tmp/ccjamcrO.s 			page 32


 1766 016d 00       		.byte	0
 1767 016e 03       		.uleb128 0x3
 1768 016f 0E       		.uleb128 0xe
 1769 0170 3A       		.uleb128 0x3a
 1770 0171 0B       		.uleb128 0xb
 1771 0172 3B       		.uleb128 0x3b
 1772 0173 0B       		.uleb128 0xb
 1773 0174 49       		.uleb128 0x49
 1774 0175 13       		.uleb128 0x13
 1775 0176 02       		.uleb128 0x2
 1776 0177 17       		.uleb128 0x17
 1777 0178 00       		.byte	0
 1778 0179 00       		.byte	0
 1779 017a 1D       		.uleb128 0x1d
 1780 017b 898201   		.uleb128 0x4109
 1781 017e 01       		.byte	0x1
 1782 017f 11       		.uleb128 0x11
 1783 0180 01       		.uleb128 0x1
 1784 0181 9542     		.uleb128 0x2115
 1785 0183 19       		.uleb128 0x19
 1786 0184 31       		.uleb128 0x31
 1787 0185 13       		.uleb128 0x13
 1788 0186 01       		.uleb128 0x1
 1789 0187 13       		.uleb128 0x13
 1790 0188 00       		.byte	0
 1791 0189 00       		.byte	0
 1792 018a 1E       		.uleb128 0x1e
 1793 018b 8A8201   		.uleb128 0x410a
 1794 018e 00       		.byte	0
 1795 018f 02       		.uleb128 0x2
 1796 0190 18       		.uleb128 0x18
 1797 0191 9142     		.uleb128 0x2111
 1798 0193 18       		.uleb128 0x18
 1799 0194 00       		.byte	0
 1800 0195 00       		.byte	0
 1801 0196 1F       		.uleb128 0x1f
 1802 0197 898201   		.uleb128 0x4109
 1803 019a 01       		.byte	0x1
 1804 019b 11       		.uleb128 0x11
 1805 019c 01       		.uleb128 0x1
 1806 019d 9542     		.uleb128 0x2115
 1807 019f 19       		.uleb128 0x19
 1808 01a0 31       		.uleb128 0x31
 1809 01a1 13       		.uleb128 0x13
 1810 01a2 00       		.byte	0
 1811 01a3 00       		.byte	0
 1812 01a4 20       		.uleb128 0x20
 1813 01a5 05       		.uleb128 0x5
 1814 01a6 00       		.byte	0
 1815 01a7 03       		.uleb128 0x3
 1816 01a8 0E       		.uleb128 0xe
 1817 01a9 3A       		.uleb128 0x3a
 1818 01aa 0B       		.uleb128 0xb
 1819 01ab 3B       		.uleb128 0x3b
 1820 01ac 0B       		.uleb128 0xb
 1821 01ad 49       		.uleb128 0x49
 1822 01ae 13       		.uleb128 0x13
ARM GAS  /tmp/ccjamcrO.s 			page 33


 1823 01af 02       		.uleb128 0x2
 1824 01b0 17       		.uleb128 0x17
 1825 01b1 00       		.byte	0
 1826 01b2 00       		.byte	0
 1827 01b3 21       		.uleb128 0x21
 1828 01b4 34       		.uleb128 0x34
 1829 01b5 00       		.byte	0
 1830 01b6 03       		.uleb128 0x3
 1831 01b7 08       		.uleb128 0x8
 1832 01b8 3A       		.uleb128 0x3a
 1833 01b9 0B       		.uleb128 0xb
 1834 01ba 3B       		.uleb128 0x3b
 1835 01bb 0B       		.uleb128 0xb
 1836 01bc 49       		.uleb128 0x49
 1837 01bd 13       		.uleb128 0x13
 1838 01be 02       		.uleb128 0x2
 1839 01bf 17       		.uleb128 0x17
 1840 01c0 00       		.byte	0
 1841 01c1 00       		.byte	0
 1842 01c2 22       		.uleb128 0x22
 1843 01c3 898201   		.uleb128 0x4109
 1844 01c6 01       		.byte	0x1
 1845 01c7 11       		.uleb128 0x11
 1846 01c8 01       		.uleb128 0x1
 1847 01c9 31       		.uleb128 0x31
 1848 01ca 13       		.uleb128 0x13
 1849 01cb 01       		.uleb128 0x1
 1850 01cc 13       		.uleb128 0x13
 1851 01cd 00       		.byte	0
 1852 01ce 00       		.byte	0
 1853 01cf 23       		.uleb128 0x23
 1854 01d0 898201   		.uleb128 0x4109
 1855 01d3 01       		.byte	0x1
 1856 01d4 11       		.uleb128 0x11
 1857 01d5 01       		.uleb128 0x1
 1858 01d6 31       		.uleb128 0x31
 1859 01d7 13       		.uleb128 0x13
 1860 01d8 00       		.byte	0
 1861 01d9 00       		.byte	0
 1862 01da 24       		.uleb128 0x24
 1863 01db 2E       		.uleb128 0x2e
 1864 01dc 01       		.byte	0x1
 1865 01dd 3F       		.uleb128 0x3f
 1866 01de 19       		.uleb128 0x19
 1867 01df 03       		.uleb128 0x3
 1868 01e0 0E       		.uleb128 0xe
 1869 01e1 3A       		.uleb128 0x3a
 1870 01e2 0B       		.uleb128 0xb
 1871 01e3 3B       		.uleb128 0x3b
 1872 01e4 0B       		.uleb128 0xb
 1873 01e5 27       		.uleb128 0x27
 1874 01e6 19       		.uleb128 0x19
 1875 01e7 3C       		.uleb128 0x3c
 1876 01e8 19       		.uleb128 0x19
 1877 01e9 01       		.uleb128 0x1
 1878 01ea 13       		.uleb128 0x13
 1879 01eb 00       		.byte	0
ARM GAS  /tmp/ccjamcrO.s 			page 34


 1880 01ec 00       		.byte	0
 1881 01ed 25       		.uleb128 0x25
 1882 01ee 2E       		.uleb128 0x2e
 1883 01ef 01       		.byte	0x1
 1884 01f0 3F       		.uleb128 0x3f
 1885 01f1 19       		.uleb128 0x19
 1886 01f2 03       		.uleb128 0x3
 1887 01f3 0E       		.uleb128 0xe
 1888 01f4 3A       		.uleb128 0x3a
 1889 01f5 0B       		.uleb128 0xb
 1890 01f6 3B       		.uleb128 0x3b
 1891 01f7 0B       		.uleb128 0xb
 1892 01f8 27       		.uleb128 0x27
 1893 01f9 19       		.uleb128 0x19
 1894 01fa 49       		.uleb128 0x49
 1895 01fb 13       		.uleb128 0x13
 1896 01fc 3C       		.uleb128 0x3c
 1897 01fd 19       		.uleb128 0x19
 1898 01fe 01       		.uleb128 0x1
 1899 01ff 13       		.uleb128 0x13
 1900 0200 00       		.byte	0
 1901 0201 00       		.byte	0
 1902 0202 26       		.uleb128 0x26
 1903 0203 2E       		.uleb128 0x2e
 1904 0204 01       		.byte	0x1
 1905 0205 3F       		.uleb128 0x3f
 1906 0206 19       		.uleb128 0x19
 1907 0207 03       		.uleb128 0x3
 1908 0208 0E       		.uleb128 0xe
 1909 0209 3A       		.uleb128 0x3a
 1910 020a 0B       		.uleb128 0xb
 1911 020b 3B       		.uleb128 0x3b
 1912 020c 05       		.uleb128 0x5
 1913 020d 27       		.uleb128 0x27
 1914 020e 19       		.uleb128 0x19
 1915 020f 49       		.uleb128 0x49
 1916 0210 13       		.uleb128 0x13
 1917 0211 3C       		.uleb128 0x3c
 1918 0212 19       		.uleb128 0x19
 1919 0213 01       		.uleb128 0x1
 1920 0214 13       		.uleb128 0x13
 1921 0215 00       		.byte	0
 1922 0216 00       		.byte	0
 1923 0217 27       		.uleb128 0x27
 1924 0218 2E       		.uleb128 0x2e
 1925 0219 01       		.byte	0x1
 1926 021a 3F       		.uleb128 0x3f
 1927 021b 19       		.uleb128 0x19
 1928 021c 03       		.uleb128 0x3
 1929 021d 0E       		.uleb128 0xe
 1930 021e 3A       		.uleb128 0x3a
 1931 021f 0B       		.uleb128 0xb
 1932 0220 3B       		.uleb128 0x3b
 1933 0221 0B       		.uleb128 0xb
 1934 0222 27       		.uleb128 0x27
 1935 0223 19       		.uleb128 0x19
 1936 0224 49       		.uleb128 0x49
ARM GAS  /tmp/ccjamcrO.s 			page 35


 1937 0225 13       		.uleb128 0x13
 1938 0226 3C       		.uleb128 0x3c
 1939 0227 19       		.uleb128 0x19
 1940 0228 00       		.byte	0
 1941 0229 00       		.byte	0
 1942 022a 00       		.byte	0
 1943              		.section	.debug_loc,"",%progbits
 1944              	.Ldebug_loc0:
 1945              	.LLST0:
 1946 0000 00000000 		.4byte	.LVL1
 1947 0004 3D000000 		.4byte	.LVL4-1
 1948 0008 0100     		.2byte	0x1
 1949 000a 50       		.byte	0x50
 1950 000b 3D000000 		.4byte	.LVL4-1
 1951 000f 3E000000 		.4byte	.LVL4
 1952 0013 0400     		.2byte	0x4
 1953 0015 F3       		.byte	0xf3
 1954 0016 01       		.uleb128 0x1
 1955 0017 50       		.byte	0x50
 1956 0018 9F       		.byte	0x9f
 1957 0019 3E000000 		.4byte	.LVL4
 1958 001d 44000000 		.4byte	.LVL6
 1959 0021 0100     		.2byte	0x1
 1960 0023 50       		.byte	0x50
 1961 0024 44000000 		.4byte	.LVL6
 1962 0028 4D000000 		.4byte	.LVL7-1
 1963 002c 0100     		.2byte	0x1
 1964 002e 51       		.byte	0x51
 1965 002f 4D000000 		.4byte	.LVL7-1
 1966 0033 4E000000 		.4byte	.LFE8
 1967 0037 0400     		.2byte	0x4
 1968 0039 F3       		.byte	0xf3
 1969 003a 01       		.uleb128 0x1
 1970 003b 50       		.byte	0x50
 1971 003c 9F       		.byte	0x9f
 1972 003d 00000000 		.4byte	0
 1973 0041 00000000 		.4byte	0
 1974              	.LLST1:
 1975 0045 10000000 		.4byte	.LVL2
 1976 0049 32000000 		.4byte	.LVL3
 1977 004d 0100     		.2byte	0x1
 1978 004f 52       		.byte	0x52
 1979 0050 3E000000 		.4byte	.LVL4
 1980 0054 40000000 		.4byte	.LVL5
 1981 0058 0100     		.2byte	0x1
 1982 005a 52       		.byte	0x52
 1983 005b 00000000 		.4byte	0
 1984 005f 00000000 		.4byte	0
 1985              	.LLST2:
 1986 0063 00000000 		.4byte	.LVL8
 1987 0067 0D000000 		.4byte	.LVL9-1
 1988 006b 0100     		.2byte	0x1
 1989 006d 50       		.byte	0x50
 1990 006e 0D000000 		.4byte	.LVL9-1
 1991 0072 3C000000 		.4byte	.LFE9
 1992 0076 0400     		.2byte	0x4
 1993 0078 F3       		.byte	0xf3
ARM GAS  /tmp/ccjamcrO.s 			page 36


 1994 0079 01       		.uleb128 0x1
 1995 007a 50       		.byte	0x50
 1996 007b 9F       		.byte	0x9f
 1997 007c 00000000 		.4byte	0
 1998 0080 00000000 		.4byte	0
 1999              	.LLST3:
 2000 0084 00000000 		.4byte	.LVL8
 2001 0088 0D000000 		.4byte	.LVL9-1
 2002 008c 0100     		.2byte	0x1
 2003 008e 51       		.byte	0x51
 2004 008f 0D000000 		.4byte	.LVL9-1
 2005 0093 3C000000 		.4byte	.LFE9
 2006 0097 0100     		.2byte	0x1
 2007 0099 55       		.byte	0x55
 2008 009a 00000000 		.4byte	0
 2009 009e 00000000 		.4byte	0
 2010              	.LLST4:
 2011 00a2 00000000 		.4byte	.LVL8
 2012 00a6 0D000000 		.4byte	.LVL9-1
 2013 00aa 0100     		.2byte	0x1
 2014 00ac 52       		.byte	0x52
 2015 00ad 0D000000 		.4byte	.LVL9-1
 2016 00b1 3C000000 		.4byte	.LFE9
 2017 00b5 0100     		.2byte	0x1
 2018 00b7 56       		.byte	0x56
 2019 00b8 00000000 		.4byte	0
 2020 00bc 00000000 		.4byte	0
 2021              	.LLST5:
 2022 00c0 00000000 		.4byte	.LVL8
 2023 00c4 0D000000 		.4byte	.LVL9-1
 2024 00c8 0100     		.2byte	0x1
 2025 00ca 53       		.byte	0x53
 2026 00cb 0D000000 		.4byte	.LVL9-1
 2027 00cf 2C000000 		.4byte	.LVL11
 2028 00d3 0100     		.2byte	0x1
 2029 00d5 54       		.byte	0x54
 2030 00d6 2C000000 		.4byte	.LVL11
 2031 00da 3C000000 		.4byte	.LFE9
 2032 00de 0400     		.2byte	0x4
 2033 00e0 F3       		.byte	0xf3
 2034 00e1 01       		.uleb128 0x1
 2035 00e2 53       		.byte	0x53
 2036 00e3 9F       		.byte	0x9f
 2037 00e4 00000000 		.4byte	0
 2038 00e8 00000000 		.4byte	0
 2039              	.LLST6:
 2040 00ec 0E000000 		.4byte	.LVL9
 2041 00f0 23000000 		.4byte	.LVL10-1
 2042 00f4 0100     		.2byte	0x1
 2043 00f6 50       		.byte	0x50
 2044 00f7 00000000 		.4byte	0
 2045 00fb 00000000 		.4byte	0
 2046              	.LLST7:
 2047 00ff 2C000000 		.4byte	.LVL11
 2048 0103 2F000000 		.4byte	.LVL12-1
 2049 0107 0100     		.2byte	0x1
 2050 0109 50       		.byte	0x50
ARM GAS  /tmp/ccjamcrO.s 			page 37


 2051 010a 2F000000 		.4byte	.LVL12-1
 2052 010e 38000000 		.4byte	.LVL13
 2053 0112 0100     		.2byte	0x1
 2054 0114 54       		.byte	0x54
 2055 0115 00000000 		.4byte	0
 2056 0119 00000000 		.4byte	0
 2057              	.LLST8:
 2058 011d 00000000 		.4byte	.LVL14
 2059 0121 0F000000 		.4byte	.LVL15-1
 2060 0125 0100     		.2byte	0x1
 2061 0127 50       		.byte	0x50
 2062 0128 0F000000 		.4byte	.LVL15-1
 2063 012c 3E000000 		.4byte	.LFE10
 2064 0130 0100     		.2byte	0x1
 2065 0132 55       		.byte	0x55
 2066 0133 00000000 		.4byte	0
 2067 0137 00000000 		.4byte	0
 2068              	.LLST9:
 2069 013b 00000000 		.4byte	.LVL14
 2070 013f 0F000000 		.4byte	.LVL15-1
 2071 0143 0100     		.2byte	0x1
 2072 0145 51       		.byte	0x51
 2073 0146 0F000000 		.4byte	.LVL15-1
 2074 014a 3E000000 		.4byte	.LFE10
 2075 014e 0100     		.2byte	0x1
 2076 0150 57       		.byte	0x57
 2077 0151 00000000 		.4byte	0
 2078 0155 00000000 		.4byte	0
 2079              	.LLST10:
 2080 0159 00000000 		.4byte	.LVL14
 2081 015d 0F000000 		.4byte	.LVL15-1
 2082 0161 0100     		.2byte	0x1
 2083 0163 52       		.byte	0x52
 2084 0164 0F000000 		.4byte	.LVL15-1
 2085 0168 2E000000 		.4byte	.LVL17
 2086 016c 0100     		.2byte	0x1
 2087 016e 54       		.byte	0x54
 2088 016f 2E000000 		.4byte	.LVL17
 2089 0173 3E000000 		.4byte	.LFE10
 2090 0177 0400     		.2byte	0x4
 2091 0179 F3       		.byte	0xf3
 2092 017a 01       		.uleb128 0x1
 2093 017b 52       		.byte	0x52
 2094 017c 9F       		.byte	0x9f
 2095 017d 00000000 		.4byte	0
 2096 0181 00000000 		.4byte	0
 2097              	.LLST11:
 2098 0185 00000000 		.4byte	.LVL14
 2099 0189 0F000000 		.4byte	.LVL15-1
 2100 018d 0100     		.2byte	0x1
 2101 018f 53       		.byte	0x53
 2102 0190 0F000000 		.4byte	.LVL15-1
 2103 0194 3E000000 		.4byte	.LFE10
 2104 0198 0100     		.2byte	0x1
 2105 019a 56       		.byte	0x56
 2106 019b 00000000 		.4byte	0
 2107 019f 00000000 		.4byte	0
ARM GAS  /tmp/ccjamcrO.s 			page 38


 2108              	.LLST12:
 2109 01a3 10000000 		.4byte	.LVL15
 2110 01a7 23000000 		.4byte	.LVL16-1
 2111 01ab 0100     		.2byte	0x1
 2112 01ad 50       		.byte	0x50
 2113 01ae 00000000 		.4byte	0
 2114 01b2 00000000 		.4byte	0
 2115              	.LLST13:
 2116 01b6 2E000000 		.4byte	.LVL17
 2117 01ba 31000000 		.4byte	.LVL18-1
 2118 01be 0100     		.2byte	0x1
 2119 01c0 50       		.byte	0x50
 2120 01c1 31000000 		.4byte	.LVL18-1
 2121 01c5 3A000000 		.4byte	.LVL19
 2122 01c9 0100     		.2byte	0x1
 2123 01cb 54       		.byte	0x54
 2124 01cc 00000000 		.4byte	0
 2125 01d0 00000000 		.4byte	0
 2126              		.section	.debug_aranges,"",%progbits
 2127 0000 34000000 		.4byte	0x34
 2128 0004 0200     		.2byte	0x2
 2129 0006 00000000 		.4byte	.Ldebug_info0
 2130 000a 04       		.byte	0x4
 2131 000b 00       		.byte	0
 2132 000c 0000     		.2byte	0
 2133 000e 0000     		.2byte	0
 2134 0010 00000000 		.4byte	.LFB7
 2135 0014 14000000 		.4byte	.LFE7-.LFB7
 2136 0018 00000000 		.4byte	.LFB8
 2137 001c 4E000000 		.4byte	.LFE8-.LFB8
 2138 0020 00000000 		.4byte	.LFB9
 2139 0024 3C000000 		.4byte	.LFE9-.LFB9
 2140 0028 00000000 		.4byte	.LFB10
 2141 002c 3E000000 		.4byte	.LFE10-.LFB10
 2142 0030 00000000 		.4byte	0
 2143 0034 00000000 		.4byte	0
 2144              		.section	.debug_ranges,"",%progbits
 2145              	.Ldebug_ranges0:
 2146 0000 00000000 		.4byte	.LFB7
 2147 0004 14000000 		.4byte	.LFE7
 2148 0008 00000000 		.4byte	.LFB8
 2149 000c 4E000000 		.4byte	.LFE8
 2150 0010 00000000 		.4byte	.LFB9
 2151 0014 3C000000 		.4byte	.LFE9
 2152 0018 00000000 		.4byte	.LFB10
 2153 001c 3E000000 		.4byte	.LFE10
 2154 0020 00000000 		.4byte	0
 2155 0024 00000000 		.4byte	0
 2156              		.section	.debug_line,"",%progbits
 2157              	.Ldebug_line0:
 2158 0000 E1010000 		.section	.debug_str,"MS",%progbits,1
 2158      02006801 
 2158      00000201 
 2158      FB0E0D00 
 2158      01010101 
 2159              	.LASF79:
 2160 0000 7466756E 		.ascii	"tfunc_t\000"
ARM GAS  /tmp/ccjamcrO.s 			page 39


 2160      635F7400 
 2161              	.LASF42:
 2162 0008 705F6D73 		.ascii	"p_msg\000"
 2162      6700
 2163              	.LASF93:
 2164 000e 2E2E2F2E 		.ascii	"../../os/kernel/src/chdynamic.c\000"
 2164      2E2F6F73 
 2164      2F6B6572 
 2164      6E656C2F 
 2164      7372632F 
 2165              	.LASF2:
 2166 002e 73697A65 		.ascii	"size_t\000"
 2166      5F7400
 2167              	.LASF74:
 2168 0035 7264796D 		.ascii	"rdymsg\000"
 2168      736700
 2169              	.LASF17:
 2170 003c 75696E74 		.ascii	"uint64_t\000"
 2170      36345F74 
 2170      00
 2171              	.LASF3:
 2172 0045 5F5F7569 		.ascii	"__uint8_t\000"
 2172      6E74385F 
 2172      7400
 2173              	.LASF73:
 2174 004f 4D656D6F 		.ascii	"MemoryPool\000"
 2174      7279506F 
 2174      6F6C00
 2175              	.LASF58:
 2176 005a 6D656D67 		.ascii	"memgetfunc_t\000"
 2176      65746675 
 2176      6E635F74 
 2176      00
 2177              	.LASF92:
 2178 0067 474E5520 		.ascii	"GNU C 4.8.2 -mcpu=cortex-m4 -mno-thumb-interwork -m"
 2178      4320342E 
 2178      382E3220 
 2178      2D6D6370 
 2178      753D636F 
 2179 009a 7468756D 		.ascii	"thumb -ggdb -O2 -fomit-frame-pointer -falign-functi"
 2179      62202D67 
 2179      67646220 
 2179      2D4F3220 
 2179      2D666F6D 
 2180 00cd 6F6E733D 		.ascii	"ons=16 -ffunction-sections -fdata-sections -fno-com"
 2180      3136202D 
 2180      6666756E 
 2180      6374696F 
 2180      6E2D7365 
 2181 0100 6D6F6E00 		.ascii	"mon\000"
 2182              	.LASF13:
 2183 0104 6C6F6E67 		.ascii	"long long unsigned int\000"
 2183      206C6F6E 
 2183      6720756E 
 2183      7369676E 
 2183      65642069 
 2184              	.LASF75:
ARM GAS  /tmp/ccjamcrO.s 			page 40


 2185 011b 65786974 		.ascii	"exitcode\000"
 2185      636F6465 
 2185      00
 2186              	.LASF62:
 2187 0124 685F6672 		.ascii	"h_free\000"
 2187      656500
 2188              	.LASF83:
 2189 012b 68656170 		.ascii	"heapp\000"
 2189      7000
 2190              	.LASF64:
 2191 0131 6E657874 		.ascii	"next\000"
 2191      00
 2192              	.LASF30:
 2193 0136 705F7072 		.ascii	"p_prio\000"
 2193      696F00
 2194              	.LASF11:
 2195 013d 6C6F6E67 		.ascii	"long long int\000"
 2195      206C6F6E 
 2195      6720696E 
 2195      7400
 2196              	.LASF1:
 2197 014b 7369676E 		.ascii	"signed char\000"
 2197      65642063 
 2197      68617200 
 2198              	.LASF63:
 2199 0157 685F6D74 		.ascii	"h_mtx\000"
 2199      7800
 2200              	.LASF46:
 2201 015d 705F6D70 		.ascii	"p_mpool\000"
 2201      6F6F6C00 
 2202              	.LASF55:
 2203 0165 6D5F7175 		.ascii	"m_queue\000"
 2203      65756500 
 2204              	.LASF86:
 2205 016d 63684865 		.ascii	"chHeapFree\000"
 2205      61704672 
 2205      656500
 2206              	.LASF22:
 2207 0178 74736C69 		.ascii	"tslices_t\000"
 2207      6365735F 
 2207      7400
 2208              	.LASF89:
 2209 0182 63685468 		.ascii	"chThdCreateI\000"
 2209      64437265 
 2209      61746549 
 2209      00
 2210              	.LASF8:
 2211 018f 6C6F6E67 		.ascii	"long int\000"
 2211      20696E74 
 2211      00
 2212              	.LASF82:
 2213 0198 63685468 		.ascii	"chThdCreateFromHeap\000"
 2213      64437265 
 2213      61746546 
 2213      726F6D48 
 2213      65617000 
 2214              	.LASF20:
ARM GAS  /tmp/ccjamcrO.s 			page 41


 2215 01ac 74737461 		.ascii	"tstate_t\000"
 2215      74655F74 
 2215      00
 2216              	.LASF70:
 2217 01b5 6D705F6E 		.ascii	"mp_next\000"
 2217      65787400 
 2218              	.LASF32:
 2219 01bd 705F6E65 		.ascii	"p_newer\000"
 2219      77657200 
 2220              	.LASF85:
 2221 01c5 63685468 		.ascii	"chThdCreateFromMemoryPool\000"
 2221      64437265 
 2221      61746546 
 2221      726F6D4D 
 2221      656D6F72 
 2222              	.LASF9:
 2223 01df 5F5F7569 		.ascii	"__uint32_t\000"
 2223      6E743332 
 2223      5F7400
 2224              	.LASF72:
 2225 01ea 6D705F70 		.ascii	"mp_provider\000"
 2225      726F7669 
 2225      64657200 
 2226              	.LASF49:
 2227 01f6 72656761 		.ascii	"regarm_t\000"
 2227      726D5F74 
 2227      00
 2228              	.LASF66:
 2229 01ff 616C6967 		.ascii	"align\000"
 2229      6E00
 2230              	.LASF0:
 2231 0205 756E7369 		.ascii	"unsigned int\000"
 2231      676E6564 
 2231      20696E74 
 2231      00
 2232              	.LASF10:
 2233 0212 6C6F6E67 		.ascii	"long unsigned int\000"
 2233      20756E73 
 2233      69676E65 
 2233      6420696E 
 2233      7400
 2234              	.LASF52:
 2235 0224 636F6E74 		.ascii	"context\000"
 2235      65787400 
 2236              	.LASF67:
 2237 022c 73697A65 		.ascii	"size\000"
 2237      00
 2238              	.LASF6:
 2239 0231 73686F72 		.ascii	"short unsigned int\000"
 2239      7420756E 
 2239      7369676E 
 2239      65642069 
 2239      6E7400
 2240              	.LASF24:
 2241 0244 6D73675F 		.ascii	"msg_t\000"
 2241      7400
 2242              	.LASF19:
ARM GAS  /tmp/ccjamcrO.s 			page 42


 2243 024a 746D6F64 		.ascii	"tmode_t\000"
 2243      655F7400 
 2244              	.LASF48:
 2245 0252 54687265 		.ascii	"ThreadsList\000"
 2245      6164734C 
 2245      69737400 
 2246              	.LASF25:
 2247 025e 6576656E 		.ascii	"eventmask_t\000"
 2247      746D6173 
 2247      6B5F7400 
 2248              	.LASF54:
 2249 026a 4D757465 		.ascii	"Mutex\000"
 2249      7800
 2250              	.LASF81:
 2251 0270 63685468 		.ascii	"chThdAddRef\000"
 2251      64416464 
 2251      52656600 
 2252              	.LASF50:
 2253 027c 73746B61 		.ascii	"stkalign_t\000"
 2253      6C69676E 
 2253      5F7400
 2254              	.LASF53:
 2255 0287 73697A65 		.ascii	"sizetype\000"
 2255      74797065 
 2255      00
 2256              	.LASF33:
 2257 0290 705F6F6C 		.ascii	"p_older\000"
 2257      64657200 
 2258              	.LASF47:
 2259 0298 54687265 		.ascii	"ThreadsQueue\000"
 2259      61647351 
 2259      75657565 
 2259      00
 2260              	.LASF71:
 2261 02a5 6D705F6F 		.ascii	"mp_object_size\000"
 2261      626A6563 
 2261      745F7369 
 2261      7A6500
 2262              	.LASF84:
 2263 02b4 7072696F 		.ascii	"prio\000"
 2263      00
 2264              	.LASF59:
 2265 02b9 4D656D6F 		.ascii	"MemoryHeap\000"
 2265      72794865 
 2265      617000
 2266              	.LASF12:
 2267 02c4 5F5F7569 		.ascii	"__uint64_t\000"
 2267      6E743634 
 2267      5F7400
 2268              	.LASF69:
 2269 02cf 70685F6E 		.ascii	"ph_next\000"
 2269      65787400 
 2270              	.LASF21:
 2271 02d7 74726566 		.ascii	"trefs_t\000"
 2271      735F7400 
 2272              	.LASF80:
 2273 02df 72656673 		.ascii	"refs\000"
ARM GAS  /tmp/ccjamcrO.s 			page 43


 2273      00
 2274              	.LASF29:
 2275 02e4 705F7072 		.ascii	"p_prev\000"
 2275      657600
 2276              	.LASF23:
 2277 02eb 74707269 		.ascii	"tprio_t\000"
 2277      6F5F7400 
 2278              	.LASF18:
 2279 02f3 5F426F6F 		.ascii	"_Bool\000"
 2279      6C00
 2280              	.LASF15:
 2281 02f9 696E7433 		.ascii	"int32_t\000"
 2281      325F7400 
 2282              	.LASF4:
 2283 0301 756E7369 		.ascii	"unsigned char\000"
 2283      676E6564 
 2283      20636861 
 2283      7200
 2284              	.LASF61:
 2285 030f 685F7072 		.ascii	"h_provider\000"
 2285      6F766964 
 2285      657200
 2286              	.LASF44:
 2287 031a 705F6D74 		.ascii	"p_mtxlist\000"
 2287      786C6973 
 2287      7400
 2288              	.LASF5:
 2289 0324 73686F72 		.ascii	"short int\000"
 2289      7420696E 
 2289      7400
 2290              	.LASF35:
 2291 032e 705F7374 		.ascii	"p_state\000"
 2291      61746500 
 2292              	.LASF38:
 2293 0336 705F7072 		.ascii	"p_preempt\000"
 2293      65656D70 
 2293      7400
 2294              	.LASF95:
 2295 0340 68656170 		.ascii	"heap_header\000"
 2295      5F686561 
 2295      64657200 
 2296              	.LASF77:
 2297 034c 65776D61 		.ascii	"ewmask\000"
 2297      736B00
 2298              	.LASF28:
 2299 0353 705F6E65 		.ascii	"p_next\000"
 2299      787400
 2300              	.LASF36:
 2301 035a 705F666C 		.ascii	"p_flags\000"
 2301      61677300 
 2302              	.LASF96:
 2303 0362 63685468 		.ascii	"chThdRelease\000"
 2303      6452656C 
 2303      65617365 
 2303      00
 2304              	.LASF27:
 2305 036f 54687265 		.ascii	"Thread\000"
ARM GAS  /tmp/ccjamcrO.s 			page 44


 2305      616400
 2306              	.LASF88:
 2307 0376 63684865 		.ascii	"chHeapAlloc\000"
 2307      6170416C 
 2307      6C6F6300 
 2308              	.LASF43:
 2309 0382 705F6570 		.ascii	"p_epending\000"
 2309      656E6469 
 2309      6E6700
 2310              	.LASF16:
 2311 038d 75696E74 		.ascii	"uint32_t\000"
 2311      33325F74 
 2311      00
 2312              	.LASF65:
 2313 0396 68656170 		.ascii	"heap\000"
 2313      00
 2314              	.LASF78:
 2315 039b 63686172 		.ascii	"char\000"
 2315      00
 2316              	.LASF57:
 2317 03a0 6D5F6E65 		.ascii	"m_next\000"
 2317      787400
 2318              	.LASF26:
 2319 03a7 73797374 		.ascii	"systime_t\000"
 2319      696D655F 
 2319      7400
 2320              	.LASF45:
 2321 03b1 705F7265 		.ascii	"p_realprio\000"
 2321      616C7072 
 2321      696F00
 2322              	.LASF7:
 2323 03bc 5F5F696E 		.ascii	"__int32_t\000"
 2323      7433325F 
 2323      7400
 2324              	.LASF39:
 2325 03c6 705F7469 		.ascii	"p_time\000"
 2325      6D6500
 2326              	.LASF51:
 2327 03cd 696E7463 		.ascii	"intctx\000"
 2327      747800
 2328              	.LASF41:
 2329 03d4 705F6D73 		.ascii	"p_msgqueue\000"
 2329      67717565 
 2329      756500
 2330              	.LASF90:
 2331 03df 63685363 		.ascii	"chSchWakeupS\000"
 2331      6857616B 
 2331      65757053 
 2331      00
 2332              	.LASF68:
 2333 03ec 706F6F6C 		.ascii	"pool_header\000"
 2333      5F686561 
 2333      64657200 
 2334              	.LASF37:
 2335 03f8 705F7265 		.ascii	"p_refs\000"
 2335      667300
 2336              	.LASF14:
ARM GAS  /tmp/ccjamcrO.s 			page 45


 2337 03ff 75696E74 		.ascii	"uint8_t\000"
 2337      385F7400 
 2338              	.LASF91:
 2339 0407 6368506F 		.ascii	"chPoolAlloc\000"
 2339      6F6C416C 
 2339      6C6F6300 
 2340              	.LASF87:
 2341 0413 6368506F 		.ascii	"chPoolFree\000"
 2341      6F6C4672 
 2341      656500
 2342              	.LASF76:
 2343 041e 77746F62 		.ascii	"wtobjp\000"
 2343      6A7000
 2344              	.LASF34:
 2345 0425 705F6E61 		.ascii	"p_name\000"
 2345      6D6500
 2346              	.LASF94:
 2347 042c 2F686F6D 		.ascii	"/home/makkmarci/devel/ChibiOS_2.6.5/demos/ARMCM4-ST"
 2347      652F6D61 
 2347      6B6B6D61 
 2347      7263692F 
 2347      64657665 
 2348 045f 4D333246 		.ascii	"M32F407-DISCOVERY-MEMS/\000"
 2348      3430372D 
 2348      44495343 
 2348      4F564552 
 2348      592D4D45 
 2349              	.LASF56:
 2350 0477 6D5F6F77 		.ascii	"m_owner\000"
 2350      6E657200 
 2351              	.LASF31:
 2352 047f 705F6374 		.ascii	"p_ctx\000"
 2352      7800
 2353              	.LASF40:
 2354 0485 705F7761 		.ascii	"p_waiting\000"
 2354      6974696E 
 2354      6700
 2355              	.LASF60:
 2356 048f 6D656D6F 		.ascii	"memory_heap\000"
 2356      72795F68 
 2356      65617000 
 2357              		.ident	"GCC: (4.8.2-14ubuntu1+6) 4.8.2"
ARM GAS  /tmp/ccjamcrO.s 			page 46


DEFINED SYMBOLS
                            *ABS*:00000000 chdynamic.c
     /tmp/ccjamcrO.s:19     .text.chThdAddRef:00000000 $t
     /tmp/ccjamcrO.s:25     .text.chThdAddRef:00000000 chThdAddRef
     /tmp/ccjamcrO.s:60     .text.chThdRelease:00000000 $t
     /tmp/ccjamcrO.s:66     .text.chThdRelease:00000000 chThdRelease
     /tmp/ccjamcrO.s:145    .text.chThdCreateFromHeap:00000000 $t
     /tmp/ccjamcrO.s:151    .text.chThdCreateFromHeap:00000000 chThdCreateFromHeap
     /tmp/ccjamcrO.s:222    .text.chThdCreateFromMemoryPool:00000000 $t
     /tmp/ccjamcrO.s:228    .text.chThdCreateFromMemoryPool:00000000 chThdCreateFromMemoryPool
                     .debug_frame:00000010 $d

UNDEFINED SYMBOLS
chHeapFree
chPoolFree
chHeapAlloc
chThdCreateI
chSchWakeupS
chPoolAlloc
