ARM GAS  /tmp/ccMReNZT.s 			page 1


   1              		.syntax unified
   2              		.cpu cortex-m4
   3              		.fpu softvfp
   4              		.eabi_attribute 20, 1
   5              		.eabi_attribute 21, 1
   6              		.eabi_attribute 23, 3
   7              		.eabi_attribute 24, 1
   8              		.eabi_attribute 25, 1
   9              		.eabi_attribute 26, 1
  10              		.eabi_attribute 30, 2
  11              		.eabi_attribute 34, 1
  12              		.eabi_attribute 18, 4
  13              		.thumb
  14              		.file	"lis302dl.c"
  15              		.text
  16              	.Ltext0:
  17              		.cfi_sections	.debug_frame
  18              		.section	.text.lis302dlReadRegister,"ax",%progbits
  19              		.align	2
  20              		.p2align 4,,15
  21              		.global	lis302dlReadRegister
  22              		.thumb
  23              		.thumb_func
  24              		.type	lis302dlReadRegister, %function
  25              	lis302dlReadRegister:
  26              	.LFB118:
  27              		.file 1 "../../os/various/devices_lib/accel/lis302dl.c"
  28              		.loc 1 60 0
  29              		.cfi_startproc
  30              		@ args = 0, pretend = 0, frame = 0
  31              		@ frame_needed = 0, uses_anonymous_args = 0
  32              	.LVL0:
  33 0000 F8B5     		push	{r3, r4, r5, r6, r7, lr}
  34              		.cfi_def_cfa_offset 24
  35              		.cfi_offset 3, -24
  36              		.cfi_offset 4, -20
  37              		.cfi_offset 5, -16
  38              		.cfi_offset 6, -12
  39              		.cfi_offset 7, -8
  40              		.cfi_offset 14, -4
  41              		.loc 1 65 0
  42 0002 40F20005 		movw	r5, #:lower16:.LANCHOR1
  43              		.loc 1 63 0
  44 0006 40F20004 		movw	r4, #:lower16:.LANCHOR0
  45              		.loc 1 60 0
  46 000a 0F46     		mov	r7, r1
  47 000c 0646     		mov	r6, r0
  48              		.loc 1 63 0
  49 000e C0F20004 		movt	r4, #:upper16:.LANCHOR0
  50              		.loc 1 65 0
  51 0012 C0F20005 		movt	r5, #:upper16:.LANCHOR1
  52              		.loc 1 62 0
  53 0016 FFF7FEFF 		bl	spiSelect
  54              	.LVL1:
  55              		.loc 1 63 0
  56 001a 67F07F0E 		orn	lr, r7, #127
  57              		.loc 1 65 0
ARM GAS  /tmp/ccMReNZT.s 			page 2


  58 001e 2246     		mov	r2, r4
  59 0020 2B46     		mov	r3, r5
  60 0022 3046     		mov	r0, r6
  61 0024 0221     		movs	r1, #2
  62              		.loc 1 64 0
  63 0026 FF27     		movs	r7, #255
  64              		.loc 1 63 0
  65 0028 84F800E0 		strb	lr, [r4]
  66              		.loc 1 64 0
  67 002c 6770     		strb	r7, [r4, #1]
  68              		.loc 1 65 0
  69 002e FFF7FEFF 		bl	spiExchange
  70              	.LVL2:
  71              		.loc 1 66 0
  72 0032 3046     		mov	r0, r6
  73 0034 FFF7FEFF 		bl	spiUnselect
  74              	.LVL3:
  75              		.loc 1 68 0
  76 0038 6878     		ldrb	r0, [r5, #1]	@ zero_extendqisi2
  77 003a F8BD     		pop	{r3, r4, r5, r6, r7, pc}
  78              		.cfi_endproc
  79              	.LFE118:
  80              		.size	lis302dlReadRegister, .-lis302dlReadRegister
  81 003c AFF30080 		.section	.text.lis302dlWriteRegister,"ax",%progbits
  82              		.align	2
  83              		.p2align 4,,15
  84              		.global	lis302dlWriteRegister
  85              		.thumb
  86              		.thumb_func
  87              		.type	lis302dlWriteRegister, %function
  88              	lis302dlWriteRegister:
  89              	.LFB119:
  90              		.loc 1 78 0
  91              		.cfi_startproc
  92              		@ args = 0, pretend = 0, frame = 0
  93              		@ frame_needed = 0, uses_anonymous_args = 0
  94              	.LVL4:
  95 0000 F8B5     		push	{r3, r4, r5, r6, r7, lr}
  96              		.cfi_def_cfa_offset 24
  97              		.cfi_offset 3, -24
  98              		.cfi_offset 4, -20
  99              		.cfi_offset 5, -16
 100              		.cfi_offset 6, -12
 101              		.cfi_offset 7, -8
 102              		.cfi_offset 14, -4
 103 0002 A1F12004 		sub	r4, r1, #32
 104 0006 E4B2     		uxtb	r4, r4
 105 0008 1F2C     		cmp	r4, #31
 106              		.loc 1 78 0
 107 000a 0D46     		mov	r5, r1
 108 000c 1746     		mov	r7, r2
 109 000e 0646     		mov	r6, r0
 110 0010 07D8     		bhi	.L2
 111 0012 0121     		movs	r1, #1
 112              	.LVL5:
 113 0014 0723     		movs	r3, #7
 114 0016 01FA04F4 		lsl	r4, r1, r4
ARM GAS  /tmp/ccMReNZT.s 			page 3


 115 001a CFF6DD13 		movt	r3, 63965
 116 001e 2340     		ands	r3, r3, r4
 117 0020 03B9     		cbnz	r3, .L8
 118              	.L2:
 119 0022 F8BD     		pop	{r3, r4, r5, r6, r7, pc}
 120              	.L8:
 121              		.loc 1 111 0
 122 0024 FFF7FEFF 		bl	spiSelect
 123              	.LVL6:
 124              		.loc 1 112 0
 125 0028 40F20003 		movw	r3, #:lower16:.LANCHOR0
 126 002c C0F20003 		movt	r3, #:upper16:.LANCHOR0
 127              		.loc 1 114 0
 128 0030 3046     		mov	r0, r6
 129 0032 1A46     		mov	r2, r3
 130 0034 0221     		movs	r1, #2
 131              		.loc 1 112 0
 132 0036 1D70     		strb	r5, [r3]
 133              		.loc 1 113 0
 134 0038 5F70     		strb	r7, [r3, #1]
 135              		.loc 1 114 0
 136 003a FFF7FEFF 		bl	spiSend
 137              	.LVL7:
 138              		.loc 1 115 0
 139 003e 3046     		mov	r0, r6
 140              		.loc 1 117 0
 141 0040 BDE8F840 		pop	{r3, r4, r5, r6, r7, lr}
 142              	.LVL8:
 143              		.loc 1 115 0
 144 0044 FFF7FEBF 		b	spiUnselect
 145              	.LVL9:
 146              		.cfi_endproc
 147              	.LFE119:
 148              		.size	lis302dlWriteRegister, .-lis302dlWriteRegister
 149 0048 AFF30080 		.section	.bss.rxbuf,"aw",%nobits
 149      AFF30080 
 150              		.align	2
 151              		.set	.LANCHOR1,. + 0
 152              		.type	rxbuf, %object
 153              		.size	rxbuf, 2
 154              	rxbuf:
 155 0000 0000     		.space	2
 156 0002 0000     		.section	.bss.txbuf,"aw",%nobits
 157              		.align	2
 158              		.set	.LANCHOR0,. + 0
 159              		.type	txbuf, %object
 160              		.size	txbuf, 2
 161              	txbuf:
 162 0000 0000     		.space	2
 163 0002 0000     		.text
 164              	.Letext0:
 165              		.file 2 "/usr/lib/gcc/arm-none-eabi/4.8.2/include/stddef.h"
 166              		.file 3 "/usr/include/newlib/machine/_default_types.h"
 167              		.file 4 "/usr/include/newlib/stdint.h"
 168              		.file 5 "../../os/ports/GCC/ARMCMx/chtypes.h"
 169              		.file 6 "../../os/kernel/include/chlists.h"
 170              		.file 7 "../../os/kernel/include/chthreads.h"
ARM GAS  /tmp/ccMReNZT.s 			page 4


 171              		.file 8 "../../os/ports/GCC/ARMCMx/chcore_v7m.h"
 172              		.file 9 "../../os/kernel/include/chmtx.h"
 173              		.file 10 "../../os/hal/platforms/STM32F4xx/stm32f4xx.h"
 174              		.file 11 "../../os/hal/platforms/STM32F4xx/stm32_dma.h"
 175              		.file 12 "../../os/hal/platforms/STM32/GPIOv2/pal_lld.h"
 176              		.file 13 "../../os/hal/include/spi.h"
 177              		.file 14 "../../os/hal/platforms/STM32/SPIv1/spi_lld.h"
 178              		.file 15 "../../os/ports/common/ARMCMx/CMSIS/include/core_cm4.h"
 179              		.section	.debug_info,"",%progbits
 180              	.Ldebug_info0:
 181 0000 5F090000 		.4byte	0x95f
 182 0004 0400     		.2byte	0x4
 183 0006 00000000 		.4byte	.Ldebug_abbrev0
 184 000a 04       		.byte	0x4
 185 000b 01       		.uleb128 0x1
 186 000c 3C000000 		.4byte	.LASF125
 187 0010 01       		.byte	0x1
 188 0011 72050000 		.4byte	.LASF126
 189 0015 0F050000 		.4byte	.LASF127
 190 0019 00000000 		.4byte	.Ldebug_ranges0+0
 191 001d 00000000 		.4byte	0
 192 0021 00000000 		.4byte	.Ldebug_line0
 193 0025 02       		.uleb128 0x2
 194 0026 04       		.byte	0x4
 195 0027 05       		.byte	0x5
 196 0028 696E7400 		.ascii	"int\000"
 197 002c 03       		.uleb128 0x3
 198 002d 0B000000 		.4byte	.LASF2
 199 0031 02       		.byte	0x2
 200 0032 D4       		.byte	0xd4
 201 0033 37000000 		.4byte	0x37
 202 0037 04       		.uleb128 0x4
 203 0038 04       		.byte	0x4
 204 0039 07       		.byte	0x7
 205 003a 4E020000 		.4byte	.LASF0
 206 003e 04       		.uleb128 0x4
 207 003f 01       		.byte	0x1
 208 0040 06       		.byte	0x6
 209 0041 71010000 		.4byte	.LASF1
 210 0045 03       		.uleb128 0x3
 211 0046 20000000 		.4byte	.LASF3
 212 004a 03       		.byte	0x3
 213 004b 1C       		.byte	0x1c
 214 004c 50000000 		.4byte	0x50
 215 0050 04       		.uleb128 0x4
 216 0051 01       		.byte	0x1
 217 0052 08       		.byte	0x8
 218 0053 7B030000 		.4byte	.LASF4
 219 0057 04       		.uleb128 0x4
 220 0058 02       		.byte	0x2
 221 0059 05       		.byte	0x5
 222 005a A6030000 		.4byte	.LASF5
 223 005e 03       		.uleb128 0x3
 224 005f 41040000 		.4byte	.LASF6
 225 0063 03       		.byte	0x3
 226 0064 26       		.byte	0x26
 227 0065 69000000 		.4byte	0x69
ARM GAS  /tmp/ccMReNZT.s 			page 5


 228 0069 04       		.uleb128 0x4
 229 006a 02       		.byte	0x2
 230 006b 07       		.byte	0x7
 231 006c 78020000 		.4byte	.LASF7
 232 0070 03       		.uleb128 0x3
 233 0071 73040000 		.4byte	.LASF8
 234 0075 03       		.byte	0x3
 235 0076 37       		.byte	0x37
 236 0077 7B000000 		.4byte	0x7b
 237 007b 04       		.uleb128 0x4
 238 007c 04       		.byte	0x4
 239 007d 05       		.byte	0x5
 240 007e B9010000 		.4byte	.LASF9
 241 0082 03       		.uleb128 0x3
 242 0083 16020000 		.4byte	.LASF10
 243 0087 03       		.byte	0x3
 244 0088 38       		.byte	0x38
 245 0089 8D000000 		.4byte	0x8d
 246 008d 04       		.uleb128 0x4
 247 008e 04       		.byte	0x4
 248 008f 07       		.byte	0x7
 249 0090 0A040000 		.4byte	.LASF11
 250 0094 04       		.uleb128 0x4
 251 0095 08       		.byte	0x8
 252 0096 05       		.byte	0x5
 253 0097 63010000 		.4byte	.LASF12
 254 009b 04       		.uleb128 0x4
 255 009c 08       		.byte	0x8
 256 009d 07       		.byte	0x7
 257 009e DF000000 		.4byte	.LASF13
 258 00a2 03       		.uleb128 0x3
 259 00a3 EC040000 		.4byte	.LASF14
 260 00a7 04       		.byte	0x4
 261 00a8 2A       		.byte	0x2a
 262 00a9 45000000 		.4byte	0x45
 263 00ad 03       		.uleb128 0x3
 264 00ae D2010000 		.4byte	.LASF15
 265 00b2 04       		.byte	0x4
 266 00b3 36       		.byte	0x36
 267 00b4 5E000000 		.4byte	0x5e
 268 00b8 03       		.uleb128 0x3
 269 00b9 73030000 		.4byte	.LASF16
 270 00bd 04       		.byte	0x4
 271 00be 41       		.byte	0x41
 272 00bf 70000000 		.4byte	0x70
 273 00c3 03       		.uleb128 0x3
 274 00c4 F9030000 		.4byte	.LASF17
 275 00c8 04       		.byte	0x4
 276 00c9 42       		.byte	0x42
 277 00ca 82000000 		.4byte	0x82
 278 00ce 04       		.uleb128 0x4
 279 00cf 01       		.byte	0x1
 280 00d0 02       		.byte	0x2
 281 00d1 6D030000 		.4byte	.LASF18
 282 00d5 03       		.uleb128 0x3
 283 00d6 91020000 		.4byte	.LASF19
 284 00da 05       		.byte	0x5
ARM GAS  /tmp/ccMReNZT.s 			page 6


 285 00db 2C       		.byte	0x2c
 286 00dc A2000000 		.4byte	0xa2
 287 00e0 03       		.uleb128 0x3
 288 00e1 C2010000 		.4byte	.LASF20
 289 00e5 05       		.byte	0x5
 290 00e6 2D       		.byte	0x2d
 291 00e7 A2000000 		.4byte	0xa2
 292 00eb 03       		.uleb128 0x3
 293 00ec 02040000 		.4byte	.LASF21
 294 00f0 05       		.byte	0x5
 295 00f1 2E       		.byte	0x2e
 296 00f2 A2000000 		.4byte	0xa2
 297 00f6 03       		.uleb128 0x3
 298 00f7 9B010000 		.4byte	.LASF22
 299 00fb 05       		.byte	0x5
 300 00fc 2F       		.byte	0x2f
 301 00fd A2000000 		.4byte	0xa2
 302 0101 03       		.uleb128 0x3
 303 0102 5F030000 		.4byte	.LASF23
 304 0106 05       		.byte	0x5
 305 0107 30       		.byte	0x30
 306 0108 C3000000 		.4byte	0xc3
 307 010c 03       		.uleb128 0x3
 308 010d 8B020000 		.4byte	.LASF24
 309 0111 05       		.byte	0x5
 310 0112 31       		.byte	0x31
 311 0113 B8000000 		.4byte	0xb8
 312 0117 03       		.uleb128 0x3
 313 0118 A5020000 		.4byte	.LASF25
 314 011c 05       		.byte	0x5
 315 011d 33       		.byte	0x33
 316 011e C3000000 		.4byte	0xc3
 317 0122 03       		.uleb128 0x3
 318 0123 5E040000 		.4byte	.LASF26
 319 0127 05       		.byte	0x5
 320 0128 35       		.byte	0x35
 321 0129 C3000000 		.4byte	0xc3
 322 012d 03       		.uleb128 0x3
 323 012e D8030000 		.4byte	.LASF27
 324 0132 06       		.byte	0x6
 325 0133 2A       		.byte	0x2a
 326 0134 38010000 		.4byte	0x138
 327 0138 05       		.uleb128 0x5
 328 0139 D8030000 		.4byte	.LASF27
 329 013d 48       		.byte	0x48
 330 013e 07       		.byte	0x7
 331 013f 5E       		.byte	0x5e
 332 0140 35020000 		.4byte	0x235
 333 0144 06       		.uleb128 0x6
 334 0145 C9030000 		.4byte	.LASF28
 335 0149 07       		.byte	0x7
 336 014a 5F       		.byte	0x5f
 337 014b 56020000 		.4byte	0x256
 338 014f 00       		.byte	0
 339 0150 06       		.uleb128 0x6
 340 0151 3A030000 		.4byte	.LASF29
 341 0155 07       		.byte	0x7
ARM GAS  /tmp/ccMReNZT.s 			page 7


 342 0156 61       		.byte	0x61
 343 0157 56020000 		.4byte	0x256
 344 015b 04       		.byte	0x4
 345 015c 06       		.uleb128 0x6
 346 015d 56010000 		.4byte	.LASF30
 347 0161 07       		.byte	0x7
 348 0162 63       		.byte	0x63
 349 0163 01010000 		.4byte	0x101
 350 0167 08       		.byte	0x8
 351 0168 06       		.uleb128 0x6
 352 0169 A0050000 		.4byte	.LASF31
 353 016d 07       		.byte	0x7
 354 016e 64       		.byte	0x64
 355 016f 10030000 		.4byte	0x310
 356 0173 0C       		.byte	0xc
 357 0174 06       		.uleb128 0x6
 358 0175 E2010000 		.4byte	.LASF32
 359 0179 07       		.byte	0x7
 360 017a 66       		.byte	0x66
 361 017b 56020000 		.4byte	0x256
 362 017f 10       		.byte	0x10
 363 0180 06       		.uleb128 0x6
 364 0181 D8020000 		.4byte	.LASF33
 365 0185 07       		.byte	0x7
 366 0186 67       		.byte	0x67
 367 0187 56020000 		.4byte	0x256
 368 018b 14       		.byte	0x14
 369 018c 06       		.uleb128 0x6
 370 018d 00050000 		.4byte	.LASF34
 371 0191 07       		.byte	0x7
 372 0192 6E       		.byte	0x6e
 373 0193 B9030000 		.4byte	0x3b9
 374 0197 18       		.byte	0x18
 375 0198 06       		.uleb128 0x6
 376 0199 B0030000 		.4byte	.LASF35
 377 019d 07       		.byte	0x7
 378 019e 79       		.byte	0x79
 379 019f E0000000 		.4byte	0xe0
 380 01a3 1C       		.byte	0x1c
 381 01a4 06       		.uleb128 0x6
 382 01a5 D0030000 		.4byte	.LASF36
 383 01a9 07       		.byte	0x7
 384 01aa 7D       		.byte	0x7d
 385 01ab D5000000 		.4byte	0xd5
 386 01af 1D       		.byte	0x1d
 387 01b0 06       		.uleb128 0x6
 388 01b1 DE040000 		.4byte	.LASF37
 389 01b5 07       		.byte	0x7
 390 01b6 82       		.byte	0x82
 391 01b7 EB000000 		.4byte	0xeb
 392 01bb 1E       		.byte	0x1e
 393 01bc 06       		.uleb128 0x6
 394 01bd B8030000 		.4byte	.LASF38
 395 01c1 07       		.byte	0x7
 396 01c2 88       		.byte	0x88
 397 01c3 F6000000 		.4byte	0xf6
 398 01c7 1F       		.byte	0x1f
ARM GAS  /tmp/ccMReNZT.s 			page 8


 399 01c8 06       		.uleb128 0x6
 400 01c9 DB010000 		.4byte	.LASF39
 401 01cd 07       		.byte	0x7
 402 01ce 8F       		.byte	0x8f
 403 01cf 3D030000 		.4byte	0x33d
 404 01d3 20       		.byte	0x20
 405 01d4 07       		.uleb128 0x7
 406 01d5 705F7500 		.ascii	"p_u\000"
 407 01d9 07       		.byte	0x7
 408 01da B4       		.byte	0xb4
 409 01db 84030000 		.4byte	0x384
 410 01df 24       		.byte	0x24
 411 01e0 06       		.uleb128 0x6
 412 01e1 A6050000 		.4byte	.LASF40
 413 01e5 07       		.byte	0x7
 414 01e6 B9       		.byte	0xb9
 415 01e7 7C020000 		.4byte	0x27c
 416 01eb 28       		.byte	0x28
 417 01ec 06       		.uleb128 0x6
 418 01ed 61020000 		.4byte	.LASF41
 419 01f1 07       		.byte	0x7
 420 01f2 BF       		.byte	0xbf
 421 01f3 5C020000 		.4byte	0x25c
 422 01f7 2C       		.byte	0x2c
 423 01f8 06       		.uleb128 0x6
 424 01f9 64050000 		.4byte	.LASF42
 425 01fd 07       		.byte	0x7
 426 01fe C3       		.byte	0xc3
 427 01ff 0C010000 		.4byte	0x10c
 428 0203 34       		.byte	0x34
 429 0204 06       		.uleb128 0x6
 430 0205 DF030000 		.4byte	.LASF43
 431 0209 07       		.byte	0x7
 432 020a C9       		.byte	0xc9
 433 020b 17010000 		.4byte	0x117
 434 020f 38       		.byte	0x38
 435 0210 06       		.uleb128 0x6
 436 0211 9C030000 		.4byte	.LASF44
 437 0215 07       		.byte	0x7
 438 0216 D0       		.byte	0xd0
 439 0217 CB030000 		.4byte	0x3cb
 440 021b 3C       		.byte	0x3c
 441 021c 06       		.uleb128 0x6
 442 021d 68040000 		.4byte	.LASF45
 443 0221 07       		.byte	0x7
 444 0222 D4       		.byte	0xd4
 445 0223 01010000 		.4byte	0x101
 446 0227 40       		.byte	0x40
 447 0228 06       		.uleb128 0x6
 448 0229 21020000 		.4byte	.LASF46
 449 022d 07       		.byte	0x7
 450 022e DA       		.byte	0xda
 451 022f 92020000 		.4byte	0x292
 452 0233 44       		.byte	0x44
 453 0234 00       		.byte	0
 454 0235 08       		.uleb128 0x8
 455 0236 08       		.byte	0x8
ARM GAS  /tmp/ccMReNZT.s 			page 9


 456 0237 06       		.byte	0x6
 457 0238 61       		.byte	0x61
 458 0239 56020000 		.4byte	0x256
 459 023d 06       		.uleb128 0x6
 460 023e C9030000 		.4byte	.LASF28
 461 0242 06       		.byte	0x6
 462 0243 62       		.byte	0x62
 463 0244 56020000 		.4byte	0x256
 464 0248 00       		.byte	0
 465 0249 06       		.uleb128 0x6
 466 024a 3A030000 		.4byte	.LASF29
 467 024e 06       		.byte	0x6
 468 024f 64       		.byte	0x64
 469 0250 56020000 		.4byte	0x256
 470 0254 04       		.byte	0x4
 471 0255 00       		.byte	0
 472 0256 09       		.uleb128 0x9
 473 0257 04       		.byte	0x4
 474 0258 2D010000 		.4byte	0x12d
 475 025c 03       		.uleb128 0x3
 476 025d E0020000 		.4byte	.LASF47
 477 0261 06       		.byte	0x6
 478 0262 66       		.byte	0x66
 479 0263 35020000 		.4byte	0x235
 480 0267 08       		.uleb128 0x8
 481 0268 04       		.byte	0x4
 482 0269 06       		.byte	0x6
 483 026a 6B       		.byte	0x6b
 484 026b 7C020000 		.4byte	0x27c
 485 026f 06       		.uleb128 0x6
 486 0270 C9030000 		.4byte	.LASF28
 487 0274 06       		.byte	0x6
 488 0275 6D       		.byte	0x6d
 489 0276 56020000 		.4byte	0x256
 490 027a 00       		.byte	0
 491 027b 00       		.byte	0
 492 027c 03       		.uleb128 0x3
 493 027d 99020000 		.4byte	.LASF48
 494 0281 06       		.byte	0x6
 495 0282 70       		.byte	0x70
 496 0283 67020000 		.4byte	0x267
 497 0287 03       		.uleb128 0x3
 498 0288 29020000 		.4byte	.LASF49
 499 028c 08       		.byte	0x8
 500 028d E5       		.byte	0xe5
 501 028e 92020000 		.4byte	0x292
 502 0292 0A       		.uleb128 0xa
 503 0293 04       		.byte	0x4
 504 0294 0B       		.uleb128 0xb
 505 0295 B2040000 		.4byte	.LASF50
 506 0299 24       		.byte	0x24
 507 029a 08       		.byte	0x8
 508 029b 0C01     		.2byte	0x10c
 509 029d 10030000 		.4byte	0x310
 510 02a1 0C       		.uleb128 0xc
 511 02a2 723400   		.ascii	"r4\000"
 512 02a5 08       		.byte	0x8
ARM GAS  /tmp/ccMReNZT.s 			page 10


 513 02a6 1F01     		.2byte	0x11f
 514 02a8 87020000 		.4byte	0x287
 515 02ac 00       		.byte	0
 516 02ad 0C       		.uleb128 0xc
 517 02ae 723500   		.ascii	"r5\000"
 518 02b1 08       		.byte	0x8
 519 02b2 2001     		.2byte	0x120
 520 02b4 87020000 		.4byte	0x287
 521 02b8 04       		.byte	0x4
 522 02b9 0C       		.uleb128 0xc
 523 02ba 723600   		.ascii	"r6\000"
 524 02bd 08       		.byte	0x8
 525 02be 2101     		.2byte	0x121
 526 02c0 87020000 		.4byte	0x287
 527 02c4 08       		.byte	0x8
 528 02c5 0C       		.uleb128 0xc
 529 02c6 723700   		.ascii	"r7\000"
 530 02c9 08       		.byte	0x8
 531 02ca 2201     		.2byte	0x122
 532 02cc 87020000 		.4byte	0x287
 533 02d0 0C       		.byte	0xc
 534 02d1 0C       		.uleb128 0xc
 535 02d2 723800   		.ascii	"r8\000"
 536 02d5 08       		.byte	0x8
 537 02d6 2301     		.2byte	0x123
 538 02d8 87020000 		.4byte	0x287
 539 02dc 10       		.byte	0x10
 540 02dd 0C       		.uleb128 0xc
 541 02de 723900   		.ascii	"r9\000"
 542 02e1 08       		.byte	0x8
 543 02e2 2401     		.2byte	0x124
 544 02e4 87020000 		.4byte	0x287
 545 02e8 14       		.byte	0x14
 546 02e9 0C       		.uleb128 0xc
 547 02ea 72313000 		.ascii	"r10\000"
 548 02ee 08       		.byte	0x8
 549 02ef 2501     		.2byte	0x125
 550 02f1 87020000 		.4byte	0x287
 551 02f5 18       		.byte	0x18
 552 02f6 0C       		.uleb128 0xc
 553 02f7 72313100 		.ascii	"r11\000"
 554 02fb 08       		.byte	0x8
 555 02fc 2601     		.2byte	0x126
 556 02fe 87020000 		.4byte	0x287
 557 0302 1C       		.byte	0x1c
 558 0303 0C       		.uleb128 0xc
 559 0304 6C7200   		.ascii	"lr\000"
 560 0307 08       		.byte	0x8
 561 0308 2701     		.2byte	0x127
 562 030a 87020000 		.4byte	0x287
 563 030e 20       		.byte	0x20
 564 030f 00       		.byte	0
 565 0310 0B       		.uleb128 0xb
 566 0311 A0040000 		.4byte	.LASF51
 567 0315 04       		.byte	0x4
 568 0316 08       		.byte	0x8
 569 0317 3101     		.2byte	0x131
ARM GAS  /tmp/ccMReNZT.s 			page 11


 570 0319 2B030000 		.4byte	0x32b
 571 031d 0C       		.uleb128 0xc
 572 031e 72313300 		.ascii	"r13\000"
 573 0322 08       		.byte	0x8
 574 0323 3201     		.2byte	0x132
 575 0325 2B030000 		.4byte	0x32b
 576 0329 00       		.byte	0
 577 032a 00       		.byte	0
 578 032b 09       		.uleb128 0x9
 579 032c 04       		.byte	0x4
 580 032d 94020000 		.4byte	0x294
 581 0331 0D       		.uleb128 0xd
 582 0332 C3000000 		.4byte	0xc3
 583 0336 04       		.uleb128 0x4
 584 0337 04       		.byte	0x4
 585 0338 07       		.byte	0x7
 586 0339 C3020000 		.4byte	.LASF52
 587 033d 0D       		.uleb128 0xd
 588 033e 22010000 		.4byte	0x122
 589 0342 05       		.uleb128 0x5
 590 0343 D2020000 		.4byte	.LASF53
 591 0347 10       		.byte	0x10
 592 0348 09       		.byte	0x9
 593 0349 2C       		.byte	0x2c
 594 034a 73030000 		.4byte	0x373
 595 034e 06       		.uleb128 0x6
 596 034f 93010000 		.4byte	.LASF54
 597 0353 09       		.byte	0x9
 598 0354 2D       		.byte	0x2d
 599 0355 5C020000 		.4byte	0x25c
 600 0359 00       		.byte	0
 601 035a 06       		.uleb128 0x6
 602 035b 6A050000 		.4byte	.LASF55
 603 035f 09       		.byte	0x9
 604 0360 2F       		.byte	0x2f
 605 0361 56020000 		.4byte	0x256
 606 0365 08       		.byte	0x8
 607 0366 06       		.uleb128 0x6
 608 0367 57040000 		.4byte	.LASF56
 609 036b 09       		.byte	0x9
 610 036c 31       		.byte	0x31
 611 036d 73030000 		.4byte	0x373
 612 0371 0C       		.byte	0xc
 613 0372 00       		.byte	0
 614 0373 09       		.uleb128 0x9
 615 0374 04       		.byte	0x4
 616 0375 42030000 		.4byte	0x342
 617 0379 03       		.uleb128 0x3
 618 037a D2020000 		.4byte	.LASF53
 619 037e 09       		.byte	0x9
 620 037f 33       		.byte	0x33
 621 0380 42030000 		.4byte	0x342
 622 0384 0E       		.uleb128 0xe
 623 0385 04       		.byte	0x4
 624 0386 07       		.byte	0x7
 625 0387 96       		.byte	0x96
 626 0388 B9030000 		.4byte	0x3b9
ARM GAS  /tmp/ccMReNZT.s 			page 12


 627 038c 0F       		.uleb128 0xf
 628 038d 12000000 		.4byte	.LASF57
 629 0391 07       		.byte	0x7
 630 0392 9D       		.byte	0x9d
 631 0393 0C010000 		.4byte	0x10c
 632 0397 0F       		.uleb128 0xf
 633 0398 0C010000 		.4byte	.LASF58
 634 039c 07       		.byte	0x7
 635 039d A4       		.byte	0xa4
 636 039e 0C010000 		.4byte	0x10c
 637 03a2 0F       		.uleb128 0xf
 638 03a3 F9040000 		.4byte	.LASF59
 639 03a7 07       		.byte	0x7
 640 03a8 AB       		.byte	0xab
 641 03a9 92020000 		.4byte	0x292
 642 03ad 0F       		.uleb128 0xf
 643 03ae C2030000 		.4byte	.LASF60
 644 03b2 07       		.byte	0x7
 645 03b3 B2       		.byte	0xb2
 646 03b4 17010000 		.4byte	0x117
 647 03b8 00       		.byte	0
 648 03b9 09       		.uleb128 0x9
 649 03ba 04       		.byte	0x4
 650 03bb BF030000 		.4byte	0x3bf
 651 03bf 10       		.uleb128 0x10
 652 03c0 C4030000 		.4byte	0x3c4
 653 03c4 04       		.uleb128 0x4
 654 03c5 01       		.byte	0x1
 655 03c6 08       		.byte	0x8
 656 03c7 28040000 		.4byte	.LASF61
 657 03cb 09       		.uleb128 0x9
 658 03cc 04       		.byte	0x4
 659 03cd 79030000 		.4byte	0x379
 660 03d1 0D       		.uleb128 0xd
 661 03d2 AD000000 		.4byte	0xad
 662 03d6 0D       		.uleb128 0xd
 663 03d7 B8000000 		.4byte	0xb8
 664 03db 11       		.uleb128 0x11
 665 03dc 18       		.byte	0x18
 666 03dd 0A       		.byte	0xa
 667 03de B102     		.2byte	0x2b1
 668 03e0 32040000 		.4byte	0x432
 669 03e4 0C       		.uleb128 0xc
 670 03e5 435200   		.ascii	"CR\000"
 671 03e8 0A       		.byte	0xa
 672 03e9 B302     		.2byte	0x2b3
 673 03eb 31030000 		.4byte	0x331
 674 03ef 00       		.byte	0
 675 03f0 12       		.uleb128 0x12
 676 03f1 7D040000 		.4byte	.LASF62
 677 03f5 0A       		.byte	0xa
 678 03f6 B402     		.2byte	0x2b4
 679 03f8 31030000 		.4byte	0x331
 680 03fc 04       		.byte	0x4
 681 03fd 0C       		.uleb128 0xc
 682 03fe 50415200 		.ascii	"PAR\000"
 683 0402 0A       		.byte	0xa
ARM GAS  /tmp/ccMReNZT.s 			page 13


 684 0403 B502     		.2byte	0x2b5
 685 0405 31030000 		.4byte	0x331
 686 0409 08       		.byte	0x8
 687 040a 12       		.uleb128 0x12
 688 040b 06000000 		.4byte	.LASF63
 689 040f 0A       		.byte	0xa
 690 0410 B602     		.2byte	0x2b6
 691 0412 31030000 		.4byte	0x331
 692 0416 0C       		.byte	0xc
 693 0417 12       		.uleb128 0x12
 694 0418 B9040000 		.4byte	.LASF64
 695 041c 0A       		.byte	0xa
 696 041d B702     		.2byte	0x2b7
 697 041f 31030000 		.4byte	0x331
 698 0423 10       		.byte	0x10
 699 0424 0C       		.uleb128 0xc
 700 0425 46435200 		.ascii	"FCR\000"
 701 0429 0A       		.byte	0xa
 702 042a B802     		.2byte	0x2b8
 703 042c 31030000 		.4byte	0x331
 704 0430 14       		.byte	0x14
 705 0431 00       		.byte	0
 706 0432 13       		.uleb128 0x13
 707 0433 82040000 		.4byte	.LASF65
 708 0437 0A       		.byte	0xa
 709 0438 B902     		.2byte	0x2b9
 710 043a DB030000 		.4byte	0x3db
 711 043e 11       		.uleb128 0x11
 712 043f 24       		.byte	0x24
 713 0440 0A       		.byte	0xa
 714 0441 E304     		.2byte	0x4e3
 715 0443 30050000 		.4byte	0x530
 716 0447 0C       		.uleb128 0xc
 717 0448 43523100 		.ascii	"CR1\000"
 718 044c 0A       		.byte	0xa
 719 044d E504     		.2byte	0x4e5
 720 044f D1030000 		.4byte	0x3d1
 721 0453 00       		.byte	0
 722 0454 12       		.uleb128 0x12
 723 0455 08030000 		.4byte	.LASF66
 724 0459 0A       		.byte	0xa
 725 045a E604     		.2byte	0x4e6
 726 045c AD000000 		.4byte	0xad
 727 0460 02       		.byte	0x2
 728 0461 0C       		.uleb128 0xc
 729 0462 43523200 		.ascii	"CR2\000"
 730 0466 0A       		.byte	0xa
 731 0467 E704     		.2byte	0x4e7
 732 0469 D1030000 		.4byte	0x3d1
 733 046d 04       		.byte	0x4
 734 046e 12       		.uleb128 0x12
 735 046f 12030000 		.4byte	.LASF67
 736 0473 0A       		.byte	0xa
 737 0474 E804     		.2byte	0x4e8
 738 0476 AD000000 		.4byte	0xad
 739 047a 06       		.byte	0x6
 740 047b 0C       		.uleb128 0xc
ARM GAS  /tmp/ccMReNZT.s 			page 14


 741 047c 535200   		.ascii	"SR\000"
 742 047f 0A       		.byte	0xa
 743 0480 E904     		.2byte	0x4e9
 744 0482 D1030000 		.4byte	0x3d1
 745 0486 08       		.byte	0x8
 746 0487 12       		.uleb128 0x12
 747 0488 1C030000 		.4byte	.LASF68
 748 048c 0A       		.byte	0xa
 749 048d EA04     		.2byte	0x4ea
 750 048f AD000000 		.4byte	0xad
 751 0493 0A       		.byte	0xa
 752 0494 0C       		.uleb128 0xc
 753 0495 445200   		.ascii	"DR\000"
 754 0498 0A       		.byte	0xa
 755 0499 EB04     		.2byte	0x4eb
 756 049b D1030000 		.4byte	0x3d1
 757 049f 0C       		.byte	0xc
 758 04a0 12       		.uleb128 0x12
 759 04a1 26030000 		.4byte	.LASF69
 760 04a5 0A       		.byte	0xa
 761 04a6 EC04     		.2byte	0x4ec
 762 04a8 AD000000 		.4byte	0xad
 763 04ac 0E       		.byte	0xe
 764 04ad 12       		.uleb128 0x12
 765 04ae 00010000 		.4byte	.LASF70
 766 04b2 0A       		.byte	0xa
 767 04b3 ED04     		.2byte	0x4ed
 768 04b5 D1030000 		.4byte	0x3d1
 769 04b9 10       		.byte	0x10
 770 04ba 12       		.uleb128 0x12
 771 04bb 30030000 		.4byte	.LASF71
 772 04bf 0A       		.byte	0xa
 773 04c0 EE04     		.2byte	0x4ee
 774 04c2 AD000000 		.4byte	0xad
 775 04c6 12       		.byte	0x12
 776 04c7 12       		.uleb128 0x12
 777 04c8 E5040000 		.4byte	.LASF72
 778 04cc 0A       		.byte	0xa
 779 04cd EF04     		.2byte	0x4ef
 780 04cf D1030000 		.4byte	0x3d1
 781 04d3 14       		.byte	0x14
 782 04d4 12       		.uleb128 0x12
 783 04d5 EF030000 		.4byte	.LASF73
 784 04d9 0A       		.byte	0xa
 785 04da F004     		.2byte	0x4f0
 786 04dc AD000000 		.4byte	0xad
 787 04e0 16       		.byte	0x16
 788 04e1 12       		.uleb128 0x12
 789 04e2 01030000 		.4byte	.LASF74
 790 04e6 0A       		.byte	0xa
 791 04e7 F104     		.2byte	0x4f1
 792 04e9 D1030000 		.4byte	0x3d1
 793 04ed 18       		.byte	0x18
 794 04ee 12       		.uleb128 0x12
 795 04ef 41030000 		.4byte	.LASF75
 796 04f3 0A       		.byte	0xa
 797 04f4 F204     		.2byte	0x4f2
ARM GAS  /tmp/ccMReNZT.s 			page 15


 798 04f6 AD000000 		.4byte	0xad
 799 04fa 1A       		.byte	0x1a
 800 04fb 12       		.uleb128 0x12
 801 04fc 8B010000 		.4byte	.LASF76
 802 0500 0A       		.byte	0xa
 803 0501 F304     		.2byte	0x4f3
 804 0503 D1030000 		.4byte	0x3d1
 805 0507 1C       		.byte	0x1c
 806 0508 12       		.uleb128 0x12
 807 0509 4B030000 		.4byte	.LASF77
 808 050d 0A       		.byte	0xa
 809 050e F404     		.2byte	0x4f4
 810 0510 AD000000 		.4byte	0xad
 811 0514 1E       		.byte	0x1e
 812 0515 12       		.uleb128 0x12
 813 0516 BD020000 		.4byte	.LASF78
 814 051a 0A       		.byte	0xa
 815 051b F504     		.2byte	0x4f5
 816 051d D1030000 		.4byte	0x3d1
 817 0521 20       		.byte	0x20
 818 0522 12       		.uleb128 0x12
 819 0523 55030000 		.4byte	.LASF79
 820 0527 0A       		.byte	0xa
 821 0528 F604     		.2byte	0x4f6
 822 052a AD000000 		.4byte	0xad
 823 052e 22       		.byte	0x22
 824 052f 00       		.byte	0
 825 0530 13       		.uleb128 0x13
 826 0531 1C040000 		.4byte	.LASF80
 827 0535 0A       		.byte	0xa
 828 0536 F704     		.2byte	0x4f7
 829 0538 3E040000 		.4byte	0x43e
 830 053c 08       		.uleb128 0x8
 831 053d 0C       		.byte	0xc
 832 053e 0B       		.byte	0xb
 833 053f DA       		.byte	0xda
 834 0540 81050000 		.4byte	0x581
 835 0544 06       		.uleb128 0x6
 836 0545 35000000 		.4byte	.LASF81
 837 0549 0B       		.byte	0xb
 838 054a DB       		.byte	0xdb
 839 054b 81050000 		.4byte	0x581
 840 054f 00       		.byte	0
 841 0550 06       		.uleb128 0x6
 842 0551 EA030000 		.4byte	.LASF82
 843 0555 0B       		.byte	0xb
 844 0556 DC       		.byte	0xdc
 845 0557 87050000 		.4byte	0x587
 846 055b 04       		.byte	0x4
 847 055c 06       		.uleb128 0x6
 848 055d 71020000 		.4byte	.LASF83
 849 0561 0B       		.byte	0xb
 850 0562 DD       		.byte	0xdd
 851 0563 A2000000 		.4byte	0xa2
 852 0567 08       		.byte	0x8
 853 0568 06       		.uleb128 0x6
 854 0569 32020000 		.4byte	.LASF84
ARM GAS  /tmp/ccMReNZT.s 			page 16


 855 056d 0B       		.byte	0xb
 856 056e DF       		.byte	0xdf
 857 056f A2000000 		.4byte	0xa2
 858 0573 09       		.byte	0x9
 859 0574 06       		.uleb128 0x6
 860 0575 15010000 		.4byte	.LASF85
 861 0579 0B       		.byte	0xb
 862 057a E0       		.byte	0xe0
 863 057b A2000000 		.4byte	0xa2
 864 057f 0A       		.byte	0xa
 865 0580 00       		.byte	0
 866 0581 09       		.uleb128 0x9
 867 0582 04       		.byte	0x4
 868 0583 32040000 		.4byte	0x432
 869 0587 09       		.uleb128 0x9
 870 0588 04       		.byte	0x4
 871 0589 31030000 		.4byte	0x331
 872 058d 03       		.uleb128 0x3
 873 058e 89030000 		.4byte	.LASF86
 874 0592 0B       		.byte	0xb
 875 0593 E1       		.byte	0xe1
 876 0594 3C050000 		.4byte	0x53c
 877 0598 08       		.uleb128 0x8
 878 0599 04       		.byte	0x4
 879 059a 0C       		.byte	0xc
 880 059b 96       		.byte	0x96
 881 059c B9050000 		.4byte	0x5b9
 882 05a0 07       		.uleb128 0x7
 883 05a1 73657400 		.ascii	"set\000"
 884 05a5 0C       		.byte	0xc
 885 05a6 97       		.byte	0x97
 886 05a7 AD000000 		.4byte	0xad
 887 05ab 00       		.byte	0
 888 05ac 06       		.uleb128 0x6
 889 05ad CC020000 		.4byte	.LASF87
 890 05b1 0C       		.byte	0xc
 891 05b2 98       		.byte	0x98
 892 05b3 AD000000 		.4byte	0xad
 893 05b7 02       		.byte	0x2
 894 05b8 00       		.byte	0
 895 05b9 0E       		.uleb128 0xe
 896 05ba 04       		.byte	0x4
 897 05bb 0C       		.byte	0xc
 898 05bc 94       		.byte	0x94
 899 05bd D4050000 		.4byte	0x5d4
 900 05c1 14       		.uleb128 0x14
 901 05c2 5700     		.ascii	"W\000"
 902 05c4 0C       		.byte	0xc
 903 05c5 95       		.byte	0x95
 904 05c6 C3000000 		.4byte	0xc3
 905 05ca 14       		.uleb128 0x14
 906 05cb 4800     		.ascii	"H\000"
 907 05cd 0C       		.byte	0xc
 908 05ce 99       		.byte	0x99
 909 05cf 98050000 		.4byte	0x598
 910 05d3 00       		.byte	0
 911 05d4 08       		.uleb128 0x8
ARM GAS  /tmp/ccMReNZT.s 			page 17


 912 05d5 28       		.byte	0x28
 913 05d6 0C       		.byte	0xc
 914 05d7 8C       		.byte	0x8c
 915 05d8 55060000 		.4byte	0x655
 916 05dc 06       		.uleb128 0x6
 917 05dd D9000000 		.4byte	.LASF88
 918 05e1 0C       		.byte	0xc
 919 05e2 8E       		.byte	0x8e
 920 05e3 31030000 		.4byte	0x331
 921 05e7 00       		.byte	0
 922 05e8 06       		.uleb128 0x6
 923 05e9 19000000 		.4byte	.LASF89
 924 05ed 0C       		.byte	0xc
 925 05ee 8F       		.byte	0x8f
 926 05ef 31030000 		.4byte	0x331
 927 05f3 04       		.byte	0x4
 928 05f4 06       		.uleb128 0x6
 929 05f5 0E020000 		.4byte	.LASF90
 930 05f9 0C       		.byte	0xc
 931 05fa 90       		.byte	0x90
 932 05fb 31030000 		.4byte	0x331
 933 05ff 08       		.byte	0x8
 934 0600 06       		.uleb128 0x6
 935 0601 06010000 		.4byte	.LASF91
 936 0605 0C       		.byte	0xc
 937 0606 91       		.byte	0x91
 938 0607 31030000 		.4byte	0x331
 939 060b 0C       		.byte	0xc
 940 060c 07       		.uleb128 0x7
 941 060d 49445200 		.ascii	"IDR\000"
 942 0611 0C       		.byte	0xc
 943 0612 92       		.byte	0x92
 944 0613 31030000 		.4byte	0x331
 945 0617 10       		.byte	0x10
 946 0618 07       		.uleb128 0x7
 947 0619 4F445200 		.ascii	"ODR\000"
 948 061d 0C       		.byte	0xc
 949 061e 93       		.byte	0x93
 950 061f 31030000 		.4byte	0x331
 951 0623 14       		.byte	0x14
 952 0624 06       		.uleb128 0x6
 953 0625 7D010000 		.4byte	.LASF92
 954 0629 0C       		.byte	0xc
 955 062a 9A       		.byte	0x9a
 956 062b 55060000 		.4byte	0x655
 957 062f 18       		.byte	0x18
 958 0630 06       		.uleb128 0x6
 959 0631 6C020000 		.4byte	.LASF93
 960 0635 0C       		.byte	0xc
 961 0636 9B       		.byte	0x9b
 962 0637 31030000 		.4byte	0x331
 963 063b 1C       		.byte	0x1c
 964 063c 06       		.uleb128 0x6
 965 063d FC020000 		.4byte	.LASF94
 966 0641 0C       		.byte	0xc
 967 0642 9C       		.byte	0x9c
 968 0643 31030000 		.4byte	0x331
ARM GAS  /tmp/ccMReNZT.s 			page 18


 969 0647 20       		.byte	0x20
 970 0648 06       		.uleb128 0x6
 971 0649 F7020000 		.4byte	.LASF95
 972 064d 0C       		.byte	0xc
 973 064e 9D       		.byte	0x9d
 974 064f 31030000 		.4byte	0x331
 975 0653 24       		.byte	0x24
 976 0654 00       		.byte	0
 977 0655 0D       		.uleb128 0xd
 978 0656 B9050000 		.4byte	0x5b9
 979 065a 03       		.uleb128 0x3
 980 065b FB010000 		.4byte	.LASF96
 981 065f 0C       		.byte	0xc
 982 0660 9E       		.byte	0x9e
 983 0661 D4050000 		.4byte	0x5d4
 984 0665 03       		.uleb128 0x3
 985 0666 95040000 		.4byte	.LASF97
 986 066a 0C       		.byte	0xc
 987 066b FD       		.byte	0xfd
 988 066c 70060000 		.4byte	0x670
 989 0670 09       		.uleb128 0x9
 990 0671 04       		.byte	0x4
 991 0672 5A060000 		.4byte	0x65a
 992 0676 15       		.uleb128 0x15
 993 0677 01       		.byte	0x1
 994 0678 0D       		.byte	0xd
 995 0679 55       		.byte	0x55
 996 067a 9D060000 		.4byte	0x69d
 997 067e 16       		.uleb128 0x16
 998 067f BE040000 		.4byte	.LASF98
 999 0683 00       		.sleb128 0
 1000 0684 16       		.uleb128 0x16
 1001 0685 82010000 		.4byte	.LASF99
 1002 0689 01       		.sleb128 1
 1003 068a 16       		.uleb128 0x16
 1004 068b F6000000 		.4byte	.LASF100
 1005 068f 02       		.sleb128 2
 1006 0690 16       		.uleb128 0x16
 1007 0691 2A000000 		.4byte	.LASF101
 1008 0695 03       		.sleb128 3
 1009 0696 16       		.uleb128 0x16
 1010 0697 2D040000 		.4byte	.LASF102
 1011 069b 04       		.sleb128 4
 1012 069c 00       		.byte	0
 1013 069d 03       		.uleb128 0x3
 1014 069e 4C040000 		.4byte	.LASF103
 1015 06a2 0D       		.byte	0xd
 1016 06a3 5B       		.byte	0x5b
 1017 06a4 76060000 		.4byte	0x676
 1018 06a8 13       		.uleb128 0x13
 1019 06a9 32010000 		.4byte	.LASF104
 1020 06ad 0E       		.byte	0xe
 1021 06ae E701     		.2byte	0x1e7
 1022 06b0 B4060000 		.4byte	0x6b4
 1023 06b4 0B       		.uleb128 0xb
 1024 06b5 32010000 		.4byte	.LASF104
 1025 06b9 30       		.byte	0x30
ARM GAS  /tmp/ccMReNZT.s 			page 19


 1026 06ba 0E       		.byte	0xe
 1027 06bb 0B02     		.2byte	0x20b
 1028 06bd 37070000 		.4byte	0x737
 1029 06c1 12       		.uleb128 0x12
 1030 06c2 B3010000 		.4byte	.LASF105
 1031 06c6 0E       		.byte	0xe
 1032 06c7 0F02     		.2byte	0x20f
 1033 06c9 9D060000 		.4byte	0x69d
 1034 06cd 00       		.byte	0
 1035 06ce 12       		.uleb128 0x12
 1036 06cf 3A040000 		.4byte	.LASF106
 1037 06d3 0E       		.byte	0xe
 1038 06d4 1302     		.2byte	0x213
 1039 06d6 A4070000 		.4byte	0x7a4
 1040 06da 04       		.byte	0x4
 1041 06db 12       		.uleb128 0x12
 1042 06dc CB010000 		.4byte	.LASF107
 1043 06e0 0E       		.byte	0xe
 1044 06e1 1802     		.2byte	0x218
 1045 06e3 56020000 		.4byte	0x256
 1046 06e7 08       		.byte	0x8
 1047 06e8 12       		.uleb128 0x12
 1048 06e9 67030000 		.4byte	.LASF108
 1049 06ed 0E       		.byte	0xe
 1050 06ee 1F02     		.2byte	0x21f
 1051 06f0 79030000 		.4byte	0x379
 1052 06f4 0C       		.byte	0xc
 1053 06f5 0C       		.uleb128 0xc
 1054 06f6 73706900 		.ascii	"spi\000"
 1055 06fa 0E       		.byte	0xe
 1056 06fb 2B02     		.2byte	0x22b
 1057 06fd AF070000 		.4byte	0x7af
 1058 0701 1C       		.byte	0x1c
 1059 0702 12       		.uleb128 0x12
 1060 0703 00000000 		.4byte	.LASF109
 1061 0707 0E       		.byte	0xe
 1062 0708 2F02     		.2byte	0x22f
 1063 070a B5070000 		.4byte	0x7b5
 1064 070e 20       		.byte	0x20
 1065 070f 12       		.uleb128 0x12
 1066 0710 08020000 		.4byte	.LASF110
 1067 0714 0E       		.byte	0xe
 1068 0715 3302     		.2byte	0x233
 1069 0717 B5070000 		.4byte	0x7b5
 1070 071b 24       		.byte	0x24
 1071 071c 12       		.uleb128 0x12
 1072 071d F1010000 		.4byte	.LASF111
 1073 0721 0E       		.byte	0xe
 1074 0722 3702     		.2byte	0x237
 1075 0724 C3000000 		.4byte	0xc3
 1076 0728 28       		.byte	0x28
 1077 0729 12       		.uleb128 0x12
 1078 072a ED020000 		.4byte	.LASF112
 1079 072e 0E       		.byte	0xe
 1080 072f 3B02     		.2byte	0x23b
 1081 0731 C3000000 		.4byte	0xc3
 1082 0735 2C       		.byte	0x2c
ARM GAS  /tmp/ccMReNZT.s 			page 20


 1083 0736 00       		.byte	0
 1084 0737 13       		.uleb128 0x13
 1085 0738 A5010000 		.4byte	.LASF113
 1086 073c 0E       		.byte	0xe
 1087 073d EF01     		.2byte	0x1ef
 1088 073f 43070000 		.4byte	0x743
 1089 0743 09       		.uleb128 0x9
 1090 0744 04       		.byte	0x4
 1091 0745 49070000 		.4byte	0x749
 1092 0749 17       		.uleb128 0x17
 1093 074a 54070000 		.4byte	0x754
 1094 074e 18       		.uleb128 0x18
 1095 074f 54070000 		.4byte	0x754
 1096 0753 00       		.byte	0
 1097 0754 09       		.uleb128 0x9
 1098 0755 04       		.byte	0x4
 1099 0756 A8060000 		.4byte	0x6a8
 1100 075a 11       		.uleb128 0x11
 1101 075b 0C       		.byte	0xc
 1102 075c 0E       		.byte	0xe
 1103 075d F401     		.2byte	0x1f4
 1104 075f 98070000 		.4byte	0x798
 1105 0763 12       		.uleb128 0x12
 1106 0764 EA010000 		.4byte	.LASF114
 1107 0768 0E       		.byte	0xe
 1108 0769 F801     		.2byte	0x1f8
 1109 076b 37070000 		.4byte	0x737
 1110 076f 00       		.byte	0
 1111 0770 12       		.uleb128 0x12
 1112 0771 3C010000 		.4byte	.LASF115
 1113 0775 0E       		.byte	0xe
 1114 0776 FD01     		.2byte	0x1fd
 1115 0778 65060000 		.4byte	0x665
 1116 077c 04       		.byte	0x4
 1117 077d 12       		.uleb128 0x12
 1118 077e 5D010000 		.4byte	.LASF116
 1119 0782 0E       		.byte	0xe
 1120 0783 0102     		.2byte	0x201
 1121 0785 AD000000 		.4byte	0xad
 1122 0789 08       		.byte	0x8
 1123 078a 0C       		.uleb128 0xc
 1124 078b 63723100 		.ascii	"cr1\000"
 1125 078f 0E       		.byte	0xe
 1126 0790 0502     		.2byte	0x205
 1127 0792 AD000000 		.4byte	0xad
 1128 0796 0A       		.byte	0xa
 1129 0797 00       		.byte	0
 1130 0798 13       		.uleb128 0x13
 1131 0799 5A050000 		.4byte	.LASF117
 1132 079d 0E       		.byte	0xe
 1133 079e 0602     		.2byte	0x206
 1134 07a0 5A070000 		.4byte	0x75a
 1135 07a4 09       		.uleb128 0x9
 1136 07a5 04       		.byte	0x4
 1137 07a6 AA070000 		.4byte	0x7aa
 1138 07aa 10       		.uleb128 0x10
 1139 07ab 98070000 		.4byte	0x798
ARM GAS  /tmp/ccMReNZT.s 			page 21


 1140 07af 09       		.uleb128 0x9
 1141 07b0 04       		.byte	0x4
 1142 07b1 30050000 		.4byte	0x530
 1143 07b5 09       		.uleb128 0x9
 1144 07b6 04       		.byte	0x4
 1145 07b7 BB070000 		.4byte	0x7bb
 1146 07bb 10       		.uleb128 0x10
 1147 07bc 8D050000 		.4byte	0x58d
 1148 07c0 19       		.uleb128 0x19
 1149 07c1 C9040000 		.4byte	.LASF128
 1150 07c5 01       		.byte	0x1
 1151 07c6 3C       		.byte	0x3c
 1152 07c7 A2000000 		.4byte	0xa2
 1153 07cb 00000000 		.4byte	.LFB118
 1154 07cf 3C000000 		.4byte	.LFE118-.LFB118
 1155 07d3 01       		.uleb128 0x1
 1156 07d4 9C       		.byte	0x9c
 1157 07d5 41080000 		.4byte	0x841
 1158 07d9 1A       		.uleb128 0x1a
 1159 07da F4040000 		.4byte	.LASF118
 1160 07de 01       		.byte	0x1
 1161 07df 3C       		.byte	0x3c
 1162 07e0 54070000 		.4byte	0x754
 1163 07e4 00000000 		.4byte	.LLST0
 1164 07e8 1B       		.uleb128 0x1b
 1165 07e9 72656700 		.ascii	"reg\000"
 1166 07ed 01       		.byte	0x1
 1167 07ee 3C       		.byte	0x3c
 1168 07ef A2000000 		.4byte	0xa2
 1169 07f3 1E000000 		.4byte	.LLST1
 1170 07f7 1C       		.uleb128 0x1c
 1171 07f8 1A000000 		.4byte	.LVL1
 1172 07fc FE080000 		.4byte	0x8fe
 1173 0800 0B080000 		.4byte	0x80b
 1174 0804 1D       		.uleb128 0x1d
 1175 0805 01       		.uleb128 0x1
 1176 0806 50       		.byte	0x50
 1177 0807 02       		.uleb128 0x2
 1178 0808 76       		.byte	0x76
 1179 0809 00       		.sleb128 0
 1180 080a 00       		.byte	0
 1181 080b 1C       		.uleb128 0x1c
 1182 080c 32000000 		.4byte	.LVL2
 1183 0810 10090000 		.4byte	0x910
 1184 0814 30080000 		.4byte	0x830
 1185 0818 1D       		.uleb128 0x1d
 1186 0819 01       		.uleb128 0x1
 1187 081a 53       		.byte	0x53
 1188 081b 02       		.uleb128 0x2
 1189 081c 75       		.byte	0x75
 1190 081d 00       		.sleb128 0
 1191 081e 1D       		.uleb128 0x1d
 1192 081f 01       		.uleb128 0x1
 1193 0820 52       		.byte	0x52
 1194 0821 02       		.uleb128 0x2
 1195 0822 74       		.byte	0x74
 1196 0823 00       		.sleb128 0
ARM GAS  /tmp/ccMReNZT.s 			page 22


 1197 0824 1D       		.uleb128 0x1d
 1198 0825 01       		.uleb128 0x1
 1199 0826 51       		.byte	0x51
 1200 0827 01       		.uleb128 0x1
 1201 0828 32       		.byte	0x32
 1202 0829 1D       		.uleb128 0x1d
 1203 082a 01       		.uleb128 0x1
 1204 082b 50       		.byte	0x50
 1205 082c 02       		.uleb128 0x2
 1206 082d 76       		.byte	0x76
 1207 082e 00       		.sleb128 0
 1208 082f 00       		.byte	0
 1209 0830 1E       		.uleb128 0x1e
 1210 0831 38000000 		.4byte	.LVL3
 1211 0835 38090000 		.4byte	0x938
 1212 0839 1D       		.uleb128 0x1d
 1213 083a 01       		.uleb128 0x1
 1214 083b 50       		.byte	0x50
 1215 083c 02       		.uleb128 0x2
 1216 083d 76       		.byte	0x76
 1217 083e 00       		.sleb128 0
 1218 083f 00       		.byte	0
 1219 0840 00       		.byte	0
 1220 0841 1F       		.uleb128 0x1f
 1221 0842 1C010000 		.4byte	.LASF129
 1222 0846 01       		.byte	0x1
 1223 0847 4E       		.byte	0x4e
 1224 0848 00000000 		.4byte	.LFB119
 1225 084c 48000000 		.4byte	.LFE119-.LFB119
 1226 0850 01       		.uleb128 0x1
 1227 0851 9C       		.byte	0x9c
 1228 0852 C0080000 		.4byte	0x8c0
 1229 0856 1A       		.uleb128 0x1a
 1230 0857 F4040000 		.4byte	.LASF118
 1231 085b 01       		.byte	0x1
 1232 085c 4E       		.byte	0x4e
 1233 085d 54070000 		.4byte	0x754
 1234 0861 3F000000 		.4byte	.LLST2
 1235 0865 1B       		.uleb128 0x1b
 1236 0866 72656700 		.ascii	"reg\000"
 1237 086a 01       		.byte	0x1
 1238 086b 4E       		.byte	0x4e
 1239 086c A2000000 		.4byte	0xa2
 1240 0870 76000000 		.4byte	.LLST3
 1241 0874 1A       		.uleb128 0x1a
 1242 0875 48020000 		.4byte	.LASF119
 1243 0879 01       		.byte	0x1
 1244 087a 4E       		.byte	0x4e
 1245 087b A2000000 		.4byte	0xa2
 1246 087f 97000000 		.4byte	.LLST4
 1247 0883 20       		.uleb128 0x20
 1248 0884 28000000 		.4byte	.LVL6
 1249 0888 FE080000 		.4byte	0x8fe
 1250 088c 1C       		.uleb128 0x1c
 1251 088d 3E000000 		.4byte	.LVL7
 1252 0891 4A090000 		.4byte	0x94a
 1253 0895 AE080000 		.4byte	0x8ae
ARM GAS  /tmp/ccMReNZT.s 			page 23


 1254 0899 1D       		.uleb128 0x1d
 1255 089a 01       		.uleb128 0x1
 1256 089b 52       		.byte	0x52
 1257 089c 05       		.uleb128 0x5
 1258 089d 03       		.byte	0x3
 1259 089e 00000000 		.4byte	.LANCHOR0
 1260 08a2 1D       		.uleb128 0x1d
 1261 08a3 01       		.uleb128 0x1
 1262 08a4 51       		.byte	0x51
 1263 08a5 01       		.uleb128 0x1
 1264 08a6 32       		.byte	0x32
 1265 08a7 1D       		.uleb128 0x1d
 1266 08a8 01       		.uleb128 0x1
 1267 08a9 50       		.byte	0x50
 1268 08aa 02       		.uleb128 0x2
 1269 08ab 76       		.byte	0x76
 1270 08ac 00       		.sleb128 0
 1271 08ad 00       		.byte	0
 1272 08ae 21       		.uleb128 0x21
 1273 08af 48000000 		.4byte	.LVL9
 1274 08b3 38090000 		.4byte	0x938
 1275 08b7 1D       		.uleb128 0x1d
 1276 08b8 01       		.uleb128 0x1
 1277 08b9 50       		.byte	0x50
 1278 08ba 03       		.uleb128 0x3
 1279 08bb F3       		.byte	0xf3
 1280 08bc 01       		.uleb128 0x1
 1281 08bd 50       		.byte	0x50
 1282 08be 00       		.byte	0
 1283 08bf 00       		.byte	0
 1284 08c0 22       		.uleb128 0x22
 1285 08c1 A2000000 		.4byte	0xa2
 1286 08c5 D0080000 		.4byte	0x8d0
 1287 08c9 23       		.uleb128 0x23
 1288 08ca 36030000 		.4byte	0x336
 1289 08ce 01       		.byte	0x1
 1290 08cf 00       		.byte	0
 1291 08d0 24       		.uleb128 0x24
 1292 08d1 5B020000 		.4byte	.LASF120
 1293 08d5 01       		.byte	0x1
 1294 08d6 29       		.byte	0x29
 1295 08d7 C0080000 		.4byte	0x8c0
 1296 08db 05       		.uleb128 0x5
 1297 08dc 03       		.byte	0x3
 1298 08dd 00000000 		.4byte	txbuf
 1299 08e1 24       		.uleb128 0x24
 1300 08e2 50010000 		.4byte	.LASF121
 1301 08e6 01       		.byte	0x1
 1302 08e7 2A       		.byte	0x2a
 1303 08e8 C0080000 		.4byte	0x8c0
 1304 08ec 05       		.uleb128 0x5
 1305 08ed 03       		.byte	0x3
 1306 08ee 00000000 		.4byte	rxbuf
 1307 08f2 25       		.uleb128 0x25
 1308 08f3 43010000 		.4byte	.LASF130
 1309 08f7 0F       		.byte	0xf
 1310 08f8 9806     		.2byte	0x698
ARM GAS  /tmp/ccMReNZT.s 			page 24


 1311 08fa D6030000 		.4byte	0x3d6
 1312 08fe 26       		.uleb128 0x26
 1313 08ff A8040000 		.4byte	.LASF122
 1314 0903 0D       		.byte	0xd
 1315 0904 3201     		.2byte	0x132
 1316 0906 10090000 		.4byte	0x910
 1317 090a 18       		.uleb128 0x18
 1318 090b 54070000 		.4byte	0x754
 1319 090f 00       		.byte	0
 1320 0910 26       		.uleb128 0x26
 1321 0911 B1020000 		.4byte	.LASF123
 1322 0915 0D       		.byte	0xd
 1323 0916 3B01     		.2byte	0x13b
 1324 0918 31090000 		.4byte	0x931
 1325 091c 18       		.uleb128 0x18
 1326 091d 54070000 		.4byte	0x754
 1327 0921 18       		.uleb128 0x18
 1328 0922 2C000000 		.4byte	0x2c
 1329 0926 18       		.uleb128 0x18
 1330 0927 31090000 		.4byte	0x931
 1331 092b 18       		.uleb128 0x18
 1332 092c 92020000 		.4byte	0x292
 1333 0930 00       		.byte	0
 1334 0931 09       		.uleb128 0x9
 1335 0932 04       		.byte	0x4
 1336 0933 37090000 		.4byte	0x937
 1337 0937 27       		.uleb128 0x27
 1338 0938 26       		.uleb128 0x26
 1339 0939 3C020000 		.4byte	.LASF124
 1340 093d 0D       		.byte	0xd
 1341 093e 3301     		.2byte	0x133
 1342 0940 4A090000 		.4byte	0x94a
 1343 0944 18       		.uleb128 0x18
 1344 0945 54070000 		.4byte	0x754
 1345 0949 00       		.byte	0
 1346 094a 28       		.uleb128 0x28
 1347 094b 07050000 		.4byte	.LASF131
 1348 094f 0D       		.byte	0xd
 1349 0950 3C01     		.2byte	0x13c
 1350 0952 18       		.uleb128 0x18
 1351 0953 54070000 		.4byte	0x754
 1352 0957 18       		.uleb128 0x18
 1353 0958 2C000000 		.4byte	0x2c
 1354 095c 18       		.uleb128 0x18
 1355 095d 31090000 		.4byte	0x931
 1356 0961 00       		.byte	0
 1357 0962 00       		.byte	0
 1358              		.section	.debug_abbrev,"",%progbits
 1359              	.Ldebug_abbrev0:
 1360 0000 01       		.uleb128 0x1
 1361 0001 11       		.uleb128 0x11
 1362 0002 01       		.byte	0x1
 1363 0003 25       		.uleb128 0x25
 1364 0004 0E       		.uleb128 0xe
 1365 0005 13       		.uleb128 0x13
 1366 0006 0B       		.uleb128 0xb
 1367 0007 03       		.uleb128 0x3
ARM GAS  /tmp/ccMReNZT.s 			page 25


 1368 0008 0E       		.uleb128 0xe
 1369 0009 1B       		.uleb128 0x1b
 1370 000a 0E       		.uleb128 0xe
 1371 000b 55       		.uleb128 0x55
 1372 000c 17       		.uleb128 0x17
 1373 000d 11       		.uleb128 0x11
 1374 000e 01       		.uleb128 0x1
 1375 000f 10       		.uleb128 0x10
 1376 0010 17       		.uleb128 0x17
 1377 0011 00       		.byte	0
 1378 0012 00       		.byte	0
 1379 0013 02       		.uleb128 0x2
 1380 0014 24       		.uleb128 0x24
 1381 0015 00       		.byte	0
 1382 0016 0B       		.uleb128 0xb
 1383 0017 0B       		.uleb128 0xb
 1384 0018 3E       		.uleb128 0x3e
 1385 0019 0B       		.uleb128 0xb
 1386 001a 03       		.uleb128 0x3
 1387 001b 08       		.uleb128 0x8
 1388 001c 00       		.byte	0
 1389 001d 00       		.byte	0
 1390 001e 03       		.uleb128 0x3
 1391 001f 16       		.uleb128 0x16
 1392 0020 00       		.byte	0
 1393 0021 03       		.uleb128 0x3
 1394 0022 0E       		.uleb128 0xe
 1395 0023 3A       		.uleb128 0x3a
 1396 0024 0B       		.uleb128 0xb
 1397 0025 3B       		.uleb128 0x3b
 1398 0026 0B       		.uleb128 0xb
 1399 0027 49       		.uleb128 0x49
 1400 0028 13       		.uleb128 0x13
 1401 0029 00       		.byte	0
 1402 002a 00       		.byte	0
 1403 002b 04       		.uleb128 0x4
 1404 002c 24       		.uleb128 0x24
 1405 002d 00       		.byte	0
 1406 002e 0B       		.uleb128 0xb
 1407 002f 0B       		.uleb128 0xb
 1408 0030 3E       		.uleb128 0x3e
 1409 0031 0B       		.uleb128 0xb
 1410 0032 03       		.uleb128 0x3
 1411 0033 0E       		.uleb128 0xe
 1412 0034 00       		.byte	0
 1413 0035 00       		.byte	0
 1414 0036 05       		.uleb128 0x5
 1415 0037 13       		.uleb128 0x13
 1416 0038 01       		.byte	0x1
 1417 0039 03       		.uleb128 0x3
 1418 003a 0E       		.uleb128 0xe
 1419 003b 0B       		.uleb128 0xb
 1420 003c 0B       		.uleb128 0xb
 1421 003d 3A       		.uleb128 0x3a
 1422 003e 0B       		.uleb128 0xb
 1423 003f 3B       		.uleb128 0x3b
 1424 0040 0B       		.uleb128 0xb
ARM GAS  /tmp/ccMReNZT.s 			page 26


 1425 0041 01       		.uleb128 0x1
 1426 0042 13       		.uleb128 0x13
 1427 0043 00       		.byte	0
 1428 0044 00       		.byte	0
 1429 0045 06       		.uleb128 0x6
 1430 0046 0D       		.uleb128 0xd
 1431 0047 00       		.byte	0
 1432 0048 03       		.uleb128 0x3
 1433 0049 0E       		.uleb128 0xe
 1434 004a 3A       		.uleb128 0x3a
 1435 004b 0B       		.uleb128 0xb
 1436 004c 3B       		.uleb128 0x3b
 1437 004d 0B       		.uleb128 0xb
 1438 004e 49       		.uleb128 0x49
 1439 004f 13       		.uleb128 0x13
 1440 0050 38       		.uleb128 0x38
 1441 0051 0B       		.uleb128 0xb
 1442 0052 00       		.byte	0
 1443 0053 00       		.byte	0
 1444 0054 07       		.uleb128 0x7
 1445 0055 0D       		.uleb128 0xd
 1446 0056 00       		.byte	0
 1447 0057 03       		.uleb128 0x3
 1448 0058 08       		.uleb128 0x8
 1449 0059 3A       		.uleb128 0x3a
 1450 005a 0B       		.uleb128 0xb
 1451 005b 3B       		.uleb128 0x3b
 1452 005c 0B       		.uleb128 0xb
 1453 005d 49       		.uleb128 0x49
 1454 005e 13       		.uleb128 0x13
 1455 005f 38       		.uleb128 0x38
 1456 0060 0B       		.uleb128 0xb
 1457 0061 00       		.byte	0
 1458 0062 00       		.byte	0
 1459 0063 08       		.uleb128 0x8
 1460 0064 13       		.uleb128 0x13
 1461 0065 01       		.byte	0x1
 1462 0066 0B       		.uleb128 0xb
 1463 0067 0B       		.uleb128 0xb
 1464 0068 3A       		.uleb128 0x3a
 1465 0069 0B       		.uleb128 0xb
 1466 006a 3B       		.uleb128 0x3b
 1467 006b 0B       		.uleb128 0xb
 1468 006c 01       		.uleb128 0x1
 1469 006d 13       		.uleb128 0x13
 1470 006e 00       		.byte	0
 1471 006f 00       		.byte	0
 1472 0070 09       		.uleb128 0x9
 1473 0071 0F       		.uleb128 0xf
 1474 0072 00       		.byte	0
 1475 0073 0B       		.uleb128 0xb
 1476 0074 0B       		.uleb128 0xb
 1477 0075 49       		.uleb128 0x49
 1478 0076 13       		.uleb128 0x13
 1479 0077 00       		.byte	0
 1480 0078 00       		.byte	0
 1481 0079 0A       		.uleb128 0xa
ARM GAS  /tmp/ccMReNZT.s 			page 27


 1482 007a 0F       		.uleb128 0xf
 1483 007b 00       		.byte	0
 1484 007c 0B       		.uleb128 0xb
 1485 007d 0B       		.uleb128 0xb
 1486 007e 00       		.byte	0
 1487 007f 00       		.byte	0
 1488 0080 0B       		.uleb128 0xb
 1489 0081 13       		.uleb128 0x13
 1490 0082 01       		.byte	0x1
 1491 0083 03       		.uleb128 0x3
 1492 0084 0E       		.uleb128 0xe
 1493 0085 0B       		.uleb128 0xb
 1494 0086 0B       		.uleb128 0xb
 1495 0087 3A       		.uleb128 0x3a
 1496 0088 0B       		.uleb128 0xb
 1497 0089 3B       		.uleb128 0x3b
 1498 008a 05       		.uleb128 0x5
 1499 008b 01       		.uleb128 0x1
 1500 008c 13       		.uleb128 0x13
 1501 008d 00       		.byte	0
 1502 008e 00       		.byte	0
 1503 008f 0C       		.uleb128 0xc
 1504 0090 0D       		.uleb128 0xd
 1505 0091 00       		.byte	0
 1506 0092 03       		.uleb128 0x3
 1507 0093 08       		.uleb128 0x8
 1508 0094 3A       		.uleb128 0x3a
 1509 0095 0B       		.uleb128 0xb
 1510 0096 3B       		.uleb128 0x3b
 1511 0097 05       		.uleb128 0x5
 1512 0098 49       		.uleb128 0x49
 1513 0099 13       		.uleb128 0x13
 1514 009a 38       		.uleb128 0x38
 1515 009b 0B       		.uleb128 0xb
 1516 009c 00       		.byte	0
 1517 009d 00       		.byte	0
 1518 009e 0D       		.uleb128 0xd
 1519 009f 35       		.uleb128 0x35
 1520 00a0 00       		.byte	0
 1521 00a1 49       		.uleb128 0x49
 1522 00a2 13       		.uleb128 0x13
 1523 00a3 00       		.byte	0
 1524 00a4 00       		.byte	0
 1525 00a5 0E       		.uleb128 0xe
 1526 00a6 17       		.uleb128 0x17
 1527 00a7 01       		.byte	0x1
 1528 00a8 0B       		.uleb128 0xb
 1529 00a9 0B       		.uleb128 0xb
 1530 00aa 3A       		.uleb128 0x3a
 1531 00ab 0B       		.uleb128 0xb
 1532 00ac 3B       		.uleb128 0x3b
 1533 00ad 0B       		.uleb128 0xb
 1534 00ae 01       		.uleb128 0x1
 1535 00af 13       		.uleb128 0x13
 1536 00b0 00       		.byte	0
 1537 00b1 00       		.byte	0
 1538 00b2 0F       		.uleb128 0xf
ARM GAS  /tmp/ccMReNZT.s 			page 28


 1539 00b3 0D       		.uleb128 0xd
 1540 00b4 00       		.byte	0
 1541 00b5 03       		.uleb128 0x3
 1542 00b6 0E       		.uleb128 0xe
 1543 00b7 3A       		.uleb128 0x3a
 1544 00b8 0B       		.uleb128 0xb
 1545 00b9 3B       		.uleb128 0x3b
 1546 00ba 0B       		.uleb128 0xb
 1547 00bb 49       		.uleb128 0x49
 1548 00bc 13       		.uleb128 0x13
 1549 00bd 00       		.byte	0
 1550 00be 00       		.byte	0
 1551 00bf 10       		.uleb128 0x10
 1552 00c0 26       		.uleb128 0x26
 1553 00c1 00       		.byte	0
 1554 00c2 49       		.uleb128 0x49
 1555 00c3 13       		.uleb128 0x13
 1556 00c4 00       		.byte	0
 1557 00c5 00       		.byte	0
 1558 00c6 11       		.uleb128 0x11
 1559 00c7 13       		.uleb128 0x13
 1560 00c8 01       		.byte	0x1
 1561 00c9 0B       		.uleb128 0xb
 1562 00ca 0B       		.uleb128 0xb
 1563 00cb 3A       		.uleb128 0x3a
 1564 00cc 0B       		.uleb128 0xb
 1565 00cd 3B       		.uleb128 0x3b
 1566 00ce 05       		.uleb128 0x5
 1567 00cf 01       		.uleb128 0x1
 1568 00d0 13       		.uleb128 0x13
 1569 00d1 00       		.byte	0
 1570 00d2 00       		.byte	0
 1571 00d3 12       		.uleb128 0x12
 1572 00d4 0D       		.uleb128 0xd
 1573 00d5 00       		.byte	0
 1574 00d6 03       		.uleb128 0x3
 1575 00d7 0E       		.uleb128 0xe
 1576 00d8 3A       		.uleb128 0x3a
 1577 00d9 0B       		.uleb128 0xb
 1578 00da 3B       		.uleb128 0x3b
 1579 00db 05       		.uleb128 0x5
 1580 00dc 49       		.uleb128 0x49
 1581 00dd 13       		.uleb128 0x13
 1582 00de 38       		.uleb128 0x38
 1583 00df 0B       		.uleb128 0xb
 1584 00e0 00       		.byte	0
 1585 00e1 00       		.byte	0
 1586 00e2 13       		.uleb128 0x13
 1587 00e3 16       		.uleb128 0x16
 1588 00e4 00       		.byte	0
 1589 00e5 03       		.uleb128 0x3
 1590 00e6 0E       		.uleb128 0xe
 1591 00e7 3A       		.uleb128 0x3a
 1592 00e8 0B       		.uleb128 0xb
 1593 00e9 3B       		.uleb128 0x3b
 1594 00ea 05       		.uleb128 0x5
 1595 00eb 49       		.uleb128 0x49
ARM GAS  /tmp/ccMReNZT.s 			page 29


 1596 00ec 13       		.uleb128 0x13
 1597 00ed 00       		.byte	0
 1598 00ee 00       		.byte	0
 1599 00ef 14       		.uleb128 0x14
 1600 00f0 0D       		.uleb128 0xd
 1601 00f1 00       		.byte	0
 1602 00f2 03       		.uleb128 0x3
 1603 00f3 08       		.uleb128 0x8
 1604 00f4 3A       		.uleb128 0x3a
 1605 00f5 0B       		.uleb128 0xb
 1606 00f6 3B       		.uleb128 0x3b
 1607 00f7 0B       		.uleb128 0xb
 1608 00f8 49       		.uleb128 0x49
 1609 00f9 13       		.uleb128 0x13
 1610 00fa 00       		.byte	0
 1611 00fb 00       		.byte	0
 1612 00fc 15       		.uleb128 0x15
 1613 00fd 04       		.uleb128 0x4
 1614 00fe 01       		.byte	0x1
 1615 00ff 0B       		.uleb128 0xb
 1616 0100 0B       		.uleb128 0xb
 1617 0101 3A       		.uleb128 0x3a
 1618 0102 0B       		.uleb128 0xb
 1619 0103 3B       		.uleb128 0x3b
 1620 0104 0B       		.uleb128 0xb
 1621 0105 01       		.uleb128 0x1
 1622 0106 13       		.uleb128 0x13
 1623 0107 00       		.byte	0
 1624 0108 00       		.byte	0
 1625 0109 16       		.uleb128 0x16
 1626 010a 28       		.uleb128 0x28
 1627 010b 00       		.byte	0
 1628 010c 03       		.uleb128 0x3
 1629 010d 0E       		.uleb128 0xe
 1630 010e 1C       		.uleb128 0x1c
 1631 010f 0D       		.uleb128 0xd
 1632 0110 00       		.byte	0
 1633 0111 00       		.byte	0
 1634 0112 17       		.uleb128 0x17
 1635 0113 15       		.uleb128 0x15
 1636 0114 01       		.byte	0x1
 1637 0115 27       		.uleb128 0x27
 1638 0116 19       		.uleb128 0x19
 1639 0117 01       		.uleb128 0x1
 1640 0118 13       		.uleb128 0x13
 1641 0119 00       		.byte	0
 1642 011a 00       		.byte	0
 1643 011b 18       		.uleb128 0x18
 1644 011c 05       		.uleb128 0x5
 1645 011d 00       		.byte	0
 1646 011e 49       		.uleb128 0x49
 1647 011f 13       		.uleb128 0x13
 1648 0120 00       		.byte	0
 1649 0121 00       		.byte	0
 1650 0122 19       		.uleb128 0x19
 1651 0123 2E       		.uleb128 0x2e
 1652 0124 01       		.byte	0x1
ARM GAS  /tmp/ccMReNZT.s 			page 30


 1653 0125 3F       		.uleb128 0x3f
 1654 0126 19       		.uleb128 0x19
 1655 0127 03       		.uleb128 0x3
 1656 0128 0E       		.uleb128 0xe
 1657 0129 3A       		.uleb128 0x3a
 1658 012a 0B       		.uleb128 0xb
 1659 012b 3B       		.uleb128 0x3b
 1660 012c 0B       		.uleb128 0xb
 1661 012d 27       		.uleb128 0x27
 1662 012e 19       		.uleb128 0x19
 1663 012f 49       		.uleb128 0x49
 1664 0130 13       		.uleb128 0x13
 1665 0131 11       		.uleb128 0x11
 1666 0132 01       		.uleb128 0x1
 1667 0133 12       		.uleb128 0x12
 1668 0134 06       		.uleb128 0x6
 1669 0135 40       		.uleb128 0x40
 1670 0136 18       		.uleb128 0x18
 1671 0137 9742     		.uleb128 0x2117
 1672 0139 19       		.uleb128 0x19
 1673 013a 01       		.uleb128 0x1
 1674 013b 13       		.uleb128 0x13
 1675 013c 00       		.byte	0
 1676 013d 00       		.byte	0
 1677 013e 1A       		.uleb128 0x1a
 1678 013f 05       		.uleb128 0x5
 1679 0140 00       		.byte	0
 1680 0141 03       		.uleb128 0x3
 1681 0142 0E       		.uleb128 0xe
 1682 0143 3A       		.uleb128 0x3a
 1683 0144 0B       		.uleb128 0xb
 1684 0145 3B       		.uleb128 0x3b
 1685 0146 0B       		.uleb128 0xb
 1686 0147 49       		.uleb128 0x49
 1687 0148 13       		.uleb128 0x13
 1688 0149 02       		.uleb128 0x2
 1689 014a 17       		.uleb128 0x17
 1690 014b 00       		.byte	0
 1691 014c 00       		.byte	0
 1692 014d 1B       		.uleb128 0x1b
 1693 014e 05       		.uleb128 0x5
 1694 014f 00       		.byte	0
 1695 0150 03       		.uleb128 0x3
 1696 0151 08       		.uleb128 0x8
 1697 0152 3A       		.uleb128 0x3a
 1698 0153 0B       		.uleb128 0xb
 1699 0154 3B       		.uleb128 0x3b
 1700 0155 0B       		.uleb128 0xb
 1701 0156 49       		.uleb128 0x49
 1702 0157 13       		.uleb128 0x13
 1703 0158 02       		.uleb128 0x2
 1704 0159 17       		.uleb128 0x17
 1705 015a 00       		.byte	0
 1706 015b 00       		.byte	0
 1707 015c 1C       		.uleb128 0x1c
 1708 015d 898201   		.uleb128 0x4109
 1709 0160 01       		.byte	0x1
ARM GAS  /tmp/ccMReNZT.s 			page 31


 1710 0161 11       		.uleb128 0x11
 1711 0162 01       		.uleb128 0x1
 1712 0163 31       		.uleb128 0x31
 1713 0164 13       		.uleb128 0x13
 1714 0165 01       		.uleb128 0x1
 1715 0166 13       		.uleb128 0x13
 1716 0167 00       		.byte	0
 1717 0168 00       		.byte	0
 1718 0169 1D       		.uleb128 0x1d
 1719 016a 8A8201   		.uleb128 0x410a
 1720 016d 00       		.byte	0
 1721 016e 02       		.uleb128 0x2
 1722 016f 18       		.uleb128 0x18
 1723 0170 9142     		.uleb128 0x2111
 1724 0172 18       		.uleb128 0x18
 1725 0173 00       		.byte	0
 1726 0174 00       		.byte	0
 1727 0175 1E       		.uleb128 0x1e
 1728 0176 898201   		.uleb128 0x4109
 1729 0179 01       		.byte	0x1
 1730 017a 11       		.uleb128 0x11
 1731 017b 01       		.uleb128 0x1
 1732 017c 31       		.uleb128 0x31
 1733 017d 13       		.uleb128 0x13
 1734 017e 00       		.byte	0
 1735 017f 00       		.byte	0
 1736 0180 1F       		.uleb128 0x1f
 1737 0181 2E       		.uleb128 0x2e
 1738 0182 01       		.byte	0x1
 1739 0183 3F       		.uleb128 0x3f
 1740 0184 19       		.uleb128 0x19
 1741 0185 03       		.uleb128 0x3
 1742 0186 0E       		.uleb128 0xe
 1743 0187 3A       		.uleb128 0x3a
 1744 0188 0B       		.uleb128 0xb
 1745 0189 3B       		.uleb128 0x3b
 1746 018a 0B       		.uleb128 0xb
 1747 018b 27       		.uleb128 0x27
 1748 018c 19       		.uleb128 0x19
 1749 018d 11       		.uleb128 0x11
 1750 018e 01       		.uleb128 0x1
 1751 018f 12       		.uleb128 0x12
 1752 0190 06       		.uleb128 0x6
 1753 0191 40       		.uleb128 0x40
 1754 0192 18       		.uleb128 0x18
 1755 0193 9742     		.uleb128 0x2117
 1756 0195 19       		.uleb128 0x19
 1757 0196 01       		.uleb128 0x1
 1758 0197 13       		.uleb128 0x13
 1759 0198 00       		.byte	0
 1760 0199 00       		.byte	0
 1761 019a 20       		.uleb128 0x20
 1762 019b 898201   		.uleb128 0x4109
 1763 019e 00       		.byte	0
 1764 019f 11       		.uleb128 0x11
 1765 01a0 01       		.uleb128 0x1
 1766 01a1 31       		.uleb128 0x31
ARM GAS  /tmp/ccMReNZT.s 			page 32


 1767 01a2 13       		.uleb128 0x13
 1768 01a3 00       		.byte	0
 1769 01a4 00       		.byte	0
 1770 01a5 21       		.uleb128 0x21
 1771 01a6 898201   		.uleb128 0x4109
 1772 01a9 01       		.byte	0x1
 1773 01aa 11       		.uleb128 0x11
 1774 01ab 01       		.uleb128 0x1
 1775 01ac 9542     		.uleb128 0x2115
 1776 01ae 19       		.uleb128 0x19
 1777 01af 31       		.uleb128 0x31
 1778 01b0 13       		.uleb128 0x13
 1779 01b1 00       		.byte	0
 1780 01b2 00       		.byte	0
 1781 01b3 22       		.uleb128 0x22
 1782 01b4 01       		.uleb128 0x1
 1783 01b5 01       		.byte	0x1
 1784 01b6 49       		.uleb128 0x49
 1785 01b7 13       		.uleb128 0x13
 1786 01b8 01       		.uleb128 0x1
 1787 01b9 13       		.uleb128 0x13
 1788 01ba 00       		.byte	0
 1789 01bb 00       		.byte	0
 1790 01bc 23       		.uleb128 0x23
 1791 01bd 21       		.uleb128 0x21
 1792 01be 00       		.byte	0
 1793 01bf 49       		.uleb128 0x49
 1794 01c0 13       		.uleb128 0x13
 1795 01c1 2F       		.uleb128 0x2f
 1796 01c2 0B       		.uleb128 0xb
 1797 01c3 00       		.byte	0
 1798 01c4 00       		.byte	0
 1799 01c5 24       		.uleb128 0x24
 1800 01c6 34       		.uleb128 0x34
 1801 01c7 00       		.byte	0
 1802 01c8 03       		.uleb128 0x3
 1803 01c9 0E       		.uleb128 0xe
 1804 01ca 3A       		.uleb128 0x3a
 1805 01cb 0B       		.uleb128 0xb
 1806 01cc 3B       		.uleb128 0x3b
 1807 01cd 0B       		.uleb128 0xb
 1808 01ce 49       		.uleb128 0x49
 1809 01cf 13       		.uleb128 0x13
 1810 01d0 02       		.uleb128 0x2
 1811 01d1 18       		.uleb128 0x18
 1812 01d2 00       		.byte	0
 1813 01d3 00       		.byte	0
 1814 01d4 25       		.uleb128 0x25
 1815 01d5 34       		.uleb128 0x34
 1816 01d6 00       		.byte	0
 1817 01d7 03       		.uleb128 0x3
 1818 01d8 0E       		.uleb128 0xe
 1819 01d9 3A       		.uleb128 0x3a
 1820 01da 0B       		.uleb128 0xb
 1821 01db 3B       		.uleb128 0x3b
 1822 01dc 05       		.uleb128 0x5
 1823 01dd 49       		.uleb128 0x49
ARM GAS  /tmp/ccMReNZT.s 			page 33


 1824 01de 13       		.uleb128 0x13
 1825 01df 3F       		.uleb128 0x3f
 1826 01e0 19       		.uleb128 0x19
 1827 01e1 3C       		.uleb128 0x3c
 1828 01e2 19       		.uleb128 0x19
 1829 01e3 00       		.byte	0
 1830 01e4 00       		.byte	0
 1831 01e5 26       		.uleb128 0x26
 1832 01e6 2E       		.uleb128 0x2e
 1833 01e7 01       		.byte	0x1
 1834 01e8 3F       		.uleb128 0x3f
 1835 01e9 19       		.uleb128 0x19
 1836 01ea 03       		.uleb128 0x3
 1837 01eb 0E       		.uleb128 0xe
 1838 01ec 3A       		.uleb128 0x3a
 1839 01ed 0B       		.uleb128 0xb
 1840 01ee 3B       		.uleb128 0x3b
 1841 01ef 05       		.uleb128 0x5
 1842 01f0 27       		.uleb128 0x27
 1843 01f1 19       		.uleb128 0x19
 1844 01f2 3C       		.uleb128 0x3c
 1845 01f3 19       		.uleb128 0x19
 1846 01f4 01       		.uleb128 0x1
 1847 01f5 13       		.uleb128 0x13
 1848 01f6 00       		.byte	0
 1849 01f7 00       		.byte	0
 1850 01f8 27       		.uleb128 0x27
 1851 01f9 26       		.uleb128 0x26
 1852 01fa 00       		.byte	0
 1853 01fb 00       		.byte	0
 1854 01fc 00       		.byte	0
 1855 01fd 28       		.uleb128 0x28
 1856 01fe 2E       		.uleb128 0x2e
 1857 01ff 01       		.byte	0x1
 1858 0200 3F       		.uleb128 0x3f
 1859 0201 19       		.uleb128 0x19
 1860 0202 03       		.uleb128 0x3
 1861 0203 0E       		.uleb128 0xe
 1862 0204 3A       		.uleb128 0x3a
 1863 0205 0B       		.uleb128 0xb
 1864 0206 3B       		.uleb128 0x3b
 1865 0207 05       		.uleb128 0x5
 1866 0208 27       		.uleb128 0x27
 1867 0209 19       		.uleb128 0x19
 1868 020a 3C       		.uleb128 0x3c
 1869 020b 19       		.uleb128 0x19
 1870 020c 00       		.byte	0
 1871 020d 00       		.byte	0
 1872 020e 00       		.byte	0
 1873              		.section	.debug_loc,"",%progbits
 1874              	.Ldebug_loc0:
 1875              	.LLST0:
 1876 0000 00000000 		.4byte	.LVL0
 1877 0004 19000000 		.4byte	.LVL1-1
 1878 0008 0100     		.2byte	0x1
 1879 000a 50       		.byte	0x50
 1880 000b 19000000 		.4byte	.LVL1-1
ARM GAS  /tmp/ccMReNZT.s 			page 34


 1881 000f 3C000000 		.4byte	.LFE118
 1882 0013 0100     		.2byte	0x1
 1883 0015 56       		.byte	0x56
 1884 0016 00000000 		.4byte	0
 1885 001a 00000000 		.4byte	0
 1886              	.LLST1:
 1887 001e 00000000 		.4byte	.LVL0
 1888 0022 19000000 		.4byte	.LVL1-1
 1889 0026 0100     		.2byte	0x1
 1890 0028 51       		.byte	0x51
 1891 0029 19000000 		.4byte	.LVL1-1
 1892 002d 3C000000 		.4byte	.LFE118
 1893 0031 0400     		.2byte	0x4
 1894 0033 F3       		.byte	0xf3
 1895 0034 01       		.uleb128 0x1
 1896 0035 51       		.byte	0x51
 1897 0036 9F       		.byte	0x9f
 1898 0037 00000000 		.4byte	0
 1899 003b 00000000 		.4byte	0
 1900              	.LLST2:
 1901 003f 00000000 		.4byte	.LVL4
 1902 0043 27000000 		.4byte	.LVL6-1
 1903 0047 0100     		.2byte	0x1
 1904 0049 50       		.byte	0x50
 1905 004a 27000000 		.4byte	.LVL6-1
 1906 004e 44000000 		.4byte	.LVL8
 1907 0052 0100     		.2byte	0x1
 1908 0054 56       		.byte	0x56
 1909 0055 44000000 		.4byte	.LVL8
 1910 0059 47000000 		.4byte	.LVL9-1
 1911 005d 0100     		.2byte	0x1
 1912 005f 50       		.byte	0x50
 1913 0060 47000000 		.4byte	.LVL9-1
 1914 0064 48000000 		.4byte	.LFE119
 1915 0068 0400     		.2byte	0x4
 1916 006a F3       		.byte	0xf3
 1917 006b 01       		.uleb128 0x1
 1918 006c 50       		.byte	0x50
 1919 006d 9F       		.byte	0x9f
 1920 006e 00000000 		.4byte	0
 1921 0072 00000000 		.4byte	0
 1922              	.LLST3:
 1923 0076 00000000 		.4byte	.LVL4
 1924 007a 14000000 		.4byte	.LVL5
 1925 007e 0100     		.2byte	0x1
 1926 0080 51       		.byte	0x51
 1927 0081 14000000 		.4byte	.LVL5
 1928 0085 48000000 		.4byte	.LFE119
 1929 0089 0400     		.2byte	0x4
 1930 008b F3       		.byte	0xf3
 1931 008c 01       		.uleb128 0x1
 1932 008d 51       		.byte	0x51
 1933 008e 9F       		.byte	0x9f
 1934 008f 00000000 		.4byte	0
 1935 0093 00000000 		.4byte	0
 1936              	.LLST4:
 1937 0097 00000000 		.4byte	.LVL4
ARM GAS  /tmp/ccMReNZT.s 			page 35


 1938 009b 27000000 		.4byte	.LVL6-1
 1939 009f 0100     		.2byte	0x1
 1940 00a1 52       		.byte	0x52
 1941 00a2 27000000 		.4byte	.LVL6-1
 1942 00a6 48000000 		.4byte	.LFE119
 1943 00aa 0400     		.2byte	0x4
 1944 00ac F3       		.byte	0xf3
 1945 00ad 01       		.uleb128 0x1
 1946 00ae 52       		.byte	0x52
 1947 00af 9F       		.byte	0x9f
 1948 00b0 00000000 		.4byte	0
 1949 00b4 00000000 		.4byte	0
 1950              		.section	.debug_aranges,"",%progbits
 1951 0000 24000000 		.4byte	0x24
 1952 0004 0200     		.2byte	0x2
 1953 0006 00000000 		.4byte	.Ldebug_info0
 1954 000a 04       		.byte	0x4
 1955 000b 00       		.byte	0
 1956 000c 0000     		.2byte	0
 1957 000e 0000     		.2byte	0
 1958 0010 00000000 		.4byte	.LFB118
 1959 0014 3C000000 		.4byte	.LFE118-.LFB118
 1960 0018 00000000 		.4byte	.LFB119
 1961 001c 48000000 		.4byte	.LFE119-.LFB119
 1962 0020 00000000 		.4byte	0
 1963 0024 00000000 		.4byte	0
 1964              		.section	.debug_ranges,"",%progbits
 1965              	.Ldebug_ranges0:
 1966 0000 00000000 		.4byte	.LFB118
 1967 0004 3C000000 		.4byte	.LFE118
 1968 0008 00000000 		.4byte	.LFB119
 1969 000c 48000000 		.4byte	.LFE119
 1970 0010 00000000 		.4byte	0
 1971 0014 00000000 		.4byte	0
 1972              		.section	.debug_line,"",%progbits
 1973              	.Ldebug_line0:
 1974 0000 75020000 		.section	.debug_str,"MS",%progbits,1
 1974      02003602 
 1974      00000201 
 1974      FB0E0D00 
 1974      01010101 
 1975              	.LASF109:
 1976 0000 646D6172 		.ascii	"dmarx\000"
 1976      7800
 1977              	.LASF63:
 1978 0006 4D304152 		.ascii	"M0AR\000"
 1978      00
 1979              	.LASF2:
 1980 000b 73697A65 		.ascii	"size_t\000"
 1980      5F7400
 1981              	.LASF57:
 1982 0012 7264796D 		.ascii	"rdymsg\000"
 1982      736700
 1983              	.LASF89:
 1984 0019 4F545950 		.ascii	"OTYPER\000"
 1984      455200
 1985              	.LASF3:
ARM GAS  /tmp/ccMReNZT.s 			page 36


 1986 0020 5F5F7569 		.ascii	"__uint8_t\000"
 1986      6E74385F 
 1986      7400
 1987              	.LASF101:
 1988 002a 5350495F 		.ascii	"SPI_ACTIVE\000"
 1988      41435449 
 1988      564500
 1989              	.LASF81:
 1990 0035 73747265 		.ascii	"stream\000"
 1990      616D00
 1991              	.LASF125:
 1992 003c 474E5520 		.ascii	"GNU C 4.8.2 -mcpu=cortex-m4 -mno-thumb-interwork -m"
 1992      4320342E 
 1992      382E3220 
 1992      2D6D6370 
 1992      753D636F 
 1993 006f 7468756D 		.ascii	"thumb -ggdb -O2 -fomit-frame-pointer -falign-functi"
 1993      62202D67 
 1993      67646220 
 1993      2D4F3220 
 1993      2D666F6D 
 1994 00a2 6F6E733D 		.ascii	"ons=16 -ffunction-sections -fdata-sections -fno-com"
 1994      3136202D 
 1994      6666756E 
 1994      6374696F 
 1994      6E2D7365 
 1995 00d5 6D6F6E00 		.ascii	"mon\000"
 1996              	.LASF88:
 1997 00d9 4D4F4445 		.ascii	"MODER\000"
 1997      5200
 1998              	.LASF13:
 1999 00df 6C6F6E67 		.ascii	"long long unsigned int\000"
 1999      206C6F6E 
 1999      6720756E 
 1999      7369676E 
 1999      65642069 
 2000              	.LASF100:
 2001 00f6 5350495F 		.ascii	"SPI_READY\000"
 2001      52454144 
 2001      5900
 2002              	.LASF70:
 2003 0100 43524350 		.ascii	"CRCPR\000"
 2003      5200
 2004              	.LASF91:
 2005 0106 50555044 		.ascii	"PUPDR\000"
 2005      5200
 2006              	.LASF58:
 2007 010c 65786974 		.ascii	"exitcode\000"
 2007      636F6465 
 2007      00
 2008              	.LASF85:
 2009 0115 76656374 		.ascii	"vector\000"
 2009      6F7200
 2010              	.LASF129:
 2011 011c 6C697333 		.ascii	"lis302dlWriteRegister\000"
 2011      3032646C 
 2011      57726974 
ARM GAS  /tmp/ccMReNZT.s 			page 37


 2011      65526567 
 2011      69737465 
 2012              	.LASF104:
 2013 0132 53504944 		.ascii	"SPIDriver\000"
 2013      72697665 
 2013      7200
 2014              	.LASF115:
 2015 013c 7373706F 		.ascii	"ssport\000"
 2015      727400
 2016              	.LASF130:
 2017 0143 49544D5F 		.ascii	"ITM_RxBuffer\000"
 2017      52784275 
 2017      66666572 
 2017      00
 2018              	.LASF121:
 2019 0150 72786275 		.ascii	"rxbuf\000"
 2019      6600
 2020              	.LASF30:
 2021 0156 705F7072 		.ascii	"p_prio\000"
 2021      696F00
 2022              	.LASF116:
 2023 015d 73737061 		.ascii	"sspad\000"
 2023      6400
 2024              	.LASF12:
 2025 0163 6C6F6E67 		.ascii	"long long int\000"
 2025      206C6F6E 
 2025      6720696E 
 2025      7400
 2026              	.LASF1:
 2027 0171 7369676E 		.ascii	"signed char\000"
 2027      65642063 
 2027      68617200 
 2028              	.LASF92:
 2029 017d 42535252 		.ascii	"BSRR\000"
 2029      00
 2030              	.LASF99:
 2031 0182 5350495F 		.ascii	"SPI_STOP\000"
 2031      53544F50 
 2031      00
 2032              	.LASF76:
 2033 018b 49325343 		.ascii	"I2SCFGR\000"
 2033      46475200 
 2034              	.LASF54:
 2035 0193 6D5F7175 		.ascii	"m_queue\000"
 2035      65756500 
 2036              	.LASF22:
 2037 019b 74736C69 		.ascii	"tslices_t\000"
 2037      6365735F 
 2037      7400
 2038              	.LASF113:
 2039 01a5 73706963 		.ascii	"spicallback_t\000"
 2039      616C6C62 
 2039      61636B5F 
 2039      7400
 2040              	.LASF105:
 2041 01b3 73746174 		.ascii	"state\000"
 2041      6500
ARM GAS  /tmp/ccMReNZT.s 			page 38


 2042              	.LASF9:
 2043 01b9 6C6F6E67 		.ascii	"long int\000"
 2043      20696E74 
 2043      00
 2044              	.LASF20:
 2045 01c2 74737461 		.ascii	"tstate_t\000"
 2045      74655F74 
 2045      00
 2046              	.LASF107:
 2047 01cb 74687265 		.ascii	"thread\000"
 2047      616400
 2048              	.LASF15:
 2049 01d2 75696E74 		.ascii	"uint16_t\000"
 2049      31365F74 
 2049      00
 2050              	.LASF39:
 2051 01db 705F7469 		.ascii	"p_time\000"
 2051      6D6500
 2052              	.LASF32:
 2053 01e2 705F6E65 		.ascii	"p_newer\000"
 2053      77657200 
 2054              	.LASF114:
 2055 01ea 656E645F 		.ascii	"end_cb\000"
 2055      636200
 2056              	.LASF111:
 2057 01f1 7278646D 		.ascii	"rxdmamode\000"
 2057      616D6F64 
 2057      6500
 2058              	.LASF96:
 2059 01fb 4750494F 		.ascii	"GPIO_TypeDef\000"
 2059      5F547970 
 2059      65446566 
 2059      00
 2060              	.LASF110:
 2061 0208 646D6174 		.ascii	"dmatx\000"
 2061      7800
 2062              	.LASF90:
 2063 020e 4F535045 		.ascii	"OSPEEDR\000"
 2063      45445200 
 2064              	.LASF10:
 2065 0216 5F5F7569 		.ascii	"__uint32_t\000"
 2065      6E743332 
 2065      5F7400
 2066              	.LASF46:
 2067 0221 705F6D70 		.ascii	"p_mpool\000"
 2067      6F6F6C00 
 2068              	.LASF49:
 2069 0229 72656761 		.ascii	"regarm_t\000"
 2069      726D5F74 
 2069      00
 2070              	.LASF84:
 2071 0232 73656C66 		.ascii	"selfindex\000"
 2071      696E6465 
 2071      7800
 2072              	.LASF124:
 2073 023c 73706955 		.ascii	"spiUnselect\000"
 2073      6E73656C 
ARM GAS  /tmp/ccMReNZT.s 			page 39


 2073      65637400 
 2074              	.LASF119:
 2075 0248 76616C75 		.ascii	"value\000"
 2075      6500
 2076              	.LASF0:
 2077 024e 756E7369 		.ascii	"unsigned int\000"
 2077      676E6564 
 2077      20696E74 
 2077      00
 2078              	.LASF120:
 2079 025b 74786275 		.ascii	"txbuf\000"
 2079      6600
 2080              	.LASF41:
 2081 0261 705F6D73 		.ascii	"p_msgqueue\000"
 2081      67717565 
 2081      756500
 2082              	.LASF93:
 2083 026c 4C434B52 		.ascii	"LCKR\000"
 2083      00
 2084              	.LASF83:
 2085 0271 69736869 		.ascii	"ishift\000"
 2085      667400
 2086              	.LASF7:
 2087 0278 73686F72 		.ascii	"short unsigned int\000"
 2087      7420756E 
 2087      7369676E 
 2087      65642069 
 2087      6E7400
 2088              	.LASF24:
 2089 028b 6D73675F 		.ascii	"msg_t\000"
 2089      7400
 2090              	.LASF19:
 2091 0291 746D6F64 		.ascii	"tmode_t\000"
 2091      655F7400 
 2092              	.LASF48:
 2093 0299 54687265 		.ascii	"ThreadsList\000"
 2093      6164734C 
 2093      69737400 
 2094              	.LASF25:
 2095 02a5 6576656E 		.ascii	"eventmask_t\000"
 2095      746D6173 
 2095      6B5F7400 
 2096              	.LASF123:
 2097 02b1 73706945 		.ascii	"spiExchange\000"
 2097      78636861 
 2097      6E676500 
 2098              	.LASF78:
 2099 02bd 49325350 		.ascii	"I2SPR\000"
 2099      5200
 2100              	.LASF52:
 2101 02c3 73697A65 		.ascii	"sizetype\000"
 2101      74797065 
 2101      00
 2102              	.LASF87:
 2103 02cc 636C6561 		.ascii	"clear\000"
 2103      7200
 2104              	.LASF53:
ARM GAS  /tmp/ccMReNZT.s 			page 40


 2105 02d2 4D757465 		.ascii	"Mutex\000"
 2105      7800
 2106              	.LASF33:
 2107 02d8 705F6F6C 		.ascii	"p_older\000"
 2107      64657200 
 2108              	.LASF47:
 2109 02e0 54687265 		.ascii	"ThreadsQueue\000"
 2109      61647351 
 2109      75657565 
 2109      00
 2110              	.LASF112:
 2111 02ed 7478646D 		.ascii	"txdmamode\000"
 2111      616D6F64 
 2111      6500
 2112              	.LASF95:
 2113 02f7 41465248 		.ascii	"AFRH\000"
 2113      00
 2114              	.LASF94:
 2115 02fc 4146524C 		.ascii	"AFRL\000"
 2115      00
 2116              	.LASF74:
 2117 0301 54584352 		.ascii	"TXCRCR\000"
 2117      435200
 2118              	.LASF66:
 2119 0308 52455345 		.ascii	"RESERVED0\000"
 2119      52564544 
 2119      3000
 2120              	.LASF67:
 2121 0312 52455345 		.ascii	"RESERVED1\000"
 2121      52564544 
 2121      3100
 2122              	.LASF68:
 2123 031c 52455345 		.ascii	"RESERVED2\000"
 2123      52564544 
 2123      3200
 2124              	.LASF69:
 2125 0326 52455345 		.ascii	"RESERVED3\000"
 2125      52564544 
 2125      3300
 2126              	.LASF71:
 2127 0330 52455345 		.ascii	"RESERVED4\000"
 2127      52564544 
 2127      3400
 2128              	.LASF29:
 2129 033a 705F7072 		.ascii	"p_prev\000"
 2129      657600
 2130              	.LASF75:
 2131 0341 52455345 		.ascii	"RESERVED6\000"
 2131      52564544 
 2131      3600
 2132              	.LASF77:
 2133 034b 52455345 		.ascii	"RESERVED7\000"
 2133      52564544 
 2133      3700
 2134              	.LASF79:
 2135 0355 52455345 		.ascii	"RESERVED8\000"
 2135      52564544 
ARM GAS  /tmp/ccMReNZT.s 			page 41


 2135      3800
 2136              	.LASF23:
 2137 035f 74707269 		.ascii	"tprio_t\000"
 2137      6F5F7400 
 2138              	.LASF108:
 2139 0367 6D757465 		.ascii	"mutex\000"
 2139      7800
 2140              	.LASF18:
 2141 036d 5F426F6F 		.ascii	"_Bool\000"
 2141      6C00
 2142              	.LASF16:
 2143 0373 696E7433 		.ascii	"int32_t\000"
 2143      325F7400 
 2144              	.LASF4:
 2145 037b 756E7369 		.ascii	"unsigned char\000"
 2145      676E6564 
 2145      20636861 
 2145      7200
 2146              	.LASF86:
 2147 0389 73746D33 		.ascii	"stm32_dma_stream_t\000"
 2147      325F646D 
 2147      615F7374 
 2147      7265616D 
 2147      5F7400
 2148              	.LASF44:
 2149 039c 705F6D74 		.ascii	"p_mtxlist\000"
 2149      786C6973 
 2149      7400
 2150              	.LASF5:
 2151 03a6 73686F72 		.ascii	"short int\000"
 2151      7420696E 
 2151      7400
 2152              	.LASF35:
 2153 03b0 705F7374 		.ascii	"p_state\000"
 2153      61746500 
 2154              	.LASF38:
 2155 03b8 705F7072 		.ascii	"p_preempt\000"
 2155      65656D70 
 2155      7400
 2156              	.LASF60:
 2157 03c2 65776D61 		.ascii	"ewmask\000"
 2157      736B00
 2158              	.LASF28:
 2159 03c9 705F6E65 		.ascii	"p_next\000"
 2159      787400
 2160              	.LASF36:
 2161 03d0 705F666C 		.ascii	"p_flags\000"
 2161      61677300 
 2162              	.LASF27:
 2163 03d8 54687265 		.ascii	"Thread\000"
 2163      616400
 2164              	.LASF43:
 2165 03df 705F6570 		.ascii	"p_epending\000"
 2165      656E6469 
 2165      6E6700
 2166              	.LASF82:
 2167 03ea 69666372 		.ascii	"ifcr\000"
ARM GAS  /tmp/ccMReNZT.s 			page 42


 2167      00
 2168              	.LASF73:
 2169 03ef 52455345 		.ascii	"RESERVED5\000"
 2169      52564544 
 2169      3500
 2170              	.LASF17:
 2171 03f9 75696E74 		.ascii	"uint32_t\000"
 2171      33325F74 
 2171      00
 2172              	.LASF21:
 2173 0402 74726566 		.ascii	"trefs_t\000"
 2173      735F7400 
 2174              	.LASF11:
 2175 040a 6C6F6E67 		.ascii	"long unsigned int\000"
 2175      20756E73 
 2175      69676E65 
 2175      6420696E 
 2175      7400
 2176              	.LASF80:
 2177 041c 5350495F 		.ascii	"SPI_TypeDef\000"
 2177      54797065 
 2177      44656600 
 2178              	.LASF61:
 2179 0428 63686172 		.ascii	"char\000"
 2179      00
 2180              	.LASF102:
 2181 042d 5350495F 		.ascii	"SPI_COMPLETE\000"
 2181      434F4D50 
 2181      4C455445 
 2181      00
 2182              	.LASF106:
 2183 043a 636F6E66 		.ascii	"config\000"
 2183      696700
 2184              	.LASF6:
 2185 0441 5F5F7569 		.ascii	"__uint16_t\000"
 2185      6E743136 
 2185      5F7400
 2186              	.LASF103:
 2187 044c 73706973 		.ascii	"spistate_t\000"
 2187      74617465 
 2187      5F7400
 2188              	.LASF56:
 2189 0457 6D5F6E65 		.ascii	"m_next\000"
 2189      787400
 2190              	.LASF26:
 2191 045e 73797374 		.ascii	"systime_t\000"
 2191      696D655F 
 2191      7400
 2192              	.LASF45:
 2193 0468 705F7265 		.ascii	"p_realprio\000"
 2193      616C7072 
 2193      696F00
 2194              	.LASF8:
 2195 0473 5F5F696E 		.ascii	"__int32_t\000"
 2195      7433325F 
 2195      7400
 2196              	.LASF62:
ARM GAS  /tmp/ccMReNZT.s 			page 43


 2197 047d 4E445452 		.ascii	"NDTR\000"
 2197      00
 2198              	.LASF65:
 2199 0482 444D415F 		.ascii	"DMA_Stream_TypeDef\000"
 2199      53747265 
 2199      616D5F54 
 2199      79706544 
 2199      656600
 2200              	.LASF97:
 2201 0495 696F706F 		.ascii	"ioportid_t\000"
 2201      72746964 
 2201      5F7400
 2202              	.LASF51:
 2203 04a0 636F6E74 		.ascii	"context\000"
 2203      65787400 
 2204              	.LASF122:
 2205 04a8 73706953 		.ascii	"spiSelect\000"
 2205      656C6563 
 2205      7400
 2206              	.LASF50:
 2207 04b2 696E7463 		.ascii	"intctx\000"
 2207      747800
 2208              	.LASF64:
 2209 04b9 4D314152 		.ascii	"M1AR\000"
 2209      00
 2210              	.LASF98:
 2211 04be 5350495F 		.ascii	"SPI_UNINIT\000"
 2211      554E494E 
 2211      495400
 2212              	.LASF128:
 2213 04c9 6C697333 		.ascii	"lis302dlReadRegister\000"
 2213      3032646C 
 2213      52656164 
 2213      52656769 
 2213      73746572 
 2214              	.LASF37:
 2215 04de 705F7265 		.ascii	"p_refs\000"
 2215      667300
 2216              	.LASF72:
 2217 04e5 52584352 		.ascii	"RXCRCR\000"
 2217      435200
 2218              	.LASF14:
 2219 04ec 75696E74 		.ascii	"uint8_t\000"
 2219      385F7400 
 2220              	.LASF118:
 2221 04f4 73706970 		.ascii	"spip\000"
 2221      00
 2222              	.LASF59:
 2223 04f9 77746F62 		.ascii	"wtobjp\000"
 2223      6A7000
 2224              	.LASF34:
 2225 0500 705F6E61 		.ascii	"p_name\000"
 2225      6D6500
 2226              	.LASF131:
 2227 0507 73706953 		.ascii	"spiSend\000"
 2227      656E6400 
 2228              	.LASF127:
ARM GAS  /tmp/ccMReNZT.s 			page 44


 2229 050f 2F686F6D 		.ascii	"/home/makkmarci/devel/ChibiOS_2.6.5/demos/ARMCM4-ST"
 2229      652F6D61 
 2229      6B6B6D61 
 2229      7263692F 
 2229      64657665 
 2230 0542 4D333246 		.ascii	"M32F407-DISCOVERY-MEMS/\000"
 2230      3430372D 
 2230      44495343 
 2230      4F564552 
 2230      592D4D45 
 2231              	.LASF117:
 2232 055a 53504943 		.ascii	"SPIConfig\000"
 2232      6F6E6669 
 2232      6700
 2233              	.LASF42:
 2234 0564 705F6D73 		.ascii	"p_msg\000"
 2234      6700
 2235              	.LASF55:
 2236 056a 6D5F6F77 		.ascii	"m_owner\000"
 2236      6E657200 
 2237              	.LASF126:
 2238 0572 2E2E2F2E 		.ascii	"../../os/various/devices_lib/accel/lis302dl.c\000"
 2238      2E2F6F73 
 2238      2F766172 
 2238      696F7573 
 2238      2F646576 
 2239              	.LASF31:
 2240 05a0 705F6374 		.ascii	"p_ctx\000"
 2240      7800
 2241              	.LASF40:
 2242 05a6 705F7761 		.ascii	"p_waiting\000"
 2242      6974696E 
 2242      6700
 2243              		.ident	"GCC: (4.8.2-14ubuntu1+6) 4.8.2"
ARM GAS  /tmp/ccMReNZT.s 			page 45


DEFINED SYMBOLS
                            *ABS*:00000000 lis302dl.c
     /tmp/ccMReNZT.s:19     .text.lis302dlReadRegister:00000000 $t
     /tmp/ccMReNZT.s:25     .text.lis302dlReadRegister:00000000 lis302dlReadRegister
     /tmp/ccMReNZT.s:151    .bss.rxbuf:00000000 .LANCHOR1
     /tmp/ccMReNZT.s:158    .bss.txbuf:00000000 .LANCHOR0
     /tmp/ccMReNZT.s:82     .text.lis302dlWriteRegister:00000000 $t
     /tmp/ccMReNZT.s:88     .text.lis302dlWriteRegister:00000000 lis302dlWriteRegister
     /tmp/ccMReNZT.s:150    .bss.rxbuf:00000000 $d
     /tmp/ccMReNZT.s:154    .bss.rxbuf:00000000 rxbuf
     /tmp/ccMReNZT.s:157    .bss.txbuf:00000000 $d
     /tmp/ccMReNZT.s:161    .bss.txbuf:00000000 txbuf
                     .debug_frame:00000010 $d

UNDEFINED SYMBOLS
spiSelect
spiExchange
spiUnselect
spiSend
