ARM GAS  /tmp/ccevkV35.s 			page 1


   1              		.syntax unified
   2              		.cpu cortex-m4
   3              		.fpu softvfp
   4              		.eabi_attribute 20, 1
   5              		.eabi_attribute 21, 1
   6              		.eabi_attribute 23, 3
   7              		.eabi_attribute 24, 1
   8              		.eabi_attribute 25, 1
   9              		.eabi_attribute 26, 1
  10              		.eabi_attribute 30, 2
  11              		.eabi_attribute 34, 1
  12              		.eabi_attribute 18, 4
  13              		.thumb
  14              		.file	"testmsg.c"
  15              		.text
  16              	.Ltext0:
  17              		.cfi_sections	.debug_frame
  18              		.section	.text.msg1_execute,"ax",%progbits
  19              		.align	2
  20              		.p2align 4,,15
  21              		.thumb
  22              		.thumb_func
  23              		.type	msg1_execute, %function
  24              	msg1_execute:
  25              	.LFB8:
  26              		.file 1 "../../test/testmsg.c"
  27              		.loc 1 67 0
  28              		.cfi_startproc
  29              		@ args = 0, pretend = 0, frame = 0
  30              		@ frame_needed = 0, uses_anonymous_args = 0
  31 0000 10B5     		push	{r4, lr}
  32              		.cfi_def_cfa_offset 8
  33              		.cfi_offset 4, -8
  34              		.cfi_offset 14, -4
  35              		.loc 1 74 0
  36 0002 40F20002 		movw	r2, #:lower16:rlist
  37 0006 C0F20002 		movt	r2, #:upper16:rlist
  38 000a 40F20003 		movw	r3, #:lower16:wa
  39 000e 9169     		ldr	r1, [r2, #24]
  40 0010 C0F20003 		movt	r3, #:upper16:wa
  41              		.loc 1 67 0
  42 0014 82B0     		sub	sp, sp, #8
  43              		.cfi_def_cfa_offset 16
  44              		.loc 1 74 0
  45 0016 8A68     		ldr	r2, [r1, #8]
  46 0018 1868     		ldr	r0, [r3]
  47 001a 0091     		str	r1, [sp]
  48 001c 40F20003 		movw	r3, #:lower16:thread
  49 0020 0132     		adds	r2, r2, #1
  50 0022 4FF4A871 		mov	r1, #336
  51 0026 C0F20003 		movt	r3, #:upper16:thread
  52 002a FFF7FEFF 		bl	chThdCreateStatic
  53              	.LVL0:
  54 002e 40F20003 		movw	r3, #:lower16:threads
  55 0032 C0F20003 		movt	r3, #:upper16:threads
  56 0036 1860     		str	r0, [r3]
  57              		.loc 1 76 0
ARM GAS  /tmp/ccevkV35.s 			page 2


  58 0038 FFF7FEFF 		bl	chMsgWait
  59              	.LVL1:
  60              		.loc 1 77 0
  61 003c 446B     		ldr	r4, [r0, #52]
  62              	.LVL2:
  63              		.loc 1 78 0
  64 003e 2146     		mov	r1, r4
  65 0040 FFF7FEFF 		bl	chMsgRelease
  66              	.LVL3:
  67              		.loc 1 79 0
  68 0044 E0B2     		uxtb	r0, r4
  69 0046 FFF7FEFF 		bl	test_emit_token
  70              	.LVL4:
  71              		.loc 1 80 0
  72 004a FFF7FEFF 		bl	chMsgWait
  73              	.LVL5:
  74              		.loc 1 81 0
  75 004e 446B     		ldr	r4, [r0, #52]
  76              	.LVL6:
  77              		.loc 1 82 0
  78 0050 2146     		mov	r1, r4
  79 0052 FFF7FEFF 		bl	chMsgRelease
  80              	.LVL7:
  81              		.loc 1 83 0
  82 0056 E0B2     		uxtb	r0, r4
  83 0058 FFF7FEFF 		bl	test_emit_token
  84              	.LVL8:
  85              		.loc 1 84 0
  86 005c FFF7FEFF 		bl	chMsgWait
  87              	.LVL9:
  88              		.loc 1 85 0
  89 0060 446B     		ldr	r4, [r0, #52]
  90              	.LVL10:
  91              		.loc 1 86 0
  92 0062 2146     		mov	r1, r4
  93 0064 FFF7FEFF 		bl	chMsgRelease
  94              	.LVL11:
  95              		.loc 1 87 0
  96 0068 E0B2     		uxtb	r0, r4
  97 006a FFF7FEFF 		bl	test_emit_token
  98              	.LVL12:
  99              		.loc 1 88 0
 100 006e 40F20001 		movw	r1, #:lower16:.LC0
 101 0072 C0F20001 		movt	r1, #:upper16:.LC0
 102 0076 0120     		movs	r0, #1
 103              		.loc 1 89 0
 104 0078 02B0     		add	sp, sp, #8
 105              		@ sp needed
 106 007a BDE81040 		pop	{r4, lr}
 107              	.LVL13:
 108              		.loc 1 88 0
 109 007e FFF7FEBF 		b	_test_assert_sequence
 110              	.LVL14:
 111              		.cfi_endproc
 112              	.LFE8:
 113              		.size	msg1_execute, .-msg1_execute
 114 0082 00BFAFF3 		.section	.text.thread,"ax",%progbits
ARM GAS  /tmp/ccevkV35.s 			page 3


 114      0080AFF3 
 114      0080AFF3 
 114      0080
 115              		.align	2
 116              		.p2align 4,,15
 117              		.thumb
 118              		.thumb_func
 119              		.type	thread, %function
 120              	thread:
 121              	.LFB7:
 122              		.loc 1 59 0
 123              		.cfi_startproc
 124              		@ args = 0, pretend = 0, frame = 0
 125              		@ frame_needed = 0, uses_anonymous_args = 0
 126              	.LVL15:
 127 0000 10B5     		push	{r4, lr}
 128              		.cfi_def_cfa_offset 8
 129              		.cfi_offset 4, -8
 130              		.cfi_offset 14, -4
 131              		.loc 1 61 0
 132 0002 4121     		movs	r1, #65
 133              		.loc 1 59 0
 134 0004 0446     		mov	r4, r0
 135              		.loc 1 61 0
 136 0006 FFF7FEFF 		bl	chMsgSend
 137              	.LVL16:
 138              		.loc 1 62 0
 139 000a 2046     		mov	r0, r4
 140 000c 4221     		movs	r1, #66
 141 000e FFF7FEFF 		bl	chMsgSend
 142              	.LVL17:
 143              		.loc 1 63 0
 144 0012 2046     		mov	r0, r4
 145 0014 4321     		movs	r1, #67
 146 0016 FFF7FEFF 		bl	chMsgSend
 147              	.LVL18:
 148              		.loc 1 65 0
 149 001a 0020     		movs	r0, #0
 150 001c 10BD     		pop	{r4, pc}
 151              		.cfi_endproc
 152              	.LFE7:
 153              		.size	thread, .-thread
 154              		.global	patternmsg
 155              		.global	testmsg1
 156 001e 00BF     		.section	.rodata.testmsg1,"a",%progbits
 157              		.align	2
 158              		.type	testmsg1, %object
 159              		.size	testmsg1, 16
 160              	testmsg1:
 161 0000 04000000 		.word	.LC1
 162 0004 00000000 		.word	0
 163 0008 00000000 		.word	0
 164 000c 00000000 		.word	msg1_execute
 165              		.section	.rodata.str1.4,"aMS",%progbits,1
 166              		.align	2
 167              	.LC0:
 168 0000 41424300 		.ascii	"ABC\000"
ARM GAS  /tmp/ccevkV35.s 			page 4


 169              	.LC1:
 170 0004 4D657373 		.ascii	"Messages, loop\000"
 170      61676573 
 170      2C206C6F 
 170      6F7000
 171 0013 00       		.section	.rodata.patternmsg,"a",%progbits
 172              		.align	2
 173              		.type	patternmsg, %object
 174              		.size	patternmsg, 8
 175              	patternmsg:
 176 0000 00000000 		.word	testmsg1
 177 0004 00000000 		.word	0
 178              		.text
 179              	.Letext0:
 180              		.file 2 "/usr/lib/gcc/arm-none-eabi/4.8.2/include/stddef.h"
 181              		.file 3 "/usr/include/newlib/machine/_default_types.h"
 182              		.file 4 "/usr/include/newlib/stdint.h"
 183              		.file 5 "../../os/ports/GCC/ARMCMx/chtypes.h"
 184              		.file 6 "../../os/kernel/include/chlists.h"
 185              		.file 7 "../../os/kernel/include/chthreads.h"
 186              		.file 8 "../../os/ports/GCC/ARMCMx/chcore_v7m.h"
 187              		.file 9 "../../os/kernel/include/chschd.h"
 188              		.file 10 "../../os/kernel/include/chmtx.h"
 189              		.file 11 "../../test/test.h"
 190              		.file 12 "../../os/kernel/include/chmsg.h"
 191              		.section	.debug_info,"",%progbits
 192              	.Ldebug_info0:
 193 0000 FF060000 		.4byte	0x6ff
 194 0004 0400     		.2byte	0x4
 195 0006 00000000 		.4byte	.Ldebug_abbrev0
 196 000a 04       		.byte	0x4
 197 000b 01       		.uleb128 0x1
 198 000c 26000000 		.4byte	.LASF83
 199 0010 01       		.byte	0x1
 200 0011 CB010000 		.4byte	.LASF84
 201 0015 C4030000 		.4byte	.LASF85
 202 0019 00000000 		.4byte	.Ldebug_ranges0+0
 203 001d 00000000 		.4byte	0
 204 0021 00000000 		.4byte	.Ldebug_line0
 205 0025 02       		.uleb128 0x2
 206 0026 04       		.byte	0x4
 207 0027 05       		.byte	0x5
 208 0028 696E7400 		.ascii	"int\000"
 209 002c 03       		.uleb128 0x3
 210 002d 0E000000 		.4byte	.LASF2
 211 0031 02       		.byte	0x2
 212 0032 D4       		.byte	0xd4
 213 0033 37000000 		.4byte	0x37
 214 0037 04       		.uleb128 0x4
 215 0038 04       		.byte	0x4
 216 0039 07       		.byte	0x7
 217 003a 6D010000 		.4byte	.LASF0
 218 003e 04       		.uleb128 0x4
 219 003f 01       		.byte	0x1
 220 0040 06       		.byte	0x6
 221 0041 F8000000 		.4byte	.LASF1
 222 0045 03       		.uleb128 0x3
ARM GAS  /tmp/ccevkV35.s 			page 5


 223 0046 1C000000 		.4byte	.LASF3
 224 004a 03       		.byte	0x3
 225 004b 1C       		.byte	0x1c
 226 004c 50000000 		.4byte	0x50
 227 0050 04       		.uleb128 0x4
 228 0051 01       		.byte	0x1
 229 0052 08       		.byte	0x8
 230 0053 A1020000 		.4byte	.LASF4
 231 0057 04       		.uleb128 0x4
 232 0058 02       		.byte	0x2
 233 0059 05       		.byte	0x5
 234 005a B9020000 		.4byte	.LASF5
 235 005e 04       		.uleb128 0x4
 236 005f 02       		.byte	0x2
 237 0060 07       		.byte	0x7
 238 0061 A2010000 		.4byte	.LASF6
 239 0065 03       		.uleb128 0x3
 240 0066 5D030000 		.4byte	.LASF7
 241 006a 03       		.byte	0x3
 242 006b 37       		.byte	0x37
 243 006c 70000000 		.4byte	0x70
 244 0070 04       		.uleb128 0x4
 245 0071 04       		.byte	0x4
 246 0072 05       		.byte	0x5
 247 0073 35010000 		.4byte	.LASF8
 248 0077 03       		.uleb128 0x3
 249 0078 59010000 		.4byte	.LASF9
 250 007c 03       		.byte	0x3
 251 007d 38       		.byte	0x38
 252 007e 82000000 		.4byte	0x82
 253 0082 04       		.uleb128 0x4
 254 0083 04       		.byte	0x4
 255 0084 07       		.byte	0x7
 256 0085 7A010000 		.4byte	.LASF10
 257 0089 04       		.uleb128 0x4
 258 008a 08       		.byte	0x8
 259 008b 05       		.byte	0x5
 260 008c EA000000 		.4byte	.LASF11
 261 0090 04       		.uleb128 0x4
 262 0091 08       		.byte	0x8
 263 0092 07       		.byte	0x7
 264 0093 C3000000 		.4byte	.LASF12
 265 0097 03       		.uleb128 0x3
 266 0098 A1030000 		.4byte	.LASF13
 267 009c 04       		.byte	0x4
 268 009d 2A       		.byte	0x2a
 269 009e 45000000 		.4byte	0x45
 270 00a2 03       		.uleb128 0x3
 271 00a3 99020000 		.4byte	.LASF14
 272 00a7 04       		.byte	0x4
 273 00a8 41       		.byte	0x41
 274 00a9 65000000 		.4byte	0x65
 275 00ad 03       		.uleb128 0x3
 276 00ae 2B030000 		.4byte	.LASF15
 277 00b2 04       		.byte	0x4
 278 00b3 42       		.byte	0x42
 279 00b4 77000000 		.4byte	0x77
ARM GAS  /tmp/ccevkV35.s 			page 6


 280 00b8 03       		.uleb128 0x3
 281 00b9 0C010000 		.4byte	.LASF16
 282 00bd 05       		.byte	0x5
 283 00be 2B       		.byte	0x2b
 284 00bf C3000000 		.4byte	0xc3
 285 00c3 04       		.uleb128 0x4
 286 00c4 01       		.byte	0x1
 287 00c5 02       		.byte	0x2
 288 00c6 93020000 		.4byte	.LASF17
 289 00ca 03       		.uleb128 0x3
 290 00cb C3010000 		.4byte	.LASF18
 291 00cf 05       		.byte	0x5
 292 00d0 2C       		.byte	0x2c
 293 00d1 97000000 		.4byte	0x97
 294 00d5 03       		.uleb128 0x3
 295 00d6 48010000 		.4byte	.LASF19
 296 00da 05       		.byte	0x5
 297 00db 2D       		.byte	0x2d
 298 00dc 97000000 		.4byte	0x97
 299 00e0 03       		.uleb128 0x3
 300 00e1 6D020000 		.4byte	.LASF20
 301 00e5 05       		.byte	0x5
 302 00e6 2E       		.byte	0x2e
 303 00e7 97000000 		.4byte	0x97
 304 00eb 03       		.uleb128 0x3
 305 00ec 2B010000 		.4byte	.LASF21
 306 00f0 05       		.byte	0x5
 307 00f1 2F       		.byte	0x2f
 308 00f2 97000000 		.4byte	0x97
 309 00f6 03       		.uleb128 0x3
 310 00f7 84020000 		.4byte	.LASF22
 311 00fb 05       		.byte	0x5
 312 00fc 30       		.byte	0x30
 313 00fd AD000000 		.4byte	0xad
 314 0101 03       		.uleb128 0x3
 315 0102 B5010000 		.4byte	.LASF23
 316 0106 05       		.byte	0x5
 317 0107 31       		.byte	0x31
 318 0108 A2000000 		.4byte	0xa2
 319 010c 03       		.uleb128 0x3
 320 010d EC010000 		.4byte	.LASF24
 321 0111 05       		.byte	0x5
 322 0112 33       		.byte	0x33
 323 0113 AD000000 		.4byte	0xad
 324 0117 03       		.uleb128 0x3
 325 0118 48030000 		.4byte	.LASF25
 326 011c 05       		.byte	0x5
 327 011d 35       		.byte	0x35
 328 011e AD000000 		.4byte	0xad
 329 0122 03       		.uleb128 0x3
 330 0123 03030000 		.4byte	.LASF26
 331 0127 06       		.byte	0x6
 332 0128 2A       		.byte	0x2a
 333 0129 2D010000 		.4byte	0x12d
 334 012d 05       		.uleb128 0x5
 335 012e 03030000 		.4byte	.LASF26
 336 0132 48       		.byte	0x48
ARM GAS  /tmp/ccevkV35.s 			page 7


 337 0133 07       		.byte	0x7
 338 0134 5E       		.byte	0x5e
 339 0135 2A020000 		.4byte	0x22a
 340 0139 06       		.uleb128 0x6
 341 013a F4020000 		.4byte	.LASF27
 342 013e 07       		.byte	0x7
 343 013f 5F       		.byte	0x5f
 344 0140 4B020000 		.4byte	0x24b
 345 0144 00       		.byte	0
 346 0145 06       		.uleb128 0x6
 347 0146 75020000 		.4byte	.LASF28
 348 014a 07       		.byte	0x7
 349 014b 61       		.byte	0x61
 350 014c 4B020000 		.4byte	0x24b
 351 0150 04       		.byte	0x4
 352 0151 06       		.uleb128 0x6
 353 0152 E3000000 		.4byte	.LASF29
 354 0156 07       		.byte	0x7
 355 0157 63       		.byte	0x63
 356 0158 F6000000 		.4byte	0xf6
 357 015c 08       		.byte	0x8
 358 015d 06       		.uleb128 0x6
 359 015e 17040000 		.4byte	.LASF30
 360 0162 07       		.byte	0x7
 361 0163 64       		.byte	0x64
 362 0164 05030000 		.4byte	0x305
 363 0168 0C       		.byte	0xc
 364 0169 06       		.uleb128 0x6
 365 016a 51010000 		.4byte	.LASF31
 366 016e 07       		.byte	0x7
 367 016f 66       		.byte	0x66
 368 0170 4B020000 		.4byte	0x24b
 369 0174 10       		.byte	0x10
 370 0175 06       		.uleb128 0x6
 371 0176 24020000 		.4byte	.LASF32
 372 017a 07       		.byte	0x7
 373 017b 67       		.byte	0x67
 374 017c 4B020000 		.4byte	0x24b
 375 0180 14       		.byte	0x14
 376 0181 06       		.uleb128 0x6
 377 0182 BD030000 		.4byte	.LASF33
 378 0186 07       		.byte	0x7
 379 0187 6E       		.byte	0x6e
 380 0188 05040000 		.4byte	0x405
 381 018c 18       		.byte	0x18
 382 018d 06       		.uleb128 0x6
 383 018e C3020000 		.4byte	.LASF34
 384 0192 07       		.byte	0x7
 385 0193 79       		.byte	0x79
 386 0194 D5000000 		.4byte	0xd5
 387 0198 1C       		.byte	0x1c
 388 0199 06       		.uleb128 0x6
 389 019a FB020000 		.4byte	.LASF35
 390 019e 07       		.byte	0x7
 391 019f 7D       		.byte	0x7d
 392 01a0 CA000000 		.4byte	0xca
 393 01a4 1D       		.byte	0x1d
ARM GAS  /tmp/ccevkV35.s 			page 8


 394 01a5 06       		.uleb128 0x6
 395 01a6 8A030000 		.4byte	.LASF36
 396 01aa 07       		.byte	0x7
 397 01ab 82       		.byte	0x82
 398 01ac E0000000 		.4byte	0xe0
 399 01b0 1E       		.byte	0x1e
 400 01b1 06       		.uleb128 0x6
 401 01b2 CB020000 		.4byte	.LASF37
 402 01b6 07       		.byte	0x7
 403 01b7 88       		.byte	0x88
 404 01b8 EB000000 		.4byte	0xeb
 405 01bc 1F       		.byte	0x1f
 406 01bd 06       		.uleb128 0x6
 407 01be 67030000 		.4byte	.LASF38
 408 01c2 07       		.byte	0x7
 409 01c3 8F       		.byte	0x8f
 410 01c4 2D030000 		.4byte	0x32d
 411 01c8 20       		.byte	0x20
 412 01c9 07       		.uleb128 0x7
 413 01ca 705F7500 		.ascii	"p_u\000"
 414 01ce 07       		.byte	0x7
 415 01cf B4       		.byte	0xb4
 416 01d0 D0030000 		.4byte	0x3d0
 417 01d4 24       		.byte	0x24
 418 01d5 06       		.uleb128 0x6
 419 01d6 1D040000 		.4byte	.LASF39
 420 01da 07       		.byte	0x7
 421 01db B9       		.byte	0xb9
 422 01dc 71020000 		.4byte	0x271
 423 01e0 28       		.byte	0x28
 424 01e1 06       		.uleb128 0x6
 425 01e2 75030000 		.4byte	.LASF40
 426 01e6 07       		.byte	0x7
 427 01e7 BF       		.byte	0xbf
 428 01e8 51020000 		.4byte	0x251
 429 01ec 2C       		.byte	0x2c
 430 01ed 06       		.uleb128 0x6
 431 01ee 08000000 		.4byte	.LASF41
 432 01f2 07       		.byte	0x7
 433 01f3 C3       		.byte	0xc3
 434 01f4 01010000 		.4byte	0x101
 435 01f8 34       		.byte	0x34
 436 01f9 06       		.uleb128 0x6
 437 01fa 20030000 		.4byte	.LASF42
 438 01fe 07       		.byte	0x7
 439 01ff C9       		.byte	0xc9
 440 0200 0C010000 		.4byte	0x10c
 441 0204 38       		.byte	0x38
 442 0205 06       		.uleb128 0x6
 443 0206 AF020000 		.4byte	.LASF43
 444 020a 07       		.byte	0x7
 445 020b D0       		.byte	0xd0
 446 020c 17040000 		.4byte	0x417
 447 0210 3C       		.byte	0x3c
 448 0211 06       		.uleb128 0x6
 449 0212 52030000 		.4byte	.LASF44
 450 0216 07       		.byte	0x7
ARM GAS  /tmp/ccevkV35.s 			page 9


 451 0217 D4       		.byte	0xd4
 452 0218 F6000000 		.4byte	0xf6
 453 021c 40       		.byte	0x40
 454 021d 06       		.uleb128 0x6
 455 021e 04010000 		.4byte	.LASF45
 456 0222 07       		.byte	0x7
 457 0223 DA       		.byte	0xda
 458 0224 87020000 		.4byte	0x287
 459 0228 44       		.byte	0x44
 460 0229 00       		.byte	0
 461 022a 08       		.uleb128 0x8
 462 022b 08       		.byte	0x8
 463 022c 06       		.byte	0x6
 464 022d 61       		.byte	0x61
 465 022e 4B020000 		.4byte	0x24b
 466 0232 06       		.uleb128 0x6
 467 0233 F4020000 		.4byte	.LASF27
 468 0237 06       		.byte	0x6
 469 0238 62       		.byte	0x62
 470 0239 4B020000 		.4byte	0x24b
 471 023d 00       		.byte	0
 472 023e 06       		.uleb128 0x6
 473 023f 75020000 		.4byte	.LASF28
 474 0243 06       		.byte	0x6
 475 0244 64       		.byte	0x64
 476 0245 4B020000 		.4byte	0x24b
 477 0249 04       		.byte	0x4
 478 024a 00       		.byte	0
 479 024b 09       		.uleb128 0x9
 480 024c 04       		.byte	0x4
 481 024d 22010000 		.4byte	0x122
 482 0251 03       		.uleb128 0x3
 483 0252 32020000 		.4byte	.LASF46
 484 0256 06       		.byte	0x6
 485 0257 66       		.byte	0x66
 486 0258 2A020000 		.4byte	0x22a
 487 025c 08       		.uleb128 0x8
 488 025d 04       		.byte	0x4
 489 025e 06       		.byte	0x6
 490 025f 6B       		.byte	0x6b
 491 0260 71020000 		.4byte	0x271
 492 0264 06       		.uleb128 0x6
 493 0265 F4020000 		.4byte	.LASF27
 494 0269 06       		.byte	0x6
 495 026a 6D       		.byte	0x6d
 496 026b 4B020000 		.4byte	0x24b
 497 026f 00       		.byte	0
 498 0270 00       		.byte	0
 499 0271 03       		.uleb128 0x3
 500 0272 E0010000 		.4byte	.LASF47
 501 0276 06       		.byte	0x6
 502 0277 70       		.byte	0x70
 503 0278 5C020000 		.4byte	0x25c
 504 027c 03       		.uleb128 0x3
 505 027d 64010000 		.4byte	.LASF48
 506 0281 08       		.byte	0x8
 507 0282 E5       		.byte	0xe5
ARM GAS  /tmp/ccevkV35.s 			page 10


 508 0283 87020000 		.4byte	0x287
 509 0287 0A       		.uleb128 0xa
 510 0288 04       		.byte	0x4
 511 0289 0B       		.uleb128 0xb
 512 028a 6E030000 		.4byte	.LASF49
 513 028e 24       		.byte	0x24
 514 028f 08       		.byte	0x8
 515 0290 0C01     		.2byte	0x10c
 516 0292 05030000 		.4byte	0x305
 517 0296 0C       		.uleb128 0xc
 518 0297 723400   		.ascii	"r4\000"
 519 029a 08       		.byte	0x8
 520 029b 1F01     		.2byte	0x11f
 521 029d 7C020000 		.4byte	0x27c
 522 02a1 00       		.byte	0
 523 02a2 0C       		.uleb128 0xc
 524 02a3 723500   		.ascii	"r5\000"
 525 02a6 08       		.byte	0x8
 526 02a7 2001     		.2byte	0x120
 527 02a9 7C020000 		.4byte	0x27c
 528 02ad 04       		.byte	0x4
 529 02ae 0C       		.uleb128 0xc
 530 02af 723600   		.ascii	"r6\000"
 531 02b2 08       		.byte	0x8
 532 02b3 2101     		.2byte	0x121
 533 02b5 7C020000 		.4byte	0x27c
 534 02b9 08       		.byte	0x8
 535 02ba 0C       		.uleb128 0xc
 536 02bb 723700   		.ascii	"r7\000"
 537 02be 08       		.byte	0x8
 538 02bf 2201     		.2byte	0x122
 539 02c1 7C020000 		.4byte	0x27c
 540 02c5 0C       		.byte	0xc
 541 02c6 0C       		.uleb128 0xc
 542 02c7 723800   		.ascii	"r8\000"
 543 02ca 08       		.byte	0x8
 544 02cb 2301     		.2byte	0x123
 545 02cd 7C020000 		.4byte	0x27c
 546 02d1 10       		.byte	0x10
 547 02d2 0C       		.uleb128 0xc
 548 02d3 723900   		.ascii	"r9\000"
 549 02d6 08       		.byte	0x8
 550 02d7 2401     		.2byte	0x124
 551 02d9 7C020000 		.4byte	0x27c
 552 02dd 14       		.byte	0x14
 553 02de 0C       		.uleb128 0xc
 554 02df 72313000 		.ascii	"r10\000"
 555 02e3 08       		.byte	0x8
 556 02e4 2501     		.2byte	0x125
 557 02e6 7C020000 		.4byte	0x27c
 558 02ea 18       		.byte	0x18
 559 02eb 0C       		.uleb128 0xc
 560 02ec 72313100 		.ascii	"r11\000"
 561 02f0 08       		.byte	0x8
 562 02f1 2601     		.2byte	0x126
 563 02f3 7C020000 		.4byte	0x27c
 564 02f7 1C       		.byte	0x1c
ARM GAS  /tmp/ccevkV35.s 			page 11


 565 02f8 0C       		.uleb128 0xc
 566 02f9 6C7200   		.ascii	"lr\000"
 567 02fc 08       		.byte	0x8
 568 02fd 2701     		.2byte	0x127
 569 02ff 7C020000 		.4byte	0x27c
 570 0303 20       		.byte	0x20
 571 0304 00       		.byte	0
 572 0305 0B       		.uleb128 0xb
 573 0306 9A010000 		.4byte	.LASF50
 574 030a 04       		.byte	0x4
 575 030b 08       		.byte	0x8
 576 030c 3101     		.2byte	0x131
 577 030e 20030000 		.4byte	0x320
 578 0312 0C       		.uleb128 0xc
 579 0313 72313300 		.ascii	"r13\000"
 580 0317 08       		.byte	0x8
 581 0318 3201     		.2byte	0x132
 582 031a 20030000 		.4byte	0x320
 583 031e 00       		.byte	0
 584 031f 00       		.byte	0
 585 0320 09       		.uleb128 0x9
 586 0321 04       		.byte	0x4
 587 0322 89020000 		.4byte	0x289
 588 0326 04       		.uleb128 0x4
 589 0327 04       		.byte	0x4
 590 0328 07       		.byte	0x7
 591 0329 1B020000 		.4byte	.LASF51
 592 032d 0D       		.uleb128 0xd
 593 032e 17010000 		.4byte	0x117
 594 0332 08       		.uleb128 0x8
 595 0333 1C       		.byte	0x1c
 596 0334 09       		.byte	0x9
 597 0335 5E       		.byte	0x5e
 598 0336 83030000 		.4byte	0x383
 599 033a 06       		.uleb128 0x6
 600 033b 34030000 		.4byte	.LASF52
 601 033f 09       		.byte	0x9
 602 0340 5F       		.byte	0x5f
 603 0341 51020000 		.4byte	0x251
 604 0345 00       		.byte	0
 605 0346 06       		.uleb128 0x6
 606 0347 DD020000 		.4byte	.LASF53
 607 034b 09       		.byte	0x9
 608 034c 60       		.byte	0x60
 609 034d F6000000 		.4byte	0xf6
 610 0351 08       		.byte	0x8
 611 0352 06       		.uleb128 0x6
 612 0353 2C020000 		.4byte	.LASF54
 613 0357 09       		.byte	0x9
 614 0358 62       		.byte	0x62
 615 0359 05030000 		.4byte	0x305
 616 035d 0C       		.byte	0xc
 617 035e 06       		.uleb128 0x6
 618 035f BB010000 		.4byte	.LASF55
 619 0363 09       		.byte	0x9
 620 0364 65       		.byte	0x65
 621 0365 4B020000 		.4byte	0x24b
ARM GAS  /tmp/ccevkV35.s 			page 12


 622 0369 10       		.byte	0x10
 623 036a 06       		.uleb128 0x6
 624 036b 65020000 		.4byte	.LASF56
 625 036f 09       		.byte	0x9
 626 0370 66       		.byte	0x66
 627 0371 4B020000 		.4byte	0x24b
 628 0375 14       		.byte	0x14
 629 0376 06       		.uleb128 0x6
 630 0377 5B020000 		.4byte	.LASF57
 631 037b 09       		.byte	0x9
 632 037c 69       		.byte	0x69
 633 037d 4B020000 		.4byte	0x24b
 634 0381 18       		.byte	0x18
 635 0382 00       		.byte	0
 636 0383 03       		.uleb128 0x3
 637 0384 91030000 		.4byte	.LASF58
 638 0388 09       		.byte	0x9
 639 0389 6B       		.byte	0x6b
 640 038a 32030000 		.4byte	0x332
 641 038e 05       		.uleb128 0x5
 642 038f F8010000 		.4byte	.LASF59
 643 0393 10       		.byte	0x10
 644 0394 0A       		.byte	0xa
 645 0395 2C       		.byte	0x2c
 646 0396 BF030000 		.4byte	0x3bf
 647 039a 06       		.uleb128 0x6
 648 039b 13010000 		.4byte	.LASF60
 649 039f 0A       		.byte	0xa
 650 03a0 2D       		.byte	0x2d
 651 03a1 51020000 		.4byte	0x251
 652 03a5 00       		.byte	0
 653 03a6 06       		.uleb128 0x6
 654 03a7 0F040000 		.4byte	.LASF61
 655 03ab 0A       		.byte	0xa
 656 03ac 2F       		.byte	0x2f
 657 03ad 4B020000 		.4byte	0x24b
 658 03b1 08       		.byte	0x8
 659 03b2 06       		.uleb128 0x6
 660 03b3 41030000 		.4byte	.LASF62
 661 03b7 0A       		.byte	0xa
 662 03b8 31       		.byte	0x31
 663 03b9 BF030000 		.4byte	0x3bf
 664 03bd 0C       		.byte	0xc
 665 03be 00       		.byte	0
 666 03bf 09       		.uleb128 0x9
 667 03c0 04       		.byte	0x4
 668 03c1 8E030000 		.4byte	0x38e
 669 03c5 03       		.uleb128 0x3
 670 03c6 F8010000 		.4byte	.LASF59
 671 03ca 0A       		.byte	0xa
 672 03cb 33       		.byte	0x33
 673 03cc 8E030000 		.4byte	0x38e
 674 03d0 0E       		.uleb128 0xe
 675 03d1 04       		.byte	0x4
 676 03d2 07       		.byte	0x7
 677 03d3 96       		.byte	0x96
 678 03d4 05040000 		.4byte	0x405
ARM GAS  /tmp/ccevkV35.s 			page 13


 679 03d8 0F       		.uleb128 0xf
 680 03d9 15000000 		.4byte	.LASF63
 681 03dd 07       		.byte	0x7
 682 03de 9D       		.byte	0x9d
 683 03df 01010000 		.4byte	0x101
 684 03e3 0F       		.uleb128 0xf
 685 03e4 DA000000 		.4byte	.LASF64
 686 03e8 07       		.byte	0x7
 687 03e9 A4       		.byte	0xa4
 688 03ea 01010000 		.4byte	0x101
 689 03ee 0F       		.uleb128 0xf
 690 03ef B6030000 		.4byte	.LASF65
 691 03f3 07       		.byte	0x7
 692 03f4 AB       		.byte	0xab
 693 03f5 87020000 		.4byte	0x287
 694 03f9 0F       		.uleb128 0xf
 695 03fa ED020000 		.4byte	.LASF66
 696 03fe 07       		.byte	0x7
 697 03ff B2       		.byte	0xb2
 698 0400 0C010000 		.4byte	0x10c
 699 0404 00       		.byte	0
 700 0405 09       		.uleb128 0x9
 701 0406 04       		.byte	0x4
 702 0407 0B040000 		.4byte	0x40b
 703 040b 10       		.uleb128 0x10
 704 040c 10040000 		.4byte	0x410
 705 0410 04       		.uleb128 0x4
 706 0411 01       		.byte	0x1
 707 0412 08       		.byte	0x8
 708 0413 3C030000 		.4byte	.LASF67
 709 0417 09       		.uleb128 0x9
 710 0418 04       		.byte	0x4
 711 0419 C5030000 		.4byte	0x3c5
 712 041d 03       		.uleb128 0x3
 713 041e 00000000 		.4byte	.LASF68
 714 0422 07       		.byte	0x7
 715 0423 E5       		.byte	0xe5
 716 0424 28040000 		.4byte	0x428
 717 0428 09       		.uleb128 0x9
 718 0429 04       		.byte	0x4
 719 042a 2E040000 		.4byte	0x42e
 720 042e 11       		.uleb128 0x11
 721 042f 01010000 		.4byte	0x101
 722 0433 3D040000 		.4byte	0x43d
 723 0437 12       		.uleb128 0x12
 724 0438 87020000 		.4byte	0x287
 725 043c 00       		.byte	0
 726 043d 05       		.uleb128 0x5
 727 043e 17030000 		.4byte	.LASF69
 728 0442 10       		.byte	0x10
 729 0443 0B       		.byte	0xb
 730 0444 3B       		.byte	0x3b
 731 0445 7A040000 		.4byte	0x47a
 732 0449 06       		.uleb128 0x6
 733 044a 95010000 		.4byte	.LASF70
 734 044e 0B       		.byte	0xb
 735 044f 3C       		.byte	0x3c
ARM GAS  /tmp/ccevkV35.s 			page 14


 736 0450 05040000 		.4byte	0x405
 737 0454 00       		.byte	0
 738 0455 06       		.uleb128 0x6
 739 0456 3F020000 		.4byte	.LASF71
 740 045a 0B       		.byte	0xb
 741 045b 3D       		.byte	0x3d
 742 045c 7B040000 		.4byte	0x47b
 743 0460 04       		.byte	0x4
 744 0461 06       		.uleb128 0x6
 745 0462 8C010000 		.4byte	.LASF72
 746 0466 0B       		.byte	0xb
 747 0467 3E       		.byte	0x3e
 748 0468 7B040000 		.4byte	0x47b
 749 046c 08       		.byte	0x8
 750 046d 06       		.uleb128 0x6
 751 046e 7C020000 		.4byte	.LASF73
 752 0472 0B       		.byte	0xb
 753 0473 3F       		.byte	0x3f
 754 0474 7B040000 		.4byte	0x47b
 755 0478 0C       		.byte	0xc
 756 0479 00       		.byte	0
 757 047a 13       		.uleb128 0x13
 758 047b 09       		.uleb128 0x9
 759 047c 04       		.byte	0x4
 760 047d 7A040000 		.4byte	0x47a
 761 0481 14       		.uleb128 0x14
 762 0482 A9030000 		.4byte	.LASF86
 763 0486 01       		.byte	0x1
 764 0487 43       		.byte	0x43
 765 0488 00000000 		.4byte	.LFB8
 766 048c 82000000 		.4byte	.LFE8-.LFB8
 767 0490 01       		.uleb128 0x1
 768 0491 9C       		.byte	0x9c
 769 0492 7D050000 		.4byte	0x57d
 770 0496 15       		.uleb128 0x15
 771 0497 747000   		.ascii	"tp\000"
 772 049a 01       		.byte	0x1
 773 049b 44       		.byte	0x44
 774 049c 4B020000 		.4byte	0x24b
 775 04a0 00000000 		.4byte	.LLST0
 776 04a4 15       		.uleb128 0x15
 777 04a5 6D736700 		.ascii	"msg\000"
 778 04a9 01       		.byte	0x1
 779 04aa 45       		.byte	0x45
 780 04ab 01010000 		.4byte	0x101
 781 04af 29000000 		.4byte	.LLST1
 782 04b3 16       		.uleb128 0x16
 783 04b4 2E000000 		.4byte	.LVL0
 784 04b8 70060000 		.4byte	0x670
 785 04bc D1040000 		.4byte	0x4d1
 786 04c0 17       		.uleb128 0x17
 787 04c1 01       		.uleb128 0x1
 788 04c2 53       		.byte	0x53
 789 04c3 05       		.uleb128 0x5
 790 04c4 03       		.byte	0x3
 791 04c5 00000000 		.4byte	thread
 792 04c9 17       		.uleb128 0x17
ARM GAS  /tmp/ccevkV35.s 			page 15


 793 04ca 01       		.uleb128 0x1
 794 04cb 51       		.byte	0x51
 795 04cc 03       		.uleb128 0x3
 796 04cd 0A       		.byte	0xa
 797 04ce 5001     		.2byte	0x150
 798 04d0 00       		.byte	0
 799 04d1 18       		.uleb128 0x18
 800 04d2 3C000000 		.4byte	.LVL1
 801 04d6 9A060000 		.4byte	0x69a
 802 04da 16       		.uleb128 0x16
 803 04db 44000000 		.4byte	.LVL3
 804 04df A5060000 		.4byte	0x6a5
 805 04e3 EE040000 		.4byte	0x4ee
 806 04e7 17       		.uleb128 0x17
 807 04e8 01       		.uleb128 0x1
 808 04e9 51       		.byte	0x51
 809 04ea 02       		.uleb128 0x2
 810 04eb 74       		.byte	0x74
 811 04ec 00       		.sleb128 0
 812 04ed 00       		.byte	0
 813 04ee 16       		.uleb128 0x16
 814 04ef 4A000000 		.4byte	.LVL4
 815 04f3 BB060000 		.4byte	0x6bb
 816 04f7 02050000 		.4byte	0x502
 817 04fb 17       		.uleb128 0x17
 818 04fc 01       		.uleb128 0x1
 819 04fd 50       		.byte	0x50
 820 04fe 02       		.uleb128 0x2
 821 04ff 74       		.byte	0x74
 822 0500 00       		.sleb128 0
 823 0501 00       		.byte	0
 824 0502 18       		.uleb128 0x18
 825 0503 4E000000 		.4byte	.LVL5
 826 0507 9A060000 		.4byte	0x69a
 827 050b 16       		.uleb128 0x16
 828 050c 56000000 		.4byte	.LVL7
 829 0510 A5060000 		.4byte	0x6a5
 830 0514 1F050000 		.4byte	0x51f
 831 0518 17       		.uleb128 0x17
 832 0519 01       		.uleb128 0x1
 833 051a 51       		.byte	0x51
 834 051b 02       		.uleb128 0x2
 835 051c 74       		.byte	0x74
 836 051d 00       		.sleb128 0
 837 051e 00       		.byte	0
 838 051f 16       		.uleb128 0x16
 839 0520 5C000000 		.4byte	.LVL8
 840 0524 BB060000 		.4byte	0x6bb
 841 0528 33050000 		.4byte	0x533
 842 052c 17       		.uleb128 0x17
 843 052d 01       		.uleb128 0x1
 844 052e 50       		.byte	0x50
 845 052f 02       		.uleb128 0x2
 846 0530 74       		.byte	0x74
 847 0531 00       		.sleb128 0
 848 0532 00       		.byte	0
 849 0533 18       		.uleb128 0x18
ARM GAS  /tmp/ccevkV35.s 			page 16


 850 0534 60000000 		.4byte	.LVL9
 851 0538 9A060000 		.4byte	0x69a
 852 053c 16       		.uleb128 0x16
 853 053d 68000000 		.4byte	.LVL11
 854 0541 A5060000 		.4byte	0x6a5
 855 0545 50050000 		.4byte	0x550
 856 0549 17       		.uleb128 0x17
 857 054a 01       		.uleb128 0x1
 858 054b 51       		.byte	0x51
 859 054c 02       		.uleb128 0x2
 860 054d 74       		.byte	0x74
 861 054e 00       		.sleb128 0
 862 054f 00       		.byte	0
 863 0550 16       		.uleb128 0x16
 864 0551 6E000000 		.4byte	.LVL12
 865 0555 BB060000 		.4byte	0x6bb
 866 0559 64050000 		.4byte	0x564
 867 055d 17       		.uleb128 0x17
 868 055e 01       		.uleb128 0x1
 869 055f 50       		.byte	0x50
 870 0560 02       		.uleb128 0x2
 871 0561 74       		.byte	0x74
 872 0562 00       		.sleb128 0
 873 0563 00       		.byte	0
 874 0564 19       		.uleb128 0x19
 875 0565 82000000 		.4byte	.LVL14
 876 0569 CC060000 		.4byte	0x6cc
 877 056d 17       		.uleb128 0x17
 878 056e 01       		.uleb128 0x1
 879 056f 51       		.byte	0x51
 880 0570 05       		.uleb128 0x5
 881 0571 03       		.byte	0x3
 882 0572 00000000 		.4byte	.LC0
 883 0576 17       		.uleb128 0x17
 884 0577 01       		.uleb128 0x1
 885 0578 50       		.byte	0x50
 886 0579 01       		.uleb128 0x1
 887 057a 31       		.byte	0x31
 888 057b 00       		.byte	0
 889 057c 00       		.byte	0
 890 057d 1A       		.uleb128 0x1a
 891 057e 8C020000 		.4byte	.LASF87
 892 0582 01       		.byte	0x1
 893 0583 3B       		.byte	0x3b
 894 0584 01010000 		.4byte	0x101
 895 0588 00000000 		.4byte	.LFB7
 896 058c 1E000000 		.4byte	.LFE7-.LFB7
 897 0590 01       		.uleb128 0x1
 898 0591 9C       		.byte	0x9c
 899 0592 EE050000 		.4byte	0x5ee
 900 0596 1B       		.uleb128 0x1b
 901 0597 7000     		.ascii	"p\000"
 902 0599 01       		.byte	0x1
 903 059a 3B       		.byte	0x3b
 904 059b 87020000 		.4byte	0x287
 905 059f 3C000000 		.4byte	.LLST2
 906 05a3 16       		.uleb128 0x16
ARM GAS  /tmp/ccevkV35.s 			page 17


 907 05a4 0A000000 		.4byte	.LVL16
 908 05a8 EC060000 		.4byte	0x6ec
 909 05ac BD050000 		.4byte	0x5bd
 910 05b0 17       		.uleb128 0x17
 911 05b1 01       		.uleb128 0x1
 912 05b2 51       		.byte	0x51
 913 05b3 02       		.uleb128 0x2
 914 05b4 08       		.byte	0x8
 915 05b5 41       		.byte	0x41
 916 05b6 17       		.uleb128 0x17
 917 05b7 01       		.uleb128 0x1
 918 05b8 50       		.byte	0x50
 919 05b9 02       		.uleb128 0x2
 920 05ba 74       		.byte	0x74
 921 05bb 00       		.sleb128 0
 922 05bc 00       		.byte	0
 923 05bd 16       		.uleb128 0x16
 924 05be 12000000 		.4byte	.LVL17
 925 05c2 EC060000 		.4byte	0x6ec
 926 05c6 D7050000 		.4byte	0x5d7
 927 05ca 17       		.uleb128 0x17
 928 05cb 01       		.uleb128 0x1
 929 05cc 51       		.byte	0x51
 930 05cd 02       		.uleb128 0x2
 931 05ce 08       		.byte	0x8
 932 05cf 42       		.byte	0x42
 933 05d0 17       		.uleb128 0x17
 934 05d1 01       		.uleb128 0x1
 935 05d2 50       		.byte	0x50
 936 05d3 02       		.uleb128 0x2
 937 05d4 74       		.byte	0x74
 938 05d5 00       		.sleb128 0
 939 05d6 00       		.byte	0
 940 05d7 1C       		.uleb128 0x1c
 941 05d8 1A000000 		.4byte	.LVL18
 942 05dc EC060000 		.4byte	0x6ec
 943 05e0 17       		.uleb128 0x17
 944 05e1 01       		.uleb128 0x1
 945 05e2 51       		.byte	0x51
 946 05e3 02       		.uleb128 0x2
 947 05e4 08       		.byte	0x8
 948 05e5 43       		.byte	0x43
 949 05e6 17       		.uleb128 0x17
 950 05e7 01       		.uleb128 0x1
 951 05e8 50       		.byte	0x50
 952 05e9 02       		.uleb128 0x2
 953 05ea 74       		.byte	0x74
 954 05eb 00       		.sleb128 0
 955 05ec 00       		.byte	0
 956 05ed 00       		.byte	0
 957 05ee 1D       		.uleb128 0x1d
 958 05ef 9B030000 		.4byte	.LASF74
 959 05f3 09       		.byte	0x9
 960 05f4 6F       		.byte	0x6f
 961 05f5 83030000 		.4byte	0x383
 962 05f9 1E       		.uleb128 0x1e
 963 05fa 4B020000 		.4byte	0x24b
ARM GAS  /tmp/ccevkV35.s 			page 18


 964 05fe 09060000 		.4byte	0x609
 965 0602 1F       		.uleb128 0x1f
 966 0603 26030000 		.4byte	0x326
 967 0607 04       		.byte	0x4
 968 0608 00       		.byte	0
 969 0609 1D       		.uleb128 0x1d
 970 060a D5020000 		.4byte	.LASF75
 971 060e 0B       		.byte	0xb
 972 060f A5       		.byte	0xa5
 973 0610 F9050000 		.4byte	0x5f9
 974 0614 1E       		.uleb128 0x1e
 975 0615 87020000 		.4byte	0x287
 976 0619 1F060000 		.4byte	0x61f
 977 061d 20       		.uleb128 0x20
 978 061e 00       		.byte	0
 979 061f 21       		.uleb128 0x21
 980 0620 776100   		.ascii	"wa\000"
 981 0623 0B       		.byte	0xb
 982 0624 A7       		.byte	0xa7
 983 0625 29060000 		.4byte	0x629
 984 0629 10       		.uleb128 0x10
 985 062a 14060000 		.4byte	0x614
 986 062e 22       		.uleb128 0x22
 987 062f E4020000 		.4byte	.LASF76
 988 0633 01       		.byte	0x1
 989 0634 5B       		.byte	0x5b
 990 0635 3F060000 		.4byte	0x63f
 991 0639 05       		.uleb128 0x5
 992 063a 03       		.byte	0x3
 993 063b 00000000 		.4byte	testmsg1
 994 063f 10       		.uleb128 0x10
 995 0640 3D040000 		.4byte	0x43d
 996 0644 1E       		.uleb128 0x1e
 997 0645 54060000 		.4byte	0x654
 998 0649 54060000 		.4byte	0x654
 999 064d 1F       		.uleb128 0x1f
 1000 064e 26030000 		.4byte	0x326
 1001 0652 01       		.byte	0x1
 1002 0653 00       		.byte	0
 1003 0654 09       		.uleb128 0x9
 1004 0655 04       		.byte	0x4
 1005 0656 3F060000 		.4byte	0x63f
 1006 065a 22       		.uleb128 0x22
 1007 065b 10020000 		.4byte	.LASF77
 1008 065f 01       		.byte	0x1
 1009 0660 67       		.byte	0x67
 1010 0661 6B060000 		.4byte	0x66b
 1011 0665 05       		.uleb128 0x5
 1012 0666 03       		.byte	0x3
 1013 0667 00000000 		.4byte	patternmsg
 1014 066b 10       		.uleb128 0x10
 1015 066c 44060000 		.4byte	0x644
 1016 0670 23       		.uleb128 0x23
 1017 0671 FE010000 		.4byte	.LASF80
 1018 0675 07       		.byte	0x7
 1019 0676 7001     		.2byte	0x170
 1020 0678 4B020000 		.4byte	0x24b
ARM GAS  /tmp/ccevkV35.s 			page 19


 1021 067c 9A060000 		.4byte	0x69a
 1022 0680 12       		.uleb128 0x12
 1023 0681 87020000 		.4byte	0x287
 1024 0685 12       		.uleb128 0x12
 1025 0686 2C000000 		.4byte	0x2c
 1026 068a 12       		.uleb128 0x12
 1027 068b F6000000 		.4byte	0xf6
 1028 068f 12       		.uleb128 0x12
 1029 0690 1D040000 		.4byte	0x41d
 1030 0694 12       		.uleb128 0x12
 1031 0695 87020000 		.4byte	0x287
 1032 0699 00       		.byte	0
 1033 069a 24       		.uleb128 0x24
 1034 069b 80030000 		.4byte	.LASF88
 1035 069f 0C       		.byte	0xc
 1036 06a0 52       		.byte	0x52
 1037 06a1 4B020000 		.4byte	0x24b
 1038 06a5 25       		.uleb128 0x25
 1039 06a6 0A030000 		.4byte	.LASF78
 1040 06aa 0C       		.byte	0xc
 1041 06ab 53       		.byte	0x53
 1042 06ac BB060000 		.4byte	0x6bb
 1043 06b0 12       		.uleb128 0x12
 1044 06b1 4B020000 		.4byte	0x24b
 1045 06b5 12       		.uleb128 0x12
 1046 06b6 01010000 		.4byte	0x101
 1047 06ba 00       		.byte	0
 1048 06bb 25       		.uleb128 0x25
 1049 06bc 1B010000 		.4byte	.LASF79
 1050 06c0 0B       		.byte	0xb
 1051 06c1 56       		.byte	0x56
 1052 06c2 CC060000 		.4byte	0x6cc
 1053 06c6 12       		.uleb128 0x12
 1054 06c7 10040000 		.4byte	0x410
 1055 06cb 00       		.byte	0
 1056 06cc 26       		.uleb128 0x26
 1057 06cd 45020000 		.4byte	.LASF81
 1058 06d1 0B       		.byte	0xb
 1059 06d2 59       		.byte	0x59
 1060 06d3 B8000000 		.4byte	0xb8
 1061 06d7 E6060000 		.4byte	0x6e6
 1062 06db 12       		.uleb128 0x12
 1063 06dc 37000000 		.4byte	0x37
 1064 06e0 12       		.uleb128 0x12
 1065 06e1 E6060000 		.4byte	0x6e6
 1066 06e5 00       		.byte	0
 1067 06e6 09       		.uleb128 0x9
 1068 06e7 04       		.byte	0x4
 1069 06e8 10040000 		.4byte	0x410
 1070 06ec 27       		.uleb128 0x27
 1071 06ed 3E010000 		.4byte	.LASF82
 1072 06f1 0C       		.byte	0xc
 1073 06f2 51       		.byte	0x51
 1074 06f3 01010000 		.4byte	0x101
 1075 06f7 12       		.uleb128 0x12
 1076 06f8 4B020000 		.4byte	0x24b
 1077 06fc 12       		.uleb128 0x12
ARM GAS  /tmp/ccevkV35.s 			page 20


 1078 06fd 01010000 		.4byte	0x101
 1079 0701 00       		.byte	0
 1080 0702 00       		.byte	0
 1081              		.section	.debug_abbrev,"",%progbits
 1082              	.Ldebug_abbrev0:
 1083 0000 01       		.uleb128 0x1
 1084 0001 11       		.uleb128 0x11
 1085 0002 01       		.byte	0x1
 1086 0003 25       		.uleb128 0x25
 1087 0004 0E       		.uleb128 0xe
 1088 0005 13       		.uleb128 0x13
 1089 0006 0B       		.uleb128 0xb
 1090 0007 03       		.uleb128 0x3
 1091 0008 0E       		.uleb128 0xe
 1092 0009 1B       		.uleb128 0x1b
 1093 000a 0E       		.uleb128 0xe
 1094 000b 55       		.uleb128 0x55
 1095 000c 17       		.uleb128 0x17
 1096 000d 11       		.uleb128 0x11
 1097 000e 01       		.uleb128 0x1
 1098 000f 10       		.uleb128 0x10
 1099 0010 17       		.uleb128 0x17
 1100 0011 00       		.byte	0
 1101 0012 00       		.byte	0
 1102 0013 02       		.uleb128 0x2
 1103 0014 24       		.uleb128 0x24
 1104 0015 00       		.byte	0
 1105 0016 0B       		.uleb128 0xb
 1106 0017 0B       		.uleb128 0xb
 1107 0018 3E       		.uleb128 0x3e
 1108 0019 0B       		.uleb128 0xb
 1109 001a 03       		.uleb128 0x3
 1110 001b 08       		.uleb128 0x8
 1111 001c 00       		.byte	0
 1112 001d 00       		.byte	0
 1113 001e 03       		.uleb128 0x3
 1114 001f 16       		.uleb128 0x16
 1115 0020 00       		.byte	0
 1116 0021 03       		.uleb128 0x3
 1117 0022 0E       		.uleb128 0xe
 1118 0023 3A       		.uleb128 0x3a
 1119 0024 0B       		.uleb128 0xb
 1120 0025 3B       		.uleb128 0x3b
 1121 0026 0B       		.uleb128 0xb
 1122 0027 49       		.uleb128 0x49
 1123 0028 13       		.uleb128 0x13
 1124 0029 00       		.byte	0
 1125 002a 00       		.byte	0
 1126 002b 04       		.uleb128 0x4
 1127 002c 24       		.uleb128 0x24
 1128 002d 00       		.byte	0
 1129 002e 0B       		.uleb128 0xb
 1130 002f 0B       		.uleb128 0xb
 1131 0030 3E       		.uleb128 0x3e
 1132 0031 0B       		.uleb128 0xb
 1133 0032 03       		.uleb128 0x3
 1134 0033 0E       		.uleb128 0xe
ARM GAS  /tmp/ccevkV35.s 			page 21


 1135 0034 00       		.byte	0
 1136 0035 00       		.byte	0
 1137 0036 05       		.uleb128 0x5
 1138 0037 13       		.uleb128 0x13
 1139 0038 01       		.byte	0x1
 1140 0039 03       		.uleb128 0x3
 1141 003a 0E       		.uleb128 0xe
 1142 003b 0B       		.uleb128 0xb
 1143 003c 0B       		.uleb128 0xb
 1144 003d 3A       		.uleb128 0x3a
 1145 003e 0B       		.uleb128 0xb
 1146 003f 3B       		.uleb128 0x3b
 1147 0040 0B       		.uleb128 0xb
 1148 0041 01       		.uleb128 0x1
 1149 0042 13       		.uleb128 0x13
 1150 0043 00       		.byte	0
 1151 0044 00       		.byte	0
 1152 0045 06       		.uleb128 0x6
 1153 0046 0D       		.uleb128 0xd
 1154 0047 00       		.byte	0
 1155 0048 03       		.uleb128 0x3
 1156 0049 0E       		.uleb128 0xe
 1157 004a 3A       		.uleb128 0x3a
 1158 004b 0B       		.uleb128 0xb
 1159 004c 3B       		.uleb128 0x3b
 1160 004d 0B       		.uleb128 0xb
 1161 004e 49       		.uleb128 0x49
 1162 004f 13       		.uleb128 0x13
 1163 0050 38       		.uleb128 0x38
 1164 0051 0B       		.uleb128 0xb
 1165 0052 00       		.byte	0
 1166 0053 00       		.byte	0
 1167 0054 07       		.uleb128 0x7
 1168 0055 0D       		.uleb128 0xd
 1169 0056 00       		.byte	0
 1170 0057 03       		.uleb128 0x3
 1171 0058 08       		.uleb128 0x8
 1172 0059 3A       		.uleb128 0x3a
 1173 005a 0B       		.uleb128 0xb
 1174 005b 3B       		.uleb128 0x3b
 1175 005c 0B       		.uleb128 0xb
 1176 005d 49       		.uleb128 0x49
 1177 005e 13       		.uleb128 0x13
 1178 005f 38       		.uleb128 0x38
 1179 0060 0B       		.uleb128 0xb
 1180 0061 00       		.byte	0
 1181 0062 00       		.byte	0
 1182 0063 08       		.uleb128 0x8
 1183 0064 13       		.uleb128 0x13
 1184 0065 01       		.byte	0x1
 1185 0066 0B       		.uleb128 0xb
 1186 0067 0B       		.uleb128 0xb
 1187 0068 3A       		.uleb128 0x3a
 1188 0069 0B       		.uleb128 0xb
 1189 006a 3B       		.uleb128 0x3b
 1190 006b 0B       		.uleb128 0xb
 1191 006c 01       		.uleb128 0x1
ARM GAS  /tmp/ccevkV35.s 			page 22


 1192 006d 13       		.uleb128 0x13
 1193 006e 00       		.byte	0
 1194 006f 00       		.byte	0
 1195 0070 09       		.uleb128 0x9
 1196 0071 0F       		.uleb128 0xf
 1197 0072 00       		.byte	0
 1198 0073 0B       		.uleb128 0xb
 1199 0074 0B       		.uleb128 0xb
 1200 0075 49       		.uleb128 0x49
 1201 0076 13       		.uleb128 0x13
 1202 0077 00       		.byte	0
 1203 0078 00       		.byte	0
 1204 0079 0A       		.uleb128 0xa
 1205 007a 0F       		.uleb128 0xf
 1206 007b 00       		.byte	0
 1207 007c 0B       		.uleb128 0xb
 1208 007d 0B       		.uleb128 0xb
 1209 007e 00       		.byte	0
 1210 007f 00       		.byte	0
 1211 0080 0B       		.uleb128 0xb
 1212 0081 13       		.uleb128 0x13
 1213 0082 01       		.byte	0x1
 1214 0083 03       		.uleb128 0x3
 1215 0084 0E       		.uleb128 0xe
 1216 0085 0B       		.uleb128 0xb
 1217 0086 0B       		.uleb128 0xb
 1218 0087 3A       		.uleb128 0x3a
 1219 0088 0B       		.uleb128 0xb
 1220 0089 3B       		.uleb128 0x3b
 1221 008a 05       		.uleb128 0x5
 1222 008b 01       		.uleb128 0x1
 1223 008c 13       		.uleb128 0x13
 1224 008d 00       		.byte	0
 1225 008e 00       		.byte	0
 1226 008f 0C       		.uleb128 0xc
 1227 0090 0D       		.uleb128 0xd
 1228 0091 00       		.byte	0
 1229 0092 03       		.uleb128 0x3
 1230 0093 08       		.uleb128 0x8
 1231 0094 3A       		.uleb128 0x3a
 1232 0095 0B       		.uleb128 0xb
 1233 0096 3B       		.uleb128 0x3b
 1234 0097 05       		.uleb128 0x5
 1235 0098 49       		.uleb128 0x49
 1236 0099 13       		.uleb128 0x13
 1237 009a 38       		.uleb128 0x38
 1238 009b 0B       		.uleb128 0xb
 1239 009c 00       		.byte	0
 1240 009d 00       		.byte	0
 1241 009e 0D       		.uleb128 0xd
 1242 009f 35       		.uleb128 0x35
 1243 00a0 00       		.byte	0
 1244 00a1 49       		.uleb128 0x49
 1245 00a2 13       		.uleb128 0x13
 1246 00a3 00       		.byte	0
 1247 00a4 00       		.byte	0
 1248 00a5 0E       		.uleb128 0xe
ARM GAS  /tmp/ccevkV35.s 			page 23


 1249 00a6 17       		.uleb128 0x17
 1250 00a7 01       		.byte	0x1
 1251 00a8 0B       		.uleb128 0xb
 1252 00a9 0B       		.uleb128 0xb
 1253 00aa 3A       		.uleb128 0x3a
 1254 00ab 0B       		.uleb128 0xb
 1255 00ac 3B       		.uleb128 0x3b
 1256 00ad 0B       		.uleb128 0xb
 1257 00ae 01       		.uleb128 0x1
 1258 00af 13       		.uleb128 0x13
 1259 00b0 00       		.byte	0
 1260 00b1 00       		.byte	0
 1261 00b2 0F       		.uleb128 0xf
 1262 00b3 0D       		.uleb128 0xd
 1263 00b4 00       		.byte	0
 1264 00b5 03       		.uleb128 0x3
 1265 00b6 0E       		.uleb128 0xe
 1266 00b7 3A       		.uleb128 0x3a
 1267 00b8 0B       		.uleb128 0xb
 1268 00b9 3B       		.uleb128 0x3b
 1269 00ba 0B       		.uleb128 0xb
 1270 00bb 49       		.uleb128 0x49
 1271 00bc 13       		.uleb128 0x13
 1272 00bd 00       		.byte	0
 1273 00be 00       		.byte	0
 1274 00bf 10       		.uleb128 0x10
 1275 00c0 26       		.uleb128 0x26
 1276 00c1 00       		.byte	0
 1277 00c2 49       		.uleb128 0x49
 1278 00c3 13       		.uleb128 0x13
 1279 00c4 00       		.byte	0
 1280 00c5 00       		.byte	0
 1281 00c6 11       		.uleb128 0x11
 1282 00c7 15       		.uleb128 0x15
 1283 00c8 01       		.byte	0x1
 1284 00c9 27       		.uleb128 0x27
 1285 00ca 19       		.uleb128 0x19
 1286 00cb 49       		.uleb128 0x49
 1287 00cc 13       		.uleb128 0x13
 1288 00cd 01       		.uleb128 0x1
 1289 00ce 13       		.uleb128 0x13
 1290 00cf 00       		.byte	0
 1291 00d0 00       		.byte	0
 1292 00d1 12       		.uleb128 0x12
 1293 00d2 05       		.uleb128 0x5
 1294 00d3 00       		.byte	0
 1295 00d4 49       		.uleb128 0x49
 1296 00d5 13       		.uleb128 0x13
 1297 00d6 00       		.byte	0
 1298 00d7 00       		.byte	0
 1299 00d8 13       		.uleb128 0x13
 1300 00d9 15       		.uleb128 0x15
 1301 00da 00       		.byte	0
 1302 00db 27       		.uleb128 0x27
 1303 00dc 19       		.uleb128 0x19
 1304 00dd 00       		.byte	0
 1305 00de 00       		.byte	0
ARM GAS  /tmp/ccevkV35.s 			page 24


 1306 00df 14       		.uleb128 0x14
 1307 00e0 2E       		.uleb128 0x2e
 1308 00e1 01       		.byte	0x1
 1309 00e2 03       		.uleb128 0x3
 1310 00e3 0E       		.uleb128 0xe
 1311 00e4 3A       		.uleb128 0x3a
 1312 00e5 0B       		.uleb128 0xb
 1313 00e6 3B       		.uleb128 0x3b
 1314 00e7 0B       		.uleb128 0xb
 1315 00e8 27       		.uleb128 0x27
 1316 00e9 19       		.uleb128 0x19
 1317 00ea 11       		.uleb128 0x11
 1318 00eb 01       		.uleb128 0x1
 1319 00ec 12       		.uleb128 0x12
 1320 00ed 06       		.uleb128 0x6
 1321 00ee 40       		.uleb128 0x40
 1322 00ef 18       		.uleb128 0x18
 1323 00f0 9742     		.uleb128 0x2117
 1324 00f2 19       		.uleb128 0x19
 1325 00f3 01       		.uleb128 0x1
 1326 00f4 13       		.uleb128 0x13
 1327 00f5 00       		.byte	0
 1328 00f6 00       		.byte	0
 1329 00f7 15       		.uleb128 0x15
 1330 00f8 34       		.uleb128 0x34
 1331 00f9 00       		.byte	0
 1332 00fa 03       		.uleb128 0x3
 1333 00fb 08       		.uleb128 0x8
 1334 00fc 3A       		.uleb128 0x3a
 1335 00fd 0B       		.uleb128 0xb
 1336 00fe 3B       		.uleb128 0x3b
 1337 00ff 0B       		.uleb128 0xb
 1338 0100 49       		.uleb128 0x49
 1339 0101 13       		.uleb128 0x13
 1340 0102 02       		.uleb128 0x2
 1341 0103 17       		.uleb128 0x17
 1342 0104 00       		.byte	0
 1343 0105 00       		.byte	0
 1344 0106 16       		.uleb128 0x16
 1345 0107 898201   		.uleb128 0x4109
 1346 010a 01       		.byte	0x1
 1347 010b 11       		.uleb128 0x11
 1348 010c 01       		.uleb128 0x1
 1349 010d 31       		.uleb128 0x31
 1350 010e 13       		.uleb128 0x13
 1351 010f 01       		.uleb128 0x1
 1352 0110 13       		.uleb128 0x13
 1353 0111 00       		.byte	0
 1354 0112 00       		.byte	0
 1355 0113 17       		.uleb128 0x17
 1356 0114 8A8201   		.uleb128 0x410a
 1357 0117 00       		.byte	0
 1358 0118 02       		.uleb128 0x2
 1359 0119 18       		.uleb128 0x18
 1360 011a 9142     		.uleb128 0x2111
 1361 011c 18       		.uleb128 0x18
 1362 011d 00       		.byte	0
ARM GAS  /tmp/ccevkV35.s 			page 25


 1363 011e 00       		.byte	0
 1364 011f 18       		.uleb128 0x18
 1365 0120 898201   		.uleb128 0x4109
 1366 0123 00       		.byte	0
 1367 0124 11       		.uleb128 0x11
 1368 0125 01       		.uleb128 0x1
 1369 0126 31       		.uleb128 0x31
 1370 0127 13       		.uleb128 0x13
 1371 0128 00       		.byte	0
 1372 0129 00       		.byte	0
 1373 012a 19       		.uleb128 0x19
 1374 012b 898201   		.uleb128 0x4109
 1375 012e 01       		.byte	0x1
 1376 012f 11       		.uleb128 0x11
 1377 0130 01       		.uleb128 0x1
 1378 0131 9542     		.uleb128 0x2115
 1379 0133 19       		.uleb128 0x19
 1380 0134 31       		.uleb128 0x31
 1381 0135 13       		.uleb128 0x13
 1382 0136 00       		.byte	0
 1383 0137 00       		.byte	0
 1384 0138 1A       		.uleb128 0x1a
 1385 0139 2E       		.uleb128 0x2e
 1386 013a 01       		.byte	0x1
 1387 013b 03       		.uleb128 0x3
 1388 013c 0E       		.uleb128 0xe
 1389 013d 3A       		.uleb128 0x3a
 1390 013e 0B       		.uleb128 0xb
 1391 013f 3B       		.uleb128 0x3b
 1392 0140 0B       		.uleb128 0xb
 1393 0141 27       		.uleb128 0x27
 1394 0142 19       		.uleb128 0x19
 1395 0143 49       		.uleb128 0x49
 1396 0144 13       		.uleb128 0x13
 1397 0145 11       		.uleb128 0x11
 1398 0146 01       		.uleb128 0x1
 1399 0147 12       		.uleb128 0x12
 1400 0148 06       		.uleb128 0x6
 1401 0149 40       		.uleb128 0x40
 1402 014a 18       		.uleb128 0x18
 1403 014b 9742     		.uleb128 0x2117
 1404 014d 19       		.uleb128 0x19
 1405 014e 01       		.uleb128 0x1
 1406 014f 13       		.uleb128 0x13
 1407 0150 00       		.byte	0
 1408 0151 00       		.byte	0
 1409 0152 1B       		.uleb128 0x1b
 1410 0153 05       		.uleb128 0x5
 1411 0154 00       		.byte	0
 1412 0155 03       		.uleb128 0x3
 1413 0156 08       		.uleb128 0x8
 1414 0157 3A       		.uleb128 0x3a
 1415 0158 0B       		.uleb128 0xb
 1416 0159 3B       		.uleb128 0x3b
 1417 015a 0B       		.uleb128 0xb
 1418 015b 49       		.uleb128 0x49
 1419 015c 13       		.uleb128 0x13
ARM GAS  /tmp/ccevkV35.s 			page 26


 1420 015d 02       		.uleb128 0x2
 1421 015e 17       		.uleb128 0x17
 1422 015f 00       		.byte	0
 1423 0160 00       		.byte	0
 1424 0161 1C       		.uleb128 0x1c
 1425 0162 898201   		.uleb128 0x4109
 1426 0165 01       		.byte	0x1
 1427 0166 11       		.uleb128 0x11
 1428 0167 01       		.uleb128 0x1
 1429 0168 31       		.uleb128 0x31
 1430 0169 13       		.uleb128 0x13
 1431 016a 00       		.byte	0
 1432 016b 00       		.byte	0
 1433 016c 1D       		.uleb128 0x1d
 1434 016d 34       		.uleb128 0x34
 1435 016e 00       		.byte	0
 1436 016f 03       		.uleb128 0x3
 1437 0170 0E       		.uleb128 0xe
 1438 0171 3A       		.uleb128 0x3a
 1439 0172 0B       		.uleb128 0xb
 1440 0173 3B       		.uleb128 0x3b
 1441 0174 0B       		.uleb128 0xb
 1442 0175 49       		.uleb128 0x49
 1443 0176 13       		.uleb128 0x13
 1444 0177 3F       		.uleb128 0x3f
 1445 0178 19       		.uleb128 0x19
 1446 0179 3C       		.uleb128 0x3c
 1447 017a 19       		.uleb128 0x19
 1448 017b 00       		.byte	0
 1449 017c 00       		.byte	0
 1450 017d 1E       		.uleb128 0x1e
 1451 017e 01       		.uleb128 0x1
 1452 017f 01       		.byte	0x1
 1453 0180 49       		.uleb128 0x49
 1454 0181 13       		.uleb128 0x13
 1455 0182 01       		.uleb128 0x1
 1456 0183 13       		.uleb128 0x13
 1457 0184 00       		.byte	0
 1458 0185 00       		.byte	0
 1459 0186 1F       		.uleb128 0x1f
 1460 0187 21       		.uleb128 0x21
 1461 0188 00       		.byte	0
 1462 0189 49       		.uleb128 0x49
 1463 018a 13       		.uleb128 0x13
 1464 018b 2F       		.uleb128 0x2f
 1465 018c 0B       		.uleb128 0xb
 1466 018d 00       		.byte	0
 1467 018e 00       		.byte	0
 1468 018f 20       		.uleb128 0x20
 1469 0190 21       		.uleb128 0x21
 1470 0191 00       		.byte	0
 1471 0192 00       		.byte	0
 1472 0193 00       		.byte	0
 1473 0194 21       		.uleb128 0x21
 1474 0195 34       		.uleb128 0x34
 1475 0196 00       		.byte	0
 1476 0197 03       		.uleb128 0x3
ARM GAS  /tmp/ccevkV35.s 			page 27


 1477 0198 08       		.uleb128 0x8
 1478 0199 3A       		.uleb128 0x3a
 1479 019a 0B       		.uleb128 0xb
 1480 019b 3B       		.uleb128 0x3b
 1481 019c 0B       		.uleb128 0xb
 1482 019d 49       		.uleb128 0x49
 1483 019e 13       		.uleb128 0x13
 1484 019f 3F       		.uleb128 0x3f
 1485 01a0 19       		.uleb128 0x19
 1486 01a1 3C       		.uleb128 0x3c
 1487 01a2 19       		.uleb128 0x19
 1488 01a3 00       		.byte	0
 1489 01a4 00       		.byte	0
 1490 01a5 22       		.uleb128 0x22
 1491 01a6 34       		.uleb128 0x34
 1492 01a7 00       		.byte	0
 1493 01a8 03       		.uleb128 0x3
 1494 01a9 0E       		.uleb128 0xe
 1495 01aa 3A       		.uleb128 0x3a
 1496 01ab 0B       		.uleb128 0xb
 1497 01ac 3B       		.uleb128 0x3b
 1498 01ad 0B       		.uleb128 0xb
 1499 01ae 49       		.uleb128 0x49
 1500 01af 13       		.uleb128 0x13
 1501 01b0 3F       		.uleb128 0x3f
 1502 01b1 19       		.uleb128 0x19
 1503 01b2 02       		.uleb128 0x2
 1504 01b3 18       		.uleb128 0x18
 1505 01b4 00       		.byte	0
 1506 01b5 00       		.byte	0
 1507 01b6 23       		.uleb128 0x23
 1508 01b7 2E       		.uleb128 0x2e
 1509 01b8 01       		.byte	0x1
 1510 01b9 3F       		.uleb128 0x3f
 1511 01ba 19       		.uleb128 0x19
 1512 01bb 03       		.uleb128 0x3
 1513 01bc 0E       		.uleb128 0xe
 1514 01bd 3A       		.uleb128 0x3a
 1515 01be 0B       		.uleb128 0xb
 1516 01bf 3B       		.uleb128 0x3b
 1517 01c0 05       		.uleb128 0x5
 1518 01c1 27       		.uleb128 0x27
 1519 01c2 19       		.uleb128 0x19
 1520 01c3 49       		.uleb128 0x49
 1521 01c4 13       		.uleb128 0x13
 1522 01c5 3C       		.uleb128 0x3c
 1523 01c6 19       		.uleb128 0x19
 1524 01c7 01       		.uleb128 0x1
 1525 01c8 13       		.uleb128 0x13
 1526 01c9 00       		.byte	0
 1527 01ca 00       		.byte	0
 1528 01cb 24       		.uleb128 0x24
 1529 01cc 2E       		.uleb128 0x2e
 1530 01cd 00       		.byte	0
 1531 01ce 3F       		.uleb128 0x3f
 1532 01cf 19       		.uleb128 0x19
 1533 01d0 03       		.uleb128 0x3
ARM GAS  /tmp/ccevkV35.s 			page 28


 1534 01d1 0E       		.uleb128 0xe
 1535 01d2 3A       		.uleb128 0x3a
 1536 01d3 0B       		.uleb128 0xb
 1537 01d4 3B       		.uleb128 0x3b
 1538 01d5 0B       		.uleb128 0xb
 1539 01d6 27       		.uleb128 0x27
 1540 01d7 19       		.uleb128 0x19
 1541 01d8 49       		.uleb128 0x49
 1542 01d9 13       		.uleb128 0x13
 1543 01da 3C       		.uleb128 0x3c
 1544 01db 19       		.uleb128 0x19
 1545 01dc 00       		.byte	0
 1546 01dd 00       		.byte	0
 1547 01de 25       		.uleb128 0x25
 1548 01df 2E       		.uleb128 0x2e
 1549 01e0 01       		.byte	0x1
 1550 01e1 3F       		.uleb128 0x3f
 1551 01e2 19       		.uleb128 0x19
 1552 01e3 03       		.uleb128 0x3
 1553 01e4 0E       		.uleb128 0xe
 1554 01e5 3A       		.uleb128 0x3a
 1555 01e6 0B       		.uleb128 0xb
 1556 01e7 3B       		.uleb128 0x3b
 1557 01e8 0B       		.uleb128 0xb
 1558 01e9 27       		.uleb128 0x27
 1559 01ea 19       		.uleb128 0x19
 1560 01eb 3C       		.uleb128 0x3c
 1561 01ec 19       		.uleb128 0x19
 1562 01ed 01       		.uleb128 0x1
 1563 01ee 13       		.uleb128 0x13
 1564 01ef 00       		.byte	0
 1565 01f0 00       		.byte	0
 1566 01f1 26       		.uleb128 0x26
 1567 01f2 2E       		.uleb128 0x2e
 1568 01f3 01       		.byte	0x1
 1569 01f4 3F       		.uleb128 0x3f
 1570 01f5 19       		.uleb128 0x19
 1571 01f6 03       		.uleb128 0x3
 1572 01f7 0E       		.uleb128 0xe
 1573 01f8 3A       		.uleb128 0x3a
 1574 01f9 0B       		.uleb128 0xb
 1575 01fa 3B       		.uleb128 0x3b
 1576 01fb 0B       		.uleb128 0xb
 1577 01fc 27       		.uleb128 0x27
 1578 01fd 19       		.uleb128 0x19
 1579 01fe 49       		.uleb128 0x49
 1580 01ff 13       		.uleb128 0x13
 1581 0200 3C       		.uleb128 0x3c
 1582 0201 19       		.uleb128 0x19
 1583 0202 01       		.uleb128 0x1
 1584 0203 13       		.uleb128 0x13
 1585 0204 00       		.byte	0
 1586 0205 00       		.byte	0
 1587 0206 27       		.uleb128 0x27
 1588 0207 2E       		.uleb128 0x2e
 1589 0208 01       		.byte	0x1
 1590 0209 3F       		.uleb128 0x3f
ARM GAS  /tmp/ccevkV35.s 			page 29


 1591 020a 19       		.uleb128 0x19
 1592 020b 03       		.uleb128 0x3
 1593 020c 0E       		.uleb128 0xe
 1594 020d 3A       		.uleb128 0x3a
 1595 020e 0B       		.uleb128 0xb
 1596 020f 3B       		.uleb128 0x3b
 1597 0210 0B       		.uleb128 0xb
 1598 0211 27       		.uleb128 0x27
 1599 0212 19       		.uleb128 0x19
 1600 0213 49       		.uleb128 0x49
 1601 0214 13       		.uleb128 0x13
 1602 0215 3C       		.uleb128 0x3c
 1603 0216 19       		.uleb128 0x19
 1604 0217 00       		.byte	0
 1605 0218 00       		.byte	0
 1606 0219 00       		.byte	0
 1607              		.section	.debug_loc,"",%progbits
 1608              	.Ldebug_loc0:
 1609              	.LLST0:
 1610 0000 3C000000 		.4byte	.LVL1
 1611 0004 43000000 		.4byte	.LVL3-1
 1612 0008 0100     		.2byte	0x1
 1613 000a 50       		.byte	0x50
 1614 000b 4E000000 		.4byte	.LVL5
 1615 000f 55000000 		.4byte	.LVL7-1
 1616 0013 0100     		.2byte	0x1
 1617 0015 50       		.byte	0x50
 1618 0016 60000000 		.4byte	.LVL9
 1619 001a 67000000 		.4byte	.LVL11-1
 1620 001e 0100     		.2byte	0x1
 1621 0020 50       		.byte	0x50
 1622 0021 00000000 		.4byte	0
 1623 0025 00000000 		.4byte	0
 1624              	.LLST1:
 1625 0029 3E000000 		.4byte	.LVL2
 1626 002d 7E000000 		.4byte	.LVL13
 1627 0031 0100     		.2byte	0x1
 1628 0033 54       		.byte	0x54
 1629 0034 00000000 		.4byte	0
 1630 0038 00000000 		.4byte	0
 1631              	.LLST2:
 1632 003c 00000000 		.4byte	.LVL15
 1633 0040 09000000 		.4byte	.LVL16-1
 1634 0044 0100     		.2byte	0x1
 1635 0046 50       		.byte	0x50
 1636 0047 09000000 		.4byte	.LVL16-1
 1637 004b 1E000000 		.4byte	.LFE7
 1638 004f 0100     		.2byte	0x1
 1639 0051 54       		.byte	0x54
 1640 0052 00000000 		.4byte	0
 1641 0056 00000000 		.4byte	0
 1642              		.section	.debug_aranges,"",%progbits
 1643 0000 24000000 		.4byte	0x24
 1644 0004 0200     		.2byte	0x2
 1645 0006 00000000 		.4byte	.Ldebug_info0
 1646 000a 04       		.byte	0x4
 1647 000b 00       		.byte	0
ARM GAS  /tmp/ccevkV35.s 			page 30


 1648 000c 0000     		.2byte	0
 1649 000e 0000     		.2byte	0
 1650 0010 00000000 		.4byte	.LFB8
 1651 0014 82000000 		.4byte	.LFE8-.LFB8
 1652 0018 00000000 		.4byte	.LFB7
 1653 001c 1E000000 		.4byte	.LFE7-.LFB7
 1654 0020 00000000 		.4byte	0
 1655 0024 00000000 		.4byte	0
 1656              		.section	.debug_ranges,"",%progbits
 1657              	.Ldebug_ranges0:
 1658 0000 00000000 		.4byte	.LFB8
 1659 0004 82000000 		.4byte	.LFE8
 1660 0008 00000000 		.4byte	.LFB7
 1661 000c 1E000000 		.4byte	.LFE7
 1662 0010 00000000 		.4byte	0
 1663 0014 00000000 		.4byte	0
 1664              		.section	.debug_line,"",%progbits
 1665              	.Ldebug_line0:
 1666 0000 87010000 		.section	.debug_str,"MS",%progbits,1
 1666      02004701 
 1666      00000201 
 1666      FB0E0D00 
 1666      01010101 
 1667              	.LASF68:
 1668 0000 7466756E 		.ascii	"tfunc_t\000"
 1668      635F7400 
 1669              	.LASF41:
 1670 0008 705F6D73 		.ascii	"p_msg\000"
 1670      6700
 1671              	.LASF2:
 1672 000e 73697A65 		.ascii	"size_t\000"
 1672      5F7400
 1673              	.LASF63:
 1674 0015 7264796D 		.ascii	"rdymsg\000"
 1674      736700
 1675              	.LASF3:
 1676 001c 5F5F7569 		.ascii	"__uint8_t\000"
 1676      6E74385F 
 1676      7400
 1677              	.LASF83:
 1678 0026 474E5520 		.ascii	"GNU C 4.8.2 -mcpu=cortex-m4 -mno-thumb-interwork -m"
 1678      4320342E 
 1678      382E3220 
 1678      2D6D6370 
 1678      753D636F 
 1679 0059 7468756D 		.ascii	"thumb -ggdb -O2 -fomit-frame-pointer -falign-functi"
 1679      62202D67 
 1679      67646220 
 1679      2D4F3220 
 1679      2D666F6D 
 1680 008c 6F6E733D 		.ascii	"ons=16 -ffunction-sections -fdata-sections -fno-com"
 1680      3136202D 
 1680      6666756E 
 1680      6374696F 
 1680      6E2D7365 
 1681 00bf 6D6F6E00 		.ascii	"mon\000"
 1682              	.LASF12:
ARM GAS  /tmp/ccevkV35.s 			page 31


 1683 00c3 6C6F6E67 		.ascii	"long long unsigned int\000"
 1683      206C6F6E 
 1683      6720756E 
 1683      7369676E 
 1683      65642069 
 1684              	.LASF64:
 1685 00da 65786974 		.ascii	"exitcode\000"
 1685      636F6465 
 1685      00
 1686              	.LASF29:
 1687 00e3 705F7072 		.ascii	"p_prio\000"
 1687      696F00
 1688              	.LASF11:
 1689 00ea 6C6F6E67 		.ascii	"long long int\000"
 1689      206C6F6E 
 1689      6720696E 
 1689      7400
 1690              	.LASF1:
 1691 00f8 7369676E 		.ascii	"signed char\000"
 1691      65642063 
 1691      68617200 
 1692              	.LASF45:
 1693 0104 705F6D70 		.ascii	"p_mpool\000"
 1693      6F6F6C00 
 1694              	.LASF16:
 1695 010c 626F6F6C 		.ascii	"bool_t\000"
 1695      5F7400
 1696              	.LASF60:
 1697 0113 6D5F7175 		.ascii	"m_queue\000"
 1697      65756500 
 1698              	.LASF79:
 1699 011b 74657374 		.ascii	"test_emit_token\000"
 1699      5F656D69 
 1699      745F746F 
 1699      6B656E00 
 1700              	.LASF21:
 1701 012b 74736C69 		.ascii	"tslices_t\000"
 1701      6365735F 
 1701      7400
 1702              	.LASF8:
 1703 0135 6C6F6E67 		.ascii	"long int\000"
 1703      20696E74 
 1703      00
 1704              	.LASF82:
 1705 013e 63684D73 		.ascii	"chMsgSend\000"
 1705      6753656E 
 1705      6400
 1706              	.LASF19:
 1707 0148 74737461 		.ascii	"tstate_t\000"
 1707      74655F74 
 1707      00
 1708              	.LASF31:
 1709 0151 705F6E65 		.ascii	"p_newer\000"
 1709      77657200 
 1710              	.LASF9:
 1711 0159 5F5F7569 		.ascii	"__uint32_t\000"
 1711      6E743332 
ARM GAS  /tmp/ccevkV35.s 			page 32


 1711      5F7400
 1712              	.LASF48:
 1713 0164 72656761 		.ascii	"regarm_t\000"
 1713      726D5F74 
 1713      00
 1714              	.LASF0:
 1715 016d 756E7369 		.ascii	"unsigned int\000"
 1715      676E6564 
 1715      20696E74 
 1715      00
 1716              	.LASF10:
 1717 017a 6C6F6E67 		.ascii	"long unsigned int\000"
 1717      20756E73 
 1717      69676E65 
 1717      6420696E 
 1717      7400
 1718              	.LASF72:
 1719 018c 74656172 		.ascii	"teardown\000"
 1719      646F776E 
 1719      00
 1720              	.LASF70:
 1721 0195 6E616D65 		.ascii	"name\000"
 1721      00
 1722              	.LASF50:
 1723 019a 636F6E74 		.ascii	"context\000"
 1723      65787400 
 1724              	.LASF6:
 1725 01a2 73686F72 		.ascii	"short unsigned int\000"
 1725      7420756E 
 1725      7369676E 
 1725      65642069 
 1725      6E7400
 1726              	.LASF23:
 1727 01b5 6D73675F 		.ascii	"msg_t\000"
 1727      7400
 1728              	.LASF55:
 1729 01bb 725F6E65 		.ascii	"r_newer\000"
 1729      77657200 
 1730              	.LASF18:
 1731 01c3 746D6F64 		.ascii	"tmode_t\000"
 1731      655F7400 
 1732              	.LASF84:
 1733 01cb 2E2E2F2E 		.ascii	"../../test/testmsg.c\000"
 1733      2E2F7465 
 1733      73742F74 
 1733      6573746D 
 1733      73672E63 
 1734              	.LASF47:
 1735 01e0 54687265 		.ascii	"ThreadsList\000"
 1735      6164734C 
 1735      69737400 
 1736              	.LASF24:
 1737 01ec 6576656E 		.ascii	"eventmask_t\000"
 1737      746D6173 
 1737      6B5F7400 
 1738              	.LASF59:
 1739 01f8 4D757465 		.ascii	"Mutex\000"
ARM GAS  /tmp/ccevkV35.s 			page 33


 1739      7800
 1740              	.LASF80:
 1741 01fe 63685468 		.ascii	"chThdCreateStatic\000"
 1741      64437265 
 1741      61746553 
 1741      74617469 
 1741      6300
 1742              	.LASF77:
 1743 0210 70617474 		.ascii	"patternmsg\000"
 1743      65726E6D 
 1743      736700
 1744              	.LASF51:
 1745 021b 73697A65 		.ascii	"sizetype\000"
 1745      74797065 
 1745      00
 1746              	.LASF32:
 1747 0224 705F6F6C 		.ascii	"p_older\000"
 1747      64657200 
 1748              	.LASF54:
 1749 022c 725F6374 		.ascii	"r_ctx\000"
 1749      7800
 1750              	.LASF46:
 1751 0232 54687265 		.ascii	"ThreadsQueue\000"
 1751      61647351 
 1751      75657565 
 1751      00
 1752              	.LASF71:
 1753 023f 73657475 		.ascii	"setup\000"
 1753      7000
 1754              	.LASF81:
 1755 0245 5F746573 		.ascii	"_test_assert_sequence\000"
 1755      745F6173 
 1755      73657274 
 1755      5F736571 
 1755      75656E63 
 1756              	.LASF57:
 1757 025b 725F6375 		.ascii	"r_current\000"
 1757      7272656E 
 1757      7400
 1758              	.LASF56:
 1759 0265 725F6F6C 		.ascii	"r_older\000"
 1759      64657200 
 1760              	.LASF20:
 1761 026d 74726566 		.ascii	"trefs_t\000"
 1761      735F7400 
 1762              	.LASF28:
 1763 0275 705F7072 		.ascii	"p_prev\000"
 1763      657600
 1764              	.LASF73:
 1765 027c 65786563 		.ascii	"execute\000"
 1765      75746500 
 1766              	.LASF22:
 1767 0284 74707269 		.ascii	"tprio_t\000"
 1767      6F5F7400 
 1768              	.LASF87:
 1769 028c 74687265 		.ascii	"thread\000"
 1769      616400
ARM GAS  /tmp/ccevkV35.s 			page 34


 1770              	.LASF17:
 1771 0293 5F426F6F 		.ascii	"_Bool\000"
 1771      6C00
 1772              	.LASF14:
 1773 0299 696E7433 		.ascii	"int32_t\000"
 1773      325F7400 
 1774              	.LASF4:
 1775 02a1 756E7369 		.ascii	"unsigned char\000"
 1775      676E6564 
 1775      20636861 
 1775      7200
 1776              	.LASF43:
 1777 02af 705F6D74 		.ascii	"p_mtxlist\000"
 1777      786C6973 
 1777      7400
 1778              	.LASF5:
 1779 02b9 73686F72 		.ascii	"short int\000"
 1779      7420696E 
 1779      7400
 1780              	.LASF34:
 1781 02c3 705F7374 		.ascii	"p_state\000"
 1781      61746500 
 1782              	.LASF37:
 1783 02cb 705F7072 		.ascii	"p_preempt\000"
 1783      65656D70 
 1783      7400
 1784              	.LASF75:
 1785 02d5 74687265 		.ascii	"threads\000"
 1785      61647300 
 1786              	.LASF53:
 1787 02dd 725F7072 		.ascii	"r_prio\000"
 1787      696F00
 1788              	.LASF76:
 1789 02e4 74657374 		.ascii	"testmsg1\000"
 1789      6D736731 
 1789      00
 1790              	.LASF66:
 1791 02ed 65776D61 		.ascii	"ewmask\000"
 1791      736B00
 1792              	.LASF27:
 1793 02f4 705F6E65 		.ascii	"p_next\000"
 1793      787400
 1794              	.LASF35:
 1795 02fb 705F666C 		.ascii	"p_flags\000"
 1795      61677300 
 1796              	.LASF26:
 1797 0303 54687265 		.ascii	"Thread\000"
 1797      616400
 1798              	.LASF78:
 1799 030a 63684D73 		.ascii	"chMsgRelease\000"
 1799      6752656C 
 1799      65617365 
 1799      00
 1800              	.LASF69:
 1801 0317 74657374 		.ascii	"testcase\000"
 1801      63617365 
 1801      00
ARM GAS  /tmp/ccevkV35.s 			page 35


 1802              	.LASF42:
 1803 0320 705F6570 		.ascii	"p_epending\000"
 1803      656E6469 
 1803      6E6700
 1804              	.LASF15:
 1805 032b 75696E74 		.ascii	"uint32_t\000"
 1805      33325F74 
 1805      00
 1806              	.LASF52:
 1807 0334 725F7175 		.ascii	"r_queue\000"
 1807      65756500 
 1808              	.LASF67:
 1809 033c 63686172 		.ascii	"char\000"
 1809      00
 1810              	.LASF62:
 1811 0341 6D5F6E65 		.ascii	"m_next\000"
 1811      787400
 1812              	.LASF25:
 1813 0348 73797374 		.ascii	"systime_t\000"
 1813      696D655F 
 1813      7400
 1814              	.LASF44:
 1815 0352 705F7265 		.ascii	"p_realprio\000"
 1815      616C7072 
 1815      696F00
 1816              	.LASF7:
 1817 035d 5F5F696E 		.ascii	"__int32_t\000"
 1817      7433325F 
 1817      7400
 1818              	.LASF38:
 1819 0367 705F7469 		.ascii	"p_time\000"
 1819      6D6500
 1820              	.LASF49:
 1821 036e 696E7463 		.ascii	"intctx\000"
 1821      747800
 1822              	.LASF40:
 1823 0375 705F6D73 		.ascii	"p_msgqueue\000"
 1823      67717565 
 1823      756500
 1824              	.LASF88:
 1825 0380 63684D73 		.ascii	"chMsgWait\000"
 1825      67576169 
 1825      7400
 1826              	.LASF36:
 1827 038a 705F7265 		.ascii	"p_refs\000"
 1827      667300
 1828              	.LASF58:
 1829 0391 52656164 		.ascii	"ReadyList\000"
 1829      794C6973 
 1829      7400
 1830              	.LASF74:
 1831 039b 726C6973 		.ascii	"rlist\000"
 1831      7400
 1832              	.LASF13:
 1833 03a1 75696E74 		.ascii	"uint8_t\000"
 1833      385F7400 
 1834              	.LASF86:
ARM GAS  /tmp/ccevkV35.s 			page 36


 1835 03a9 6D736731 		.ascii	"msg1_execute\000"
 1835      5F657865 
 1835      63757465 
 1835      00
 1836              	.LASF65:
 1837 03b6 77746F62 		.ascii	"wtobjp\000"
 1837      6A7000
 1838              	.LASF33:
 1839 03bd 705F6E61 		.ascii	"p_name\000"
 1839      6D6500
 1840              	.LASF85:
 1841 03c4 2F686F6D 		.ascii	"/home/makkmarci/devel/ChibiOS_2.6.5/demos/ARMCM4-ST"
 1841      652F6D61 
 1841      6B6B6D61 
 1841      7263692F 
 1841      64657665 
 1842 03f7 4D333246 		.ascii	"M32F407-DISCOVERY-MEMS/\000"
 1842      3430372D 
 1842      44495343 
 1842      4F564552 
 1842      592D4D45 
 1843              	.LASF61:
 1844 040f 6D5F6F77 		.ascii	"m_owner\000"
 1844      6E657200 
 1845              	.LASF30:
 1846 0417 705F6374 		.ascii	"p_ctx\000"
 1846      7800
 1847              	.LASF39:
 1848 041d 705F7761 		.ascii	"p_waiting\000"
 1848      6974696E 
 1848      6700
 1849              		.ident	"GCC: (4.8.2-14ubuntu1+6) 4.8.2"
ARM GAS  /tmp/ccevkV35.s 			page 37


DEFINED SYMBOLS
                            *ABS*:00000000 testmsg.c
     /tmp/ccevkV35.s:19     .text.msg1_execute:00000000 $t
     /tmp/ccevkV35.s:24     .text.msg1_execute:00000000 msg1_execute
     /tmp/ccevkV35.s:120    .text.thread:00000000 thread
     /tmp/ccevkV35.s:167    .rodata.str1.4:00000000 .LC0
     /tmp/ccevkV35.s:115    .text.thread:00000000 $t
     /tmp/ccevkV35.s:175    .rodata.patternmsg:00000000 patternmsg
     /tmp/ccevkV35.s:160    .rodata.testmsg1:00000000 testmsg1
     /tmp/ccevkV35.s:157    .rodata.testmsg1:00000000 $d
     /tmp/ccevkV35.s:166    .rodata.str1.4:00000000 $d
     /tmp/ccevkV35.s:172    .rodata.patternmsg:00000000 $d
                     .debug_frame:00000010 $d

UNDEFINED SYMBOLS
rlist
wa
chThdCreateStatic
threads
chMsgWait
chMsgRelease
test_emit_token
_test_assert_sequence
chMsgSend
