ARM GAS  /tmp/cc6CMAGb.s 			page 1


   1              		.syntax unified
   2              		.cpu cortex-m4
   3              		.fpu softvfp
   4              		.eabi_attribute 20, 1
   5              		.eabi_attribute 21, 1
   6              		.eabi_attribute 23, 3
   7              		.eabi_attribute 24, 1
   8              		.eabi_attribute 25, 1
   9              		.eabi_attribute 26, 1
  10              		.eabi_attribute 30, 2
  11              		.eabi_attribute 34, 1
  12              		.eabi_attribute 18, 4
  13              		.thumb
  14              		.file	"chcore_v7m.c"
  15              		.text
  16              	.Ltext0:
  17              		.cfi_sections	.debug_frame
  18              		.section	.text._port_switch_from_isr,"ax",%progbits
  19              		.align	2
  20              		.p2align 4,,15
  21              		.global	_port_switch_from_isr
  22              		.thumb
  23              		.thumb_func
  24              		.type	_port_switch_from_isr, %function
  25              	_port_switch_from_isr:
  26              	.LFB11:
  27              		.file 1 "../../os/ports/GCC/ARMCMx/chcore_v7m.c"
  28              		.loc 1 197 0
  29              		.cfi_startproc
  30              		@ Naked Function: prologue and epilogue provided by programmer.
  31              		@ args = 0, pretend = 0, frame = 0
  32              		@ frame_needed = 0, uses_anonymous_args = 0
  33              		.loc 1 200 0
  34 0000 FFF7FEFF 		bl	chSchDoReschedule
  35              	.LVL0:
  36              		.loc 1 202 0
  37              	@ 202 "../../os/ports/GCC/ARMCMx/chcore_v7m.c" 1
  38              		_port_exit_from_isr:
  39              	@ 0 "" 2
  40              		.loc 1 204 0
  41              	@ 204 "../../os/ports/GCC/ARMCMx/chcore_v7m.c" 1
  42 0004 00DF     		svc     #0
  43              	@ 0 "" 2
  44              		.loc 1 211 0
  45              		.thumb
  46              		.cfi_endproc
  47              	.LFE11:
  48              		.size	_port_switch_from_isr, .-_port_switch_from_isr
  49 0006 00BFAFF3 		.section	.text.SVCallVector,"ax",%progbits
  49      0080AFF3 
  49      0080
  50              		.align	2
  51              		.p2align 4,,15
  52              		.global	SVCallVector
  53              		.thumb
  54              		.thumb_func
  55              		.type	SVCallVector, %function
ARM GAS  /tmp/cc6CMAGb.s 			page 2


  56              	SVCallVector:
  57              	.LFB8:
  58              		.loc 1 65 0
  59              		.cfi_startproc
  60              		@ args = 0, pretend = 0, frame = 0
  61              		@ frame_needed = 0, uses_anonymous_args = 0
  62              		@ link register save eliminated.
  63              		.loc 1 74 0
  64              	@ 74 "../../os/ports/GCC/ARMCMx/chcore_v7m.c" 1
  65 0000 EFF30983 		mrs     r3, PSP
  66              	@ 0 "" 2
  67              	.LVL1:
  68              		.loc 1 78 0
  69              		.thumb
  70 0004 2033     		adds	r3, r3, #32
  71              	.LVL2:
  72              		.loc 1 81 0
  73              	@ 81 "../../os/ports/GCC/ARMCMx/chcore_v7m.c" 1
  74 0006 83F30988 		msr     PSP, r3
  75              	@ 0 "" 2
  76              		.thumb
  77              	.LBB2:
  78              		.loc 1 82 0
  79 000a 0023     		movs	r3, #0
  80              	.LVL3:
  81              	@ 82 "../../os/ports/GCC/ARMCMx/chcore_v7m.c" 1
  82 000c 83F31188 		msr     BASEPRI, r3
  83              	@ 0 "" 2
  84              		.thumb
  85 0010 7047     		bx	lr
  86              	.LBE2:
  87              		.cfi_endproc
  88              	.LFE8:
  89              		.size	SVCallVector, .-SVCallVector
  90 0012 00BFAFF3 		.section	.text._port_init,"ax",%progbits
  90      0080AFF3 
  90      0080AFF3 
  90      0080
  91              		.align	2
  92              		.p2align 4,,15
  93              		.global	_port_init
  94              		.thumb
  95              		.thumb_func
  96              		.type	_port_init, %function
  97              	_port_init:
  98              	.LFB9:
  99              		.loc 1 120 0
 100              		.cfi_startproc
 101              		@ args = 0, pretend = 0, frame = 0
 102              		@ frame_needed = 0, uses_anonymous_args = 0
 103 0000 08B5     		push	{r3, lr}
 104              		.cfi_def_cfa_offset 8
 105              		.cfi_offset 3, -8
 106              		.cfi_offset 14, -4
 107              		.loc 1 123 0
 108 0002 094B     		ldr	r3, .L4
 109              		.loc 1 124 0
ARM GAS  /tmp/cc6CMAGb.s 			page 3


 110 0004 094A     		ldr	r2, .L4+4
 111              		.loc 1 123 0
 112 0006 0021     		movs	r1, #0
 113 0008 9960     		str	r1, [r3, #8]
 114              		.loc 1 127 0
 115 000a 0720     		movs	r0, #7
 116              		.loc 1 124 0
 117 000c DA60     		str	r2, [r3, #12]
 118              		.loc 1 127 0
 119 000e 1021     		movs	r1, #16
 120 0010 FFF7FEFF 		bl	nvicSetSystemHandlerPriority
 121              	.LVL4:
 122              		.loc 1 129 0
 123 0014 0A20     		movs	r0, #10
 124 0016 2021     		movs	r1, #32
 125 0018 FFF7FEFF 		bl	nvicSetSystemHandlerPriority
 126              	.LVL5:
 127              		.loc 1 131 0
 128 001c 0B20     		movs	r0, #11
 129 001e 8021     		movs	r1, #128
 130              		.loc 1 133 0
 131 0020 BDE80840 		pop	{r3, lr}
 132              		.loc 1 131 0
 133 0024 FFF7FEBF 		b	nvicSetSystemHandlerPriority
 134              	.LVL6:
 135              	.L5:
 136              		.align	2
 137              	.L4:
 138 0028 00ED00E0 		.word	-536810240
 139 002c 0003FA05 		.word	100270848
 140              		.cfi_endproc
 141              	.LFE9:
 142              		.size	_port_init, .-_port_init
 143              		.section	.text._port_irq_epilogue,"ax",%progbits
 144              		.align	2
 145              		.p2align 4,,15
 146              		.global	_port_irq_epilogue
 147              		.thumb
 148              		.thumb_func
 149              		.type	_port_irq_epilogue, %function
 150              	_port_irq_epilogue:
 151              	.LFB10:
 152              		.loc 1 150 0
 153              		.cfi_startproc
 154              		@ args = 0, pretend = 0, frame = 0
 155              		@ frame_needed = 0, uses_anonymous_args = 0
 156              		@ link register save eliminated.
 157              	.LBB3:
 158              		.loc 1 152 0
 159 0000 2023     		movs	r3, #32
 160              	@ 152 "../../os/ports/GCC/ARMCMx/chcore_v7m.c" 1
 161 0002 83F31188 		msr     BASEPRI, r3
 162              	@ 0 "" 2
 163              		.thumb
 164              	.LBE3:
 165              		.loc 1 153 0
 166 0006 164B     		ldr	r3, .L14
ARM GAS  /tmp/cc6CMAGb.s 			page 4


 167 0008 5B68     		ldr	r3, [r3, #4]
 168 000a 13F40063 		ands	r3, r3, #2048
 169 000e 19D0     		beq	.L7
 170              	.LBB4:
 171              		.loc 1 163 0
 172              	@ 163 "../../os/ports/GCC/ARMCMx/chcore_v7m.c" 1
 173 0010 EFF30983 		mrs     r3, PSP
 174              	@ 0 "" 2
 175              	.LVL7:
 176              		.loc 1 168 0
 177              		.thumb
 178 0014 4FF08072 		mov	r2, #16777216
 179 0018 43F8042C 		str	r2, [r3, #-4]
 180              		.loc 1 167 0
 181 001c A3F12002 		sub	r2, r3, #32
 182              	.LVL8:
 183              		.loc 1 169 0
 184              	@ 169 "../../os/ports/GCC/ARMCMx/chcore_v7m.c" 1
 185 0020 82F30988 		msr     PSP, r2
 186              	@ 0 "" 2
 187              		.loc 1 173 0
 188              		.thumb
 189 0024 0F49     		ldr	r1, .L14+4
 190 0026 8A69     		ldr	r2, [r1, #24]
 191              	.LVL9:
 192 0028 0968     		ldr	r1, [r1]
 193 002a D07F     		ldrb	r0, [r2, #31]	@ zero_extendqisi2
 194 002c 8968     		ldr	r1, [r1, #8]
 195 002e 9268     		ldr	r2, [r2, #8]
 196 0030 58B1     		cbz	r0, .L8
 197              		.loc 1 173 0 is_stmt 0 discriminator 1
 198 0032 9142     		cmp	r1, r2
 199 0034 94BF     		ite	ls
 200 0036 0022     		movls	r2, #0
 201 0038 0122     		movhi	r2, #1
 202 003a 62B1     		cbz	r2, .L10
 203              	.L13:
 204              		.loc 1 175 0 is_stmt 1
 205 003c 0A4A     		ldr	r2, .L14+8
 206 003e 43F8082C 		str	r2, [r3, #-8]
 207 0042 7047     		bx	lr
 208              	.LVL10:
 209              	.L7:
 210              	.LBE4:
 211              	.LBB5:
 212              		.loc 1 187 0
 213              	@ 187 "../../os/ports/GCC/ARMCMx/chcore_v7m.c" 1
 214 0044 83F31188 		msr     BASEPRI, r3
 215              	@ 0 "" 2
 216              		.thumb
 217 0048 7047     		bx	lr
 218              	.LVL11:
 219              	.L8:
 220              	.LBE5:
 221              	.LBB6:
 222              		.loc 1 173 0 discriminator 2
 223 004a 9142     		cmp	r1, r2
ARM GAS  /tmp/cc6CMAGb.s 			page 5


 224 004c 34BF     		ite	cc
 225 004e 0022     		movcc	r2, #0
 226 0050 0122     		movcs	r2, #1
 227 0052 002A     		cmp	r2, #0
 228 0054 F2D1     		bne	.L13
 229              	.L10:
 230              		.loc 1 180 0
 231 0056 054A     		ldr	r2, .L14+12
 232 0058 43F8082C 		str	r2, [r3, #-8]
 233 005c 7047     		bx	lr
 234              	.L15:
 235 005e 00BF     		.align	2
 236              	.L14:
 237 0060 00ED00E0 		.word	-536810240
 238 0064 00000000 		.word	rlist
 239 0068 00000000 		.word	_port_switch_from_isr
 240 006c 04000000 		.word	_port_exit_from_isr
 241              	.LBE6:
 242              		.cfi_endproc
 243              	.LFE10:
 244              		.size	_port_irq_epilogue, .-_port_irq_epilogue
 245              		.section	.text.SysTickVector,"ax",%progbits
 246              		.align	2
 247              		.p2align 4,,15
 248              		.global	SysTickVector
 249              		.thumb
 250              		.thumb_func
 251              		.type	SysTickVector, %function
 252              	SysTickVector:
 253              	.LFB7:
 254              		.loc 1 47 0
 255              		.cfi_startproc
 256              		@ args = 0, pretend = 0, frame = 0
 257              		@ frame_needed = 0, uses_anonymous_args = 0
 258 0000 08B5     		push	{r3, lr}
 259              		.cfi_def_cfa_offset 8
 260              		.cfi_offset 3, -8
 261              		.cfi_offset 14, -4
 262              	.LBB7:
 263              		.loc 1 51 0
 264 0002 2023     		movs	r3, #32
 265              	@ 51 "../../os/ports/GCC/ARMCMx/chcore_v7m.c" 1
 266 0004 83F31188 		msr     BASEPRI, r3
 267              	@ 0 "" 2
 268              		.thumb
 269              	.LBE7:
 270              		.loc 1 52 0
 271 0008 FFF7FEFF 		bl	chSysTimerHandlerI
 272              	.LVL12:
 273              	.LBB8:
 274              		.loc 1 53 0
 275 000c 0023     		movs	r3, #0
 276              	@ 53 "../../os/ports/GCC/ARMCMx/chcore_v7m.c" 1
 277 000e 83F31188 		msr     BASEPRI, r3
 278              	@ 0 "" 2
 279              		.thumb
 280              	.LBE8:
ARM GAS  /tmp/cc6CMAGb.s 			page 6


 281              		.loc 1 56 0
 282 0012 BDE80840 		pop	{r3, lr}
 283              		.loc 1 55 0
 284 0016 FFF7FEBF 		b	_port_irq_epilogue
 285              	.LVL13:
 286              		.cfi_endproc
 287              	.LFE7:
 288              		.size	SysTickVector, .-SysTickVector
 289 001a 00BFAFF3 		.section	.text._port_switch,"ax",%progbits
 289      0080
 290              		.align	2
 291              		.p2align 4,,15
 292              		.global	_port_switch
 293              		.thumb
 294              		.thumb_func
 295              		.type	_port_switch, %function
 296              	_port_switch:
 297              	.LFB12:
 298              		.loc 1 226 0
 299              		.cfi_startproc
 300              		@ Naked Function: prologue and epilogue provided by programmer.
 301              		@ args = 0, pretend = 0, frame = 0
 302              		@ frame_needed = 0, uses_anonymous_args = 0
 303              	.LVL14:
 304              		.loc 1 228 0
 305              	@ 228 "../../os/ports/GCC/ARMCMx/chcore_v7m.c" 1
 306 0000 2DE9F04F 		push    {r4, r5, r6, r7, r8, r9, r10, r11, lr}
 307              	@ 0 "" 2
 308              		.loc 1 234 0
 309              	@ 234 "../../os/ports/GCC/ARMCMx/chcore_v7m.c" 1
 310 0004 C1F80CD0 		str     sp, [r1, #12]                          
 311 0008 D0F80CD0 		ldr     sp, [r0, #12]
 312              	@ 0 "" 2
 313              		.loc 1 240 0
 314              	@ 240 "../../os/ports/GCC/ARMCMx/chcore_v7m.c" 1
 315 000c BDE8F08F 		pop     {r4, r5, r6, r7, r8, r9, r10, r11, pc}
 316              	@ 0 "" 2
 317              		.loc 1 242 0
 318              		.thumb
 319              		.cfi_endproc
 320              	.LFE12:
 321              		.size	_port_switch, .-_port_switch
 322              		.section	.text._port_thread_start,"ax",%progbits
 323              		.align	2
 324              		.p2align 4,,15
 325              		.global	_port_thread_start
 326              		.thumb
 327              		.thumb_func
 328              		.type	_port_thread_start, %function
 329              	_port_thread_start:
 330              	.LFB13:
 331              		.loc 1 249 0
 332              		.cfi_startproc
 333              		@ args = 0, pretend = 0, frame = 0
 334              		@ frame_needed = 0, uses_anonymous_args = 0
 335              		@ link register save eliminated.
 336              	.LBB9:
ARM GAS  /tmp/cc6CMAGb.s 			page 7


 337              		.loc 1 251 0
 338 0000 0023     		movs	r3, #0
 339              	@ 251 "../../os/ports/GCC/ARMCMx/chcore_v7m.c" 1
 340 0002 83F31188 		msr     BASEPRI, r3
 341              	@ 0 "" 2
 342              		.thumb
 343              	.LBE9:
 344              		.loc 1 252 0
 345              	@ 252 "../../os/ports/GCC/ARMCMx/chcore_v7m.c" 1
 346 0006 2846     		mov     r0, r5                                 
 347 0008 A047     		blx     r4                                     
 348 000a FFF7FEFF 		bl      chThdExit
 349              	@ 0 "" 2
 350              		.thumb
 351 000e 7047     		bx	lr
 352              		.cfi_endproc
 353              	.LFE13:
 354              		.size	_port_thread_start, .-_port_thread_start
 355              		.text
 356              	.Letext0:
 357              		.file 2 "/opt/ARM/arm-none-eabi/include/machine/_default_types.h"
 358              		.file 3 "/opt/ARM/arm-none-eabi/include/stdint.h"
 359              		.file 4 "../../os/ports/GCC/ARMCMx/chtypes.h"
 360              		.file 5 "../../os/kernel/include/chlists.h"
 361              		.file 6 "../../os/kernel/include/chthreads.h"
 362              		.file 7 "../../os/ports/GCC/ARMCMx/chcore_v7m.h"
 363              		.file 8 "../../os/ports/common/ARMCMx/nvic.h"
 364              		.file 9 "../../os/kernel/include/chschd.h"
 365              		.file 10 "../../os/kernel/include/chmtx.h"
 366              		.file 11 "../../os/kernel/include/chsys.h"
 367              		.section	.debug_info,"",%progbits
 368              	.Ldebug_info0:
 369 0000 EE070000 		.4byte	0x7ee
 370 0004 0400     		.2byte	0x4
 371 0006 00000000 		.4byte	.Ldebug_abbrev0
 372 000a 04       		.byte	0x4
 373 000b 01       		.uleb128 0x1
 374 000c 55030000 		.4byte	.LASF96
 375 0010 01       		.byte	0x1
 376 0011 2E030000 		.4byte	.LASF97
 377 0015 1F000000 		.4byte	.LASF98
 378 0019 18000000 		.4byte	.Ldebug_ranges0+0x18
 379 001d 00000000 		.4byte	0
 380 0021 00000000 		.4byte	.Ldebug_line0
 381 0025 02       		.uleb128 0x2
 382 0026 04       		.byte	0x4
 383 0027 05       		.byte	0x5
 384 0028 696E7400 		.ascii	"int\000"
 385 002c 03       		.uleb128 0x3
 386 002d 04       		.byte	0x4
 387 002e 07       		.byte	0x7
 388 002f 63010000 		.4byte	.LASF0
 389 0033 03       		.uleb128 0x3
 390 0034 01       		.byte	0x1
 391 0035 06       		.byte	0x6
 392 0036 BB000000 		.4byte	.LASF1
 393 003a 04       		.uleb128 0x4
ARM GAS  /tmp/cc6CMAGb.s 			page 8


 394 003b 0D000000 		.4byte	.LASF5
 395 003f 02       		.byte	0x2
 396 0040 1C       		.byte	0x1c
 397 0041 45000000 		.4byte	0x45
 398 0045 03       		.uleb128 0x3
 399 0046 01       		.byte	0x1
 400 0047 08       		.byte	0x8
 401 0048 95020000 		.4byte	.LASF2
 402 004c 03       		.uleb128 0x3
 403 004d 02       		.byte	0x2
 404 004e 05       		.byte	0x5
 405 004f B3020000 		.4byte	.LASF3
 406 0053 03       		.uleb128 0x3
 407 0054 02       		.byte	0x2
 408 0055 07       		.byte	0x7
 409 0056 C0010000 		.4byte	.LASF4
 410 005a 04       		.uleb128 0x4
 411 005b 4B040000 		.4byte	.LASF6
 412 005f 02       		.byte	0x2
 413 0060 37       		.byte	0x37
 414 0061 65000000 		.4byte	0x65
 415 0065 03       		.uleb128 0x3
 416 0066 04       		.byte	0x4
 417 0067 05       		.byte	0x5
 418 0068 E1000000 		.4byte	.LASF7
 419 006c 04       		.uleb128 0x4
 420 006d 20010000 		.4byte	.LASF8
 421 0071 02       		.byte	0x2
 422 0072 38       		.byte	0x38
 423 0073 77000000 		.4byte	0x77
 424 0077 03       		.uleb128 0x3
 425 0078 04       		.byte	0x4
 426 0079 07       		.byte	0x7
 427 007a 8B010000 		.4byte	.LASF9
 428 007e 03       		.uleb128 0x3
 429 007f 08       		.byte	0x8
 430 0080 05       		.byte	0x5
 431 0081 AD000000 		.4byte	.LASF10
 432 0085 03       		.uleb128 0x3
 433 0086 08       		.byte	0x8
 434 0087 07       		.byte	0x7
 435 0088 80000000 		.4byte	.LASF11
 436 008c 04       		.uleb128 0x4
 437 008d 8F040000 		.4byte	.LASF12
 438 0091 03       		.byte	0x3
 439 0092 2A       		.byte	0x2a
 440 0093 3A000000 		.4byte	0x3a
 441 0097 04       		.uleb128 0x4
 442 0098 8D020000 		.4byte	.LASF13
 443 009c 03       		.byte	0x3
 444 009d 41       		.byte	0x41
 445 009e 5A000000 		.4byte	0x5a
 446 00a2 04       		.uleb128 0x4
 447 00a3 03030000 		.4byte	.LASF14
 448 00a7 03       		.byte	0x3
 449 00a8 42       		.byte	0x42
 450 00a9 6C000000 		.4byte	0x6c
ARM GAS  /tmp/cc6CMAGb.s 			page 9


 451 00ad 03       		.uleb128 0x3
 452 00ae 01       		.byte	0x1
 453 00af 02       		.byte	0x2
 454 00b0 87020000 		.4byte	.LASF15
 455 00b4 04       		.uleb128 0x4
 456 00b5 0A020000 		.4byte	.LASF16
 457 00b9 04       		.byte	0x4
 458 00ba 2C       		.byte	0x2c
 459 00bb 8C000000 		.4byte	0x8c
 460 00bf 04       		.uleb128 0x4
 461 00c0 F7000000 		.4byte	.LASF17
 462 00c4 04       		.byte	0x4
 463 00c5 2D       		.byte	0x2d
 464 00c6 8C000000 		.4byte	0x8c
 465 00ca 04       		.uleb128 0x4
 466 00cb 6B020000 		.4byte	.LASF18
 467 00cf 04       		.byte	0x4
 468 00d0 2E       		.byte	0x2e
 469 00d1 8C000000 		.4byte	0x8c
 470 00d5 04       		.uleb128 0x4
 471 00d6 D7000000 		.4byte	.LASF19
 472 00da 04       		.byte	0x4
 473 00db 2F       		.byte	0x2f
 474 00dc 8C000000 		.4byte	0x8c
 475 00e0 04       		.uleb128 0x4
 476 00e1 7F020000 		.4byte	.LASF20
 477 00e5 04       		.byte	0x4
 478 00e6 30       		.byte	0x30
 479 00e7 A2000000 		.4byte	0xa2
 480 00eb 04       		.uleb128 0x4
 481 00ec D8010000 		.4byte	.LASF21
 482 00f0 04       		.byte	0x4
 483 00f1 31       		.byte	0x31
 484 00f2 97000000 		.4byte	0x97
 485 00f6 04       		.uleb128 0x4
 486 00f7 1E020000 		.4byte	.LASF22
 487 00fb 04       		.byte	0x4
 488 00fc 33       		.byte	0x33
 489 00fd A2000000 		.4byte	0xa2
 490 0101 04       		.uleb128 0x4
 491 0102 36040000 		.4byte	.LASF23
 492 0106 04       		.byte	0x4
 493 0107 35       		.byte	0x35
 494 0108 A2000000 		.4byte	0xa2
 495 010c 04       		.uleb128 0x4
 496 010d F1020000 		.4byte	.LASF24
 497 0111 05       		.byte	0x5
 498 0112 2A       		.byte	0x2a
 499 0113 17010000 		.4byte	0x117
 500 0117 05       		.uleb128 0x5
 501 0118 F1020000 		.4byte	.LASF24
 502 011c 48       		.byte	0x48
 503 011d 06       		.byte	0x6
 504 011e 5E       		.byte	0x5e
 505 011f 14020000 		.4byte	0x214
 506 0123 06       		.uleb128 0x6
 507 0124 E2020000 		.4byte	.LASF25
ARM GAS  /tmp/cc6CMAGb.s 			page 10


 508 0128 06       		.byte	0x6
 509 0129 5F       		.byte	0x5f
 510 012a 35020000 		.4byte	0x235
 511 012e 00       		.byte	0
 512 012f 06       		.uleb128 0x6
 513 0130 78020000 		.4byte	.LASF26
 514 0134 06       		.byte	0x6
 515 0135 61       		.byte	0x61
 516 0136 35020000 		.4byte	0x235
 517 013a 04       		.byte	0x4
 518 013b 06       		.uleb128 0x6
 519 013c A6000000 		.4byte	.LASF27
 520 0140 06       		.byte	0x6
 521 0141 63       		.byte	0x63
 522 0142 E0000000 		.4byte	0xe0
 523 0146 08       		.byte	0x8
 524 0147 06       		.uleb128 0x6
 525 0148 C3040000 		.4byte	.LASF28
 526 014c 06       		.byte	0x6
 527 014d 64       		.byte	0x64
 528 014e 57030000 		.4byte	0x357
 529 0152 0C       		.byte	0xc
 530 0153 06       		.uleb128 0x6
 531 0154 13010000 		.4byte	.LASF29
 532 0158 06       		.byte	0x6
 533 0159 66       		.byte	0x66
 534 015a 35020000 		.4byte	0x235
 535 015e 10       		.byte	0x10
 536 015f 06       		.uleb128 0x6
 537 0160 3E020000 		.4byte	.LASF30
 538 0164 06       		.byte	0x6
 539 0165 67       		.byte	0x67
 540 0166 35020000 		.4byte	0x235
 541 016a 14       		.byte	0x14
 542 016b 06       		.uleb128 0x6
 543 016c A9040000 		.4byte	.LASF31
 544 0170 06       		.byte	0x6
 545 0171 6E       		.byte	0x6e
 546 0172 D0050000 		.4byte	0x5d0
 547 0176 18       		.byte	0x18
 548 0177 06       		.uleb128 0x6
 549 0178 BD020000 		.4byte	.LASF32
 550 017c 06       		.byte	0x6
 551 017d 79       		.byte	0x79
 552 017e BF000000 		.4byte	0xbf
 553 0182 1C       		.byte	0x1c
 554 0183 06       		.uleb128 0x6
 555 0184 E9020000 		.4byte	.LASF33
 556 0188 06       		.byte	0x6
 557 0189 7D       		.byte	0x7d
 558 018a B4000000 		.4byte	0xb4
 559 018e 1D       		.byte	0x1d
 560 018f 06       		.uleb128 0x6
 561 0190 73040000 		.4byte	.LASF34
 562 0194 06       		.byte	0x6
 563 0195 82       		.byte	0x82
 564 0196 CA000000 		.4byte	0xca
ARM GAS  /tmp/cc6CMAGb.s 			page 11


 565 019a 1E       		.byte	0x1e
 566 019b 06       		.uleb128 0x6
 567 019c C5020000 		.4byte	.LASF35
 568 01a0 06       		.byte	0x6
 569 01a1 88       		.byte	0x88
 570 01a2 D5000000 		.4byte	0xd5
 571 01a6 1F       		.byte	0x1f
 572 01a7 06       		.uleb128 0x6
 573 01a8 55040000 		.4byte	.LASF36
 574 01ac 06       		.byte	0x6
 575 01ad 8F       		.byte	0x8f
 576 01ae F8040000 		.4byte	0x4f8
 577 01b2 20       		.byte	0x20
 578 01b3 07       		.uleb128 0x7
 579 01b4 705F7500 		.ascii	"p_u\000"
 580 01b8 06       		.byte	0x6
 581 01b9 B4       		.byte	0xb4
 582 01ba 9B050000 		.4byte	0x59b
 583 01be 24       		.byte	0x24
 584 01bf 06       		.uleb128 0x6
 585 01c0 C9040000 		.4byte	.LASF37
 586 01c4 06       		.byte	0x6
 587 01c5 B9       		.byte	0xb9
 588 01c6 5B020000 		.4byte	0x25b
 589 01ca 28       		.byte	0x28
 590 01cb 06       		.uleb128 0x6
 591 01cc 68040000 		.4byte	.LASF38
 592 01d0 06       		.byte	0x6
 593 01d1 BF       		.byte	0xbf
 594 01d2 3B020000 		.4byte	0x23b
 595 01d6 2C       		.byte	0x2c
 596 01d7 06       		.uleb128 0x6
 597 01d8 00000000 		.4byte	.LASF39
 598 01dc 06       		.byte	0x6
 599 01dd C3       		.byte	0xc3
 600 01de EB000000 		.4byte	0xeb
 601 01e2 34       		.byte	0x34
 602 01e3 06       		.uleb128 0x6
 603 01e4 F8020000 		.4byte	.LASF40
 604 01e8 06       		.byte	0x6
 605 01e9 C9       		.byte	0xc9
 606 01ea F6000000 		.4byte	0xf6
 607 01ee 38       		.byte	0x38
 608 01ef 06       		.uleb128 0x6
 609 01f0 A9020000 		.4byte	.LASF41
 610 01f4 06       		.byte	0x6
 611 01f5 D0       		.byte	0xd0
 612 01f6 E2050000 		.4byte	0x5e2
 613 01fa 3C       		.byte	0x3c
 614 01fb 06       		.uleb128 0x6
 615 01fc 40040000 		.4byte	.LASF42
 616 0200 06       		.byte	0x6
 617 0201 D4       		.byte	0xd4
 618 0202 E0000000 		.4byte	0xe0
 619 0206 40       		.byte	0x40
 620 0207 06       		.uleb128 0x6
 621 0208 C7000000 		.4byte	.LASF43
ARM GAS  /tmp/cc6CMAGb.s 			page 12


 622 020c 06       		.byte	0x6
 623 020d DA       		.byte	0xda
 624 020e 71020000 		.4byte	0x271
 625 0212 44       		.byte	0x44
 626 0213 00       		.byte	0
 627 0214 08       		.uleb128 0x8
 628 0215 08       		.byte	0x8
 629 0216 05       		.byte	0x5
 630 0217 61       		.byte	0x61
 631 0218 35020000 		.4byte	0x235
 632 021c 06       		.uleb128 0x6
 633 021d E2020000 		.4byte	.LASF25
 634 0221 05       		.byte	0x5
 635 0222 62       		.byte	0x62
 636 0223 35020000 		.4byte	0x235
 637 0227 00       		.byte	0
 638 0228 06       		.uleb128 0x6
 639 0229 78020000 		.4byte	.LASF26
 640 022d 05       		.byte	0x5
 641 022e 64       		.byte	0x64
 642 022f 35020000 		.4byte	0x235
 643 0233 04       		.byte	0x4
 644 0234 00       		.byte	0
 645 0235 09       		.uleb128 0x9
 646 0236 04       		.byte	0x4
 647 0237 0C010000 		.4byte	0x10c
 648 023b 04       		.uleb128 0x4
 649 023c 4C020000 		.4byte	.LASF44
 650 0240 05       		.byte	0x5
 651 0241 66       		.byte	0x66
 652 0242 14020000 		.4byte	0x214
 653 0246 08       		.uleb128 0x8
 654 0247 04       		.byte	0x4
 655 0248 05       		.byte	0x5
 656 0249 6B       		.byte	0x6b
 657 024a 5B020000 		.4byte	0x25b
 658 024e 06       		.uleb128 0x6
 659 024f E2020000 		.4byte	.LASF25
 660 0253 05       		.byte	0x5
 661 0254 6D       		.byte	0x6d
 662 0255 35020000 		.4byte	0x235
 663 0259 00       		.byte	0
 664 025a 00       		.byte	0
 665 025b 04       		.uleb128 0x4
 666 025c 12020000 		.4byte	.LASF45
 667 0260 05       		.byte	0x5
 668 0261 70       		.byte	0x70
 669 0262 46020000 		.4byte	0x246
 670 0266 04       		.uleb128 0x4
 671 0267 48010000 		.4byte	.LASF46
 672 026b 07       		.byte	0x7
 673 026c E5       		.byte	0xe5
 674 026d 71020000 		.4byte	0x271
 675 0271 0A       		.uleb128 0xa
 676 0272 04       		.byte	0x4
 677 0273 05       		.uleb128 0x5
 678 0274 77010000 		.4byte	.LASF47
ARM GAS  /tmp/cc6CMAGb.s 			page 13


 679 0278 20       		.byte	0x20
 680 0279 07       		.byte	0x7
 681 027a ED       		.byte	0xed
 682 027b DB020000 		.4byte	0x2db
 683 027f 07       		.uleb128 0x7
 684 0280 723000   		.ascii	"r0\000"
 685 0283 07       		.byte	0x7
 686 0284 EE       		.byte	0xee
 687 0285 66020000 		.4byte	0x266
 688 0289 00       		.byte	0
 689 028a 07       		.uleb128 0x7
 690 028b 723100   		.ascii	"r1\000"
 691 028e 07       		.byte	0x7
 692 028f EF       		.byte	0xef
 693 0290 66020000 		.4byte	0x266
 694 0294 04       		.byte	0x4
 695 0295 07       		.uleb128 0x7
 696 0296 723200   		.ascii	"r2\000"
 697 0299 07       		.byte	0x7
 698 029a F0       		.byte	0xf0
 699 029b 66020000 		.4byte	0x266
 700 029f 08       		.byte	0x8
 701 02a0 07       		.uleb128 0x7
 702 02a1 723300   		.ascii	"r3\000"
 703 02a4 07       		.byte	0x7
 704 02a5 F1       		.byte	0xf1
 705 02a6 66020000 		.4byte	0x266
 706 02aa 0C       		.byte	0xc
 707 02ab 07       		.uleb128 0x7
 708 02ac 72313200 		.ascii	"r12\000"
 709 02b0 07       		.byte	0x7
 710 02b1 F2       		.byte	0xf2
 711 02b2 66020000 		.4byte	0x266
 712 02b6 10       		.byte	0x10
 713 02b7 06       		.uleb128 0x6
 714 02b8 70010000 		.4byte	.LASF48
 715 02bc 07       		.byte	0x7
 716 02bd F3       		.byte	0xf3
 717 02be 66020000 		.4byte	0x266
 718 02c2 14       		.byte	0x14
 719 02c3 07       		.uleb128 0x7
 720 02c4 706300   		.ascii	"pc\000"
 721 02c7 07       		.byte	0x7
 722 02c8 F4       		.byte	0xf4
 723 02c9 66020000 		.4byte	0x266
 724 02cd 18       		.byte	0x18
 725 02ce 06       		.uleb128 0x6
 726 02cf CF020000 		.4byte	.LASF49
 727 02d3 07       		.byte	0x7
 728 02d4 F5       		.byte	0xf5
 729 02d5 66020000 		.4byte	0x266
 730 02d9 1C       		.byte	0x1c
 731 02da 00       		.byte	0
 732 02db 0B       		.uleb128 0xb
 733 02dc 61040000 		.4byte	.LASF50
 734 02e0 24       		.byte	0x24
 735 02e1 07       		.byte	0x7
ARM GAS  /tmp/cc6CMAGb.s 			page 14


 736 02e2 0C01     		.2byte	0x10c
 737 02e4 57030000 		.4byte	0x357
 738 02e8 0C       		.uleb128 0xc
 739 02e9 723400   		.ascii	"r4\000"
 740 02ec 07       		.byte	0x7
 741 02ed 1F01     		.2byte	0x11f
 742 02ef 66020000 		.4byte	0x266
 743 02f3 00       		.byte	0
 744 02f4 0C       		.uleb128 0xc
 745 02f5 723500   		.ascii	"r5\000"
 746 02f8 07       		.byte	0x7
 747 02f9 2001     		.2byte	0x120
 748 02fb 66020000 		.4byte	0x266
 749 02ff 04       		.byte	0x4
 750 0300 0C       		.uleb128 0xc
 751 0301 723600   		.ascii	"r6\000"
 752 0304 07       		.byte	0x7
 753 0305 2101     		.2byte	0x121
 754 0307 66020000 		.4byte	0x266
 755 030b 08       		.byte	0x8
 756 030c 0C       		.uleb128 0xc
 757 030d 723700   		.ascii	"r7\000"
 758 0310 07       		.byte	0x7
 759 0311 2201     		.2byte	0x122
 760 0313 66020000 		.4byte	0x266
 761 0317 0C       		.byte	0xc
 762 0318 0C       		.uleb128 0xc
 763 0319 723800   		.ascii	"r8\000"
 764 031c 07       		.byte	0x7
 765 031d 2301     		.2byte	0x123
 766 031f 66020000 		.4byte	0x266
 767 0323 10       		.byte	0x10
 768 0324 0C       		.uleb128 0xc
 769 0325 723900   		.ascii	"r9\000"
 770 0328 07       		.byte	0x7
 771 0329 2401     		.2byte	0x124
 772 032b 66020000 		.4byte	0x266
 773 032f 14       		.byte	0x14
 774 0330 0C       		.uleb128 0xc
 775 0331 72313000 		.ascii	"r10\000"
 776 0335 07       		.byte	0x7
 777 0336 2501     		.2byte	0x125
 778 0338 66020000 		.4byte	0x266
 779 033c 18       		.byte	0x18
 780 033d 0C       		.uleb128 0xc
 781 033e 72313100 		.ascii	"r11\000"
 782 0342 07       		.byte	0x7
 783 0343 2601     		.2byte	0x126
 784 0345 66020000 		.4byte	0x266
 785 0349 1C       		.byte	0x1c
 786 034a 0C       		.uleb128 0xc
 787 034b 6C7200   		.ascii	"lr\000"
 788 034e 07       		.byte	0x7
 789 034f 2701     		.2byte	0x127
 790 0351 66020000 		.4byte	0x266
 791 0355 20       		.byte	0x20
 792 0356 00       		.byte	0
ARM GAS  /tmp/cc6CMAGb.s 			page 15


 793 0357 0B       		.uleb128 0xb
 794 0358 B8010000 		.4byte	.LASF51
 795 035c 04       		.byte	0x4
 796 035d 07       		.byte	0x7
 797 035e 3101     		.2byte	0x131
 798 0360 72030000 		.4byte	0x372
 799 0364 0C       		.uleb128 0xc
 800 0365 72313300 		.ascii	"r13\000"
 801 0369 07       		.byte	0x7
 802 036a 3201     		.2byte	0x132
 803 036c 72030000 		.4byte	0x372
 804 0370 00       		.byte	0
 805 0371 00       		.byte	0
 806 0372 09       		.uleb128 0x9
 807 0373 04       		.byte	0x4
 808 0374 DB020000 		.4byte	0x2db
 809 0378 04       		.uleb128 0x4
 810 0379 26030000 		.4byte	.LASF52
 811 037d 08       		.byte	0x8
 812 037e 3A       		.byte	0x3a
 813 037f 83030000 		.4byte	0x383
 814 0383 0D       		.uleb128 0xd
 815 0384 A2000000 		.4byte	0xa2
 816 0388 03       		.uleb128 0x3
 817 0389 04       		.byte	0x4
 818 038a 07       		.byte	0x7
 819 038b 30020000 		.4byte	.LASF53
 820 038f 08       		.uleb128 0x8
 821 0390 8C       		.byte	0x8c
 822 0391 08       		.byte	0x8
 823 0392 89       		.byte	0x89
 824 0393 94040000 		.4byte	0x494
 825 0397 06       		.uleb128 0x6
 826 0398 A0000000 		.4byte	.LASF54
 827 039c 08       		.byte	0x8
 828 039d 8A       		.byte	0x8a
 829 039e 78030000 		.4byte	0x378
 830 03a2 00       		.byte	0
 831 03a3 06       		.uleb128 0x6
 832 03a4 D3010000 		.4byte	.LASF55
 833 03a8 08       		.byte	0x8
 834 03a9 8B       		.byte	0x8b
 835 03aa 78030000 		.4byte	0x378
 836 03ae 04       		.byte	0x4
 837 03af 06       		.uleb128 0x6
 838 03b0 9D010000 		.4byte	.LASF56
 839 03b4 08       		.byte	0x8
 840 03b5 8C       		.byte	0x8c
 841 03b6 78030000 		.4byte	0x378
 842 03ba 08       		.byte	0x8
 843 03bb 06       		.uleb128 0x6
 844 03bc DE010000 		.4byte	.LASF57
 845 03c0 08       		.byte	0x8
 846 03c1 8D       		.byte	0x8d
 847 03c2 78030000 		.4byte	0x378
 848 03c6 0C       		.byte	0xc
 849 03c7 07       		.uleb128 0x7
ARM GAS  /tmp/cc6CMAGb.s 			page 16


 850 03c8 53435200 		.ascii	"SCR\000"
 851 03cc 08       		.byte	0x8
 852 03cd 8E       		.byte	0x8e
 853 03ce 78030000 		.4byte	0x378
 854 03d2 10       		.byte	0x10
 855 03d3 07       		.uleb128 0x7
 856 03d4 43435200 		.ascii	"CCR\000"
 857 03d8 08       		.byte	0x8
 858 03d9 8F       		.byte	0x8f
 859 03da 78030000 		.4byte	0x378
 860 03de 14       		.byte	0x14
 861 03df 06       		.uleb128 0x6
 862 03e0 5C040000 		.4byte	.LASF58
 863 03e4 08       		.byte	0x8
 864 03e5 90       		.byte	0x90
 865 03e6 A4040000 		.4byte	0x4a4
 866 03ea 18       		.byte	0x18
 867 03eb 06       		.uleb128 0x6
 868 03ec A3020000 		.4byte	.LASF59
 869 03f0 08       		.byte	0x8
 870 03f1 91       		.byte	0x91
 871 03f2 78030000 		.4byte	0x378
 872 03f6 24       		.byte	0x24
 873 03f7 06       		.uleb128 0x6
 874 03f8 39020000 		.4byte	.LASF60
 875 03fc 08       		.byte	0x8
 876 03fd 92       		.byte	0x92
 877 03fe 78030000 		.4byte	0x378
 878 0402 28       		.byte	0x28
 879 0403 06       		.uleb128 0x6
 880 0404 B6040000 		.4byte	.LASF61
 881 0408 08       		.byte	0x8
 882 0409 93       		.byte	0x93
 883 040a 78030000 		.4byte	0x378
 884 040e 2C       		.byte	0x2c
 885 040f 06       		.uleb128 0x6
 886 0410 E4010000 		.4byte	.LASF62
 887 0414 08       		.byte	0x8
 888 0415 94       		.byte	0x94
 889 0416 78030000 		.4byte	0x378
 890 041a 30       		.byte	0x30
 891 041b 06       		.uleb128 0x6
 892 041c F1010000 		.4byte	.LASF63
 893 0420 08       		.byte	0x8
 894 0421 95       		.byte	0x95
 895 0422 78030000 		.4byte	0x378
 896 0426 34       		.byte	0x34
 897 0427 06       		.uleb128 0x6
 898 0428 1B010000 		.4byte	.LASF64
 899 042c 08       		.byte	0x8
 900 042d 96       		.byte	0x96
 901 042e 78030000 		.4byte	0x378
 902 0432 38       		.byte	0x38
 903 0433 06       		.uleb128 0x6
 904 0434 14030000 		.4byte	.LASF65
 905 0438 08       		.byte	0x8
 906 0439 97       		.byte	0x97
ARM GAS  /tmp/cc6CMAGb.s 			page 17


 907 043a 78030000 		.4byte	0x378
 908 043e 3C       		.byte	0x3c
 909 043f 07       		.uleb128 0x7
 910 0440 50465200 		.ascii	"PFR\000"
 911 0444 08       		.byte	0x8
 912 0445 98       		.byte	0x98
 913 0446 B9040000 		.4byte	0x4b9
 914 044a 40       		.byte	0x40
 915 044b 07       		.uleb128 0x7
 916 044c 44465200 		.ascii	"DFR\000"
 917 0450 08       		.byte	0x8
 918 0451 99       		.byte	0x99
 919 0452 78030000 		.4byte	0x378
 920 0456 48       		.byte	0x48
 921 0457 07       		.uleb128 0x7
 922 0458 41445200 		.ascii	"ADR\000"
 923 045c 08       		.byte	0x8
 924 045d 9A       		.byte	0x9a
 925 045e 78030000 		.4byte	0x378
 926 0462 4C       		.byte	0x4c
 927 0463 06       		.uleb128 0x6
 928 0464 84040000 		.4byte	.LASF66
 929 0468 08       		.byte	0x8
 930 0469 9B       		.byte	0x9b
 931 046a CE040000 		.4byte	0x4ce
 932 046e 50       		.byte	0x50
 933 046f 07       		.uleb128 0x7
 934 0470 53415200 		.ascii	"SAR\000"
 935 0474 08       		.byte	0x8
 936 0475 9C       		.byte	0x9c
 937 0476 E3040000 		.4byte	0x4e3
 938 047a 60       		.byte	0x60
 939 047b 06       		.uleb128 0x6
 940 047c 19030000 		.4byte	.LASF67
 941 0480 08       		.byte	0x8
 942 0481 9D       		.byte	0x9d
 943 0482 E8040000 		.4byte	0x4e8
 944 0486 74       		.byte	0x74
 945 0487 06       		.uleb128 0x6
 946 0488 B0040000 		.4byte	.LASF68
 947 048c 08       		.byte	0x8
 948 048d 9E       		.byte	0x9e
 949 048e 78030000 		.4byte	0x378
 950 0492 88       		.byte	0x88
 951 0493 00       		.byte	0
 952 0494 0E       		.uleb128 0xe
 953 0495 78030000 		.4byte	0x378
 954 0499 A4040000 		.4byte	0x4a4
 955 049d 0F       		.uleb128 0xf
 956 049e 88030000 		.4byte	0x388
 957 04a2 02       		.byte	0x2
 958 04a3 00       		.byte	0
 959 04a4 0D       		.uleb128 0xd
 960 04a5 94040000 		.4byte	0x494
 961 04a9 0E       		.uleb128 0xe
 962 04aa 78030000 		.4byte	0x378
 963 04ae B9040000 		.4byte	0x4b9
ARM GAS  /tmp/cc6CMAGb.s 			page 18


 964 04b2 0F       		.uleb128 0xf
 965 04b3 88030000 		.4byte	0x388
 966 04b7 01       		.byte	0x1
 967 04b8 00       		.byte	0
 968 04b9 0D       		.uleb128 0xd
 969 04ba A9040000 		.4byte	0x4a9
 970 04be 0E       		.uleb128 0xe
 971 04bf 78030000 		.4byte	0x378
 972 04c3 CE040000 		.4byte	0x4ce
 973 04c7 0F       		.uleb128 0xf
 974 04c8 88030000 		.4byte	0x388
 975 04cc 03       		.byte	0x3
 976 04cd 00       		.byte	0
 977 04ce 0D       		.uleb128 0xd
 978 04cf BE040000 		.4byte	0x4be
 979 04d3 0E       		.uleb128 0xe
 980 04d4 78030000 		.4byte	0x378
 981 04d8 E3040000 		.4byte	0x4e3
 982 04dc 0F       		.uleb128 0xf
 983 04dd 88030000 		.4byte	0x388
 984 04e1 04       		.byte	0x4
 985 04e2 00       		.byte	0
 986 04e3 0D       		.uleb128 0xd
 987 04e4 D3040000 		.4byte	0x4d3
 988 04e8 0D       		.uleb128 0xd
 989 04e9 D3040000 		.4byte	0x4d3
 990 04ed 04       		.uleb128 0x4
 991 04ee 17000000 		.4byte	.LASF69
 992 04f2 08       		.byte	0x8
 993 04f3 9F       		.byte	0x9f
 994 04f4 8F030000 		.4byte	0x38f
 995 04f8 0D       		.uleb128 0xd
 996 04f9 01010000 		.4byte	0x101
 997 04fd 08       		.uleb128 0x8
 998 04fe 1C       		.byte	0x1c
 999 04ff 09       		.byte	0x9
 1000 0500 5E       		.byte	0x5e
 1001 0501 4E050000 		.4byte	0x54e
 1002 0505 06       		.uleb128 0x6
 1003 0506 0C030000 		.4byte	.LASF70
 1004 050a 09       		.byte	0x9
 1005 050b 5F       		.byte	0x5f
 1006 050c 3B020000 		.4byte	0x23b
 1007 0510 00       		.byte	0
 1008 0511 06       		.uleb128 0x6
 1009 0512 D4020000 		.4byte	.LASF71
 1010 0516 09       		.byte	0x9
 1011 0517 60       		.byte	0x60
 1012 0518 E0000000 		.4byte	0xe0
 1013 051c 08       		.byte	0x8
 1014 051d 06       		.uleb128 0x6
 1015 051e 46020000 		.4byte	.LASF72
 1016 0522 09       		.byte	0x9
 1017 0523 62       		.byte	0x62
 1018 0524 57030000 		.4byte	0x357
 1019 0528 0C       		.byte	0xc
 1020 0529 06       		.uleb128 0x6
ARM GAS  /tmp/cc6CMAGb.s 			page 19


 1021 052a E9010000 		.4byte	.LASF73
 1022 052e 09       		.byte	0x9
 1023 052f 65       		.byte	0x65
 1024 0530 35020000 		.4byte	0x235
 1025 0534 10       		.byte	0x10
 1026 0535 06       		.uleb128 0x6
 1027 0536 63020000 		.4byte	.LASF74
 1028 053a 09       		.byte	0x9
 1029 053b 66       		.byte	0x66
 1030 053c 35020000 		.4byte	0x235
 1031 0540 14       		.byte	0x14
 1032 0541 06       		.uleb128 0x6
 1033 0542 59020000 		.4byte	.LASF75
 1034 0546 09       		.byte	0x9
 1035 0547 69       		.byte	0x69
 1036 0548 35020000 		.4byte	0x235
 1037 054c 18       		.byte	0x18
 1038 054d 00       		.byte	0
 1039 054e 04       		.uleb128 0x4
 1040 054f 7A040000 		.4byte	.LASF76
 1041 0553 09       		.byte	0x9
 1042 0554 6B       		.byte	0x6b
 1043 0555 FD040000 		.4byte	0x4fd
 1044 0559 05       		.uleb128 0x5
 1045 055a 2A020000 		.4byte	.LASF77
 1046 055e 10       		.byte	0x10
 1047 055f 0A       		.byte	0xa
 1048 0560 2C       		.byte	0x2c
 1049 0561 8A050000 		.4byte	0x58a
 1050 0565 06       		.uleb128 0x6
 1051 0566 CF000000 		.4byte	.LASF78
 1052 056a 0A       		.byte	0xa
 1053 056b 2D       		.byte	0x2d
 1054 056c 3B020000 		.4byte	0x23b
 1055 0570 00       		.byte	0
 1056 0571 06       		.uleb128 0x6
 1057 0572 BB040000 		.4byte	.LASF79
 1058 0576 0A       		.byte	0xa
 1059 0577 2F       		.byte	0x2f
 1060 0578 35020000 		.4byte	0x235
 1061 057c 08       		.byte	0x8
 1062 057d 06       		.uleb128 0x6
 1063 057e 2F040000 		.4byte	.LASF80
 1064 0582 0A       		.byte	0xa
 1065 0583 31       		.byte	0x31
 1066 0584 8A050000 		.4byte	0x58a
 1067 0588 0C       		.byte	0xc
 1068 0589 00       		.byte	0
 1069 058a 09       		.uleb128 0x9
 1070 058b 04       		.byte	0x4
 1071 058c 59050000 		.4byte	0x559
 1072 0590 04       		.uleb128 0x4
 1073 0591 2A020000 		.4byte	.LASF77
 1074 0595 0A       		.byte	0xa
 1075 0596 33       		.byte	0x33
 1076 0597 59050000 		.4byte	0x559
 1077 059b 10       		.uleb128 0x10
ARM GAS  /tmp/cc6CMAGb.s 			page 20


 1078 059c 04       		.byte	0x4
 1079 059d 06       		.byte	0x6
 1080 059e 96       		.byte	0x96
 1081 059f D0050000 		.4byte	0x5d0
 1082 05a3 11       		.uleb128 0x11
 1083 05a4 06000000 		.4byte	.LASF81
 1084 05a8 06       		.byte	0x6
 1085 05a9 9D       		.byte	0x9d
 1086 05aa EB000000 		.4byte	0xeb
 1087 05ae 11       		.uleb128 0x11
 1088 05af 97000000 		.4byte	.LASF82
 1089 05b3 06       		.byte	0x6
 1090 05b4 A4       		.byte	0xa4
 1091 05b5 EB000000 		.4byte	0xeb
 1092 05b9 11       		.uleb128 0x11
 1093 05ba A2040000 		.4byte	.LASF83
 1094 05be 06       		.byte	0x6
 1095 05bf AB       		.byte	0xab
 1096 05c0 71020000 		.4byte	0x271
 1097 05c4 11       		.uleb128 0x11
 1098 05c5 DB020000 		.4byte	.LASF84
 1099 05c9 06       		.byte	0x6
 1100 05ca B2       		.byte	0xb2
 1101 05cb F6000000 		.4byte	0xf6
 1102 05cf 00       		.byte	0
 1103 05d0 09       		.uleb128 0x9
 1104 05d1 04       		.byte	0x4
 1105 05d2 D6050000 		.4byte	0x5d6
 1106 05d6 12       		.uleb128 0x12
 1107 05d7 DB050000 		.4byte	0x5db
 1108 05db 03       		.uleb128 0x3
 1109 05dc 01       		.byte	0x1
 1110 05dd 08       		.byte	0x8
 1111 05de 21030000 		.4byte	.LASF85
 1112 05e2 09       		.uleb128 0x9
 1113 05e3 04       		.byte	0x4
 1114 05e4 90050000 		.4byte	0x590
 1115 05e8 13       		.uleb128 0x13
 1116 05e9 A2010000 		.4byte	.LASF86
 1117 05ed 01       		.byte	0x1
 1118 05ee C5       		.byte	0xc5
 1119 05ef 00000000 		.4byte	.LFB11
 1120 05f3 06000000 		.4byte	.LFE11-.LFB11
 1121 05f7 01       		.uleb128 0x1
 1122 05f8 9C       		.byte	0x9c
 1123 05f9 07060000 		.4byte	0x607
 1124 05fd 14       		.uleb128 0x14
 1125 05fe 04000000 		.4byte	.LVL0
 1126 0602 CC070000 		.4byte	0x7cc
 1127 0606 00       		.byte	0
 1128 0607 13       		.uleb128 0x13
 1129 0608 EA000000 		.4byte	.LASF87
 1130 060c 01       		.byte	0x1
 1131 060d 41       		.byte	0x41
 1132 060e 00000000 		.4byte	.LFB8
 1133 0612 12000000 		.4byte	.LFE8-.LFB8
 1134 0616 01       		.uleb128 0x1
ARM GAS  /tmp/cc6CMAGb.s 			page 21


 1135 0617 9C       		.byte	0x9c
 1136 0618 43060000 		.4byte	0x643
 1137 061c 15       		.uleb128 0x15
 1138 061d 73020000 		.4byte	.LASF88
 1139 0621 01       		.byte	0x1
 1140 0622 42       		.byte	0x42
 1141 0623 43060000 		.4byte	0x643
 1142 0627 00000000 		.4byte	.LLST0
 1143 062b 16       		.uleb128 0x16
 1144 062c 0A000000 		.4byte	.LBB2
 1145 0630 08000000 		.4byte	.LBE2-.LBB2
 1146 0634 17       		.uleb128 0x17
 1147 0635 746D7000 		.ascii	"tmp\000"
 1148 0639 01       		.byte	0x1
 1149 063a 52       		.byte	0x52
 1150 063b A2000000 		.4byte	0xa2
 1151 063f 01       		.uleb128 0x1
 1152 0640 53       		.byte	0x53
 1153 0641 00       		.byte	0
 1154 0642 00       		.byte	0
 1155 0643 09       		.uleb128 0x9
 1156 0644 04       		.byte	0x4
 1157 0645 73020000 		.4byte	0x273
 1158 0649 13       		.uleb128 0x13
 1159 064a 97040000 		.4byte	.LASF89
 1160 064e 01       		.byte	0x1
 1161 064f 78       		.byte	0x78
 1162 0650 00000000 		.4byte	.LFB9
 1163 0654 30000000 		.4byte	.LFE9-.LFB9
 1164 0658 01       		.uleb128 0x1
 1165 0659 9C       		.byte	0x9c
 1166 065a A5060000 		.4byte	0x6a5
 1167 065e 18       		.uleb128 0x18
 1168 065f 14000000 		.4byte	.LVL4
 1169 0663 D3070000 		.4byte	0x7d3
 1170 0667 76060000 		.4byte	0x676
 1171 066b 19       		.uleb128 0x19
 1172 066c 01       		.uleb128 0x1
 1173 066d 51       		.byte	0x51
 1174 066e 01       		.uleb128 0x1
 1175 066f 40       		.byte	0x40
 1176 0670 19       		.uleb128 0x19
 1177 0671 01       		.uleb128 0x1
 1178 0672 50       		.byte	0x50
 1179 0673 01       		.uleb128 0x1
 1180 0674 37       		.byte	0x37
 1181 0675 00       		.byte	0
 1182 0676 18       		.uleb128 0x18
 1183 0677 1C000000 		.4byte	.LVL5
 1184 067b D3070000 		.4byte	0x7d3
 1185 067f 8F060000 		.4byte	0x68f
 1186 0683 19       		.uleb128 0x19
 1187 0684 01       		.uleb128 0x1
 1188 0685 51       		.byte	0x51
 1189 0686 02       		.uleb128 0x2
 1190 0687 08       		.byte	0x8
 1191 0688 20       		.byte	0x20
ARM GAS  /tmp/cc6CMAGb.s 			page 22


 1192 0689 19       		.uleb128 0x19
 1193 068a 01       		.uleb128 0x1
 1194 068b 50       		.byte	0x50
 1195 068c 01       		.uleb128 0x1
 1196 068d 3A       		.byte	0x3a
 1197 068e 00       		.byte	0
 1198 068f 1A       		.uleb128 0x1a
 1199 0690 28000000 		.4byte	.LVL6
 1200 0694 D3070000 		.4byte	0x7d3
 1201 0698 19       		.uleb128 0x19
 1202 0699 01       		.uleb128 0x1
 1203 069a 51       		.byte	0x51
 1204 069b 02       		.uleb128 0x2
 1205 069c 08       		.byte	0x8
 1206 069d 80       		.byte	0x80
 1207 069e 19       		.uleb128 0x19
 1208 069f 01       		.uleb128 0x1
 1209 06a0 50       		.byte	0x50
 1210 06a1 01       		.uleb128 0x1
 1211 06a2 3B       		.byte	0x3b
 1212 06a3 00       		.byte	0
 1213 06a4 00       		.byte	0
 1214 06a5 13       		.uleb128 0x13
 1215 06a6 F7010000 		.4byte	.LASF90
 1216 06aa 01       		.byte	0x1
 1217 06ab 96       		.byte	0x96
 1218 06ac 00000000 		.4byte	.LFB10
 1219 06b0 70000000 		.4byte	.LFE10-.LFB10
 1220 06b4 01       		.uleb128 0x1
 1221 06b5 9C       		.byte	0x9c
 1222 06b6 06070000 		.4byte	0x706
 1223 06ba 1B       		.uleb128 0x1b
 1224 06bb 00000000 		.4byte	.LBB3
 1225 06bf 06000000 		.4byte	.LBE3-.LBB3
 1226 06c3 D5060000 		.4byte	0x6d5
 1227 06c7 17       		.uleb128 0x17
 1228 06c8 746D7000 		.ascii	"tmp\000"
 1229 06cc 01       		.byte	0x1
 1230 06cd 98       		.byte	0x98
 1231 06ce A2000000 		.4byte	0xa2
 1232 06d2 01       		.uleb128 0x1
 1233 06d3 53       		.byte	0x53
 1234 06d4 00       		.byte	0
 1235 06d5 1C       		.uleb128 0x1c
 1236 06d6 00000000 		.4byte	.Ldebug_ranges0+0
 1237 06da EE060000 		.4byte	0x6ee
 1238 06de 15       		.uleb128 0x15
 1239 06df 73020000 		.4byte	.LASF88
 1240 06e3 01       		.byte	0x1
 1241 06e4 9A       		.byte	0x9a
 1242 06e5 43060000 		.4byte	0x643
 1243 06e9 20000000 		.4byte	.LLST1
 1244 06ed 00       		.byte	0
 1245 06ee 16       		.uleb128 0x16
 1246 06ef 44000000 		.4byte	.LBB5
 1247 06f3 06000000 		.4byte	.LBE5-.LBB5
 1248 06f7 17       		.uleb128 0x17
ARM GAS  /tmp/cc6CMAGb.s 			page 23


 1249 06f8 746D7000 		.ascii	"tmp\000"
 1250 06fc 01       		.byte	0x1
 1251 06fd BB       		.byte	0xbb
 1252 06fe A2000000 		.4byte	0xa2
 1253 0702 01       		.uleb128 0x1
 1254 0703 53       		.byte	0x53
 1255 0704 00       		.byte	0
 1256 0705 00       		.byte	0
 1257 0706 13       		.uleb128 0x13
 1258 0707 72000000 		.4byte	.LASF91
 1259 070b 01       		.byte	0x1
 1260 070c 2F       		.byte	0x2f
 1261 070d 00000000 		.4byte	.LFB7
 1262 0711 1A000000 		.4byte	.LFE7-.LFB7
 1263 0715 01       		.uleb128 0x1
 1264 0716 9C       		.byte	0x9c
 1265 0717 64070000 		.4byte	0x764
 1266 071b 1B       		.uleb128 0x1b
 1267 071c 02000000 		.4byte	.LBB7
 1268 0720 06000000 		.4byte	.LBE7-.LBB7
 1269 0724 36070000 		.4byte	0x736
 1270 0728 17       		.uleb128 0x17
 1271 0729 746D7000 		.ascii	"tmp\000"
 1272 072d 01       		.byte	0x1
 1273 072e 33       		.byte	0x33
 1274 072f A2000000 		.4byte	0xa2
 1275 0733 01       		.uleb128 0x1
 1276 0734 53       		.byte	0x53
 1277 0735 00       		.byte	0
 1278 0736 1B       		.uleb128 0x1b
 1279 0737 0C000000 		.4byte	.LBB8
 1280 073b 06000000 		.4byte	.LBE8-.LBB8
 1281 073f 51070000 		.4byte	0x751
 1282 0743 17       		.uleb128 0x17
 1283 0744 746D7000 		.ascii	"tmp\000"
 1284 0748 01       		.byte	0x1
 1285 0749 35       		.byte	0x35
 1286 074a A2000000 		.4byte	0xa2
 1287 074e 01       		.uleb128 0x1
 1288 074f 53       		.byte	0x53
 1289 0750 00       		.byte	0
 1290 0751 14       		.uleb128 0x14
 1291 0752 0C000000 		.4byte	.LVL12
 1292 0756 EA070000 		.4byte	0x7ea
 1293 075a 1D       		.uleb128 0x1d
 1294 075b 1A000000 		.4byte	.LVL13
 1295 075f A5060000 		.4byte	0x6a5
 1296 0763 00       		.byte	0
 1297 0764 13       		.uleb128 0x13
 1298 0765 7E010000 		.4byte	.LASF92
 1299 0769 01       		.byte	0x1
 1300 076a E2       		.byte	0xe2
 1301 076b 00000000 		.4byte	.LFB12
 1302 076f 10000000 		.4byte	.LFE12-.LFB12
 1303 0773 01       		.uleb128 0x1
 1304 0774 9C       		.byte	0x9c
 1305 0775 94070000 		.4byte	0x794
ARM GAS  /tmp/cc6CMAGb.s 			page 24


 1306 0779 1E       		.uleb128 0x1e
 1307 077a 6E747000 		.ascii	"ntp\000"
 1308 077e 01       		.byte	0x1
 1309 077f E2       		.byte	0xe2
 1310 0780 35020000 		.4byte	0x235
 1311 0784 01       		.uleb128 0x1
 1312 0785 50       		.byte	0x50
 1313 0786 1E       		.uleb128 0x1e
 1314 0787 6F747000 		.ascii	"otp\000"
 1315 078b 01       		.byte	0x1
 1316 078c E2       		.byte	0xe2
 1317 078d 35020000 		.4byte	0x235
 1318 0791 01       		.uleb128 0x1
 1319 0792 51       		.byte	0x51
 1320 0793 00       		.byte	0
 1321 0794 13       		.uleb128 0x13
 1322 0795 00010000 		.4byte	.LASF93
 1323 0799 01       		.byte	0x1
 1324 079a F9       		.byte	0xf9
 1325 079b 00000000 		.4byte	.LFB13
 1326 079f 10000000 		.4byte	.LFE13-.LFB13
 1327 07a3 01       		.uleb128 0x1
 1328 07a4 9C       		.byte	0x9c
 1329 07a5 C1070000 		.4byte	0x7c1
 1330 07a9 16       		.uleb128 0x16
 1331 07aa 00000000 		.4byte	.LBB9
 1332 07ae 06000000 		.4byte	.LBE9-.LBB9
 1333 07b2 17       		.uleb128 0x17
 1334 07b3 746D7000 		.ascii	"tmp\000"
 1335 07b7 01       		.byte	0x1
 1336 07b8 FB       		.byte	0xfb
 1337 07b9 A2000000 		.4byte	0xa2
 1338 07bd 01       		.uleb128 0x1
 1339 07be 53       		.byte	0x53
 1340 07bf 00       		.byte	0
 1341 07c0 00       		.byte	0
 1342 07c1 1F       		.uleb128 0x1f
 1343 07c2 89040000 		.4byte	.LASF99
 1344 07c6 09       		.byte	0x9
 1345 07c7 6F       		.byte	0x6f
 1346 07c8 4E050000 		.4byte	0x54e
 1347 07cc 20       		.uleb128 0x20
 1348 07cd 51010000 		.4byte	.LASF94
 1349 07d1 09       		.byte	0x9
 1350 07d2 A8       		.byte	0xa8
 1351 07d3 21       		.uleb128 0x21
 1352 07d4 2B010000 		.4byte	.LASF100
 1353 07d8 08       		.byte	0x8
 1354 07d9 2501     		.2byte	0x125
 1355 07db EA070000 		.4byte	0x7ea
 1356 07df 22       		.uleb128 0x22
 1357 07e0 A2000000 		.4byte	0xa2
 1358 07e4 22       		.uleb128 0x22
 1359 07e5 A2000000 		.4byte	0xa2
 1360 07e9 00       		.byte	0
 1361 07ea 20       		.uleb128 0x20
 1362 07eb 5F000000 		.4byte	.LASF95
ARM GAS  /tmp/cc6CMAGb.s 			page 25


 1363 07ef 0B       		.byte	0xb
 1364 07f0 F7       		.byte	0xf7
 1365 07f1 00       		.byte	0
 1366              		.section	.debug_abbrev,"",%progbits
 1367              	.Ldebug_abbrev0:
 1368 0000 01       		.uleb128 0x1
 1369 0001 11       		.uleb128 0x11
 1370 0002 01       		.byte	0x1
 1371 0003 25       		.uleb128 0x25
 1372 0004 0E       		.uleb128 0xe
 1373 0005 13       		.uleb128 0x13
 1374 0006 0B       		.uleb128 0xb
 1375 0007 03       		.uleb128 0x3
 1376 0008 0E       		.uleb128 0xe
 1377 0009 1B       		.uleb128 0x1b
 1378 000a 0E       		.uleb128 0xe
 1379 000b 55       		.uleb128 0x55
 1380 000c 17       		.uleb128 0x17
 1381 000d 11       		.uleb128 0x11
 1382 000e 01       		.uleb128 0x1
 1383 000f 10       		.uleb128 0x10
 1384 0010 17       		.uleb128 0x17
 1385 0011 00       		.byte	0
 1386 0012 00       		.byte	0
 1387 0013 02       		.uleb128 0x2
 1388 0014 24       		.uleb128 0x24
 1389 0015 00       		.byte	0
 1390 0016 0B       		.uleb128 0xb
 1391 0017 0B       		.uleb128 0xb
 1392 0018 3E       		.uleb128 0x3e
 1393 0019 0B       		.uleb128 0xb
 1394 001a 03       		.uleb128 0x3
 1395 001b 08       		.uleb128 0x8
 1396 001c 00       		.byte	0
 1397 001d 00       		.byte	0
 1398 001e 03       		.uleb128 0x3
 1399 001f 24       		.uleb128 0x24
 1400 0020 00       		.byte	0
 1401 0021 0B       		.uleb128 0xb
 1402 0022 0B       		.uleb128 0xb
 1403 0023 3E       		.uleb128 0x3e
 1404 0024 0B       		.uleb128 0xb
 1405 0025 03       		.uleb128 0x3
 1406 0026 0E       		.uleb128 0xe
 1407 0027 00       		.byte	0
 1408 0028 00       		.byte	0
 1409 0029 04       		.uleb128 0x4
 1410 002a 16       		.uleb128 0x16
 1411 002b 00       		.byte	0
 1412 002c 03       		.uleb128 0x3
 1413 002d 0E       		.uleb128 0xe
 1414 002e 3A       		.uleb128 0x3a
 1415 002f 0B       		.uleb128 0xb
 1416 0030 3B       		.uleb128 0x3b
 1417 0031 0B       		.uleb128 0xb
 1418 0032 49       		.uleb128 0x49
 1419 0033 13       		.uleb128 0x13
ARM GAS  /tmp/cc6CMAGb.s 			page 26


 1420 0034 00       		.byte	0
 1421 0035 00       		.byte	0
 1422 0036 05       		.uleb128 0x5
 1423 0037 13       		.uleb128 0x13
 1424 0038 01       		.byte	0x1
 1425 0039 03       		.uleb128 0x3
 1426 003a 0E       		.uleb128 0xe
 1427 003b 0B       		.uleb128 0xb
 1428 003c 0B       		.uleb128 0xb
 1429 003d 3A       		.uleb128 0x3a
 1430 003e 0B       		.uleb128 0xb
 1431 003f 3B       		.uleb128 0x3b
 1432 0040 0B       		.uleb128 0xb
 1433 0041 01       		.uleb128 0x1
 1434 0042 13       		.uleb128 0x13
 1435 0043 00       		.byte	0
 1436 0044 00       		.byte	0
 1437 0045 06       		.uleb128 0x6
 1438 0046 0D       		.uleb128 0xd
 1439 0047 00       		.byte	0
 1440 0048 03       		.uleb128 0x3
 1441 0049 0E       		.uleb128 0xe
 1442 004a 3A       		.uleb128 0x3a
 1443 004b 0B       		.uleb128 0xb
 1444 004c 3B       		.uleb128 0x3b
 1445 004d 0B       		.uleb128 0xb
 1446 004e 49       		.uleb128 0x49
 1447 004f 13       		.uleb128 0x13
 1448 0050 38       		.uleb128 0x38
 1449 0051 0B       		.uleb128 0xb
 1450 0052 00       		.byte	0
 1451 0053 00       		.byte	0
 1452 0054 07       		.uleb128 0x7
 1453 0055 0D       		.uleb128 0xd
 1454 0056 00       		.byte	0
 1455 0057 03       		.uleb128 0x3
 1456 0058 08       		.uleb128 0x8
 1457 0059 3A       		.uleb128 0x3a
 1458 005a 0B       		.uleb128 0xb
 1459 005b 3B       		.uleb128 0x3b
 1460 005c 0B       		.uleb128 0xb
 1461 005d 49       		.uleb128 0x49
 1462 005e 13       		.uleb128 0x13
 1463 005f 38       		.uleb128 0x38
 1464 0060 0B       		.uleb128 0xb
 1465 0061 00       		.byte	0
 1466 0062 00       		.byte	0
 1467 0063 08       		.uleb128 0x8
 1468 0064 13       		.uleb128 0x13
 1469 0065 01       		.byte	0x1
 1470 0066 0B       		.uleb128 0xb
 1471 0067 0B       		.uleb128 0xb
 1472 0068 3A       		.uleb128 0x3a
 1473 0069 0B       		.uleb128 0xb
 1474 006a 3B       		.uleb128 0x3b
 1475 006b 0B       		.uleb128 0xb
 1476 006c 01       		.uleb128 0x1
ARM GAS  /tmp/cc6CMAGb.s 			page 27


 1477 006d 13       		.uleb128 0x13
 1478 006e 00       		.byte	0
 1479 006f 00       		.byte	0
 1480 0070 09       		.uleb128 0x9
 1481 0071 0F       		.uleb128 0xf
 1482 0072 00       		.byte	0
 1483 0073 0B       		.uleb128 0xb
 1484 0074 0B       		.uleb128 0xb
 1485 0075 49       		.uleb128 0x49
 1486 0076 13       		.uleb128 0x13
 1487 0077 00       		.byte	0
 1488 0078 00       		.byte	0
 1489 0079 0A       		.uleb128 0xa
 1490 007a 0F       		.uleb128 0xf
 1491 007b 00       		.byte	0
 1492 007c 0B       		.uleb128 0xb
 1493 007d 0B       		.uleb128 0xb
 1494 007e 00       		.byte	0
 1495 007f 00       		.byte	0
 1496 0080 0B       		.uleb128 0xb
 1497 0081 13       		.uleb128 0x13
 1498 0082 01       		.byte	0x1
 1499 0083 03       		.uleb128 0x3
 1500 0084 0E       		.uleb128 0xe
 1501 0085 0B       		.uleb128 0xb
 1502 0086 0B       		.uleb128 0xb
 1503 0087 3A       		.uleb128 0x3a
 1504 0088 0B       		.uleb128 0xb
 1505 0089 3B       		.uleb128 0x3b
 1506 008a 05       		.uleb128 0x5
 1507 008b 01       		.uleb128 0x1
 1508 008c 13       		.uleb128 0x13
 1509 008d 00       		.byte	0
 1510 008e 00       		.byte	0
 1511 008f 0C       		.uleb128 0xc
 1512 0090 0D       		.uleb128 0xd
 1513 0091 00       		.byte	0
 1514 0092 03       		.uleb128 0x3
 1515 0093 08       		.uleb128 0x8
 1516 0094 3A       		.uleb128 0x3a
 1517 0095 0B       		.uleb128 0xb
 1518 0096 3B       		.uleb128 0x3b
 1519 0097 05       		.uleb128 0x5
 1520 0098 49       		.uleb128 0x49
 1521 0099 13       		.uleb128 0x13
 1522 009a 38       		.uleb128 0x38
 1523 009b 0B       		.uleb128 0xb
 1524 009c 00       		.byte	0
 1525 009d 00       		.byte	0
 1526 009e 0D       		.uleb128 0xd
 1527 009f 35       		.uleb128 0x35
 1528 00a0 00       		.byte	0
 1529 00a1 49       		.uleb128 0x49
 1530 00a2 13       		.uleb128 0x13
 1531 00a3 00       		.byte	0
 1532 00a4 00       		.byte	0
 1533 00a5 0E       		.uleb128 0xe
ARM GAS  /tmp/cc6CMAGb.s 			page 28


 1534 00a6 01       		.uleb128 0x1
 1535 00a7 01       		.byte	0x1
 1536 00a8 49       		.uleb128 0x49
 1537 00a9 13       		.uleb128 0x13
 1538 00aa 01       		.uleb128 0x1
 1539 00ab 13       		.uleb128 0x13
 1540 00ac 00       		.byte	0
 1541 00ad 00       		.byte	0
 1542 00ae 0F       		.uleb128 0xf
 1543 00af 21       		.uleb128 0x21
 1544 00b0 00       		.byte	0
 1545 00b1 49       		.uleb128 0x49
 1546 00b2 13       		.uleb128 0x13
 1547 00b3 2F       		.uleb128 0x2f
 1548 00b4 0B       		.uleb128 0xb
 1549 00b5 00       		.byte	0
 1550 00b6 00       		.byte	0
 1551 00b7 10       		.uleb128 0x10
 1552 00b8 17       		.uleb128 0x17
 1553 00b9 01       		.byte	0x1
 1554 00ba 0B       		.uleb128 0xb
 1555 00bb 0B       		.uleb128 0xb
 1556 00bc 3A       		.uleb128 0x3a
 1557 00bd 0B       		.uleb128 0xb
 1558 00be 3B       		.uleb128 0x3b
 1559 00bf 0B       		.uleb128 0xb
 1560 00c0 01       		.uleb128 0x1
 1561 00c1 13       		.uleb128 0x13
 1562 00c2 00       		.byte	0
 1563 00c3 00       		.byte	0
 1564 00c4 11       		.uleb128 0x11
 1565 00c5 0D       		.uleb128 0xd
 1566 00c6 00       		.byte	0
 1567 00c7 03       		.uleb128 0x3
 1568 00c8 0E       		.uleb128 0xe
 1569 00c9 3A       		.uleb128 0x3a
 1570 00ca 0B       		.uleb128 0xb
 1571 00cb 3B       		.uleb128 0x3b
 1572 00cc 0B       		.uleb128 0xb
 1573 00cd 49       		.uleb128 0x49
 1574 00ce 13       		.uleb128 0x13
 1575 00cf 00       		.byte	0
 1576 00d0 00       		.byte	0
 1577 00d1 12       		.uleb128 0x12
 1578 00d2 26       		.uleb128 0x26
 1579 00d3 00       		.byte	0
 1580 00d4 49       		.uleb128 0x49
 1581 00d5 13       		.uleb128 0x13
 1582 00d6 00       		.byte	0
 1583 00d7 00       		.byte	0
 1584 00d8 13       		.uleb128 0x13
 1585 00d9 2E       		.uleb128 0x2e
 1586 00da 01       		.byte	0x1
 1587 00db 3F       		.uleb128 0x3f
 1588 00dc 19       		.uleb128 0x19
 1589 00dd 03       		.uleb128 0x3
 1590 00de 0E       		.uleb128 0xe
ARM GAS  /tmp/cc6CMAGb.s 			page 29


 1591 00df 3A       		.uleb128 0x3a
 1592 00e0 0B       		.uleb128 0xb
 1593 00e1 3B       		.uleb128 0x3b
 1594 00e2 0B       		.uleb128 0xb
 1595 00e3 27       		.uleb128 0x27
 1596 00e4 19       		.uleb128 0x19
 1597 00e5 11       		.uleb128 0x11
 1598 00e6 01       		.uleb128 0x1
 1599 00e7 12       		.uleb128 0x12
 1600 00e8 06       		.uleb128 0x6
 1601 00e9 40       		.uleb128 0x40
 1602 00ea 18       		.uleb128 0x18
 1603 00eb 9742     		.uleb128 0x2117
 1604 00ed 19       		.uleb128 0x19
 1605 00ee 01       		.uleb128 0x1
 1606 00ef 13       		.uleb128 0x13
 1607 00f0 00       		.byte	0
 1608 00f1 00       		.byte	0
 1609 00f2 14       		.uleb128 0x14
 1610 00f3 898201   		.uleb128 0x4109
 1611 00f6 00       		.byte	0
 1612 00f7 11       		.uleb128 0x11
 1613 00f8 01       		.uleb128 0x1
 1614 00f9 31       		.uleb128 0x31
 1615 00fa 13       		.uleb128 0x13
 1616 00fb 00       		.byte	0
 1617 00fc 00       		.byte	0
 1618 00fd 15       		.uleb128 0x15
 1619 00fe 34       		.uleb128 0x34
 1620 00ff 00       		.byte	0
 1621 0100 03       		.uleb128 0x3
 1622 0101 0E       		.uleb128 0xe
 1623 0102 3A       		.uleb128 0x3a
 1624 0103 0B       		.uleb128 0xb
 1625 0104 3B       		.uleb128 0x3b
 1626 0105 0B       		.uleb128 0xb
 1627 0106 49       		.uleb128 0x49
 1628 0107 13       		.uleb128 0x13
 1629 0108 02       		.uleb128 0x2
 1630 0109 17       		.uleb128 0x17
 1631 010a 00       		.byte	0
 1632 010b 00       		.byte	0
 1633 010c 16       		.uleb128 0x16
 1634 010d 0B       		.uleb128 0xb
 1635 010e 01       		.byte	0x1
 1636 010f 11       		.uleb128 0x11
 1637 0110 01       		.uleb128 0x1
 1638 0111 12       		.uleb128 0x12
 1639 0112 06       		.uleb128 0x6
 1640 0113 00       		.byte	0
 1641 0114 00       		.byte	0
 1642 0115 17       		.uleb128 0x17
 1643 0116 34       		.uleb128 0x34
 1644 0117 00       		.byte	0
 1645 0118 03       		.uleb128 0x3
 1646 0119 08       		.uleb128 0x8
 1647 011a 3A       		.uleb128 0x3a
ARM GAS  /tmp/cc6CMAGb.s 			page 30


 1648 011b 0B       		.uleb128 0xb
 1649 011c 3B       		.uleb128 0x3b
 1650 011d 0B       		.uleb128 0xb
 1651 011e 49       		.uleb128 0x49
 1652 011f 13       		.uleb128 0x13
 1653 0120 02       		.uleb128 0x2
 1654 0121 18       		.uleb128 0x18
 1655 0122 00       		.byte	0
 1656 0123 00       		.byte	0
 1657 0124 18       		.uleb128 0x18
 1658 0125 898201   		.uleb128 0x4109
 1659 0128 01       		.byte	0x1
 1660 0129 11       		.uleb128 0x11
 1661 012a 01       		.uleb128 0x1
 1662 012b 31       		.uleb128 0x31
 1663 012c 13       		.uleb128 0x13
 1664 012d 01       		.uleb128 0x1
 1665 012e 13       		.uleb128 0x13
 1666 012f 00       		.byte	0
 1667 0130 00       		.byte	0
 1668 0131 19       		.uleb128 0x19
 1669 0132 8A8201   		.uleb128 0x410a
 1670 0135 00       		.byte	0
 1671 0136 02       		.uleb128 0x2
 1672 0137 18       		.uleb128 0x18
 1673 0138 9142     		.uleb128 0x2111
 1674 013a 18       		.uleb128 0x18
 1675 013b 00       		.byte	0
 1676 013c 00       		.byte	0
 1677 013d 1A       		.uleb128 0x1a
 1678 013e 898201   		.uleb128 0x4109
 1679 0141 01       		.byte	0x1
 1680 0142 11       		.uleb128 0x11
 1681 0143 01       		.uleb128 0x1
 1682 0144 9542     		.uleb128 0x2115
 1683 0146 19       		.uleb128 0x19
 1684 0147 31       		.uleb128 0x31
 1685 0148 13       		.uleb128 0x13
 1686 0149 00       		.byte	0
 1687 014a 00       		.byte	0
 1688 014b 1B       		.uleb128 0x1b
 1689 014c 0B       		.uleb128 0xb
 1690 014d 01       		.byte	0x1
 1691 014e 11       		.uleb128 0x11
 1692 014f 01       		.uleb128 0x1
 1693 0150 12       		.uleb128 0x12
 1694 0151 06       		.uleb128 0x6
 1695 0152 01       		.uleb128 0x1
 1696 0153 13       		.uleb128 0x13
 1697 0154 00       		.byte	0
 1698 0155 00       		.byte	0
 1699 0156 1C       		.uleb128 0x1c
 1700 0157 0B       		.uleb128 0xb
 1701 0158 01       		.byte	0x1
 1702 0159 55       		.uleb128 0x55
 1703 015a 17       		.uleb128 0x17
 1704 015b 01       		.uleb128 0x1
ARM GAS  /tmp/cc6CMAGb.s 			page 31


 1705 015c 13       		.uleb128 0x13
 1706 015d 00       		.byte	0
 1707 015e 00       		.byte	0
 1708 015f 1D       		.uleb128 0x1d
 1709 0160 898201   		.uleb128 0x4109
 1710 0163 00       		.byte	0
 1711 0164 11       		.uleb128 0x11
 1712 0165 01       		.uleb128 0x1
 1713 0166 9542     		.uleb128 0x2115
 1714 0168 19       		.uleb128 0x19
 1715 0169 31       		.uleb128 0x31
 1716 016a 13       		.uleb128 0x13
 1717 016b 00       		.byte	0
 1718 016c 00       		.byte	0
 1719 016d 1E       		.uleb128 0x1e
 1720 016e 05       		.uleb128 0x5
 1721 016f 00       		.byte	0
 1722 0170 03       		.uleb128 0x3
 1723 0171 08       		.uleb128 0x8
 1724 0172 3A       		.uleb128 0x3a
 1725 0173 0B       		.uleb128 0xb
 1726 0174 3B       		.uleb128 0x3b
 1727 0175 0B       		.uleb128 0xb
 1728 0176 49       		.uleb128 0x49
 1729 0177 13       		.uleb128 0x13
 1730 0178 02       		.uleb128 0x2
 1731 0179 18       		.uleb128 0x18
 1732 017a 00       		.byte	0
 1733 017b 00       		.byte	0
 1734 017c 1F       		.uleb128 0x1f
 1735 017d 34       		.uleb128 0x34
 1736 017e 00       		.byte	0
 1737 017f 03       		.uleb128 0x3
 1738 0180 0E       		.uleb128 0xe
 1739 0181 3A       		.uleb128 0x3a
 1740 0182 0B       		.uleb128 0xb
 1741 0183 3B       		.uleb128 0x3b
 1742 0184 0B       		.uleb128 0xb
 1743 0185 49       		.uleb128 0x49
 1744 0186 13       		.uleb128 0x13
 1745 0187 3F       		.uleb128 0x3f
 1746 0188 19       		.uleb128 0x19
 1747 0189 3C       		.uleb128 0x3c
 1748 018a 19       		.uleb128 0x19
 1749 018b 00       		.byte	0
 1750 018c 00       		.byte	0
 1751 018d 20       		.uleb128 0x20
 1752 018e 2E       		.uleb128 0x2e
 1753 018f 00       		.byte	0
 1754 0190 3F       		.uleb128 0x3f
 1755 0191 19       		.uleb128 0x19
 1756 0192 03       		.uleb128 0x3
 1757 0193 0E       		.uleb128 0xe
 1758 0194 3A       		.uleb128 0x3a
 1759 0195 0B       		.uleb128 0xb
 1760 0196 3B       		.uleb128 0x3b
 1761 0197 0B       		.uleb128 0xb
ARM GAS  /tmp/cc6CMAGb.s 			page 32


 1762 0198 27       		.uleb128 0x27
 1763 0199 19       		.uleb128 0x19
 1764 019a 3C       		.uleb128 0x3c
 1765 019b 19       		.uleb128 0x19
 1766 019c 00       		.byte	0
 1767 019d 00       		.byte	0
 1768 019e 21       		.uleb128 0x21
 1769 019f 2E       		.uleb128 0x2e
 1770 01a0 01       		.byte	0x1
 1771 01a1 3F       		.uleb128 0x3f
 1772 01a2 19       		.uleb128 0x19
 1773 01a3 03       		.uleb128 0x3
 1774 01a4 0E       		.uleb128 0xe
 1775 01a5 3A       		.uleb128 0x3a
 1776 01a6 0B       		.uleb128 0xb
 1777 01a7 3B       		.uleb128 0x3b
 1778 01a8 05       		.uleb128 0x5
 1779 01a9 27       		.uleb128 0x27
 1780 01aa 19       		.uleb128 0x19
 1781 01ab 3C       		.uleb128 0x3c
 1782 01ac 19       		.uleb128 0x19
 1783 01ad 01       		.uleb128 0x1
 1784 01ae 13       		.uleb128 0x13
 1785 01af 00       		.byte	0
 1786 01b0 00       		.byte	0
 1787 01b1 22       		.uleb128 0x22
 1788 01b2 05       		.uleb128 0x5
 1789 01b3 00       		.byte	0
 1790 01b4 49       		.uleb128 0x49
 1791 01b5 13       		.uleb128 0x13
 1792 01b6 00       		.byte	0
 1793 01b7 00       		.byte	0
 1794 01b8 00       		.byte	0
 1795              		.section	.debug_loc,"",%progbits
 1796              	.Ldebug_loc0:
 1797              	.LLST0:
 1798 0000 04000000 		.4byte	.LVL1
 1799 0004 06000000 		.4byte	.LVL2
 1800 0008 0300     		.2byte	0x3
 1801 000a 73       		.byte	0x73
 1802 000b 20       		.sleb128 32
 1803 000c 9F       		.byte	0x9f
 1804 000d 06000000 		.4byte	.LVL2
 1805 0011 0C000000 		.4byte	.LVL3
 1806 0015 0100     		.2byte	0x1
 1807 0017 53       		.byte	0x53
 1808 0018 00000000 		.4byte	0
 1809 001c 00000000 		.4byte	0
 1810              	.LLST1:
 1811 0020 14000000 		.4byte	.LVL7
 1812 0024 20000000 		.4byte	.LVL8
 1813 0028 0300     		.2byte	0x3
 1814 002a 73       		.byte	0x73
 1815 002b 60       		.sleb128 -32
 1816 002c 9F       		.byte	0x9f
 1817 002d 20000000 		.4byte	.LVL8
 1818 0031 28000000 		.4byte	.LVL9
ARM GAS  /tmp/cc6CMAGb.s 			page 33


 1819 0035 0100     		.2byte	0x1
 1820 0037 52       		.byte	0x52
 1821 0038 28000000 		.4byte	.LVL9
 1822 003c 44000000 		.4byte	.LVL10
 1823 0040 0300     		.2byte	0x3
 1824 0042 73       		.byte	0x73
 1825 0043 60       		.sleb128 -32
 1826 0044 9F       		.byte	0x9f
 1827 0045 4A000000 		.4byte	.LVL11
 1828 0049 70000000 		.4byte	.LFE10
 1829 004d 0300     		.2byte	0x3
 1830 004f 73       		.byte	0x73
 1831 0050 60       		.sleb128 -32
 1832 0051 9F       		.byte	0x9f
 1833 0052 00000000 		.4byte	0
 1834 0056 00000000 		.4byte	0
 1835              		.section	.debug_aranges,"",%progbits
 1836 0000 4C000000 		.4byte	0x4c
 1837 0004 0200     		.2byte	0x2
 1838 0006 00000000 		.4byte	.Ldebug_info0
 1839 000a 04       		.byte	0x4
 1840 000b 00       		.byte	0
 1841 000c 0000     		.2byte	0
 1842 000e 0000     		.2byte	0
 1843 0010 00000000 		.4byte	.LFB11
 1844 0014 06000000 		.4byte	.LFE11-.LFB11
 1845 0018 00000000 		.4byte	.LFB8
 1846 001c 12000000 		.4byte	.LFE8-.LFB8
 1847 0020 00000000 		.4byte	.LFB9
 1848 0024 30000000 		.4byte	.LFE9-.LFB9
 1849 0028 00000000 		.4byte	.LFB10
 1850 002c 70000000 		.4byte	.LFE10-.LFB10
 1851 0030 00000000 		.4byte	.LFB7
 1852 0034 1A000000 		.4byte	.LFE7-.LFB7
 1853 0038 00000000 		.4byte	.LFB12
 1854 003c 10000000 		.4byte	.LFE12-.LFB12
 1855 0040 00000000 		.4byte	.LFB13
 1856 0044 10000000 		.4byte	.LFE13-.LFB13
 1857 0048 00000000 		.4byte	0
 1858 004c 00000000 		.4byte	0
 1859              		.section	.debug_ranges,"",%progbits
 1860              	.Ldebug_ranges0:
 1861 0000 10000000 		.4byte	.LBB4
 1862 0004 44000000 		.4byte	.LBE4
 1863 0008 4A000000 		.4byte	.LBB6
 1864 000c 70000000 		.4byte	.LBE6
 1865 0010 00000000 		.4byte	0
 1866 0014 00000000 		.4byte	0
 1867 0018 00000000 		.4byte	.LFB11
 1868 001c 06000000 		.4byte	.LFE11
 1869 0020 00000000 		.4byte	.LFB8
 1870 0024 12000000 		.4byte	.LFE8
 1871 0028 00000000 		.4byte	.LFB9
 1872 002c 30000000 		.4byte	.LFE9
 1873 0030 00000000 		.4byte	.LFB10
 1874 0034 70000000 		.4byte	.LFE10
 1875 0038 00000000 		.4byte	.LFB7
ARM GAS  /tmp/cc6CMAGb.s 			page 34


 1876 003c 1A000000 		.4byte	.LFE7
 1877 0040 00000000 		.4byte	.LFB12
 1878 0044 10000000 		.4byte	.LFE12
 1879 0048 00000000 		.4byte	.LFB13
 1880 004c 10000000 		.4byte	.LFE13
 1881 0050 00000000 		.4byte	0
 1882 0054 00000000 		.4byte	0
 1883              		.section	.debug_line,"",%progbits
 1884              	.Ldebug_line0:
 1885 0000 F0010000 		.section	.debug_str,"MS",%progbits,1
 1885      02003D01 
 1885      00000201 
 1885      FB0E0D00 
 1885      01010101 
 1886              	.LASF39:
 1887 0000 705F6D73 		.ascii	"p_msg\000"
 1887      6700
 1888              	.LASF81:
 1889 0006 7264796D 		.ascii	"rdymsg\000"
 1889      736700
 1890              	.LASF5:
 1891 000d 5F5F7569 		.ascii	"__uint8_t\000"
 1891      6E74385F 
 1891      7400
 1892              	.LASF69:
 1893 0017 434D785F 		.ascii	"CMx_SCB\000"
 1893      53434200 
 1894              	.LASF98:
 1895 001f 2F686F6D 		.ascii	"/home/makkmarci/devel/ChibiOS_2.6.5/demos/ARMCM4-ST"
 1895      652F6D61 
 1895      6B6B6D61 
 1895      7263692F 
 1895      64657665 
 1896 0052 4D333246 		.ascii	"M32F407-LWIP\000"
 1896      3430372D 
 1896      4C574950 
 1896      00
 1897              	.LASF95:
 1898 005f 63685379 		.ascii	"chSysTimerHandlerI\000"
 1898      7354696D 
 1898      65724861 
 1898      6E646C65 
 1898      724900
 1899              	.LASF91:
 1900 0072 53797354 		.ascii	"SysTickVector\000"
 1900      69636B56 
 1900      6563746F 
 1900      7200
 1901              	.LASF11:
 1902 0080 6C6F6E67 		.ascii	"long long unsigned int\000"
 1902      206C6F6E 
 1902      6720756E 
 1902      7369676E 
 1902      65642069 
 1903              	.LASF82:
 1904 0097 65786974 		.ascii	"exitcode\000"
 1904      636F6465 
ARM GAS  /tmp/cc6CMAGb.s 			page 35


 1904      00
 1905              	.LASF54:
 1906 00a0 43505549 		.ascii	"CPUID\000"
 1906      4400
 1907              	.LASF27:
 1908 00a6 705F7072 		.ascii	"p_prio\000"
 1908      696F00
 1909              	.LASF10:
 1910 00ad 6C6F6E67 		.ascii	"long long int\000"
 1910      206C6F6E 
 1910      6720696E 
 1910      7400
 1911              	.LASF1:
 1912 00bb 7369676E 		.ascii	"signed char\000"
 1912      65642063 
 1912      68617200 
 1913              	.LASF43:
 1914 00c7 705F6D70 		.ascii	"p_mpool\000"
 1914      6F6F6C00 
 1915              	.LASF78:
 1916 00cf 6D5F7175 		.ascii	"m_queue\000"
 1916      65756500 
 1917              	.LASF19:
 1918 00d7 74736C69 		.ascii	"tslices_t\000"
 1918      6365735F 
 1918      7400
 1919              	.LASF7:
 1920 00e1 6C6F6E67 		.ascii	"long int\000"
 1920      20696E74 
 1920      00
 1921              	.LASF87:
 1922 00ea 53564361 		.ascii	"SVCallVector\000"
 1922      6C6C5665 
 1922      63746F72 
 1922      00
 1923              	.LASF17:
 1924 00f7 74737461 		.ascii	"tstate_t\000"
 1924      74655F74 
 1924      00
 1925              	.LASF93:
 1926 0100 5F706F72 		.ascii	"_port_thread_start\000"
 1926      745F7468 
 1926      72656164 
 1926      5F737461 
 1926      727400
 1927              	.LASF29:
 1928 0113 705F6E65 		.ascii	"p_newer\000"
 1928      77657200 
 1929              	.LASF64:
 1930 011b 42464152 		.ascii	"BFAR\000"
 1930      00
 1931              	.LASF8:
 1932 0120 5F5F7569 		.ascii	"__uint32_t\000"
 1932      6E743332 
 1932      5F7400
 1933              	.LASF100:
 1934 012b 6E766963 		.ascii	"nvicSetSystemHandlerPriority\000"
ARM GAS  /tmp/cc6CMAGb.s 			page 36


 1934      53657453 
 1934      79737465 
 1934      6D48616E 
 1934      646C6572 
 1935              	.LASF46:
 1936 0148 72656761 		.ascii	"regarm_t\000"
 1936      726D5F74 
 1936      00
 1937              	.LASF94:
 1938 0151 63685363 		.ascii	"chSchDoReschedule\000"
 1938      68446F52 
 1938      65736368 
 1938      6564756C 
 1938      6500
 1939              	.LASF0:
 1940 0163 756E7369 		.ascii	"unsigned int\000"
 1940      676E6564 
 1940      20696E74 
 1940      00
 1941              	.LASF48:
 1942 0170 6C725F74 		.ascii	"lr_thd\000"
 1942      686400
 1943              	.LASF47:
 1944 0177 65787463 		.ascii	"extctx\000"
 1944      747800
 1945              	.LASF92:
 1946 017e 5F706F72 		.ascii	"_port_switch\000"
 1946      745F7377 
 1946      69746368 
 1946      00
 1947              	.LASF9:
 1948 018b 6C6F6E67 		.ascii	"long unsigned int\000"
 1948      20756E73 
 1948      69676E65 
 1948      6420696E 
 1948      7400
 1949              	.LASF56:
 1950 019d 56544F52 		.ascii	"VTOR\000"
 1950      00
 1951              	.LASF86:
 1952 01a2 5F706F72 		.ascii	"_port_switch_from_isr\000"
 1952      745F7377 
 1952      69746368 
 1952      5F66726F 
 1952      6D5F6973 
 1953              	.LASF51:
 1954 01b8 636F6E74 		.ascii	"context\000"
 1954      65787400 
 1955              	.LASF4:
 1956 01c0 73686F72 		.ascii	"short unsigned int\000"
 1956      7420756E 
 1956      7369676E 
 1956      65642069 
 1956      6E7400
 1957              	.LASF55:
 1958 01d3 49435352 		.ascii	"ICSR\000"
 1958      00
ARM GAS  /tmp/cc6CMAGb.s 			page 37


 1959              	.LASF21:
 1960 01d8 6D73675F 		.ascii	"msg_t\000"
 1960      7400
 1961              	.LASF57:
 1962 01de 41495243 		.ascii	"AIRCR\000"
 1962      5200
 1963              	.LASF62:
 1964 01e4 44465352 		.ascii	"DFSR\000"
 1964      00
 1965              	.LASF73:
 1966 01e9 725F6E65 		.ascii	"r_newer\000"
 1966      77657200 
 1967              	.LASF63:
 1968 01f1 4D4D4641 		.ascii	"MMFAR\000"
 1968      5200
 1969              	.LASF90:
 1970 01f7 5F706F72 		.ascii	"_port_irq_epilogue\000"
 1970      745F6972 
 1970      715F6570 
 1970      696C6F67 
 1970      756500
 1971              	.LASF16:
 1972 020a 746D6F64 		.ascii	"tmode_t\000"
 1972      655F7400 
 1973              	.LASF45:
 1974 0212 54687265 		.ascii	"ThreadsList\000"
 1974      6164734C 
 1974      69737400 
 1975              	.LASF22:
 1976 021e 6576656E 		.ascii	"eventmask_t\000"
 1976      746D6173 
 1976      6B5F7400 
 1977              	.LASF77:
 1978 022a 4D757465 		.ascii	"Mutex\000"
 1978      7800
 1979              	.LASF53:
 1980 0230 73697A65 		.ascii	"sizetype\000"
 1980      74797065 
 1980      00
 1981              	.LASF60:
 1982 0239 43465352 		.ascii	"CFSR\000"
 1982      00
 1983              	.LASF30:
 1984 023e 705F6F6C 		.ascii	"p_older\000"
 1984      64657200 
 1985              	.LASF72:
 1986 0246 725F6374 		.ascii	"r_ctx\000"
 1986      7800
 1987              	.LASF44:
 1988 024c 54687265 		.ascii	"ThreadsQueue\000"
 1988      61647351 
 1988      75657565 
 1988      00
 1989              	.LASF75:
 1990 0259 725F6375 		.ascii	"r_current\000"
 1990      7272656E 
 1990      7400
ARM GAS  /tmp/cc6CMAGb.s 			page 38


 1991              	.LASF74:
 1992 0263 725F6F6C 		.ascii	"r_older\000"
 1992      64657200 
 1993              	.LASF18:
 1994 026b 74726566 		.ascii	"trefs_t\000"
 1994      735F7400 
 1995              	.LASF88:
 1996 0273 63747870 		.ascii	"ctxp\000"
 1996      00
 1997              	.LASF26:
 1998 0278 705F7072 		.ascii	"p_prev\000"
 1998      657600
 1999              	.LASF20:
 2000 027f 74707269 		.ascii	"tprio_t\000"
 2000      6F5F7400 
 2001              	.LASF15:
 2002 0287 5F426F6F 		.ascii	"_Bool\000"
 2002      6C00
 2003              	.LASF13:
 2004 028d 696E7433 		.ascii	"int32_t\000"
 2004      325F7400 
 2005              	.LASF2:
 2006 0295 756E7369 		.ascii	"unsigned char\000"
 2006      676E6564 
 2006      20636861 
 2006      7200
 2007              	.LASF59:
 2008 02a3 53484353 		.ascii	"SHCSR\000"
 2008      5200
 2009              	.LASF41:
 2010 02a9 705F6D74 		.ascii	"p_mtxlist\000"
 2010      786C6973 
 2010      7400
 2011              	.LASF3:
 2012 02b3 73686F72 		.ascii	"short int\000"
 2012      7420696E 
 2012      7400
 2013              	.LASF32:
 2014 02bd 705F7374 		.ascii	"p_state\000"
 2014      61746500 
 2015              	.LASF35:
 2016 02c5 705F7072 		.ascii	"p_preempt\000"
 2016      65656D70 
 2016      7400
 2017              	.LASF49:
 2018 02cf 78707372 		.ascii	"xpsr\000"
 2018      00
 2019              	.LASF71:
 2020 02d4 725F7072 		.ascii	"r_prio\000"
 2020      696F00
 2021              	.LASF84:
 2022 02db 65776D61 		.ascii	"ewmask\000"
 2022      736B00
 2023              	.LASF25:
 2024 02e2 705F6E65 		.ascii	"p_next\000"
 2024      787400
 2025              	.LASF33:
ARM GAS  /tmp/cc6CMAGb.s 			page 39


 2026 02e9 705F666C 		.ascii	"p_flags\000"
 2026      61677300 
 2027              	.LASF24:
 2028 02f1 54687265 		.ascii	"Thread\000"
 2028      616400
 2029              	.LASF40:
 2030 02f8 705F6570 		.ascii	"p_epending\000"
 2030      656E6469 
 2030      6E6700
 2031              	.LASF14:
 2032 0303 75696E74 		.ascii	"uint32_t\000"
 2032      33325F74 
 2032      00
 2033              	.LASF70:
 2034 030c 725F7175 		.ascii	"r_queue\000"
 2034      65756500 
 2035              	.LASF65:
 2036 0314 41465352 		.ascii	"AFSR\000"
 2036      00
 2037              	.LASF67:
 2038 0319 756E7573 		.ascii	"unused1\000"
 2038      65643100 
 2039              	.LASF85:
 2040 0321 63686172 		.ascii	"char\000"
 2040      00
 2041              	.LASF52:
 2042 0326 494F5245 		.ascii	"IOREG32\000"
 2042      47333200 
 2043              	.LASF97:
 2044 032e 2E2E2F2E 		.ascii	"../../os/ports/GCC/ARMCMx/chcore_v7m.c\000"
 2044      2E2F6F73 
 2044      2F706F72 
 2044      74732F47 
 2044      43432F41 
 2045              	.LASF96:
 2046 0355 474E5520 		.ascii	"GNU C 4.8.4 20140526 (release) [ARM/embedded-4_8-br"
 2046      4320342E 
 2046      382E3420 
 2046      32303134 
 2046      30353236 
 2047 0388 616E6368 		.ascii	"anch revision 211358] -mcpu=cortex-m4 -mno-thumb-in"
 2047      20726576 
 2047      6973696F 
 2047      6E203231 
 2047      31333538 
 2048 03bb 74657277 		.ascii	"terwork -mthumb -ggdb -O2 -fomit-frame-pointer -fal"
 2048      6F726B20 
 2048      2D6D7468 
 2048      756D6220 
 2048      2D676764 
 2049 03ee 69676E2D 		.ascii	"ign-functions=16 -ffunction-sections -fdata-section"
 2049      66756E63 
 2049      74696F6E 
 2049      733D3136 
 2049      202D6666 
 2050 0421 73202D66 		.ascii	"s -fno-common\000"
 2050      6E6F2D63 
ARM GAS  /tmp/cc6CMAGb.s 			page 40


 2050      6F6D6D6F 
 2050      6E00
 2051              	.LASF80:
 2052 042f 6D5F6E65 		.ascii	"m_next\000"
 2052      787400
 2053              	.LASF23:
 2054 0436 73797374 		.ascii	"systime_t\000"
 2054      696D655F 
 2054      7400
 2055              	.LASF42:
 2056 0440 705F7265 		.ascii	"p_realprio\000"
 2056      616C7072 
 2056      696F00
 2057              	.LASF6:
 2058 044b 5F5F696E 		.ascii	"__int32_t\000"
 2058      7433325F 
 2058      7400
 2059              	.LASF36:
 2060 0455 705F7469 		.ascii	"p_time\000"
 2060      6D6500
 2061              	.LASF58:
 2062 045c 53485052 		.ascii	"SHPR\000"
 2062      00
 2063              	.LASF50:
 2064 0461 696E7463 		.ascii	"intctx\000"
 2064      747800
 2065              	.LASF38:
 2066 0468 705F6D73 		.ascii	"p_msgqueue\000"
 2066      67717565 
 2066      756500
 2067              	.LASF34:
 2068 0473 705F7265 		.ascii	"p_refs\000"
 2068      667300
 2069              	.LASF76:
 2070 047a 52656164 		.ascii	"ReadyList\000"
 2070      794C6973 
 2070      7400
 2071              	.LASF66:
 2072 0484 4D4D4652 		.ascii	"MMFR\000"
 2072      00
 2073              	.LASF99:
 2074 0489 726C6973 		.ascii	"rlist\000"
 2074      7400
 2075              	.LASF12:
 2076 048f 75696E74 		.ascii	"uint8_t\000"
 2076      385F7400 
 2077              	.LASF89:
 2078 0497 5F706F72 		.ascii	"_port_init\000"
 2078      745F696E 
 2078      697400
 2079              	.LASF83:
 2080 04a2 77746F62 		.ascii	"wtobjp\000"
 2080      6A7000
 2081              	.LASF31:
 2082 04a9 705F6E61 		.ascii	"p_name\000"
 2082      6D6500
 2083              	.LASF68:
ARM GAS  /tmp/cc6CMAGb.s 			page 41


 2084 04b0 43504143 		.ascii	"CPACR\000"
 2084      5200
 2085              	.LASF61:
 2086 04b6 48465352 		.ascii	"HFSR\000"
 2086      00
 2087              	.LASF79:
 2088 04bb 6D5F6F77 		.ascii	"m_owner\000"
 2088      6E657200 
 2089              	.LASF28:
 2090 04c3 705F6374 		.ascii	"p_ctx\000"
 2090      7800
 2091              	.LASF37:
 2092 04c9 705F7761 		.ascii	"p_waiting\000"
 2092      6974696E 
 2092      6700
 2093              		.ident	"GCC: (GNU Tools for ARM Embedded Processors) 4.8.4 20140526 (release) [ARM/embedded-4_8-br
ARM GAS  /tmp/cc6CMAGb.s 			page 42


DEFINED SYMBOLS
                            *ABS*:00000000 chcore_v7m.c
     /tmp/cc6CMAGb.s:19     .text._port_switch_from_isr:00000000 $t
     /tmp/cc6CMAGb.s:25     .text._port_switch_from_isr:00000000 _port_switch_from_isr
     /tmp/cc6CMAGb.s:38     .text._port_switch_from_isr:00000004 _port_exit_from_isr
     /tmp/cc6CMAGb.s:50     .text.SVCallVector:00000000 $t
     /tmp/cc6CMAGb.s:56     .text.SVCallVector:00000000 SVCallVector
     /tmp/cc6CMAGb.s:91     .text._port_init:00000000 $t
     /tmp/cc6CMAGb.s:97     .text._port_init:00000000 _port_init
     /tmp/cc6CMAGb.s:138    .text._port_init:00000028 $d
     /tmp/cc6CMAGb.s:144    .text._port_irq_epilogue:00000000 $t
     /tmp/cc6CMAGb.s:150    .text._port_irq_epilogue:00000000 _port_irq_epilogue
     /tmp/cc6CMAGb.s:237    .text._port_irq_epilogue:00000060 $d
     /tmp/cc6CMAGb.s:246    .text.SysTickVector:00000000 $t
     /tmp/cc6CMAGb.s:252    .text.SysTickVector:00000000 SysTickVector
     /tmp/cc6CMAGb.s:290    .text._port_switch:00000000 $t
     /tmp/cc6CMAGb.s:296    .text._port_switch:00000000 _port_switch
     /tmp/cc6CMAGb.s:323    .text._port_thread_start:00000000 $t
     /tmp/cc6CMAGb.s:329    .text._port_thread_start:00000000 _port_thread_start
                     .debug_frame:00000010 $d

UNDEFINED SYMBOLS
chSchDoReschedule
nvicSetSystemHandlerPriority
rlist
chSysTimerHandlerI
chThdExit
