ARM GAS  /tmp/ccO0nVgp.s 			page 1


   1              		.syntax unified
   2              		.cpu cortex-m4
   3              		.fpu softvfp
   4              		.eabi_attribute 20, 1
   5              		.eabi_attribute 21, 1
   6              		.eabi_attribute 23, 3
   7              		.eabi_attribute 24, 1
   8              		.eabi_attribute 25, 1
   9              		.eabi_attribute 26, 1
  10              		.eabi_attribute 30, 2
  11              		.eabi_attribute 34, 1
  12              		.eabi_attribute 18, 4
  13              		.thumb
  14              		.file	"pal_lld.c"
  15              		.text
  16              	.Ltext0:
  17              		.cfi_sections	.debug_frame
  18              		.section	.text._pal_lld_init,"ax",%progbits
  19              		.align	2
  20              		.p2align 4,,15
  21              		.global	_pal_lld_init
  22              		.thumb
  23              		.thumb_func
  24              		.type	_pal_lld_init, %function
  25              	_pal_lld_init:
  26              	.LFB119:
  27              		.file 1 "../../os/hal/platforms/STM32/GPIOv2/pal_lld.c"
  28              		.loc 1 113 0
  29              		.cfi_startproc
  30              		@ args = 0, pretend = 0, frame = 0
  31              		@ frame_needed = 0, uses_anonymous_args = 0
  32              		@ link register save eliminated.
  33              	.LVL0:
  34 0000 2DE9F00F 		push	{r4, r5, r6, r7, r8, r9, r10, fp}
  35              		.cfi_def_cfa_offset 32
  36              		.cfi_offset 4, -32
  37              		.cfi_offset 5, -28
  38              		.cfi_offset 6, -24
  39              		.cfi_offset 7, -20
  40              		.cfi_offset 8, -16
  41              		.cfi_offset 9, -12
  42              		.cfi_offset 10, -8
  43              		.cfi_offset 11, -4
  44              		.loc 1 126 0
  45 0004 DFF8AC91 		ldr	r9, .L2+28
  46              	.LBB20:
  47              	.LBB21:
  48              		.loc 1 88 0
  49 0008 DFF8AC81 		ldr	r8, .L2+32
  50              	.LBE21:
  51              	.LBE20:
  52              		.loc 1 126 0
  53 000c D9F830B0 		ldr	fp, [r9, #48]
  54              	.LBB23:
  55              	.LBB24:
  56              		.loc 1 88 0
  57 0010 DFF8A8C1 		ldr	ip, .L2+36
ARM GAS  /tmp/ccO0nVgp.s 			page 2


  58              	.LBE24:
  59              	.LBE23:
  60              	.LBB26:
  61              	.LBB27:
  62 0014 604F     		ldr	r7, .L2
  63              	.LBE27:
  64              	.LBE26:
  65              	.LBB29:
  66              	.LBB30:
  67 0016 614E     		ldr	r6, .L2+4
  68              	.LBE30:
  69              	.LBE29:
  70              	.LBB32:
  71              	.LBB33:
  72 0018 614D     		ldr	r5, .L2+8
  73              	.LBE33:
  74              	.LBE32:
  75              	.LBB35:
  76              	.LBB36:
  77 001a 624C     		ldr	r4, .L2+12
  78              	.LBE36:
  79              	.LBE35:
  80              	.LBB38:
  81              	.LBB39:
  82 001c 6249     		ldr	r1, .L2+16
  83              	.LBE39:
  84              	.LBE38:
  85              	.LBB41:
  86              	.LBB42:
  87 001e 634A     		ldr	r2, .L2+20
  88              	.LBE42:
  89              	.LBE41:
  90              		.loc 1 126 0
  91 0020 40F2FF1A 		movw	r10, #511
  92 0024 4BEA0A0B 		orr	fp, fp, r10
  93 0028 C9F830B0 		str	fp, [r9, #48]
  94              		.loc 1 127 0
  95 002c D9F850B0 		ldr	fp, [r9, #80]
  96 0030 4BEA0A0A 		orr	r10, fp, r10
  97 0034 C9F850A0 		str	r10, [r9, #80]
  98              	.LVL1:
  99              	.LBB44:
 100              	.LBB22:
 101              		.loc 1 88 0
 102 0038 4368     		ldr	r3, [r0, #4]
 103 003a C8F80430 		str	r3, [r8, #4]
 104              		.loc 1 89 0
 105 003e 8368     		ldr	r3, [r0, #8]
 106 0040 C8F80830 		str	r3, [r8, #8]
 107              		.loc 1 90 0
 108 0044 C368     		ldr	r3, [r0, #12]
 109 0046 C8F80C30 		str	r3, [r8, #12]
 110              		.loc 1 91 0
 111 004a 0369     		ldr	r3, [r0, #16]
 112 004c C8F81430 		str	r3, [r8, #20]
 113              		.loc 1 92 0
 114 0050 4369     		ldr	r3, [r0, #20]
ARM GAS  /tmp/ccO0nVgp.s 			page 3


 115 0052 C8F82030 		str	r3, [r8, #32]
 116              		.loc 1 93 0
 117 0056 8369     		ldr	r3, [r0, #24]
 118 0058 C8F82430 		str	r3, [r8, #36]
 119              		.loc 1 94 0
 120 005c 0368     		ldr	r3, [r0]
 121 005e C8F80030 		str	r3, [r8]
 122              	.LVL2:
 123              	.LBE22:
 124              	.LBE44:
 125              	.LBB45:
 126              	.LBB25:
 127              		.loc 1 88 0
 128 0062 036A     		ldr	r3, [r0, #32]
 129 0064 CCF80430 		str	r3, [ip, #4]
 130              		.loc 1 89 0
 131 0068 436A     		ldr	r3, [r0, #36]
 132 006a CCF80830 		str	r3, [ip, #8]
 133              		.loc 1 90 0
 134 006e 836A     		ldr	r3, [r0, #40]
 135 0070 CCF80C30 		str	r3, [ip, #12]
 136              		.loc 1 91 0
 137 0074 C36A     		ldr	r3, [r0, #44]
 138 0076 CCF81430 		str	r3, [ip, #20]
 139              		.loc 1 92 0
 140 007a 036B     		ldr	r3, [r0, #48]
 141 007c CCF82030 		str	r3, [ip, #32]
 142              		.loc 1 93 0
 143 0080 436B     		ldr	r3, [r0, #52]
 144 0082 CCF82430 		str	r3, [ip, #36]
 145              		.loc 1 94 0
 146 0086 C369     		ldr	r3, [r0, #28]
 147 0088 CCF80030 		str	r3, [ip]
 148              	.LVL3:
 149              	.LBE25:
 150              	.LBE45:
 151              	.LBB46:
 152              	.LBB28:
 153              		.loc 1 88 0
 154 008c C36B     		ldr	r3, [r0, #60]
 155 008e 7B60     		str	r3, [r7, #4]
 156              		.loc 1 89 0
 157 0090 036C     		ldr	r3, [r0, #64]
 158 0092 BB60     		str	r3, [r7, #8]
 159              		.loc 1 90 0
 160 0094 436C     		ldr	r3, [r0, #68]
 161 0096 FB60     		str	r3, [r7, #12]
 162              		.loc 1 91 0
 163 0098 836C     		ldr	r3, [r0, #72]
 164 009a 7B61     		str	r3, [r7, #20]
 165              		.loc 1 92 0
 166 009c C36C     		ldr	r3, [r0, #76]
 167 009e 3B62     		str	r3, [r7, #32]
 168              		.loc 1 93 0
 169 00a0 036D     		ldr	r3, [r0, #80]
 170 00a2 7B62     		str	r3, [r7, #36]
 171              		.loc 1 94 0
ARM GAS  /tmp/ccO0nVgp.s 			page 4


 172 00a4 836B     		ldr	r3, [r0, #56]
 173 00a6 3B60     		str	r3, [r7]
 174              	.LVL4:
 175              	.LBE28:
 176              	.LBE46:
 177              	.LBB47:
 178              	.LBB31:
 179              		.loc 1 88 0
 180 00a8 876D     		ldr	r7, [r0, #88]
 181 00aa 7760     		str	r7, [r6, #4]
 182              		.loc 1 89 0
 183 00ac C76D     		ldr	r7, [r0, #92]
 184 00ae B760     		str	r7, [r6, #8]
 185              		.loc 1 90 0
 186 00b0 076E     		ldr	r7, [r0, #96]
 187 00b2 F760     		str	r7, [r6, #12]
 188              		.loc 1 91 0
 189 00b4 476E     		ldr	r7, [r0, #100]
 190 00b6 7761     		str	r7, [r6, #20]
 191              		.loc 1 92 0
 192 00b8 876E     		ldr	r7, [r0, #104]
 193 00ba 3762     		str	r7, [r6, #32]
 194              		.loc 1 93 0
 195 00bc C76E     		ldr	r7, [r0, #108]
 196 00be 7762     		str	r7, [r6, #36]
 197              		.loc 1 94 0
 198 00c0 476D     		ldr	r7, [r0, #84]
 199 00c2 3760     		str	r7, [r6]
 200              	.LVL5:
 201              	.LBE31:
 202              	.LBE47:
 203              	.LBB48:
 204              	.LBB34:
 205              		.loc 1 88 0
 206 00c4 466F     		ldr	r6, [r0, #116]
 207 00c6 6E60     		str	r6, [r5, #4]
 208              		.loc 1 89 0
 209 00c8 866F     		ldr	r6, [r0, #120]
 210 00ca AE60     		str	r6, [r5, #8]
 211              		.loc 1 90 0
 212 00cc C66F     		ldr	r6, [r0, #124]
 213 00ce EE60     		str	r6, [r5, #12]
 214              		.loc 1 91 0
 215 00d0 D0F88060 		ldr	r6, [r0, #128]
 216 00d4 6E61     		str	r6, [r5, #20]
 217              		.loc 1 92 0
 218 00d6 D0F88460 		ldr	r6, [r0, #132]
 219 00da 2E62     		str	r6, [r5, #32]
 220              		.loc 1 93 0
 221 00dc D0F88860 		ldr	r6, [r0, #136]
 222 00e0 6E62     		str	r6, [r5, #36]
 223              		.loc 1 94 0
 224 00e2 066F     		ldr	r6, [r0, #112]
 225 00e4 2E60     		str	r6, [r5]
 226              	.LVL6:
 227              	.LBE34:
 228              	.LBE48:
ARM GAS  /tmp/ccO0nVgp.s 			page 5


 229              	.LBB49:
 230              	.LBB37:
 231              		.loc 1 88 0
 232 00e6 D0F89050 		ldr	r5, [r0, #144]
 233 00ea 6560     		str	r5, [r4, #4]
 234              		.loc 1 89 0
 235 00ec D0F89450 		ldr	r5, [r0, #148]
 236 00f0 A560     		str	r5, [r4, #8]
 237              		.loc 1 90 0
 238 00f2 D0F89850 		ldr	r5, [r0, #152]
 239 00f6 E560     		str	r5, [r4, #12]
 240              		.loc 1 91 0
 241 00f8 D0F89C50 		ldr	r5, [r0, #156]
 242 00fc 6561     		str	r5, [r4, #20]
 243              		.loc 1 92 0
 244 00fe D0F8A050 		ldr	r5, [r0, #160]
 245 0102 2562     		str	r5, [r4, #32]
 246              		.loc 1 93 0
 247 0104 D0F8A450 		ldr	r5, [r0, #164]
 248 0108 6562     		str	r5, [r4, #36]
 249              		.loc 1 94 0
 250 010a D0F88C50 		ldr	r5, [r0, #140]
 251 010e 2560     		str	r5, [r4]
 252              	.LVL7:
 253              	.LBE37:
 254              	.LBE49:
 255              	.LBB50:
 256              	.LBB40:
 257              		.loc 1 88 0
 258 0110 D0F8AC40 		ldr	r4, [r0, #172]
 259 0114 4C60     		str	r4, [r1, #4]
 260              		.loc 1 89 0
 261 0116 D0F8B040 		ldr	r4, [r0, #176]
 262 011a 8C60     		str	r4, [r1, #8]
 263              		.loc 1 90 0
 264 011c D0F8B440 		ldr	r4, [r0, #180]
 265 0120 CC60     		str	r4, [r1, #12]
 266              		.loc 1 91 0
 267 0122 D0F8B840 		ldr	r4, [r0, #184]
 268 0126 4C61     		str	r4, [r1, #20]
 269              		.loc 1 92 0
 270 0128 D0F8BC40 		ldr	r4, [r0, #188]
 271 012c 0C62     		str	r4, [r1, #32]
 272              		.loc 1 93 0
 273 012e D0F8C040 		ldr	r4, [r0, #192]
 274 0132 4C62     		str	r4, [r1, #36]
 275              		.loc 1 94 0
 276 0134 D0F8A840 		ldr	r4, [r0, #168]
 277 0138 0C60     		str	r4, [r1]
 278              	.LVL8:
 279              	.LBE40:
 280              	.LBE50:
 281              	.LBB51:
 282              	.LBB43:
 283              		.loc 1 88 0
 284 013a D0F8C810 		ldr	r1, [r0, #200]
 285 013e 5160     		str	r1, [r2, #4]
ARM GAS  /tmp/ccO0nVgp.s 			page 6


 286              		.loc 1 89 0
 287 0140 D0F8CC10 		ldr	r1, [r0, #204]
 288 0144 9160     		str	r1, [r2, #8]
 289              		.loc 1 90 0
 290 0146 D0F8D010 		ldr	r1, [r0, #208]
 291 014a D160     		str	r1, [r2, #12]
 292              		.loc 1 91 0
 293 014c D0F8D410 		ldr	r1, [r0, #212]
 294 0150 5161     		str	r1, [r2, #20]
 295              		.loc 1 92 0
 296 0152 D0F8D810 		ldr	r1, [r0, #216]
 297 0156 1162     		str	r1, [r2, #32]
 298              		.loc 1 93 0
 299 0158 D0F8DC10 		ldr	r1, [r0, #220]
 300 015c 5162     		str	r1, [r2, #36]
 301              		.loc 1 94 0
 302 015e D0F8C410 		ldr	r1, [r0, #196]
 303 0162 1160     		str	r1, [r2]
 304              	.LVL9:
 305              	.LBE43:
 306              	.LBE51:
 307              	.LBB52:
 308              	.LBB53:
 309              		.loc 1 88 0
 310 0164 124B     		ldr	r3, .L2+24
 311 0166 D0F8E420 		ldr	r2, [r0, #228]
 312 016a 5A60     		str	r2, [r3, #4]
 313              		.loc 1 89 0
 314 016c D0F8E820 		ldr	r2, [r0, #232]
 315 0170 9A60     		str	r2, [r3, #8]
 316              		.loc 1 90 0
 317 0172 D0F8EC20 		ldr	r2, [r0, #236]
 318 0176 DA60     		str	r2, [r3, #12]
 319              		.loc 1 91 0
 320 0178 D0F8F020 		ldr	r2, [r0, #240]
 321 017c 5A61     		str	r2, [r3, #20]
 322              		.loc 1 92 0
 323 017e D0F8F420 		ldr	r2, [r0, #244]
 324 0182 1A62     		str	r2, [r3, #32]
 325              		.loc 1 93 0
 326 0184 D0F8F820 		ldr	r2, [r0, #248]
 327 0188 5A62     		str	r2, [r3, #36]
 328              		.loc 1 94 0
 329 018a D0F8E020 		ldr	r2, [r0, #224]
 330 018e 1A60     		str	r2, [r3]
 331              	.LBE53:
 332              	.LBE52:
 333              		.loc 1 160 0
 334 0190 BDE8F00F 		pop	{r4, r5, r6, r7, r8, r9, r10, fp}
 335 0194 7047     		bx	lr
 336              	.L3:
 337 0196 00BF     		.align	2
 338              	.L2:
 339 0198 00080240 		.word	1073874944
 340 019c 000C0240 		.word	1073875968
 341 01a0 00100240 		.word	1073876992
 342 01a4 00140240 		.word	1073878016
ARM GAS  /tmp/ccO0nVgp.s 			page 7


 343 01a8 00180240 		.word	1073879040
 344 01ac 001C0240 		.word	1073880064
 345 01b0 00200240 		.word	1073881088
 346 01b4 00380240 		.word	1073887232
 347 01b8 00000240 		.word	1073872896
 348 01bc 00040240 		.word	1073873920
 349              		.cfi_endproc
 350              	.LFE119:
 351              		.size	_pal_lld_init, .-_pal_lld_init
 352              		.section	.text._pal_lld_setgroupmode,"ax",%progbits
 353              		.align	2
 354              		.p2align 4,,15
 355              		.global	_pal_lld_setgroupmode
 356              		.thumb
 357              		.thumb_func
 358              		.type	_pal_lld_setgroupmode, %function
 359              	_pal_lld_setgroupmode:
 360              	.LFB120:
 361              		.loc 1 178 0
 362              		.cfi_startproc
 363              		@ args = 0, pretend = 0, frame = 0
 364              		@ frame_needed = 0, uses_anonymous_args = 0
 365              		@ link register save eliminated.
 366              	.LVL10:
 367 0000 2DE9F00F 		push	{r4, r5, r6, r7, r8, r9, r10, fp}
 368              		.cfi_def_cfa_offset 32
 369              		.cfi_offset 4, -32
 370              		.cfi_offset 5, -28
 371              		.cfi_offset 6, -24
 372              		.cfi_offset 7, -20
 373              		.cfi_offset 8, -16
 374              		.cfi_offset 9, -12
 375              		.cfi_offset 10, -8
 376              		.cfi_offset 11, -4
 377              		.loc 1 185 0
 378 0004 0023     		movs	r3, #0
 379              		.loc 1 180 0
 380 0006 02F00307 		and	r7, r2, #3
 381              	.LVL11:
 382              		.loc 1 181 0
 383 000a C2F38006 		ubfx	r6, r2, #2, #1
 384              	.LVL12:
 385              		.loc 1 182 0
 386 000e C2F3C105 		ubfx	r5, r2, #3, #2
 387              	.LVL13:
 388              		.loc 1 183 0
 389 0012 C2F34114 		ubfx	r4, r2, #5, #2
 390              	.LVL14:
 391              	.LBB54:
 392              		.loc 1 191 0
 393 0016 4FF00F09 		mov	r9, #15
 394              	.LBE54:
 395              		.loc 1 184 0
 396 001a C2F3C312 		ubfx	r2, r2, #7, #4
 397              	.LVL15:
 398              	.LBB55:
 399              		.loc 1 196 0
ARM GAS  /tmp/ccO0nVgp.s 			page 8


 400 001e 4FF0010A 		mov	r10, #1
 401 0022 38E0     		b	.L9
 402              	.LVL16:
 403              	.L14:
 404              		.loc 1 193 0
 405 0024 D0F820B0 		ldr	fp, [r0, #32]
 406 0028 2BEA0C0C 		bic	ip, fp, ip
 407              	.LVL17:
 408 002c 4CEA0808 		orr	r8, ip, r8
 409              	.LVL18:
 410 0030 C0F82080 		str	r8, [r0, #32]
 411              	.L7:
 412              	.LVL19:
 413              		.loc 1 197 0
 414 0034 D0F804C0 		ldr	ip, [r0, #4]
 415              		.loc 1 196 0
 416 0038 0AFA03F8 		lsl	r8, r10, r3
 417              		.loc 1 197 0
 418 003c 2CEA080C 		bic	ip, ip, r8
 419 0040 4CEA060C 		orr	ip, ip, r6
 420 0044 C0F804C0 		str	ip, [r0, #4]
 421              	.LVL20:
 422              		.loc 1 198 0
 423 0048 4FF0030B 		mov	fp, #3
 424 004c 4FEA430C 		lsl	ip, r3, #1
 425              		.loc 1 199 0
 426 0050 D0F80880 		ldr	r8, [r0, #8]
 427              		.loc 1 198 0
 428 0054 0BFA0CFC 		lsl	ip, fp, ip
 429              	.LVL21:
 430              		.loc 1 199 0
 431 0058 6FEA0C0C 		mvn	ip, ip
 432              	.LVL22:
 433 005c 0CEA0808 		and	r8, ip, r8
 434 0060 48EA0508 		orr	r8, r8, r5
 435 0064 C0F80880 		str	r8, [r0, #8]
 436              		.loc 1 200 0
 437 0068 D0F80C80 		ldr	r8, [r0, #12]
 438 006c 0CEA0808 		and	r8, ip, r8
 439 0070 48EA0408 		orr	r8, r8, r4
 440 0074 C0F80C80 		str	r8, [r0, #12]
 441              		.loc 1 201 0
 442 0078 D0F80080 		ldr	r8, [r0]
 443 007c 0CEA080C 		and	ip, ip, r8
 444              	.LVL23:
 445 0080 4CEA070C 		orr	ip, ip, r7
 446 0084 C0F800C0 		str	ip, [r0]
 447              	.LVL24:
 448              	.L5:
 449              	.LBE55:
 450              		.loc 1 204 0
 451 0088 4908     		lsrs	r1, r1, #1
 452              	.LVL25:
 453 008a 1AD0     		beq	.L4
 454              		.loc 1 206 0
 455 008c 7600     		lsls	r6, r6, #1
 456              	.LVL26:
ARM GAS  /tmp/ccO0nVgp.s 			page 9


 457              		.loc 1 207 0
 458 008e AD00     		lsls	r5, r5, #2
 459              	.LVL27:
 460              		.loc 1 208 0
 461 0090 A400     		lsls	r4, r4, #2
 462              	.LVL28:
 463              		.loc 1 209 0
 464 0092 BF00     		lsls	r7, r7, #2
 465              	.LVL29:
 466              		.loc 1 210 0
 467 0094 0133     		adds	r3, r3, #1
 468              	.LVL30:
 469              	.L9:
 470              	.LBB56:
 471              		.loc 1 190 0
 472 0096 03F0070C 		and	ip, r3, #7
 473 009a 4FEA8C0C 		lsl	ip, ip, #2
 474              	.LBE56:
 475              		.loc 1 187 0
 476 009e 11F0010F 		tst	r1, #1
 477              	.LBB57:
 478              		.loc 1 190 0
 479 00a2 02FA0CF8 		lsl	r8, r2, ip
 480              	.LVL31:
 481              		.loc 1 191 0
 482 00a6 09FA0CFC 		lsl	ip, r9, ip
 483              	.LVL32:
 484              	.LBE57:
 485              		.loc 1 187 0
 486 00aa EDD0     		beq	.L5
 487              	.LBB58:
 488              		.loc 1 192 0
 489 00ac 072B     		cmp	r3, #7
 490 00ae B9D9     		bls	.L14
 491              		.loc 1 195 0
 492 00b0 D0F824B0 		ldr	fp, [r0, #36]
 493 00b4 2BEA0C0C 		bic	ip, fp, ip
 494              	.LVL33:
 495 00b8 4CEA0808 		orr	r8, ip, r8
 496              	.LVL34:
 497 00bc C0F82480 		str	r8, [r0, #36]
 498 00c0 B8E7     		b	.L7
 499              	.L4:
 500              	.LBE58:
 501              		.loc 1 212 0
 502 00c2 BDE8F00F 		pop	{r4, r5, r6, r7, r8, r9, r10, fp}
 503              	.LVL35:
 504 00c6 7047     		bx	lr
 505              		.cfi_endproc
 506              	.LFE120:
 507              		.size	_pal_lld_setgroupmode, .-_pal_lld_setgroupmode
 508 00c8 AFF30080 		.text
 508      AFF30080 
 509              	.Letext0:
 510              		.file 2 "/opt/ARM/arm-none-eabi/include/machine/_default_types.h"
 511              		.file 3 "/opt/ARM/arm-none-eabi/include/stdint.h"
 512              		.file 4 "../../os/hal/platforms/STM32F4xx/stm32f4xx.h"
ARM GAS  /tmp/ccO0nVgp.s 			page 10


 513              		.file 5 "../../os/hal/platforms/STM32/GPIOv2/pal_lld.h"
 514              		.file 6 "../../os/ports/common/ARMCMx/CMSIS/include/core_cm4.h"
 515              		.section	.debug_info,"",%progbits
 516              	.Ldebug_info0:
 517 0000 00070000 		.4byte	0x700
 518 0004 0400     		.2byte	0x4
 519 0006 00000000 		.4byte	.Ldebug_abbrev0
 520 000a 04       		.byte	0x4
 521 000b 01       		.uleb128 0x1
 522 000c 65000000 		.4byte	.LASF87
 523 0010 01       		.byte	0x1
 524 0011 F4020000 		.4byte	.LASF88
 525 0015 A5030000 		.4byte	.LASF89
 526 0019 F0000000 		.4byte	.Ldebug_ranges0+0xf0
 527 001d 00000000 		.4byte	0
 528 0021 00000000 		.4byte	.Ldebug_line0
 529 0025 02       		.uleb128 0x2
 530 0026 04       		.byte	0x4
 531 0027 05       		.byte	0x5
 532 0028 696E7400 		.ascii	"int\000"
 533 002c 03       		.uleb128 0x3
 534 002d 04       		.byte	0x4
 535 002e 07       		.byte	0x7
 536 002f 40040000 		.4byte	.LASF0
 537 0033 03       		.uleb128 0x3
 538 0034 01       		.byte	0x1
 539 0035 06       		.byte	0x6
 540 0036 69020000 		.4byte	.LASF1
 541 003a 03       		.uleb128 0x3
 542 003b 01       		.byte	0x1
 543 003c 08       		.byte	0x8
 544 003d 53020000 		.4byte	.LASF2
 545 0041 03       		.uleb128 0x3
 546 0042 02       		.byte	0x2
 547 0043 05       		.byte	0x5
 548 0044 5B000000 		.4byte	.LASF3
 549 0048 04       		.uleb128 0x4
 550 0049 7E010000 		.4byte	.LASF5
 551 004d 02       		.byte	0x2
 552 004e 26       		.byte	0x26
 553 004f 53000000 		.4byte	0x53
 554 0053 03       		.uleb128 0x3
 555 0054 02       		.byte	0x2
 556 0055 07       		.byte	0x7
 557 0056 D2020000 		.4byte	.LASF4
 558 005a 04       		.uleb128 0x4
 559 005b 2A030000 		.4byte	.LASF6
 560 005f 02       		.byte	0x2
 561 0060 37       		.byte	0x37
 562 0061 65000000 		.4byte	0x65
 563 0065 03       		.uleb128 0x3
 564 0066 04       		.byte	0x4
 565 0067 05       		.byte	0x5
 566 0068 09020000 		.4byte	.LASF7
 567 006c 04       		.uleb128 0x4
 568 006d 65010000 		.4byte	.LASF8
 569 0071 02       		.byte	0x2
ARM GAS  /tmp/ccO0nVgp.s 			page 11


 570 0072 38       		.byte	0x38
 571 0073 77000000 		.4byte	0x77
 572 0077 03       		.uleb128 0x3
 573 0078 04       		.byte	0x4
 574 0079 07       		.byte	0x7
 575 007a AE020000 		.4byte	.LASF9
 576 007e 03       		.uleb128 0x3
 577 007f 08       		.byte	0x8
 578 0080 05       		.byte	0x5
 579 0081 ED010000 		.4byte	.LASF10
 580 0085 03       		.uleb128 0x3
 581 0086 08       		.byte	0x8
 582 0087 07       		.byte	0x7
 583 0088 75020000 		.4byte	.LASF11
 584 008c 04       		.uleb128 0x4
 585 008d A5020000 		.4byte	.LASF12
 586 0091 03       		.byte	0x3
 587 0092 36       		.byte	0x36
 588 0093 48000000 		.4byte	0x48
 589 0097 04       		.uleb128 0x4
 590 0098 22030000 		.4byte	.LASF13
 591 009c 03       		.byte	0x3
 592 009d 41       		.byte	0x41
 593 009e 5A000000 		.4byte	0x5a
 594 00a2 04       		.uleb128 0x4
 595 00a3 8C020000 		.4byte	.LASF14
 596 00a7 03       		.byte	0x3
 597 00a8 42       		.byte	0x42
 598 00a9 6C000000 		.4byte	0x6c
 599 00ad 03       		.uleb128 0x3
 600 00ae 01       		.byte	0x1
 601 00af 02       		.byte	0x2
 602 00b0 3E030000 		.4byte	.LASF15
 603 00b4 05       		.uleb128 0x5
 604 00b5 A2000000 		.4byte	0xa2
 605 00b9 03       		.uleb128 0x3
 606 00ba 04       		.byte	0x4
 607 00bb 07       		.byte	0x7
 608 00bc 3F010000 		.4byte	.LASF16
 609 00c0 03       		.uleb128 0x3
 610 00c1 01       		.byte	0x1
 611 00c2 08       		.byte	0x8
 612 00c3 EF020000 		.4byte	.LASF17
 613 00c7 06       		.uleb128 0x6
 614 00c8 A2000000 		.4byte	0xa2
 615 00cc D7000000 		.4byte	0xd7
 616 00d0 07       		.uleb128 0x7
 617 00d1 B9000000 		.4byte	0xb9
 618 00d5 01       		.byte	0x1
 619 00d6 00       		.byte	0
 620 00d7 05       		.uleb128 0x5
 621 00d8 97000000 		.4byte	0x97
 622 00dc 08       		.uleb128 0x8
 623 00dd 90       		.byte	0x90
 624 00de 04       		.byte	0x4
 625 00df 5804     		.2byte	0x458
 626 00e1 85020000 		.4byte	0x285
ARM GAS  /tmp/ccO0nVgp.s 			page 12


 627 00e5 09       		.uleb128 0x9
 628 00e6 435200   		.ascii	"CR\000"
 629 00e9 04       		.byte	0x4
 630 00ea 5A04     		.2byte	0x45a
 631 00ec B4000000 		.4byte	0xb4
 632 00f0 00       		.byte	0
 633 00f1 0A       		.uleb128 0xa
 634 00f2 C5020000 		.4byte	.LASF18
 635 00f6 04       		.byte	0x4
 636 00f7 5B04     		.2byte	0x45b
 637 00f9 B4000000 		.4byte	0xb4
 638 00fd 04       		.byte	0x4
 639 00fe 0A       		.uleb128 0xa
 640 00ff 4D040000 		.4byte	.LASF19
 641 0103 04       		.byte	0x4
 642 0104 5C04     		.2byte	0x45c
 643 0106 B4000000 		.4byte	0xb4
 644 010a 08       		.byte	0x8
 645 010b 09       		.uleb128 0x9
 646 010c 43495200 		.ascii	"CIR\000"
 647 0110 04       		.byte	0x4
 648 0111 5D04     		.2byte	0x45d
 649 0113 B4000000 		.4byte	0xb4
 650 0117 0C       		.byte	0xc
 651 0118 0A       		.uleb128 0xa
 652 0119 96010000 		.4byte	.LASF20
 653 011d 04       		.byte	0x4
 654 011e 5E04     		.2byte	0x45e
 655 0120 B4000000 		.4byte	0xb4
 656 0124 10       		.byte	0x10
 657 0125 0A       		.uleb128 0xa
 658 0126 9C020000 		.4byte	.LASF21
 659 012a 04       		.byte	0x4
 660 012b 5F04     		.2byte	0x45f
 661 012d B4000000 		.4byte	0xb4
 662 0131 14       		.byte	0x14
 663 0132 0A       		.uleb128 0xa
 664 0133 1C040000 		.4byte	.LASF22
 665 0137 04       		.byte	0x4
 666 0138 6004     		.2byte	0x460
 667 013a B4000000 		.4byte	0xb4
 668 013e 18       		.byte	0x18
 669 013f 0A       		.uleb128 0xa
 670 0140 5F030000 		.4byte	.LASF23
 671 0144 04       		.byte	0x4
 672 0145 6104     		.2byte	0x461
 673 0147 A2000000 		.4byte	0xa2
 674 014b 1C       		.byte	0x1c
 675 014c 0A       		.uleb128 0xa
 676 014d 27000000 		.4byte	.LASF24
 677 0151 04       		.byte	0x4
 678 0152 6204     		.2byte	0x462
 679 0154 B4000000 		.4byte	0xb4
 680 0158 20       		.byte	0x20
 681 0159 0A       		.uleb128 0xa
 682 015a 2B020000 		.4byte	.LASF25
 683 015e 04       		.byte	0x4
ARM GAS  /tmp/ccO0nVgp.s 			page 13


 684 015f 6304     		.2byte	0x463
 685 0161 B4000000 		.4byte	0xb4
 686 0165 24       		.byte	0x24
 687 0166 0A       		.uleb128 0xa
 688 0167 69030000 		.4byte	.LASF26
 689 016b 04       		.byte	0x4
 690 016c 6404     		.2byte	0x464
 691 016e C7000000 		.4byte	0xc7
 692 0172 28       		.byte	0x28
 693 0173 0A       		.uleb128 0xa
 694 0174 EC030000 		.4byte	.LASF27
 695 0178 04       		.byte	0x4
 696 0179 6504     		.2byte	0x465
 697 017b B4000000 		.4byte	0xb4
 698 017f 30       		.byte	0x30
 699 0180 0A       		.uleb128 0xa
 700 0181 30000000 		.4byte	.LASF28
 701 0185 04       		.byte	0x4
 702 0186 6604     		.2byte	0x466
 703 0188 B4000000 		.4byte	0xb4
 704 018c 34       		.byte	0x34
 705 018d 0A       		.uleb128 0xa
 706 018e DD010000 		.4byte	.LASF29
 707 0192 04       		.byte	0x4
 708 0193 6704     		.2byte	0x467
 709 0195 B4000000 		.4byte	0xb4
 710 0199 38       		.byte	0x38
 711 019a 0A       		.uleb128 0xa
 712 019b 73030000 		.4byte	.LASF30
 713 019f 04       		.byte	0x4
 714 01a0 6804     		.2byte	0x468
 715 01a2 A2000000 		.4byte	0xa2
 716 01a6 3C       		.byte	0x3c
 717 01a7 0A       		.uleb128 0xa
 718 01a8 B9010000 		.4byte	.LASF31
 719 01ac 04       		.byte	0x4
 720 01ad 6904     		.2byte	0x469
 721 01af B4000000 		.4byte	0xb4
 722 01b3 40       		.byte	0x40
 723 01b4 0A       		.uleb128 0xa
 724 01b5 61020000 		.4byte	.LASF32
 725 01b9 04       		.byte	0x4
 726 01ba 6A04     		.2byte	0x46a
 727 01bc B4000000 		.4byte	0xb4
 728 01c0 44       		.byte	0x44
 729 01c1 0A       		.uleb128 0xa
 730 01c2 7D030000 		.4byte	.LASF33
 731 01c6 04       		.byte	0x4
 732 01c7 6B04     		.2byte	0x46b
 733 01c9 C7000000 		.4byte	0xc7
 734 01cd 48       		.byte	0x48
 735 01ce 0A       		.uleb128 0xa
 736 01cf 00000000 		.4byte	.LASF34
 737 01d3 04       		.byte	0x4
 738 01d4 6C04     		.2byte	0x46c
 739 01d6 B4000000 		.4byte	0xb4
 740 01da 50       		.byte	0x50
ARM GAS  /tmp/ccO0nVgp.s 			page 14


 741 01db 0A       		.uleb128 0xa
 742 01dc 49030000 		.4byte	.LASF35
 743 01e0 04       		.byte	0x4
 744 01e1 6D04     		.2byte	0x46d
 745 01e3 B4000000 		.4byte	0xb4
 746 01e7 54       		.byte	0x54
 747 01e8 0A       		.uleb128 0xa
 748 01e9 AF010000 		.4byte	.LASF36
 749 01ed 04       		.byte	0x4
 750 01ee 6E04     		.2byte	0x46e
 751 01f0 B4000000 		.4byte	0xb4
 752 01f4 58       		.byte	0x58
 753 01f5 0A       		.uleb128 0xa
 754 01f6 87030000 		.4byte	.LASF37
 755 01fa 04       		.byte	0x4
 756 01fb 6F04     		.2byte	0x46f
 757 01fd A2000000 		.4byte	0xa2
 758 0201 5C       		.byte	0x5c
 759 0202 0A       		.uleb128 0xa
 760 0203 E5020000 		.4byte	.LASF38
 761 0207 04       		.byte	0x4
 762 0208 7004     		.2byte	0x470
 763 020a B4000000 		.4byte	0xb4
 764 020e 60       		.byte	0x60
 765 020f 0A       		.uleb128 0xa
 766 0210 62040000 		.4byte	.LASF39
 767 0214 04       		.byte	0x4
 768 0215 7104     		.2byte	0x471
 769 0217 B4000000 		.4byte	0xb4
 770 021b 64       		.byte	0x64
 771 021c 0A       		.uleb128 0xa
 772 021d 91030000 		.4byte	.LASF40
 773 0221 04       		.byte	0x4
 774 0222 7204     		.2byte	0x472
 775 0224 C7000000 		.4byte	0xc7
 776 0228 68       		.byte	0x68
 777 0229 0A       		.uleb128 0xa
 778 022a 48010000 		.4byte	.LASF41
 779 022e 04       		.byte	0x4
 780 022f 7304     		.2byte	0x473
 781 0231 B4000000 		.4byte	0xb4
 782 0235 70       		.byte	0x70
 783 0236 09       		.uleb128 0x9
 784 0237 43535200 		.ascii	"CSR\000"
 785 023b 04       		.byte	0x4
 786 023c 7404     		.2byte	0x474
 787 023e B4000000 		.4byte	0xb4
 788 0242 74       		.byte	0x74
 789 0243 0A       		.uleb128 0xa
 790 0244 9B030000 		.4byte	.LASF42
 791 0248 04       		.byte	0x4
 792 0249 7504     		.2byte	0x475
 793 024b C7000000 		.4byte	0xc7
 794 024f 78       		.byte	0x78
 795 0250 0A       		.uleb128 0xa
 796 0251 89010000 		.4byte	.LASF43
 797 0255 04       		.byte	0x4
ARM GAS  /tmp/ccO0nVgp.s 			page 15


 798 0256 7604     		.2byte	0x476
 799 0258 B4000000 		.4byte	0xb4
 800 025c 80       		.byte	0x80
 801 025d 0A       		.uleb128 0xa
 802 025e 54010000 		.4byte	.LASF44
 803 0262 04       		.byte	0x4
 804 0263 7704     		.2byte	0x477
 805 0265 B4000000 		.4byte	0xb4
 806 0269 84       		.byte	0x84
 807 026a 0A       		.uleb128 0xa
 808 026b 52040000 		.4byte	.LASF45
 809 026f 04       		.byte	0x4
 810 0270 7804     		.2byte	0x478
 811 0272 B4000000 		.4byte	0xb4
 812 0276 88       		.byte	0x88
 813 0277 0A       		.uleb128 0xa
 814 0278 D5010000 		.4byte	.LASF46
 815 027c 04       		.byte	0x4
 816 027d 7904     		.2byte	0x479
 817 027f B4000000 		.4byte	0xb4
 818 0283 8C       		.byte	0x8c
 819 0284 00       		.byte	0
 820 0285 0B       		.uleb128 0xb
 821 0286 19020000 		.4byte	.LASF47
 822 028a 04       		.byte	0x4
 823 028b 7B04     		.2byte	0x47b
 824 028d DC000000 		.4byte	0xdc
 825 0291 0C       		.uleb128 0xc
 826 0292 04       		.byte	0x4
 827 0293 05       		.byte	0x5
 828 0294 96       		.byte	0x96
 829 0295 B2020000 		.4byte	0x2b2
 830 0299 0D       		.uleb128 0xd
 831 029a 73657400 		.ascii	"set\000"
 832 029e 05       		.byte	0x5
 833 029f 97       		.byte	0x97
 834 02a0 8C000000 		.4byte	0x8c
 835 02a4 00       		.byte	0
 836 02a5 0E       		.uleb128 0xe
 837 02a6 34020000 		.4byte	.LASF48
 838 02aa 05       		.byte	0x5
 839 02ab 98       		.byte	0x98
 840 02ac 8C000000 		.4byte	0x8c
 841 02b0 02       		.byte	0x2
 842 02b1 00       		.byte	0
 843 02b2 0F       		.uleb128 0xf
 844 02b3 04       		.byte	0x4
 845 02b4 05       		.byte	0x5
 846 02b5 94       		.byte	0x94
 847 02b6 CD020000 		.4byte	0x2cd
 848 02ba 10       		.uleb128 0x10
 849 02bb 5700     		.ascii	"W\000"
 850 02bd 05       		.byte	0x5
 851 02be 95       		.byte	0x95
 852 02bf A2000000 		.4byte	0xa2
 853 02c3 10       		.uleb128 0x10
 854 02c4 4800     		.ascii	"H\000"
ARM GAS  /tmp/ccO0nVgp.s 			page 16


 855 02c6 05       		.byte	0x5
 856 02c7 99       		.byte	0x99
 857 02c8 91020000 		.4byte	0x291
 858 02cc 00       		.byte	0
 859 02cd 0C       		.uleb128 0xc
 860 02ce 28       		.byte	0x28
 861 02cf 05       		.byte	0x5
 862 02d0 8C       		.byte	0x8c
 863 02d1 4E030000 		.4byte	0x34e
 864 02d5 0E       		.uleb128 0xe
 865 02d6 25020000 		.4byte	.LASF49
 866 02da 05       		.byte	0x5
 867 02db 8E       		.byte	0x8e
 868 02dc B4000000 		.4byte	0xb4
 869 02e0 00       		.byte	0
 870 02e1 0E       		.uleb128 0xe
 871 02e2 CE010000 		.4byte	.LASF50
 872 02e6 05       		.byte	0x5
 873 02e7 8F       		.byte	0x8f
 874 02e8 B4000000 		.4byte	0xb4
 875 02ec 04       		.byte	0x4
 876 02ed 0E       		.uleb128 0xe
 877 02ee E5010000 		.4byte	.LASF51
 878 02f2 05       		.byte	0x5
 879 02f3 90       		.byte	0x90
 880 02f4 B4000000 		.4byte	0xb4
 881 02f8 08       		.byte	0x8
 882 02f9 0E       		.uleb128 0xe
 883 02fa FB010000 		.4byte	.LASF52
 884 02fe 05       		.byte	0x5
 885 02ff 91       		.byte	0x91
 886 0300 B4000000 		.4byte	0xb4
 887 0304 0C       		.byte	0xc
 888 0305 0D       		.uleb128 0xd
 889 0306 49445200 		.ascii	"IDR\000"
 890 030a 05       		.byte	0x5
 891 030b 92       		.byte	0x92
 892 030c B4000000 		.4byte	0xb4
 893 0310 10       		.byte	0x10
 894 0311 0D       		.uleb128 0xd
 895 0312 4F445200 		.ascii	"ODR\000"
 896 0316 05       		.byte	0x5
 897 0317 93       		.byte	0x93
 898 0318 B4000000 		.4byte	0xb4
 899 031c 14       		.byte	0x14
 900 031d 0E       		.uleb128 0xe
 901 031e 6C040000 		.4byte	.LASF53
 902 0322 05       		.byte	0x5
 903 0323 9A       		.byte	0x9a
 904 0324 4E030000 		.4byte	0x34e
 905 0328 18       		.byte	0x18
 906 0329 0E       		.uleb128 0xe
 907 032a 5D040000 		.4byte	.LASF54
 908 032e 05       		.byte	0x5
 909 032f 9B       		.byte	0x9b
 910 0330 B4000000 		.4byte	0xb4
 911 0334 1C       		.byte	0x1c
ARM GAS  /tmp/ccO0nVgp.s 			page 17


 912 0335 0E       		.uleb128 0xe
 913 0336 CD020000 		.4byte	.LASF55
 914 033a 05       		.byte	0x5
 915 033b 9C       		.byte	0x9c
 916 033c B4000000 		.4byte	0xb4
 917 0340 20       		.byte	0x20
 918 0341 0E       		.uleb128 0xe
 919 0342 C0020000 		.4byte	.LASF56
 920 0346 05       		.byte	0x5
 921 0347 9D       		.byte	0x9d
 922 0348 B4000000 		.4byte	0xb4
 923 034c 24       		.byte	0x24
 924 034d 00       		.byte	0
 925 034e 05       		.uleb128 0x5
 926 034f B2020000 		.4byte	0x2b2
 927 0353 04       		.uleb128 0x4
 928 0354 0F040000 		.4byte	.LASF57
 929 0358 05       		.byte	0x5
 930 0359 9E       		.byte	0x9e
 931 035a CD020000 		.4byte	0x2cd
 932 035e 0C       		.uleb128 0xc
 933 035f 1C       		.byte	0x1c
 934 0360 05       		.byte	0x5
 935 0361 A3       		.byte	0xa3
 936 0362 BB030000 		.4byte	0x3bb
 937 0366 0E       		.uleb128 0xe
 938 0367 09040000 		.4byte	.LASF58
 939 036b 05       		.byte	0x5
 940 036c A5       		.byte	0xa5
 941 036d A2000000 		.4byte	0xa2
 942 0371 00       		.byte	0
 943 0372 0E       		.uleb128 0xe
 944 0373 95020000 		.4byte	.LASF59
 945 0377 05       		.byte	0x5
 946 0378 A7       		.byte	0xa7
 947 0379 A2000000 		.4byte	0xa2
 948 037d 04       		.byte	0x4
 949 037e 0E       		.uleb128 0xe
 950 037f 01020000 		.4byte	.LASF60
 951 0383 05       		.byte	0x5
 952 0384 A9       		.byte	0xa9
 953 0385 A2000000 		.4byte	0xa2
 954 0389 08       		.byte	0x8
 955 038a 0E       		.uleb128 0xe
 956 038b F9030000 		.4byte	.LASF61
 957 038f 05       		.byte	0x5
 958 0390 AB       		.byte	0xab
 959 0391 A2000000 		.4byte	0xa2
 960 0395 0C       		.byte	0xc
 961 0396 0D       		.uleb128 0xd
 962 0397 6F647200 		.ascii	"odr\000"
 963 039b 05       		.byte	0x5
 964 039c AD       		.byte	0xad
 965 039d A2000000 		.4byte	0xa2
 966 03a1 10       		.byte	0x10
 967 03a2 0E       		.uleb128 0xe
 968 03a3 04040000 		.4byte	.LASF62
ARM GAS  /tmp/ccO0nVgp.s 			page 18


 969 03a7 05       		.byte	0x5
 970 03a8 AF       		.byte	0xaf
 971 03a9 A2000000 		.4byte	0xa2
 972 03ad 14       		.byte	0x14
 973 03ae 0E       		.uleb128 0xe
 974 03af FF030000 		.4byte	.LASF63
 975 03b3 05       		.byte	0x5
 976 03b4 B1       		.byte	0xb1
 977 03b5 A2000000 		.4byte	0xa2
 978 03b9 18       		.byte	0x18
 979 03ba 00       		.byte	0
 980 03bb 04       		.uleb128 0x4
 981 03bc 38000000 		.4byte	.LASF64
 982 03c0 05       		.byte	0x5
 983 03c1 B2       		.byte	0xb2
 984 03c2 5E030000 		.4byte	0x35e
 985 03c6 0C       		.uleb128 0xc
 986 03c7 FC       		.byte	0xfc
 987 03c8 05       		.byte	0x5
 988 03c9 BB       		.byte	0xbb
 989 03ca 3B040000 		.4byte	0x43b
 990 03ce 0E       		.uleb128 0xe
 991 03cf 41020000 		.4byte	.LASF65
 992 03d3 05       		.byte	0x5
 993 03d4 BE       		.byte	0xbe
 994 03d5 BB030000 		.4byte	0x3bb
 995 03d9 00       		.byte	0
 996 03da 0E       		.uleb128 0xe
 997 03db 8F010000 		.4byte	.LASF66
 998 03df 05       		.byte	0x5
 999 03e0 C2       		.byte	0xc2
 1000 03e1 BB030000 		.4byte	0x3bb
 1001 03e5 1C       		.byte	0x1c
 1002 03e6 0E       		.uleb128 0xe
 1003 03e7 0A000000 		.4byte	.LASF67
 1004 03eb 05       		.byte	0x5
 1005 03ec C6       		.byte	0xc6
 1006 03ed BB030000 		.4byte	0x3bb
 1007 03f1 38       		.byte	0x38
 1008 03f2 0E       		.uleb128 0xe
 1009 03f3 12020000 		.4byte	.LASF68
 1010 03f7 05       		.byte	0x5
 1011 03f8 CA       		.byte	0xca
 1012 03f9 BB030000 		.4byte	0x3bb
 1013 03fd 54       		.byte	0x54
 1014 03fe 0E       		.uleb128 0xe
 1015 03ff 58030000 		.4byte	.LASF69
 1016 0403 05       		.byte	0x5
 1017 0404 CE       		.byte	0xce
 1018 0405 BB030000 		.4byte	0x3bb
 1019 0409 70       		.byte	0x70
 1020 040a 0E       		.uleb128 0xe
 1021 040b 4B000000 		.4byte	.LASF70
 1022 040f 05       		.byte	0x5
 1023 0410 D2       		.byte	0xd2
 1024 0411 BB030000 		.4byte	0x3bb
 1025 0415 8C       		.byte	0x8c
ARM GAS  /tmp/ccO0nVgp.s 			page 19


 1026 0416 0E       		.uleb128 0xe
 1027 0417 3A020000 		.4byte	.LASF71
 1028 041b 05       		.byte	0x5
 1029 041c D6       		.byte	0xd6
 1030 041d BB030000 		.4byte	0x3bb
 1031 0421 A8       		.byte	0xa8
 1032 0422 0E       		.uleb128 0xe
 1033 0423 E5030000 		.4byte	.LASF72
 1034 0427 05       		.byte	0x5
 1035 0428 DA       		.byte	0xda
 1036 0429 BB030000 		.4byte	0x3bb
 1037 042d C4       		.byte	0xc4
 1038 042e 0E       		.uleb128 0xe
 1039 042f 4D010000 		.4byte	.LASF73
 1040 0433 05       		.byte	0x5
 1041 0434 DE       		.byte	0xde
 1042 0435 BB030000 		.4byte	0x3bb
 1043 0439 E0       		.byte	0xe0
 1044 043a 00       		.byte	0
 1045 043b 04       		.uleb128 0x4
 1046 043c 34030000 		.4byte	.LASF74
 1047 0440 05       		.byte	0x5
 1048 0441 E0       		.byte	0xe0
 1049 0442 C6030000 		.4byte	0x3c6
 1050 0446 04       		.uleb128 0x4
 1051 0447 C1010000 		.4byte	.LASF75
 1052 044b 05       		.byte	0x5
 1053 044c F0       		.byte	0xf0
 1054 044d A2000000 		.4byte	0xa2
 1055 0451 04       		.uleb128 0x4
 1056 0452 A6010000 		.4byte	.LASF76
 1057 0456 05       		.byte	0x5
 1058 0457 F5       		.byte	0xf5
 1059 0458 A2000000 		.4byte	0xa2
 1060 045c 04       		.uleb128 0x4
 1061 045d 48020000 		.4byte	.LASF77
 1062 0461 05       		.byte	0x5
 1063 0462 FD       		.byte	0xfd
 1064 0463 67040000 		.4byte	0x467
 1065 0467 11       		.uleb128 0x11
 1066 0468 04       		.byte	0x4
 1067 0469 53030000 		.4byte	0x353
 1068 046d 12       		.uleb128 0x12
 1069 046e 52000000 		.4byte	.LASF90
 1070 0472 01       		.byte	0x1
 1071 0473 56       		.byte	0x56
 1072 0474 01       		.byte	0x1
 1073 0475 90040000 		.4byte	0x490
 1074 0479 13       		.uleb128 0x13
 1075 047a 5F010000 		.4byte	.LASF78
 1076 047e 01       		.byte	0x1
 1077 047f 56       		.byte	0x56
 1078 0480 67040000 		.4byte	0x467
 1079 0484 13       		.uleb128 0x13
 1080 0485 9F010000 		.4byte	.LASF79
 1081 0489 01       		.byte	0x1
 1082 048a 56       		.byte	0x56
ARM GAS  /tmp/ccO0nVgp.s 			page 20


 1083 048b 90040000 		.4byte	0x490
 1084 048f 00       		.byte	0
 1085 0490 11       		.uleb128 0x11
 1086 0491 04       		.byte	0x4
 1087 0492 96040000 		.4byte	0x496
 1088 0496 14       		.uleb128 0x14
 1089 0497 BB030000 		.4byte	0x3bb
 1090 049b 15       		.uleb128 0x15
 1091 049c 70010000 		.4byte	.LASF80
 1092 04a0 01       		.byte	0x1
 1093 04a1 71       		.byte	0x71
 1094 04a2 00000000 		.4byte	.LFB119
 1095 04a6 C0010000 		.4byte	.LFE119-.LFB119
 1096 04aa 01       		.uleb128 0x1
 1097 04ab 9C       		.byte	0x9c
 1098 04ac 14060000 		.4byte	0x614
 1099 04b0 16       		.uleb128 0x16
 1100 04b1 9F010000 		.4byte	.LASF79
 1101 04b5 01       		.byte	0x1
 1102 04b6 71       		.byte	0x71
 1103 04b7 14060000 		.4byte	0x614
 1104 04bb 01       		.uleb128 0x1
 1105 04bc 50       		.byte	0x50
 1106 04bd 17       		.uleb128 0x17
 1107 04be 6D040000 		.4byte	0x46d
 1108 04c2 08000000 		.4byte	.LBB20
 1109 04c6 00000000 		.4byte	.Ldebug_ranges0+0
 1110 04ca 01       		.byte	0x1
 1111 04cb 86       		.byte	0x86
 1112 04cc E1040000 		.4byte	0x4e1
 1113 04d0 18       		.uleb128 0x18
 1114 04d1 84040000 		.4byte	0x484
 1115 04d5 01       		.uleb128 0x1
 1116 04d6 50       		.byte	0x50
 1117 04d7 19       		.uleb128 0x19
 1118 04d8 79040000 		.4byte	0x479
 1119 04dc 00000240 		.4byte	0x40020000
 1120 04e0 00       		.byte	0
 1121 04e1 17       		.uleb128 0x17
 1122 04e2 6D040000 		.4byte	0x46d
 1123 04e6 10000000 		.4byte	.LBB23
 1124 04ea 18000000 		.4byte	.Ldebug_ranges0+0x18
 1125 04ee 01       		.byte	0x1
 1126 04ef 89       		.byte	0x89
 1127 04f0 07050000 		.4byte	0x507
 1128 04f4 18       		.uleb128 0x18
 1129 04f5 84040000 		.4byte	0x484
 1130 04f9 03       		.uleb128 0x3
 1131 04fa 70       		.byte	0x70
 1132 04fb 1C       		.sleb128 28
 1133 04fc 9F       		.byte	0x9f
 1134 04fd 19       		.uleb128 0x19
 1135 04fe 79040000 		.4byte	0x479
 1136 0502 00040240 		.4byte	0x40020400
 1137 0506 00       		.byte	0
 1138 0507 17       		.uleb128 0x17
 1139 0508 6D040000 		.4byte	0x46d
ARM GAS  /tmp/ccO0nVgp.s 			page 21


 1140 050c 14000000 		.4byte	.LBB26
 1141 0510 30000000 		.4byte	.Ldebug_ranges0+0x30
 1142 0514 01       		.byte	0x1
 1143 0515 8C       		.byte	0x8c
 1144 0516 2D050000 		.4byte	0x52d
 1145 051a 18       		.uleb128 0x18
 1146 051b 84040000 		.4byte	0x484
 1147 051f 03       		.uleb128 0x3
 1148 0520 70       		.byte	0x70
 1149 0521 38       		.sleb128 56
 1150 0522 9F       		.byte	0x9f
 1151 0523 19       		.uleb128 0x19
 1152 0524 79040000 		.4byte	0x479
 1153 0528 00080240 		.4byte	0x40020800
 1154 052c 00       		.byte	0
 1155 052d 17       		.uleb128 0x17
 1156 052e 6D040000 		.4byte	0x46d
 1157 0532 16000000 		.4byte	.LBB29
 1158 0536 48000000 		.4byte	.Ldebug_ranges0+0x48
 1159 053a 01       		.byte	0x1
 1160 053b 8F       		.byte	0x8f
 1161 053c 54050000 		.4byte	0x554
 1162 0540 18       		.uleb128 0x18
 1163 0541 84040000 		.4byte	0x484
 1164 0545 04       		.uleb128 0x4
 1165 0546 70       		.byte	0x70
 1166 0547 D400     		.sleb128 84
 1167 0549 9F       		.byte	0x9f
 1168 054a 19       		.uleb128 0x19
 1169 054b 79040000 		.4byte	0x479
 1170 054f 000C0240 		.4byte	0x40020c00
 1171 0553 00       		.byte	0
 1172 0554 17       		.uleb128 0x17
 1173 0555 6D040000 		.4byte	0x46d
 1174 0559 18000000 		.4byte	.LBB32
 1175 055d 60000000 		.4byte	.Ldebug_ranges0+0x60
 1176 0561 01       		.byte	0x1
 1177 0562 92       		.byte	0x92
 1178 0563 7B050000 		.4byte	0x57b
 1179 0567 18       		.uleb128 0x18
 1180 0568 84040000 		.4byte	0x484
 1181 056c 04       		.uleb128 0x4
 1182 056d 70       		.byte	0x70
 1183 056e F000     		.sleb128 112
 1184 0570 9F       		.byte	0x9f
 1185 0571 19       		.uleb128 0x19
 1186 0572 79040000 		.4byte	0x479
 1187 0576 00100240 		.4byte	0x40021000
 1188 057a 00       		.byte	0
 1189 057b 17       		.uleb128 0x17
 1190 057c 6D040000 		.4byte	0x46d
 1191 0580 1A000000 		.4byte	.LBB35
 1192 0584 78000000 		.4byte	.Ldebug_ranges0+0x78
 1193 0588 01       		.byte	0x1
 1194 0589 95       		.byte	0x95
 1195 058a A2050000 		.4byte	0x5a2
 1196 058e 18       		.uleb128 0x18
ARM GAS  /tmp/ccO0nVgp.s 			page 22


 1197 058f 84040000 		.4byte	0x484
 1198 0593 04       		.uleb128 0x4
 1199 0594 70       		.byte	0x70
 1200 0595 8C01     		.sleb128 140
 1201 0597 9F       		.byte	0x9f
 1202 0598 19       		.uleb128 0x19
 1203 0599 79040000 		.4byte	0x479
 1204 059d 00140240 		.4byte	0x40021400
 1205 05a1 00       		.byte	0
 1206 05a2 17       		.uleb128 0x17
 1207 05a3 6D040000 		.4byte	0x46d
 1208 05a7 1C000000 		.4byte	.LBB38
 1209 05ab 90000000 		.4byte	.Ldebug_ranges0+0x90
 1210 05af 01       		.byte	0x1
 1211 05b0 98       		.byte	0x98
 1212 05b1 C9050000 		.4byte	0x5c9
 1213 05b5 18       		.uleb128 0x18
 1214 05b6 84040000 		.4byte	0x484
 1215 05ba 04       		.uleb128 0x4
 1216 05bb 70       		.byte	0x70
 1217 05bc A801     		.sleb128 168
 1218 05be 9F       		.byte	0x9f
 1219 05bf 19       		.uleb128 0x19
 1220 05c0 79040000 		.4byte	0x479
 1221 05c4 00180240 		.4byte	0x40021800
 1222 05c8 00       		.byte	0
 1223 05c9 17       		.uleb128 0x17
 1224 05ca 6D040000 		.4byte	0x46d
 1225 05ce 1E000000 		.4byte	.LBB41
 1226 05d2 A8000000 		.4byte	.Ldebug_ranges0+0xa8
 1227 05d6 01       		.byte	0x1
 1228 05d7 9B       		.byte	0x9b
 1229 05d8 F0050000 		.4byte	0x5f0
 1230 05dc 18       		.uleb128 0x18
 1231 05dd 84040000 		.4byte	0x484
 1232 05e1 04       		.uleb128 0x4
 1233 05e2 70       		.byte	0x70
 1234 05e3 C401     		.sleb128 196
 1235 05e5 9F       		.byte	0x9f
 1236 05e6 19       		.uleb128 0x19
 1237 05e7 79040000 		.4byte	0x479
 1238 05eb 001C0240 		.4byte	0x40021c00
 1239 05ef 00       		.byte	0
 1240 05f0 1A       		.uleb128 0x1a
 1241 05f1 6D040000 		.4byte	0x46d
 1242 05f5 64010000 		.4byte	.LBB52
 1243 05f9 2C000000 		.4byte	.LBE52-.LBB52
 1244 05fd 01       		.byte	0x1
 1245 05fe 9E       		.byte	0x9e
 1246 05ff 18       		.uleb128 0x18
 1247 0600 84040000 		.4byte	0x484
 1248 0604 04       		.uleb128 0x4
 1249 0605 70       		.byte	0x70
 1250 0606 E001     		.sleb128 224
 1251 0608 9F       		.byte	0x9f
 1252 0609 19       		.uleb128 0x19
 1253 060a 79040000 		.4byte	0x479
ARM GAS  /tmp/ccO0nVgp.s 			page 23


 1254 060e 00200240 		.4byte	0x40022000
 1255 0612 00       		.byte	0
 1256 0613 00       		.byte	0
 1257 0614 11       		.uleb128 0x11
 1258 0615 04       		.byte	0x4
 1259 0616 1A060000 		.4byte	0x61a
 1260 061a 14       		.uleb128 0x14
 1261 061b 3B040000 		.4byte	0x43b
 1262 061f 15       		.uleb128 0x15
 1263 0620 11000000 		.4byte	.LASF81
 1264 0624 01       		.byte	0x1
 1265 0625 B0       		.byte	0xb0
 1266 0626 00000000 		.4byte	.LFB120
 1267 062a C8000000 		.4byte	.LFE120-.LFB120
 1268 062e 01       		.uleb128 0x1
 1269 062f 9C       		.byte	0x9c
 1270 0630 F7060000 		.4byte	0x6f7
 1271 0634 16       		.uleb128 0x16
 1272 0635 53030000 		.4byte	.LASF82
 1273 0639 01       		.byte	0x1
 1274 063a B0       		.byte	0xb0
 1275 063b 5C040000 		.4byte	0x45c
 1276 063f 01       		.uleb128 0x1
 1277 0640 50       		.byte	0x50
 1278 0641 1B       		.uleb128 0x1b
 1279 0642 F4030000 		.4byte	.LASF83
 1280 0646 01       		.byte	0x1
 1281 0647 B1       		.byte	0xb1
 1282 0648 46040000 		.4byte	0x446
 1283 064c 00000000 		.4byte	.LLST0
 1284 0650 1B       		.uleb128 0x1b
 1285 0651 44030000 		.4byte	.LASF84
 1286 0655 01       		.byte	0x1
 1287 0656 B2       		.byte	0xb2
 1288 0657 51040000 		.4byte	0x451
 1289 065b 2D000000 		.4byte	.LLST1
 1290 065f 1C       		.uleb128 0x1c
 1291 0660 09040000 		.4byte	.LASF58
 1292 0664 01       		.byte	0x1
 1293 0665 B4       		.byte	0xb4
 1294 0666 A2000000 		.4byte	0xa2
 1295 066a 4E000000 		.4byte	.LLST2
 1296 066e 1C       		.uleb128 0x1c
 1297 066f 95020000 		.4byte	.LASF59
 1298 0673 01       		.byte	0x1
 1299 0674 B5       		.byte	0xb5
 1300 0675 A2000000 		.4byte	0xa2
 1301 0679 61000000 		.4byte	.LLST3
 1302 067d 1C       		.uleb128 0x1c
 1303 067e 01020000 		.4byte	.LASF60
 1304 0682 01       		.byte	0x1
 1305 0683 B6       		.byte	0xb6
 1306 0684 A2000000 		.4byte	0xa2
 1307 0688 74000000 		.4byte	.LLST4
 1308 068c 1C       		.uleb128 0x1c
 1309 068d F9030000 		.4byte	.LASF61
 1310 0691 01       		.byte	0x1
ARM GAS  /tmp/ccO0nVgp.s 			page 24


 1311 0692 B7       		.byte	0xb7
 1312 0693 A2000000 		.4byte	0xa2
 1313 0697 87000000 		.4byte	.LLST5
 1314 069b 1D       		.uleb128 0x1d
 1315 069c 25040000 		.4byte	.LASF85
 1316 06a0 01       		.byte	0x1
 1317 06a1 B8       		.byte	0xb8
 1318 06a2 A2000000 		.4byte	0xa2
 1319 06a6 01       		.uleb128 0x1
 1320 06a7 52       		.byte	0x52
 1321 06a8 1E       		.uleb128 0x1e
 1322 06a9 62697400 		.ascii	"bit\000"
 1323 06ad 01       		.byte	0x1
 1324 06ae B9       		.byte	0xb9
 1325 06af A2000000 		.4byte	0xa2
 1326 06b3 9A000000 		.4byte	.LLST6
 1327 06b7 1F       		.uleb128 0x1f
 1328 06b8 C0000000 		.4byte	.Ldebug_ranges0+0xc0
 1329 06bc 1C       		.uleb128 0x1c
 1330 06bd 37040000 		.4byte	.LASF86
 1331 06c1 01       		.byte	0x1
 1332 06c2 BC       		.byte	0xbc
 1333 06c3 A2000000 		.4byte	0xa2
 1334 06c7 B9000000 		.4byte	.LLST7
 1335 06cb 1E       		.uleb128 0x1e
 1336 06cc 6D3100   		.ascii	"m1\000"
 1337 06cf 01       		.byte	0x1
 1338 06d0 BC       		.byte	0xbc
 1339 06d1 A2000000 		.4byte	0xa2
 1340 06d5 FF000000 		.4byte	.LLST8
 1341 06d9 1E       		.uleb128 0x1e
 1342 06da 6D3200   		.ascii	"m2\000"
 1343 06dd 01       		.byte	0x1
 1344 06de BC       		.byte	0xbc
 1345 06df A2000000 		.4byte	0xa2
 1346 06e3 16010000 		.4byte	.LLST9
 1347 06e7 1E       		.uleb128 0x1e
 1348 06e8 6D3400   		.ascii	"m4\000"
 1349 06eb 01       		.byte	0x1
 1350 06ec BC       		.byte	0xbc
 1351 06ed A2000000 		.4byte	0xa2
 1352 06f1 59010000 		.4byte	.LLST10
 1353 06f5 00       		.byte	0
 1354 06f6 00       		.byte	0
 1355 06f7 20       		.uleb128 0x20
 1356 06f8 2A040000 		.4byte	.LASF91
 1357 06fc 06       		.byte	0x6
 1358 06fd 9806     		.2byte	0x698
 1359 06ff D7000000 		.4byte	0xd7
 1360 0703 00       		.byte	0
 1361              		.section	.debug_abbrev,"",%progbits
 1362              	.Ldebug_abbrev0:
 1363 0000 01       		.uleb128 0x1
 1364 0001 11       		.uleb128 0x11
 1365 0002 01       		.byte	0x1
 1366 0003 25       		.uleb128 0x25
 1367 0004 0E       		.uleb128 0xe
ARM GAS  /tmp/ccO0nVgp.s 			page 25


 1368 0005 13       		.uleb128 0x13
 1369 0006 0B       		.uleb128 0xb
 1370 0007 03       		.uleb128 0x3
 1371 0008 0E       		.uleb128 0xe
 1372 0009 1B       		.uleb128 0x1b
 1373 000a 0E       		.uleb128 0xe
 1374 000b 55       		.uleb128 0x55
 1375 000c 17       		.uleb128 0x17
 1376 000d 11       		.uleb128 0x11
 1377 000e 01       		.uleb128 0x1
 1378 000f 10       		.uleb128 0x10
 1379 0010 17       		.uleb128 0x17
 1380 0011 00       		.byte	0
 1381 0012 00       		.byte	0
 1382 0013 02       		.uleb128 0x2
 1383 0014 24       		.uleb128 0x24
 1384 0015 00       		.byte	0
 1385 0016 0B       		.uleb128 0xb
 1386 0017 0B       		.uleb128 0xb
 1387 0018 3E       		.uleb128 0x3e
 1388 0019 0B       		.uleb128 0xb
 1389 001a 03       		.uleb128 0x3
 1390 001b 08       		.uleb128 0x8
 1391 001c 00       		.byte	0
 1392 001d 00       		.byte	0
 1393 001e 03       		.uleb128 0x3
 1394 001f 24       		.uleb128 0x24
 1395 0020 00       		.byte	0
 1396 0021 0B       		.uleb128 0xb
 1397 0022 0B       		.uleb128 0xb
 1398 0023 3E       		.uleb128 0x3e
 1399 0024 0B       		.uleb128 0xb
 1400 0025 03       		.uleb128 0x3
 1401 0026 0E       		.uleb128 0xe
 1402 0027 00       		.byte	0
 1403 0028 00       		.byte	0
 1404 0029 04       		.uleb128 0x4
 1405 002a 16       		.uleb128 0x16
 1406 002b 00       		.byte	0
 1407 002c 03       		.uleb128 0x3
 1408 002d 0E       		.uleb128 0xe
 1409 002e 3A       		.uleb128 0x3a
 1410 002f 0B       		.uleb128 0xb
 1411 0030 3B       		.uleb128 0x3b
 1412 0031 0B       		.uleb128 0xb
 1413 0032 49       		.uleb128 0x49
 1414 0033 13       		.uleb128 0x13
 1415 0034 00       		.byte	0
 1416 0035 00       		.byte	0
 1417 0036 05       		.uleb128 0x5
 1418 0037 35       		.uleb128 0x35
 1419 0038 00       		.byte	0
 1420 0039 49       		.uleb128 0x49
 1421 003a 13       		.uleb128 0x13
 1422 003b 00       		.byte	0
 1423 003c 00       		.byte	0
 1424 003d 06       		.uleb128 0x6
ARM GAS  /tmp/ccO0nVgp.s 			page 26


 1425 003e 01       		.uleb128 0x1
 1426 003f 01       		.byte	0x1
 1427 0040 49       		.uleb128 0x49
 1428 0041 13       		.uleb128 0x13
 1429 0042 01       		.uleb128 0x1
 1430 0043 13       		.uleb128 0x13
 1431 0044 00       		.byte	0
 1432 0045 00       		.byte	0
 1433 0046 07       		.uleb128 0x7
 1434 0047 21       		.uleb128 0x21
 1435 0048 00       		.byte	0
 1436 0049 49       		.uleb128 0x49
 1437 004a 13       		.uleb128 0x13
 1438 004b 2F       		.uleb128 0x2f
 1439 004c 0B       		.uleb128 0xb
 1440 004d 00       		.byte	0
 1441 004e 00       		.byte	0
 1442 004f 08       		.uleb128 0x8
 1443 0050 13       		.uleb128 0x13
 1444 0051 01       		.byte	0x1
 1445 0052 0B       		.uleb128 0xb
 1446 0053 0B       		.uleb128 0xb
 1447 0054 3A       		.uleb128 0x3a
 1448 0055 0B       		.uleb128 0xb
 1449 0056 3B       		.uleb128 0x3b
 1450 0057 05       		.uleb128 0x5
 1451 0058 01       		.uleb128 0x1
 1452 0059 13       		.uleb128 0x13
 1453 005a 00       		.byte	0
 1454 005b 00       		.byte	0
 1455 005c 09       		.uleb128 0x9
 1456 005d 0D       		.uleb128 0xd
 1457 005e 00       		.byte	0
 1458 005f 03       		.uleb128 0x3
 1459 0060 08       		.uleb128 0x8
 1460 0061 3A       		.uleb128 0x3a
 1461 0062 0B       		.uleb128 0xb
 1462 0063 3B       		.uleb128 0x3b
 1463 0064 05       		.uleb128 0x5
 1464 0065 49       		.uleb128 0x49
 1465 0066 13       		.uleb128 0x13
 1466 0067 38       		.uleb128 0x38
 1467 0068 0B       		.uleb128 0xb
 1468 0069 00       		.byte	0
 1469 006a 00       		.byte	0
 1470 006b 0A       		.uleb128 0xa
 1471 006c 0D       		.uleb128 0xd
 1472 006d 00       		.byte	0
 1473 006e 03       		.uleb128 0x3
 1474 006f 0E       		.uleb128 0xe
 1475 0070 3A       		.uleb128 0x3a
 1476 0071 0B       		.uleb128 0xb
 1477 0072 3B       		.uleb128 0x3b
 1478 0073 05       		.uleb128 0x5
 1479 0074 49       		.uleb128 0x49
 1480 0075 13       		.uleb128 0x13
 1481 0076 38       		.uleb128 0x38
ARM GAS  /tmp/ccO0nVgp.s 			page 27


 1482 0077 0B       		.uleb128 0xb
 1483 0078 00       		.byte	0
 1484 0079 00       		.byte	0
 1485 007a 0B       		.uleb128 0xb
 1486 007b 16       		.uleb128 0x16
 1487 007c 00       		.byte	0
 1488 007d 03       		.uleb128 0x3
 1489 007e 0E       		.uleb128 0xe
 1490 007f 3A       		.uleb128 0x3a
 1491 0080 0B       		.uleb128 0xb
 1492 0081 3B       		.uleb128 0x3b
 1493 0082 05       		.uleb128 0x5
 1494 0083 49       		.uleb128 0x49
 1495 0084 13       		.uleb128 0x13
 1496 0085 00       		.byte	0
 1497 0086 00       		.byte	0
 1498 0087 0C       		.uleb128 0xc
 1499 0088 13       		.uleb128 0x13
 1500 0089 01       		.byte	0x1
 1501 008a 0B       		.uleb128 0xb
 1502 008b 0B       		.uleb128 0xb
 1503 008c 3A       		.uleb128 0x3a
 1504 008d 0B       		.uleb128 0xb
 1505 008e 3B       		.uleb128 0x3b
 1506 008f 0B       		.uleb128 0xb
 1507 0090 01       		.uleb128 0x1
 1508 0091 13       		.uleb128 0x13
 1509 0092 00       		.byte	0
 1510 0093 00       		.byte	0
 1511 0094 0D       		.uleb128 0xd
 1512 0095 0D       		.uleb128 0xd
 1513 0096 00       		.byte	0
 1514 0097 03       		.uleb128 0x3
 1515 0098 08       		.uleb128 0x8
 1516 0099 3A       		.uleb128 0x3a
 1517 009a 0B       		.uleb128 0xb
 1518 009b 3B       		.uleb128 0x3b
 1519 009c 0B       		.uleb128 0xb
 1520 009d 49       		.uleb128 0x49
 1521 009e 13       		.uleb128 0x13
 1522 009f 38       		.uleb128 0x38
 1523 00a0 0B       		.uleb128 0xb
 1524 00a1 00       		.byte	0
 1525 00a2 00       		.byte	0
 1526 00a3 0E       		.uleb128 0xe
 1527 00a4 0D       		.uleb128 0xd
 1528 00a5 00       		.byte	0
 1529 00a6 03       		.uleb128 0x3
 1530 00a7 0E       		.uleb128 0xe
 1531 00a8 3A       		.uleb128 0x3a
 1532 00a9 0B       		.uleb128 0xb
 1533 00aa 3B       		.uleb128 0x3b
 1534 00ab 0B       		.uleb128 0xb
 1535 00ac 49       		.uleb128 0x49
 1536 00ad 13       		.uleb128 0x13
 1537 00ae 38       		.uleb128 0x38
 1538 00af 0B       		.uleb128 0xb
ARM GAS  /tmp/ccO0nVgp.s 			page 28


 1539 00b0 00       		.byte	0
 1540 00b1 00       		.byte	0
 1541 00b2 0F       		.uleb128 0xf
 1542 00b3 17       		.uleb128 0x17
 1543 00b4 01       		.byte	0x1
 1544 00b5 0B       		.uleb128 0xb
 1545 00b6 0B       		.uleb128 0xb
 1546 00b7 3A       		.uleb128 0x3a
 1547 00b8 0B       		.uleb128 0xb
 1548 00b9 3B       		.uleb128 0x3b
 1549 00ba 0B       		.uleb128 0xb
 1550 00bb 01       		.uleb128 0x1
 1551 00bc 13       		.uleb128 0x13
 1552 00bd 00       		.byte	0
 1553 00be 00       		.byte	0
 1554 00bf 10       		.uleb128 0x10
 1555 00c0 0D       		.uleb128 0xd
 1556 00c1 00       		.byte	0
 1557 00c2 03       		.uleb128 0x3
 1558 00c3 08       		.uleb128 0x8
 1559 00c4 3A       		.uleb128 0x3a
 1560 00c5 0B       		.uleb128 0xb
 1561 00c6 3B       		.uleb128 0x3b
 1562 00c7 0B       		.uleb128 0xb
 1563 00c8 49       		.uleb128 0x49
 1564 00c9 13       		.uleb128 0x13
 1565 00ca 00       		.byte	0
 1566 00cb 00       		.byte	0
 1567 00cc 11       		.uleb128 0x11
 1568 00cd 0F       		.uleb128 0xf
 1569 00ce 00       		.byte	0
 1570 00cf 0B       		.uleb128 0xb
 1571 00d0 0B       		.uleb128 0xb
 1572 00d1 49       		.uleb128 0x49
 1573 00d2 13       		.uleb128 0x13
 1574 00d3 00       		.byte	0
 1575 00d4 00       		.byte	0
 1576 00d5 12       		.uleb128 0x12
 1577 00d6 2E       		.uleb128 0x2e
 1578 00d7 01       		.byte	0x1
 1579 00d8 03       		.uleb128 0x3
 1580 00d9 0E       		.uleb128 0xe
 1581 00da 3A       		.uleb128 0x3a
 1582 00db 0B       		.uleb128 0xb
 1583 00dc 3B       		.uleb128 0x3b
 1584 00dd 0B       		.uleb128 0xb
 1585 00de 27       		.uleb128 0x27
 1586 00df 19       		.uleb128 0x19
 1587 00e0 20       		.uleb128 0x20
 1588 00e1 0B       		.uleb128 0xb
 1589 00e2 01       		.uleb128 0x1
 1590 00e3 13       		.uleb128 0x13
 1591 00e4 00       		.byte	0
 1592 00e5 00       		.byte	0
 1593 00e6 13       		.uleb128 0x13
 1594 00e7 05       		.uleb128 0x5
 1595 00e8 00       		.byte	0
ARM GAS  /tmp/ccO0nVgp.s 			page 29


 1596 00e9 03       		.uleb128 0x3
 1597 00ea 0E       		.uleb128 0xe
 1598 00eb 3A       		.uleb128 0x3a
 1599 00ec 0B       		.uleb128 0xb
 1600 00ed 3B       		.uleb128 0x3b
 1601 00ee 0B       		.uleb128 0xb
 1602 00ef 49       		.uleb128 0x49
 1603 00f0 13       		.uleb128 0x13
 1604 00f1 00       		.byte	0
 1605 00f2 00       		.byte	0
 1606 00f3 14       		.uleb128 0x14
 1607 00f4 26       		.uleb128 0x26
 1608 00f5 00       		.byte	0
 1609 00f6 49       		.uleb128 0x49
 1610 00f7 13       		.uleb128 0x13
 1611 00f8 00       		.byte	0
 1612 00f9 00       		.byte	0
 1613 00fa 15       		.uleb128 0x15
 1614 00fb 2E       		.uleb128 0x2e
 1615 00fc 01       		.byte	0x1
 1616 00fd 3F       		.uleb128 0x3f
 1617 00fe 19       		.uleb128 0x19
 1618 00ff 03       		.uleb128 0x3
 1619 0100 0E       		.uleb128 0xe
 1620 0101 3A       		.uleb128 0x3a
 1621 0102 0B       		.uleb128 0xb
 1622 0103 3B       		.uleb128 0x3b
 1623 0104 0B       		.uleb128 0xb
 1624 0105 27       		.uleb128 0x27
 1625 0106 19       		.uleb128 0x19
 1626 0107 11       		.uleb128 0x11
 1627 0108 01       		.uleb128 0x1
 1628 0109 12       		.uleb128 0x12
 1629 010a 06       		.uleb128 0x6
 1630 010b 40       		.uleb128 0x40
 1631 010c 18       		.uleb128 0x18
 1632 010d 9742     		.uleb128 0x2117
 1633 010f 19       		.uleb128 0x19
 1634 0110 01       		.uleb128 0x1
 1635 0111 13       		.uleb128 0x13
 1636 0112 00       		.byte	0
 1637 0113 00       		.byte	0
 1638 0114 16       		.uleb128 0x16
 1639 0115 05       		.uleb128 0x5
 1640 0116 00       		.byte	0
 1641 0117 03       		.uleb128 0x3
 1642 0118 0E       		.uleb128 0xe
 1643 0119 3A       		.uleb128 0x3a
 1644 011a 0B       		.uleb128 0xb
 1645 011b 3B       		.uleb128 0x3b
 1646 011c 0B       		.uleb128 0xb
 1647 011d 49       		.uleb128 0x49
 1648 011e 13       		.uleb128 0x13
 1649 011f 02       		.uleb128 0x2
 1650 0120 18       		.uleb128 0x18
 1651 0121 00       		.byte	0
 1652 0122 00       		.byte	0
ARM GAS  /tmp/ccO0nVgp.s 			page 30


 1653 0123 17       		.uleb128 0x17
 1654 0124 1D       		.uleb128 0x1d
 1655 0125 01       		.byte	0x1
 1656 0126 31       		.uleb128 0x31
 1657 0127 13       		.uleb128 0x13
 1658 0128 52       		.uleb128 0x52
 1659 0129 01       		.uleb128 0x1
 1660 012a 55       		.uleb128 0x55
 1661 012b 17       		.uleb128 0x17
 1662 012c 58       		.uleb128 0x58
 1663 012d 0B       		.uleb128 0xb
 1664 012e 59       		.uleb128 0x59
 1665 012f 0B       		.uleb128 0xb
 1666 0130 01       		.uleb128 0x1
 1667 0131 13       		.uleb128 0x13
 1668 0132 00       		.byte	0
 1669 0133 00       		.byte	0
 1670 0134 18       		.uleb128 0x18
 1671 0135 05       		.uleb128 0x5
 1672 0136 00       		.byte	0
 1673 0137 31       		.uleb128 0x31
 1674 0138 13       		.uleb128 0x13
 1675 0139 02       		.uleb128 0x2
 1676 013a 18       		.uleb128 0x18
 1677 013b 00       		.byte	0
 1678 013c 00       		.byte	0
 1679 013d 19       		.uleb128 0x19
 1680 013e 05       		.uleb128 0x5
 1681 013f 00       		.byte	0
 1682 0140 31       		.uleb128 0x31
 1683 0141 13       		.uleb128 0x13
 1684 0142 1C       		.uleb128 0x1c
 1685 0143 06       		.uleb128 0x6
 1686 0144 00       		.byte	0
 1687 0145 00       		.byte	0
 1688 0146 1A       		.uleb128 0x1a
 1689 0147 1D       		.uleb128 0x1d
 1690 0148 01       		.byte	0x1
 1691 0149 31       		.uleb128 0x31
 1692 014a 13       		.uleb128 0x13
 1693 014b 11       		.uleb128 0x11
 1694 014c 01       		.uleb128 0x1
 1695 014d 12       		.uleb128 0x12
 1696 014e 06       		.uleb128 0x6
 1697 014f 58       		.uleb128 0x58
 1698 0150 0B       		.uleb128 0xb
 1699 0151 59       		.uleb128 0x59
 1700 0152 0B       		.uleb128 0xb
 1701 0153 00       		.byte	0
 1702 0154 00       		.byte	0
 1703 0155 1B       		.uleb128 0x1b
 1704 0156 05       		.uleb128 0x5
 1705 0157 00       		.byte	0
 1706 0158 03       		.uleb128 0x3
 1707 0159 0E       		.uleb128 0xe
 1708 015a 3A       		.uleb128 0x3a
 1709 015b 0B       		.uleb128 0xb
ARM GAS  /tmp/ccO0nVgp.s 			page 31


 1710 015c 3B       		.uleb128 0x3b
 1711 015d 0B       		.uleb128 0xb
 1712 015e 49       		.uleb128 0x49
 1713 015f 13       		.uleb128 0x13
 1714 0160 02       		.uleb128 0x2
 1715 0161 17       		.uleb128 0x17
 1716 0162 00       		.byte	0
 1717 0163 00       		.byte	0
 1718 0164 1C       		.uleb128 0x1c
 1719 0165 34       		.uleb128 0x34
 1720 0166 00       		.byte	0
 1721 0167 03       		.uleb128 0x3
 1722 0168 0E       		.uleb128 0xe
 1723 0169 3A       		.uleb128 0x3a
 1724 016a 0B       		.uleb128 0xb
 1725 016b 3B       		.uleb128 0x3b
 1726 016c 0B       		.uleb128 0xb
 1727 016d 49       		.uleb128 0x49
 1728 016e 13       		.uleb128 0x13
 1729 016f 02       		.uleb128 0x2
 1730 0170 17       		.uleb128 0x17
 1731 0171 00       		.byte	0
 1732 0172 00       		.byte	0
 1733 0173 1D       		.uleb128 0x1d
 1734 0174 34       		.uleb128 0x34
 1735 0175 00       		.byte	0
 1736 0176 03       		.uleb128 0x3
 1737 0177 0E       		.uleb128 0xe
 1738 0178 3A       		.uleb128 0x3a
 1739 0179 0B       		.uleb128 0xb
 1740 017a 3B       		.uleb128 0x3b
 1741 017b 0B       		.uleb128 0xb
 1742 017c 49       		.uleb128 0x49
 1743 017d 13       		.uleb128 0x13
 1744 017e 02       		.uleb128 0x2
 1745 017f 18       		.uleb128 0x18
 1746 0180 00       		.byte	0
 1747 0181 00       		.byte	0
 1748 0182 1E       		.uleb128 0x1e
 1749 0183 34       		.uleb128 0x34
 1750 0184 00       		.byte	0
 1751 0185 03       		.uleb128 0x3
 1752 0186 08       		.uleb128 0x8
 1753 0187 3A       		.uleb128 0x3a
 1754 0188 0B       		.uleb128 0xb
 1755 0189 3B       		.uleb128 0x3b
 1756 018a 0B       		.uleb128 0xb
 1757 018b 49       		.uleb128 0x49
 1758 018c 13       		.uleb128 0x13
 1759 018d 02       		.uleb128 0x2
 1760 018e 17       		.uleb128 0x17
 1761 018f 00       		.byte	0
 1762 0190 00       		.byte	0
 1763 0191 1F       		.uleb128 0x1f
 1764 0192 0B       		.uleb128 0xb
 1765 0193 01       		.byte	0x1
 1766 0194 55       		.uleb128 0x55
ARM GAS  /tmp/ccO0nVgp.s 			page 32


 1767 0195 17       		.uleb128 0x17
 1768 0196 00       		.byte	0
 1769 0197 00       		.byte	0
 1770 0198 20       		.uleb128 0x20
 1771 0199 34       		.uleb128 0x34
 1772 019a 00       		.byte	0
 1773 019b 03       		.uleb128 0x3
 1774 019c 0E       		.uleb128 0xe
 1775 019d 3A       		.uleb128 0x3a
 1776 019e 0B       		.uleb128 0xb
 1777 019f 3B       		.uleb128 0x3b
 1778 01a0 05       		.uleb128 0x5
 1779 01a1 49       		.uleb128 0x49
 1780 01a2 13       		.uleb128 0x13
 1781 01a3 3F       		.uleb128 0x3f
 1782 01a4 19       		.uleb128 0x19
 1783 01a5 3C       		.uleb128 0x3c
 1784 01a6 19       		.uleb128 0x19
 1785 01a7 00       		.byte	0
 1786 01a8 00       		.byte	0
 1787 01a9 00       		.byte	0
 1788              		.section	.debug_loc,"",%progbits
 1789              	.Ldebug_loc0:
 1790              	.LLST0:
 1791 0000 00000000 		.4byte	.LVL10
 1792 0004 88000000 		.4byte	.LVL24
 1793 0008 0100     		.2byte	0x1
 1794 000a 51       		.byte	0x51
 1795 000b 88000000 		.4byte	.LVL24
 1796 000f 8A000000 		.4byte	.LVL25
 1797 0013 0500     		.2byte	0x5
 1798 0015 71       		.byte	0x71
 1799 0016 00       		.sleb128 0
 1800 0017 31       		.byte	0x31
 1801 0018 25       		.byte	0x25
 1802 0019 9F       		.byte	0x9f
 1803 001a 8A000000 		.4byte	.LVL25
 1804 001e C8000000 		.4byte	.LFE120
 1805 0022 0100     		.2byte	0x1
 1806 0024 51       		.byte	0x51
 1807 0025 00000000 		.4byte	0
 1808 0029 00000000 		.4byte	0
 1809              	.LLST1:
 1810 002d 00000000 		.4byte	.LVL10
 1811 0031 1E000000 		.4byte	.LVL15
 1812 0035 0100     		.2byte	0x1
 1813 0037 52       		.byte	0x52
 1814 0038 1E000000 		.4byte	.LVL15
 1815 003c C8000000 		.4byte	.LFE120
 1816 0040 0400     		.2byte	0x4
 1817 0042 F3       		.byte	0xf3
 1818 0043 01       		.uleb128 0x1
 1819 0044 52       		.byte	0x52
 1820 0045 9F       		.byte	0x9f
 1821 0046 00000000 		.4byte	0
 1822 004a 00000000 		.4byte	0
 1823              	.LLST2:
ARM GAS  /tmp/ccO0nVgp.s 			page 33


 1824 004e 0A000000 		.4byte	.LVL11
 1825 0052 C6000000 		.4byte	.LVL35
 1826 0056 0100     		.2byte	0x1
 1827 0058 57       		.byte	0x57
 1828 0059 00000000 		.4byte	0
 1829 005d 00000000 		.4byte	0
 1830              	.LLST3:
 1831 0061 0E000000 		.4byte	.LVL12
 1832 0065 C6000000 		.4byte	.LVL35
 1833 0069 0100     		.2byte	0x1
 1834 006b 56       		.byte	0x56
 1835 006c 00000000 		.4byte	0
 1836 0070 00000000 		.4byte	0
 1837              	.LLST4:
 1838 0074 12000000 		.4byte	.LVL13
 1839 0078 C6000000 		.4byte	.LVL35
 1840 007c 0100     		.2byte	0x1
 1841 007e 55       		.byte	0x55
 1842 007f 00000000 		.4byte	0
 1843 0083 00000000 		.4byte	0
 1844              	.LLST5:
 1845 0087 16000000 		.4byte	.LVL14
 1846 008b C6000000 		.4byte	.LVL35
 1847 008f 0100     		.2byte	0x1
 1848 0091 54       		.byte	0x54
 1849 0092 00000000 		.4byte	0
 1850 0096 00000000 		.4byte	0
 1851              	.LLST6:
 1852 009a 1E000000 		.4byte	.LVL15
 1853 009e 24000000 		.4byte	.LVL16
 1854 00a2 0200     		.2byte	0x2
 1855 00a4 30       		.byte	0x30
 1856 00a5 9F       		.byte	0x9f
 1857 00a6 24000000 		.4byte	.LVL16
 1858 00aa C8000000 		.4byte	.LFE120
 1859 00ae 0100     		.2byte	0x1
 1860 00b0 53       		.byte	0x53
 1861 00b1 00000000 		.4byte	0
 1862 00b5 00000000 		.4byte	0
 1863              	.LLST7:
 1864 00b9 24000000 		.4byte	.LVL16
 1865 00bd 30000000 		.4byte	.LVL18
 1866 00c1 0100     		.2byte	0x1
 1867 00c3 58       		.byte	0x58
 1868 00c4 30000000 		.4byte	.LVL18
 1869 00c8 96000000 		.4byte	.LVL30
 1870 00cc 0A00     		.2byte	0xa
 1871 00ce 72       		.byte	0x72
 1872 00cf 00       		.sleb128 0
 1873 00d0 73       		.byte	0x73
 1874 00d1 00       		.sleb128 0
 1875 00d2 37       		.byte	0x37
 1876 00d3 1A       		.byte	0x1a
 1877 00d4 32       		.byte	0x32
 1878 00d5 24       		.byte	0x24
 1879 00d6 24       		.byte	0x24
 1880 00d7 9F       		.byte	0x9f
ARM GAS  /tmp/ccO0nVgp.s 			page 34


 1881 00d8 A6000000 		.4byte	.LVL31
 1882 00dc BC000000 		.4byte	.LVL34
 1883 00e0 0100     		.2byte	0x1
 1884 00e2 58       		.byte	0x58
 1885 00e3 BC000000 		.4byte	.LVL34
 1886 00e7 C8000000 		.4byte	.LFE120
 1887 00eb 0A00     		.2byte	0xa
 1888 00ed 72       		.byte	0x72
 1889 00ee 00       		.sleb128 0
 1890 00ef 73       		.byte	0x73
 1891 00f0 00       		.sleb128 0
 1892 00f1 37       		.byte	0x37
 1893 00f2 1A       		.byte	0x1a
 1894 00f3 32       		.byte	0x32
 1895 00f4 24       		.byte	0x24
 1896 00f5 24       		.byte	0x24
 1897 00f6 9F       		.byte	0x9f
 1898 00f7 00000000 		.4byte	0
 1899 00fb 00000000 		.4byte	0
 1900              	.LLST8:
 1901 00ff 34000000 		.4byte	.LVL19
 1902 0103 88000000 		.4byte	.LVL24
 1903 0107 0500     		.2byte	0x5
 1904 0109 31       		.byte	0x31
 1905 010a 73       		.byte	0x73
 1906 010b 00       		.sleb128 0
 1907 010c 24       		.byte	0x24
 1908 010d 9F       		.byte	0x9f
 1909 010e 00000000 		.4byte	0
 1910 0112 00000000 		.4byte	0
 1911              	.LLST9:
 1912 0116 48000000 		.4byte	.LVL20
 1913 011a 58000000 		.4byte	.LVL21
 1914 011e 0700     		.2byte	0x7
 1915 0120 33       		.byte	0x33
 1916 0121 73       		.byte	0x73
 1917 0122 00       		.sleb128 0
 1918 0123 31       		.byte	0x31
 1919 0124 24       		.byte	0x24
 1920 0125 24       		.byte	0x24
 1921 0126 9F       		.byte	0x9f
 1922 0127 58000000 		.4byte	.LVL21
 1923 012b 5C000000 		.4byte	.LVL22
 1924 012f 0100     		.2byte	0x1
 1925 0131 5C       		.byte	0x5c
 1926 0132 5C000000 		.4byte	.LVL22
 1927 0136 80000000 		.4byte	.LVL23
 1928 013a 0400     		.2byte	0x4
 1929 013c 7C       		.byte	0x7c
 1930 013d 00       		.sleb128 0
 1931 013e 20       		.byte	0x20
 1932 013f 9F       		.byte	0x9f
 1933 0140 80000000 		.4byte	.LVL23
 1934 0144 88000000 		.4byte	.LVL24
 1935 0148 0700     		.2byte	0x7
 1936 014a 33       		.byte	0x33
 1937 014b 73       		.byte	0x73
ARM GAS  /tmp/ccO0nVgp.s 			page 35


 1938 014c 00       		.sleb128 0
 1939 014d 31       		.byte	0x31
 1940 014e 24       		.byte	0x24
 1941 014f 24       		.byte	0x24
 1942 0150 9F       		.byte	0x9f
 1943 0151 00000000 		.4byte	0
 1944 0155 00000000 		.4byte	0
 1945              	.LLST10:
 1946 0159 24000000 		.4byte	.LVL16
 1947 015d 2C000000 		.4byte	.LVL17
 1948 0161 0100     		.2byte	0x1
 1949 0163 5C       		.byte	0x5c
 1950 0164 2C000000 		.4byte	.LVL17
 1951 0168 96000000 		.4byte	.LVL30
 1952 016c 0A00     		.2byte	0xa
 1953 016e 79       		.byte	0x79
 1954 016f 00       		.sleb128 0
 1955 0170 73       		.byte	0x73
 1956 0171 00       		.sleb128 0
 1957 0172 37       		.byte	0x37
 1958 0173 1A       		.byte	0x1a
 1959 0174 32       		.byte	0x32
 1960 0175 24       		.byte	0x24
 1961 0176 24       		.byte	0x24
 1962 0177 9F       		.byte	0x9f
 1963 0178 AA000000 		.4byte	.LVL32
 1964 017c B8000000 		.4byte	.LVL33
 1965 0180 0100     		.2byte	0x1
 1966 0182 5C       		.byte	0x5c
 1967 0183 B8000000 		.4byte	.LVL33
 1968 0187 C6000000 		.4byte	.LVL35
 1969 018b 0A00     		.2byte	0xa
 1970 018d 79       		.byte	0x79
 1971 018e 00       		.sleb128 0
 1972 018f 73       		.byte	0x73
 1973 0190 00       		.sleb128 0
 1974 0191 37       		.byte	0x37
 1975 0192 1A       		.byte	0x1a
 1976 0193 32       		.byte	0x32
 1977 0194 24       		.byte	0x24
 1978 0195 24       		.byte	0x24
 1979 0196 9F       		.byte	0x9f
 1980 0197 C6000000 		.4byte	.LVL35
 1981 019b C8000000 		.4byte	.LFE120
 1982 019f 0900     		.2byte	0x9
 1983 01a1 3F       		.byte	0x3f
 1984 01a2 73       		.byte	0x73
 1985 01a3 00       		.sleb128 0
 1986 01a4 37       		.byte	0x37
 1987 01a5 1A       		.byte	0x1a
 1988 01a6 32       		.byte	0x32
 1989 01a7 24       		.byte	0x24
 1990 01a8 24       		.byte	0x24
 1991 01a9 9F       		.byte	0x9f
 1992 01aa 00000000 		.4byte	0
 1993 01ae 00000000 		.4byte	0
 1994              		.section	.debug_aranges,"",%progbits
ARM GAS  /tmp/ccO0nVgp.s 			page 36


 1995 0000 24000000 		.4byte	0x24
 1996 0004 0200     		.2byte	0x2
 1997 0006 00000000 		.4byte	.Ldebug_info0
 1998 000a 04       		.byte	0x4
 1999 000b 00       		.byte	0
 2000 000c 0000     		.2byte	0
 2001 000e 0000     		.2byte	0
 2002 0010 00000000 		.4byte	.LFB119
 2003 0014 C0010000 		.4byte	.LFE119-.LFB119
 2004 0018 00000000 		.4byte	.LFB120
 2005 001c C8000000 		.4byte	.LFE120-.LFB120
 2006 0020 00000000 		.4byte	0
 2007 0024 00000000 		.4byte	0
 2008              		.section	.debug_ranges,"",%progbits
 2009              	.Ldebug_ranges0:
 2010 0000 08000000 		.4byte	.LBB20
 2011 0004 0C000000 		.4byte	.LBE20
 2012 0008 38000000 		.4byte	.LBB44
 2013 000c 62000000 		.4byte	.LBE44
 2014 0010 00000000 		.4byte	0
 2015 0014 00000000 		.4byte	0
 2016 0018 10000000 		.4byte	.LBB23
 2017 001c 14000000 		.4byte	.LBE23
 2018 0020 62000000 		.4byte	.LBB45
 2019 0024 8C000000 		.4byte	.LBE45
 2020 0028 00000000 		.4byte	0
 2021 002c 00000000 		.4byte	0
 2022 0030 14000000 		.4byte	.LBB26
 2023 0034 16000000 		.4byte	.LBE26
 2024 0038 8C000000 		.4byte	.LBB46
 2025 003c A8000000 		.4byte	.LBE46
 2026 0040 00000000 		.4byte	0
 2027 0044 00000000 		.4byte	0
 2028 0048 16000000 		.4byte	.LBB29
 2029 004c 18000000 		.4byte	.LBE29
 2030 0050 A8000000 		.4byte	.LBB47
 2031 0054 C4000000 		.4byte	.LBE47
 2032 0058 00000000 		.4byte	0
 2033 005c 00000000 		.4byte	0
 2034 0060 18000000 		.4byte	.LBB32
 2035 0064 1A000000 		.4byte	.LBE32
 2036 0068 C4000000 		.4byte	.LBB48
 2037 006c E6000000 		.4byte	.LBE48
 2038 0070 00000000 		.4byte	0
 2039 0074 00000000 		.4byte	0
 2040 0078 1A000000 		.4byte	.LBB35
 2041 007c 1C000000 		.4byte	.LBE35
 2042 0080 E6000000 		.4byte	.LBB49
 2043 0084 10010000 		.4byte	.LBE49
 2044 0088 00000000 		.4byte	0
 2045 008c 00000000 		.4byte	0
 2046 0090 1C000000 		.4byte	.LBB38
 2047 0094 1E000000 		.4byte	.LBE38
 2048 0098 10010000 		.4byte	.LBB50
 2049 009c 3A010000 		.4byte	.LBE50
 2050 00a0 00000000 		.4byte	0
 2051 00a4 00000000 		.4byte	0
ARM GAS  /tmp/ccO0nVgp.s 			page 37


 2052 00a8 1E000000 		.4byte	.LBB41
 2053 00ac 20000000 		.4byte	.LBE41
 2054 00b0 3A010000 		.4byte	.LBB51
 2055 00b4 64010000 		.4byte	.LBE51
 2056 00b8 00000000 		.4byte	0
 2057 00bc 00000000 		.4byte	0
 2058 00c0 16000000 		.4byte	.LBB54
 2059 00c4 1A000000 		.4byte	.LBE54
 2060 00c8 1E000000 		.4byte	.LBB55
 2061 00cc 88000000 		.4byte	.LBE55
 2062 00d0 96000000 		.4byte	.LBB56
 2063 00d4 9E000000 		.4byte	.LBE56
 2064 00d8 A2000000 		.4byte	.LBB57
 2065 00dc AA000000 		.4byte	.LBE57
 2066 00e0 AC000000 		.4byte	.LBB58
 2067 00e4 C2000000 		.4byte	.LBE58
 2068 00e8 00000000 		.4byte	0
 2069 00ec 00000000 		.4byte	0
 2070 00f0 00000000 		.4byte	.LFB119
 2071 00f4 C0010000 		.4byte	.LFE119
 2072 00f8 00000000 		.4byte	.LFB120
 2073 00fc C8000000 		.4byte	.LFE120
 2074 0100 00000000 		.4byte	0
 2075 0104 00000000 		.4byte	0
 2076              		.section	.debug_line,"",%progbits
 2077              	.Ldebug_line0:
 2078 0000 D3010000 		.section	.debug_str,"MS",%progbits,1
 2078      02002001 
 2078      00000201 
 2078      FB0E0D00 
 2078      01010101 
 2079              	.LASF34:
 2080 0000 41484231 		.ascii	"AHB1LPENR\000"
 2080      4C50454E 
 2080      5200
 2081              	.LASF67:
 2082 000a 50434461 		.ascii	"PCData\000"
 2082      746100
 2083              	.LASF81:
 2084 0011 5F70616C 		.ascii	"_pal_lld_setgroupmode\000"
 2084      5F6C6C64 
 2084      5F736574 
 2084      67726F75 
 2084      706D6F64 
 2085              	.LASF24:
 2086 0027 41504231 		.ascii	"APB1RSTR\000"
 2086      52535452 
 2086      00
 2087              	.LASF28:
 2088 0030 41484232 		.ascii	"AHB2ENR\000"
 2088      454E5200 
 2089              	.LASF64:
 2090 0038 73746D33 		.ascii	"stm32_gpio_setup_t\000"
 2090      325F6770 
 2090      696F5F73 
 2090      65747570 
 2090      5F7400
ARM GAS  /tmp/ccO0nVgp.s 			page 38


 2091              	.LASF70:
 2092 004b 50464461 		.ascii	"PFData\000"
 2092      746100
 2093              	.LASF90:
 2094 0052 696E6974 		.ascii	"initgpio\000"
 2094      6770696F 
 2094      00
 2095              	.LASF3:
 2096 005b 73686F72 		.ascii	"short int\000"
 2096      7420696E 
 2096      7400
 2097              	.LASF87:
 2098 0065 474E5520 		.ascii	"GNU C 4.8.4 20140526 (release) [ARM/embedded-4_8-br"
 2098      4320342E 
 2098      382E3420 
 2098      32303134 
 2098      30353236 
 2099 0098 616E6368 		.ascii	"anch revision 211358] -mcpu=cortex-m4 -mno-thumb-in"
 2099      20726576 
 2099      6973696F 
 2099      6E203231 
 2099      31333538 
 2100 00cb 74657277 		.ascii	"terwork -mthumb -ggdb -O2 -fomit-frame-pointer -fal"
 2100      6F726B20 
 2100      2D6D7468 
 2100      756D6220 
 2100      2D676764 
 2101 00fe 69676E2D 		.ascii	"ign-functions=16 -ffunction-sections -fdata-section"
 2101      66756E63 
 2101      74696F6E 
 2101      733D3136 
 2101      202D6666 
 2102 0131 73202D66 		.ascii	"s -fno-common\000"
 2102      6E6F2D63 
 2102      6F6D6D6F 
 2102      6E00
 2103              	.LASF16:
 2104 013f 73697A65 		.ascii	"sizetype\000"
 2104      74797065 
 2104      00
 2105              	.LASF41:
 2106 0148 42444352 		.ascii	"BDCR\000"
 2106      00
 2107              	.LASF73:
 2108 014d 50494461 		.ascii	"PIData\000"
 2108      746100
 2109              	.LASF44:
 2110 0154 504C4C49 		.ascii	"PLLI2SCFGR\000"
 2110      32534346 
 2110      475200
 2111              	.LASF78:
 2112 015f 6770696F 		.ascii	"gpiop\000"
 2112      7000
 2113              	.LASF8:
 2114 0165 5F5F7569 		.ascii	"__uint32_t\000"
 2114      6E743332 
 2114      5F7400
ARM GAS  /tmp/ccO0nVgp.s 			page 39


 2115              	.LASF80:
 2116 0170 5F70616C 		.ascii	"_pal_lld_init\000"
 2116      5F6C6C64 
 2116      5F696E69 
 2116      7400
 2117              	.LASF5:
 2118 017e 5F5F7569 		.ascii	"__uint16_t\000"
 2118      6E743136 
 2118      5F7400
 2119              	.LASF43:
 2120 0189 53534347 		.ascii	"SSCGR\000"
 2120      5200
 2121              	.LASF66:
 2122 018f 50424461 		.ascii	"PBData\000"
 2122      746100
 2123              	.LASF20:
 2124 0196 41484231 		.ascii	"AHB1RSTR\000"
 2124      52535452 
 2124      00
 2125              	.LASF79:
 2126 019f 636F6E66 		.ascii	"config\000"
 2126      696700
 2127              	.LASF76:
 2128 01a6 696F6D6F 		.ascii	"iomode_t\000"
 2128      64655F74 
 2128      00
 2129              	.LASF36:
 2130 01af 41484233 		.ascii	"AHB3LPENR\000"
 2130      4C50454E 
 2130      5200
 2131              	.LASF31:
 2132 01b9 41504231 		.ascii	"APB1ENR\000"
 2132      454E5200 
 2133              	.LASF75:
 2134 01c1 696F706F 		.ascii	"ioportmask_t\000"
 2134      72746D61 
 2134      736B5F74 
 2134      00
 2135              	.LASF50:
 2136 01ce 4F545950 		.ascii	"OTYPER\000"
 2136      455200
 2137              	.LASF46:
 2138 01d5 44434B43 		.ascii	"DCKCFGR\000"
 2138      46475200 
 2139              	.LASF29:
 2140 01dd 41484233 		.ascii	"AHB3ENR\000"
 2140      454E5200 
 2141              	.LASF51:
 2142 01e5 4F535045 		.ascii	"OSPEEDR\000"
 2142      45445200 
 2143              	.LASF10:
 2144 01ed 6C6F6E67 		.ascii	"long long int\000"
 2144      206C6F6E 
 2144      6720696E 
 2144      7400
 2145              	.LASF52:
 2146 01fb 50555044 		.ascii	"PUPDR\000"
ARM GAS  /tmp/ccO0nVgp.s 			page 40


 2146      5200
 2147              	.LASF60:
 2148 0201 6F737065 		.ascii	"ospeedr\000"
 2148      65647200 
 2149              	.LASF7:
 2150 0209 6C6F6E67 		.ascii	"long int\000"
 2150      20696E74 
 2150      00
 2151              	.LASF68:
 2152 0212 50444461 		.ascii	"PDData\000"
 2152      746100
 2153              	.LASF47:
 2154 0219 5243435F 		.ascii	"RCC_TypeDef\000"
 2154      54797065 
 2154      44656600 
 2155              	.LASF49:
 2156 0225 4D4F4445 		.ascii	"MODER\000"
 2156      5200
 2157              	.LASF25:
 2158 022b 41504232 		.ascii	"APB2RSTR\000"
 2158      52535452 
 2158      00
 2159              	.LASF48:
 2160 0234 636C6561 		.ascii	"clear\000"
 2160      7200
 2161              	.LASF71:
 2162 023a 50474461 		.ascii	"PGData\000"
 2162      746100
 2163              	.LASF65:
 2164 0241 50414461 		.ascii	"PAData\000"
 2164      746100
 2165              	.LASF77:
 2166 0248 696F706F 		.ascii	"ioportid_t\000"
 2166      72746964 
 2166      5F7400
 2167              	.LASF2:
 2168 0253 756E7369 		.ascii	"unsigned char\000"
 2168      676E6564 
 2168      20636861 
 2168      7200
 2169              	.LASF32:
 2170 0261 41504232 		.ascii	"APB2ENR\000"
 2170      454E5200 
 2171              	.LASF1:
 2172 0269 7369676E 		.ascii	"signed char\000"
 2172      65642063 
 2172      68617200 
 2173              	.LASF11:
 2174 0275 6C6F6E67 		.ascii	"long long unsigned int\000"
 2174      206C6F6E 
 2174      6720756E 
 2174      7369676E 
 2174      65642069 
 2175              	.LASF14:
 2176 028c 75696E74 		.ascii	"uint32_t\000"
 2176      33325F74 
 2176      00
ARM GAS  /tmp/ccO0nVgp.s 			page 41


 2177              	.LASF59:
 2178 0295 6F747970 		.ascii	"otyper\000"
 2178      657200
 2179              	.LASF21:
 2180 029c 41484232 		.ascii	"AHB2RSTR\000"
 2180      52535452 
 2180      00
 2181              	.LASF12:
 2182 02a5 75696E74 		.ascii	"uint16_t\000"
 2182      31365F74 
 2182      00
 2183              	.LASF9:
 2184 02ae 6C6F6E67 		.ascii	"long unsigned int\000"
 2184      20756E73 
 2184      69676E65 
 2184      6420696E 
 2184      7400
 2185              	.LASF56:
 2186 02c0 41465248 		.ascii	"AFRH\000"
 2186      00
 2187              	.LASF18:
 2188 02c5 504C4C43 		.ascii	"PLLCFGR\000"
 2188      46475200 
 2189              	.LASF55:
 2190 02cd 4146524C 		.ascii	"AFRL\000"
 2190      00
 2191              	.LASF4:
 2192 02d2 73686F72 		.ascii	"short unsigned int\000"
 2192      7420756E 
 2192      7369676E 
 2192      65642069 
 2192      6E7400
 2193              	.LASF38:
 2194 02e5 41504231 		.ascii	"APB1LPENR\000"
 2194      4C50454E 
 2194      5200
 2195              	.LASF17:
 2196 02ef 63686172 		.ascii	"char\000"
 2196      00
 2197              	.LASF88:
 2198 02f4 2E2E2F2E 		.ascii	"../../os/hal/platforms/STM32/GPIOv2/pal_lld.c\000"
 2198      2E2F6F73 
 2198      2F68616C 
 2198      2F706C61 
 2198      74666F72 
 2199              	.LASF13:
 2200 0322 696E7433 		.ascii	"int32_t\000"
 2200      325F7400 
 2201              	.LASF6:
 2202 032a 5F5F696E 		.ascii	"__int32_t\000"
 2202      7433325F 
 2202      7400
 2203              	.LASF74:
 2204 0334 50414C43 		.ascii	"PALConfig\000"
 2204      6F6E6669 
 2204      6700
 2205              	.LASF15:
ARM GAS  /tmp/ccO0nVgp.s 			page 42


 2206 033e 5F426F6F 		.ascii	"_Bool\000"
 2206      6C00
 2207              	.LASF84:
 2208 0344 6D6F6465 		.ascii	"mode\000"
 2208      00
 2209              	.LASF35:
 2210 0349 41484232 		.ascii	"AHB2LPENR\000"
 2210      4C50454E 
 2210      5200
 2211              	.LASF82:
 2212 0353 706F7274 		.ascii	"port\000"
 2212      00
 2213              	.LASF69:
 2214 0358 50454461 		.ascii	"PEData\000"
 2214      746100
 2215              	.LASF23:
 2216 035f 52455345 		.ascii	"RESERVED0\000"
 2216      52564544 
 2216      3000
 2217              	.LASF26:
 2218 0369 52455345 		.ascii	"RESERVED1\000"
 2218      52564544 
 2218      3100
 2219              	.LASF30:
 2220 0373 52455345 		.ascii	"RESERVED2\000"
 2220      52564544 
 2220      3200
 2221              	.LASF33:
 2222 037d 52455345 		.ascii	"RESERVED3\000"
 2222      52564544 
 2222      3300
 2223              	.LASF37:
 2224 0387 52455345 		.ascii	"RESERVED4\000"
 2224      52564544 
 2224      3400
 2225              	.LASF40:
 2226 0391 52455345 		.ascii	"RESERVED5\000"
 2226      52564544 
 2226      3500
 2227              	.LASF42:
 2228 039b 52455345 		.ascii	"RESERVED6\000"
 2228      52564544 
 2228      3600
 2229              	.LASF89:
 2230 03a5 2F686F6D 		.ascii	"/home/makkmarci/devel/ChibiOS_2.6.5/demos/ARMCM4-ST"
 2230      652F6D61 
 2230      6B6B6D61 
 2230      7263692F 
 2230      64657665 
 2231 03d8 4D333246 		.ascii	"M32F407-LWIP\000"
 2231      3430372D 
 2231      4C574950 
 2231      00
 2232              	.LASF72:
 2233 03e5 50484461 		.ascii	"PHData\000"
 2233      746100
 2234              	.LASF27:
ARM GAS  /tmp/ccO0nVgp.s 			page 43


 2235 03ec 41484231 		.ascii	"AHB1ENR\000"
 2235      454E5200 
 2236              	.LASF83:
 2237 03f4 6D61736B 		.ascii	"mask\000"
 2237      00
 2238              	.LASF61:
 2239 03f9 70757064 		.ascii	"pupdr\000"
 2239      7200
 2240              	.LASF63:
 2241 03ff 61667268 		.ascii	"afrh\000"
 2241      00
 2242              	.LASF62:
 2243 0404 6166726C 		.ascii	"afrl\000"
 2243      00
 2244              	.LASF58:
 2245 0409 6D6F6465 		.ascii	"moder\000"
 2245      7200
 2246              	.LASF57:
 2247 040f 4750494F 		.ascii	"GPIO_TypeDef\000"
 2247      5F547970 
 2247      65446566 
 2247      00
 2248              	.LASF22:
 2249 041c 41484233 		.ascii	"AHB3RSTR\000"
 2249      52535452 
 2249      00
 2250              	.LASF85:
 2251 0425 616C7472 		.ascii	"altr\000"
 2251      00
 2252              	.LASF91:
 2253 042a 49544D5F 		.ascii	"ITM_RxBuffer\000"
 2253      52784275 
 2253      66666572 
 2253      00
 2254              	.LASF86:
 2255 0437 616C7472 		.ascii	"altrmask\000"
 2255      6D61736B 
 2255      00
 2256              	.LASF0:
 2257 0440 756E7369 		.ascii	"unsigned int\000"
 2257      676E6564 
 2257      20696E74 
 2257      00
 2258              	.LASF19:
 2259 044d 43464752 		.ascii	"CFGR\000"
 2259      00
 2260              	.LASF45:
 2261 0452 504C4C53 		.ascii	"PLLSAICFGR\000"
 2261      41494346 
 2261      475200
 2262              	.LASF54:
 2263 045d 4C434B52 		.ascii	"LCKR\000"
 2263      00
 2264              	.LASF39:
 2265 0462 41504232 		.ascii	"APB2LPENR\000"
 2265      4C50454E 
 2265      5200
ARM GAS  /tmp/ccO0nVgp.s 			page 44


 2266              	.LASF53:
 2267 046c 42535252 		.ascii	"BSRR\000"
 2267      00
 2268              		.ident	"GCC: (GNU Tools for ARM Embedded Processors) 4.8.4 20140526 (release) [ARM/embedded-4_8-br
ARM GAS  /tmp/ccO0nVgp.s 			page 45


DEFINED SYMBOLS
                            *ABS*:00000000 pal_lld.c
     /tmp/ccO0nVgp.s:19     .text._pal_lld_init:00000000 $t
     /tmp/ccO0nVgp.s:25     .text._pal_lld_init:00000000 _pal_lld_init
     /tmp/ccO0nVgp.s:339    .text._pal_lld_init:00000198 $d
     /tmp/ccO0nVgp.s:353    .text._pal_lld_setgroupmode:00000000 $t
     /tmp/ccO0nVgp.s:359    .text._pal_lld_setgroupmode:00000000 _pal_lld_setgroupmode
                     .debug_frame:00000010 $d

NO UNDEFINED SYMBOLS
