ARM GAS  /tmp/cc28dqBY.s 			page 1


   1              		.syntax unified
   2              		.cpu cortex-m4
   3              		.fpu softvfp
   4              		.eabi_attribute 20, 1
   5              		.eabi_attribute 21, 1
   6              		.eabi_attribute 23, 3
   7              		.eabi_attribute 24, 1
   8              		.eabi_attribute 25, 1
   9              		.eabi_attribute 26, 1
  10              		.eabi_attribute 30, 2
  11              		.eabi_attribute 34, 1
  12              		.eabi_attribute 18, 4
  13              		.thumb
  14              		.file	"chcore_v7m.c"
  15              		.text
  16              	.Ltext0:
  17              		.cfi_sections	.debug_frame
  18              		.section	.text._port_switch_from_isr,"ax",%progbits
  19              		.align	2
  20              		.p2align 4,,15
  21              		.global	_port_switch_from_isr
  22              		.thumb
  23              		.thumb_func
  24              		.type	_port_switch_from_isr, %function
  25              	_port_switch_from_isr:
  26              	.LFB11:
  27              		.file 1 "../../../os/ports/GCC/ARMCMx/chcore_v7m.c"
  28              		.loc 1 197 0
  29              		.cfi_startproc
  30              		@ Naked Function: prologue and epilogue provided by programmer.
  31              		@ args = 0, pretend = 0, frame = 0
  32              		@ frame_needed = 0, uses_anonymous_args = 0
  33              		.loc 1 199 0
  34 0000 FFF7FEFF 		bl	dbg_check_lock
  35              	.LVL0:
  36              		.loc 1 200 0
  37 0004 FFF7FEFF 		bl	chSchDoReschedule
  38              	.LVL1:
  39              		.loc 1 201 0
  40 0008 FFF7FEFF 		bl	dbg_check_unlock
  41              	.LVL2:
  42              		.loc 1 202 0
  43              	@ 202 "../../../os/ports/GCC/ARMCMx/chcore_v7m.c" 1
  44              		_port_exit_from_isr:
  45              	@ 0 "" 2
  46              		.loc 1 204 0
  47              	@ 204 "../../../os/ports/GCC/ARMCMx/chcore_v7m.c" 1
  48 000c 00DF     		svc     #0
  49              	@ 0 "" 2
  50              		.loc 1 211 0
  51              		.thumb
  52              		.cfi_endproc
  53              	.LFE11:
  54              		.size	_port_switch_from_isr, .-_port_switch_from_isr
  55 000e 00BF     		.section	.text.SVCallVector,"ax",%progbits
  56              		.align	2
  57              		.p2align 4,,15
ARM GAS  /tmp/cc28dqBY.s 			page 2


  58              		.global	SVCallVector
  59              		.thumb
  60              		.thumb_func
  61              		.type	SVCallVector, %function
  62              	SVCallVector:
  63              	.LFB8:
  64              		.loc 1 65 0
  65              		.cfi_startproc
  66              		@ args = 0, pretend = 0, frame = 0
  67              		@ frame_needed = 0, uses_anonymous_args = 0
  68              		@ link register save eliminated.
  69              		.loc 1 74 0
  70              	@ 74 "../../../os/ports/GCC/ARMCMx/chcore_v7m.c" 1
  71 0000 EFF30983 		mrs     r3, PSP
  72              	@ 0 "" 2
  73              	.LVL3:
  74              		.loc 1 78 0
  75              		.thumb
  76 0004 2033     		adds	r3, r3, #32
  77              	.LVL4:
  78              		.loc 1 81 0
  79              	@ 81 "../../../os/ports/GCC/ARMCMx/chcore_v7m.c" 1
  80 0006 83F30988 		msr     PSP, r3
  81              	@ 0 "" 2
  82              		.thumb
  83              	.LBB2:
  84              		.loc 1 82 0
  85 000a 0023     		movs	r3, #0
  86              	.LVL5:
  87              	@ 82 "../../../os/ports/GCC/ARMCMx/chcore_v7m.c" 1
  88 000c 83F31188 		msr     BASEPRI, r3
  89              	@ 0 "" 2
  90              		.thumb
  91 0010 7047     		bx	lr
  92              	.LBE2:
  93              		.cfi_endproc
  94              	.LFE8:
  95              		.size	SVCallVector, .-SVCallVector
  96 0012 00BFAFF3 		.section	.text._port_init,"ax",%progbits
  96      0080AFF3 
  96      0080AFF3 
  96      0080
  97              		.align	2
  98              		.p2align 4,,15
  99              		.global	_port_init
 100              		.thumb
 101              		.thumb_func
 102              		.type	_port_init, %function
 103              	_port_init:
 104              	.LFB9:
 105              		.loc 1 120 0
 106              		.cfi_startproc
 107              		@ args = 0, pretend = 0, frame = 0
 108              		@ frame_needed = 0, uses_anonymous_args = 0
 109 0000 08B5     		push	{r3, lr}
 110              		.cfi_def_cfa_offset 8
 111              		.cfi_offset 3, -8
ARM GAS  /tmp/cc28dqBY.s 			page 3


 112              		.cfi_offset 14, -4
 113              		.loc 1 123 0
 114 0002 094B     		ldr	r3, .L4
 115              		.loc 1 124 0
 116 0004 094A     		ldr	r2, .L4+4
 117              		.loc 1 123 0
 118 0006 0021     		movs	r1, #0
 119 0008 9960     		str	r1, [r3, #8]
 120              		.loc 1 127 0
 121 000a 0720     		movs	r0, #7
 122              		.loc 1 124 0
 123 000c DA60     		str	r2, [r3, #12]
 124              		.loc 1 127 0
 125 000e 1021     		movs	r1, #16
 126 0010 FFF7FEFF 		bl	nvicSetSystemHandlerPriority
 127              	.LVL6:
 128              		.loc 1 129 0
 129 0014 0A20     		movs	r0, #10
 130 0016 2021     		movs	r1, #32
 131 0018 FFF7FEFF 		bl	nvicSetSystemHandlerPriority
 132              	.LVL7:
 133              		.loc 1 131 0
 134 001c 0B20     		movs	r0, #11
 135 001e 8021     		movs	r1, #128
 136              		.loc 1 133 0
 137 0020 BDE80840 		pop	{r3, lr}
 138              		.loc 1 131 0
 139 0024 FFF7FEBF 		b	nvicSetSystemHandlerPriority
 140              	.LVL8:
 141              	.L5:
 142              		.align	2
 143              	.L4:
 144 0028 00ED00E0 		.word	-536810240
 145 002c 0003FA05 		.word	100270848
 146              		.cfi_endproc
 147              	.LFE9:
 148              		.size	_port_init, .-_port_init
 149              		.section	.text._port_irq_epilogue,"ax",%progbits
 150              		.align	2
 151              		.p2align 4,,15
 152              		.global	_port_irq_epilogue
 153              		.thumb
 154              		.thumb_func
 155              		.type	_port_irq_epilogue, %function
 156              	_port_irq_epilogue:
 157              	.LFB10:
 158              		.loc 1 150 0
 159              		.cfi_startproc
 160              		@ args = 0, pretend = 0, frame = 0
 161              		@ frame_needed = 0, uses_anonymous_args = 0
 162              		@ link register save eliminated.
 163              	.LBB3:
 164              		.loc 1 152 0
 165 0000 2023     		movs	r3, #32
 166              	@ 152 "../../../os/ports/GCC/ARMCMx/chcore_v7m.c" 1
 167 0002 83F31188 		msr     BASEPRI, r3
 168              	@ 0 "" 2
ARM GAS  /tmp/cc28dqBY.s 			page 4


 169              		.thumb
 170              	.LBE3:
 171              		.loc 1 153 0
 172 0006 164B     		ldr	r3, .L14
 173 0008 5B68     		ldr	r3, [r3, #4]
 174 000a 13F40063 		ands	r3, r3, #2048
 175 000e 1AD0     		beq	.L7
 176              	.LBB4:
 177              		.loc 1 163 0
 178              	@ 163 "../../../os/ports/GCC/ARMCMx/chcore_v7m.c" 1
 179 0010 EFF30983 		mrs     r3, PSP
 180              	@ 0 "" 2
 181              	.LVL9:
 182              		.loc 1 168 0
 183              		.thumb
 184 0014 4FF08072 		mov	r2, #16777216
 185 0018 43F8042C 		str	r2, [r3, #-4]
 186              		.loc 1 167 0
 187 001c A3F12002 		sub	r2, r3, #32
 188              	.LVL10:
 189              		.loc 1 169 0
 190              	@ 169 "../../../os/ports/GCC/ARMCMx/chcore_v7m.c" 1
 191 0020 82F30988 		msr     PSP, r2
 192              	@ 0 "" 2
 193              		.loc 1 173 0
 194              		.thumb
 195 0024 0F49     		ldr	r1, .L14+4
 196 0026 8A69     		ldr	r2, [r1, #24]
 197              	.LVL11:
 198 0028 0968     		ldr	r1, [r1]
 199 002a 92F82300 		ldrb	r0, [r2, #35]	@ zero_extendqisi2
 200 002e 8968     		ldr	r1, [r1, #8]
 201 0030 9268     		ldr	r2, [r2, #8]
 202 0032 58B1     		cbz	r0, .L8
 203              		.loc 1 173 0 is_stmt 0 discriminator 1
 204 0034 9142     		cmp	r1, r2
 205 0036 94BF     		ite	ls
 206 0038 0022     		movls	r2, #0
 207 003a 0122     		movhi	r2, #1
 208 003c 62B1     		cbz	r2, .L10
 209              	.L13:
 210              		.loc 1 175 0 is_stmt 1
 211 003e 0A4A     		ldr	r2, .L14+8
 212 0040 43F8082C 		str	r2, [r3, #-8]
 213 0044 7047     		bx	lr
 214              	.LVL12:
 215              	.L7:
 216              	.LBE4:
 217              	.LBB5:
 218              		.loc 1 187 0
 219              	@ 187 "../../../os/ports/GCC/ARMCMx/chcore_v7m.c" 1
 220 0046 83F31188 		msr     BASEPRI, r3
 221              	@ 0 "" 2
 222              		.thumb
 223 004a 7047     		bx	lr
 224              	.LVL13:
 225              	.L8:
ARM GAS  /tmp/cc28dqBY.s 			page 5


 226              	.LBE5:
 227              	.LBB6:
 228              		.loc 1 173 0 discriminator 2
 229 004c 9142     		cmp	r1, r2
 230 004e 34BF     		ite	cc
 231 0050 0022     		movcc	r2, #0
 232 0052 0122     		movcs	r2, #1
 233 0054 002A     		cmp	r2, #0
 234 0056 F2D1     		bne	.L13
 235              	.L10:
 236              		.loc 1 180 0
 237 0058 044A     		ldr	r2, .L14+12
 238 005a 43F8082C 		str	r2, [r3, #-8]
 239 005e 7047     		bx	lr
 240              	.L15:
 241              		.align	2
 242              	.L14:
 243 0060 00ED00E0 		.word	-536810240
 244 0064 00000000 		.word	rlist
 245 0068 00000000 		.word	_port_switch_from_isr
 246 006c 0C000000 		.word	_port_exit_from_isr
 247              	.LBE6:
 248              		.cfi_endproc
 249              	.LFE10:
 250              		.size	_port_irq_epilogue, .-_port_irq_epilogue
 251              		.section	.text.SysTickVector,"ax",%progbits
 252              		.align	2
 253              		.p2align 4,,15
 254              		.global	SysTickVector
 255              		.thumb
 256              		.thumb_func
 257              		.type	SysTickVector, %function
 258              	SysTickVector:
 259              	.LFB7:
 260              		.loc 1 47 0
 261              		.cfi_startproc
 262              		@ args = 0, pretend = 0, frame = 0
 263              		@ frame_needed = 0, uses_anonymous_args = 0
 264 0000 08B5     		push	{r3, lr}
 265              		.cfi_def_cfa_offset 8
 266              		.cfi_offset 3, -8
 267              		.cfi_offset 14, -4
 268              		.loc 1 49 0
 269 0002 FFF7FEFF 		bl	dbg_check_enter_isr
 270              	.LVL14:
 271              	.LBB7:
 272              		.loc 1 51 0
 273 0006 2023     		movs	r3, #32
 274              	@ 51 "../../../os/ports/GCC/ARMCMx/chcore_v7m.c" 1
 275 0008 83F31188 		msr     BASEPRI, r3
 276              	@ 0 "" 2
 277              		.thumb
 278              	.LBE7:
 279 000c FFF7FEFF 		bl	dbg_check_lock_from_isr
 280              	.LVL15:
 281              		.loc 1 52 0
 282 0010 FFF7FEFF 		bl	chSysTimerHandlerI
ARM GAS  /tmp/cc28dqBY.s 			page 6


 283              	.LVL16:
 284              		.loc 1 53 0
 285 0014 FFF7FEFF 		bl	dbg_check_unlock_from_isr
 286              	.LVL17:
 287              	.LBB8:
 288 0018 0023     		movs	r3, #0
 289              	@ 53 "../../../os/ports/GCC/ARMCMx/chcore_v7m.c" 1
 290 001a 83F31188 		msr     BASEPRI, r3
 291              	@ 0 "" 2
 292              		.thumb
 293              	.LBE8:
 294              		.loc 1 55 0
 295 001e FFF7FEFF 		bl	dbg_check_leave_isr
 296              	.LVL18:
 297              		.loc 1 56 0
 298 0022 BDE80840 		pop	{r3, lr}
 299              		.loc 1 55 0
 300 0026 FFF7FEBF 		b	_port_irq_epilogue
 301              	.LVL19:
 302              		.cfi_endproc
 303              	.LFE7:
 304              		.size	SysTickVector, .-SysTickVector
 305 002a 00BFAFF3 		.section	.text._port_switch,"ax",%progbits
 305      0080
 306              		.align	2
 307              		.p2align 4,,15
 308              		.global	_port_switch
 309              		.thumb
 310              		.thumb_func
 311              		.type	_port_switch, %function
 312              	_port_switch:
 313              	.LFB12:
 314              		.loc 1 226 0
 315              		.cfi_startproc
 316              		@ Naked Function: prologue and epilogue provided by programmer.
 317              		@ args = 0, pretend = 0, frame = 0
 318              		@ frame_needed = 0, uses_anonymous_args = 0
 319              	.LVL20:
 320              		.loc 1 228 0
 321              	@ 228 "../../../os/ports/GCC/ARMCMx/chcore_v7m.c" 1
 322 0000 2DE9F04F 		push    {r4, r5, r6, r7, r8, r9, r10, r11, lr}
 323              	@ 0 "" 2
 324              		.loc 1 234 0
 325              	@ 234 "../../../os/ports/GCC/ARMCMx/chcore_v7m.c" 1
 326 0004 C1F80CD0 		str     sp, [r1, #12]                          
 327 0008 D0F80CD0 		ldr     sp, [r0, #12]
 328              	@ 0 "" 2
 329              		.loc 1 240 0
 330              	@ 240 "../../../os/ports/GCC/ARMCMx/chcore_v7m.c" 1
 331 000c BDE8F08F 		pop     {r4, r5, r6, r7, r8, r9, r10, r11, pc}
 332              	@ 0 "" 2
 333              		.loc 1 242 0
 334              		.thumb
 335              		.cfi_endproc
 336              	.LFE12:
 337              		.size	_port_switch, .-_port_switch
 338              		.section	.text._port_thread_start,"ax",%progbits
ARM GAS  /tmp/cc28dqBY.s 			page 7


 339              		.align	2
 340              		.p2align 4,,15
 341              		.global	_port_thread_start
 342              		.thumb
 343              		.thumb_func
 344              		.type	_port_thread_start, %function
 345              	_port_thread_start:
 346              	.LFB13:
 347              		.loc 1 249 0
 348              		.cfi_startproc
 349              		@ args = 0, pretend = 0, frame = 0
 350              		@ frame_needed = 0, uses_anonymous_args = 0
 351 0000 08B5     		push	{r3, lr}
 352              		.cfi_def_cfa_offset 8
 353              		.cfi_offset 3, -8
 354              		.cfi_offset 14, -4
 355              		.loc 1 251 0
 356 0002 FFF7FEFF 		bl	dbg_check_unlock
 357              	.LVL21:
 358              	.LBB9:
 359 0006 0023     		movs	r3, #0
 360              	@ 251 "../../../os/ports/GCC/ARMCMx/chcore_v7m.c" 1
 361 0008 83F31188 		msr     BASEPRI, r3
 362              	@ 0 "" 2
 363              		.thumb
 364              	.LBE9:
 365              		.loc 1 252 0
 366              	@ 252 "../../../os/ports/GCC/ARMCMx/chcore_v7m.c" 1
 367 000c 2846     		mov     r0, r5                                 
 368 000e A047     		blx     r4                                     
 369 0010 FFF7FEFF 		bl      chThdExit
 370              	@ 0 "" 2
 371              		.thumb
 372 0014 08BD     		pop	{r3, pc}
 373              		.cfi_endproc
 374              	.LFE13:
 375              		.size	_port_thread_start, .-_port_thread_start
 376 0016 00BFAFF3 		.text
 376      0080AFF3 
 376      0080
 377              	.Letext0:
 378              		.file 2 "/opt/ARM/arm-none-eabi/include/machine/_default_types.h"
 379              		.file 3 "/opt/ARM/arm-none-eabi/include/stdint.h"
 380              		.file 4 "../../../os/ports/GCC/ARMCMx/chtypes.h"
 381              		.file 5 "../../../os/kernel/include/chlists.h"
 382              		.file 6 "../../../os/kernel/include/chthreads.h"
 383              		.file 7 "../../../os/ports/GCC/ARMCMx/chcore_v7m.h"
 384              		.file 8 "../../../os/ports/common/ARMCMx/nvic.h"
 385              		.file 9 "../../../os/kernel/include/chschd.h"
 386              		.file 10 "../../../os/kernel/include/chmtx.h"
 387              		.file 11 "../../../os/kernel/include/chdebug.h"
 388              		.file 12 "../../../os/kernel/include/chsys.h"
 389              		.section	.debug_info,"",%progbits
 390              	.Ldebug_info0:
 391 0000 8E080000 		.4byte	0x88e
 392 0004 0400     		.2byte	0x4
 393 0006 00000000 		.4byte	.Ldebug_abbrev0
ARM GAS  /tmp/cc28dqBY.s 			page 8


 394 000a 04       		.byte	0x4
 395 000b 01       		.uleb128 0x1
 396 000c CF030000 		.4byte	.LASF106
 397 0010 01       		.byte	0x1
 398 0011 E0010000 		.4byte	.LASF107
 399 0015 62020000 		.4byte	.LASF108
 400 0019 18000000 		.4byte	.Ldebug_ranges0+0x18
 401 001d 00000000 		.4byte	0
 402 0021 00000000 		.4byte	.Ldebug_line0
 403 0025 02       		.uleb128 0x2
 404 0026 04       		.byte	0x4
 405 0027 05       		.byte	0x5
 406 0028 696E7400 		.ascii	"int\000"
 407 002c 03       		.uleb128 0x3
 408 002d 04       		.byte	0x4
 409 002e 07       		.byte	0x7
 410 002f 65010000 		.4byte	.LASF0
 411 0033 03       		.uleb128 0x3
 412 0034 01       		.byte	0x1
 413 0035 06       		.byte	0x6
 414 0036 84000000 		.4byte	.LASF1
 415 003a 04       		.uleb128 0x4
 416 003b 16000000 		.4byte	.LASF5
 417 003f 02       		.byte	0x2
 418 0040 1C       		.byte	0x1c
 419 0041 45000000 		.4byte	0x45
 420 0045 03       		.uleb128 0x3
 421 0046 01       		.byte	0x1
 422 0047 08       		.byte	0x8
 423 0048 36030000 		.4byte	.LASF2
 424 004c 03       		.uleb128 0x3
 425 004d 02       		.byte	0x2
 426 004e 05       		.byte	0x5
 427 004f 54030000 		.4byte	.LASF3
 428 0053 03       		.uleb128 0x3
 429 0054 02       		.byte	0x2
 430 0055 07       		.byte	0x7
 431 0056 C2010000 		.4byte	.LASF4
 432 005a 04       		.uleb128 0x4
 433 005b C5040000 		.4byte	.LASF6
 434 005f 02       		.byte	0x2
 435 0060 37       		.byte	0x37
 436 0061 65000000 		.4byte	0x65
 437 0065 03       		.uleb128 0x3
 438 0066 04       		.byte	0x4
 439 0067 05       		.byte	0x5
 440 0068 C4000000 		.4byte	.LASF7
 441 006c 04       		.uleb128 0x4
 442 006d 03010000 		.4byte	.LASF8
 443 0071 02       		.byte	0x2
 444 0072 38       		.byte	0x38
 445 0073 77000000 		.4byte	0x77
 446 0077 03       		.uleb128 0x3
 447 0078 04       		.byte	0x4
 448 0079 07       		.byte	0x7
 449 007a 8D010000 		.4byte	.LASF9
 450 007e 03       		.uleb128 0x3
ARM GAS  /tmp/cc28dqBY.s 			page 9


 451 007f 08       		.byte	0x8
 452 0080 05       		.byte	0x5
 453 0081 76000000 		.4byte	.LASF10
 454 0085 04       		.uleb128 0x4
 455 0086 FC020000 		.4byte	.LASF11
 456 008a 02       		.byte	0x2
 457 008b 4E       		.byte	0x4e
 458 008c 90000000 		.4byte	0x90
 459 0090 03       		.uleb128 0x3
 460 0091 08       		.byte	0x8
 461 0092 07       		.byte	0x7
 462 0093 49000000 		.4byte	.LASF12
 463 0097 04       		.uleb128 0x4
 464 0098 1D050000 		.4byte	.LASF13
 465 009c 03       		.byte	0x3
 466 009d 2A       		.byte	0x2a
 467 009e 3A000000 		.4byte	0x3a
 468 00a2 04       		.uleb128 0x4
 469 00a3 2E030000 		.4byte	.LASF14
 470 00a7 03       		.byte	0x3
 471 00a8 41       		.byte	0x41
 472 00a9 5A000000 		.4byte	0x5a
 473 00ad 04       		.uleb128 0x4
 474 00ae A4030000 		.4byte	.LASF15
 475 00b2 03       		.byte	0x3
 476 00b3 42       		.byte	0x42
 477 00b4 6C000000 		.4byte	0x6c
 478 00b8 04       		.uleb128 0x4
 479 00b9 0D000000 		.4byte	.LASF16
 480 00bd 03       		.byte	0x3
 481 00be 4E       		.byte	0x4e
 482 00bf 85000000 		.4byte	0x85
 483 00c3 03       		.uleb128 0x3
 484 00c4 01       		.byte	0x1
 485 00c5 02       		.byte	0x2
 486 00c6 28030000 		.4byte	.LASF17
 487 00ca 04       		.uleb128 0x4
 488 00cb 31020000 		.4byte	.LASF18
 489 00cf 04       		.byte	0x4
 490 00d0 2C       		.byte	0x2c
 491 00d1 97000000 		.4byte	0x97
 492 00d5 04       		.uleb128 0x4
 493 00d6 DA000000 		.4byte	.LASF19
 494 00da 04       		.byte	0x4
 495 00db 2D       		.byte	0x2d
 496 00dc 97000000 		.4byte	0x97
 497 00e0 04       		.uleb128 0x4
 498 00e1 07030000 		.4byte	.LASF20
 499 00e5 04       		.byte	0x4
 500 00e6 2E       		.byte	0x2e
 501 00e7 97000000 		.4byte	0x97
 502 00eb 04       		.uleb128 0x4
 503 00ec BA000000 		.4byte	.LASF21
 504 00f0 04       		.byte	0x4
 505 00f1 2F       		.byte	0x2f
 506 00f2 97000000 		.4byte	0x97
 507 00f6 04       		.uleb128 0x4
ARM GAS  /tmp/cc28dqBY.s 			page 10


 508 00f7 20030000 		.4byte	.LASF22
 509 00fb 04       		.byte	0x4
 510 00fc 30       		.byte	0x30
 511 00fd AD000000 		.4byte	0xad
 512 0101 04       		.uleb128 0x4
 513 0102 DA010000 		.4byte	.LASF23
 514 0106 04       		.byte	0x4
 515 0107 31       		.byte	0x31
 516 0108 A2000000 		.4byte	0xa2
 517 010c 04       		.uleb128 0x4
 518 010d 45020000 		.4byte	.LASF24
 519 0111 04       		.byte	0x4
 520 0112 33       		.byte	0x33
 521 0113 AD000000 		.4byte	0xad
 522 0117 04       		.uleb128 0x4
 523 0118 B0040000 		.4byte	.LASF25
 524 011c 04       		.byte	0x4
 525 011d 35       		.byte	0x35
 526 011e AD000000 		.4byte	0xad
 527 0122 04       		.uleb128 0x4
 528 0123 92030000 		.4byte	.LASF26
 529 0127 05       		.byte	0x5
 530 0128 2A       		.byte	0x2a
 531 0129 2D010000 		.4byte	0x12d
 532 012d 05       		.uleb128 0x5
 533 012e 92030000 		.4byte	.LASF26
 534 0132 4C       		.byte	0x4c
 535 0133 06       		.byte	0x6
 536 0134 5E       		.byte	0x5e
 537 0135 36020000 		.4byte	0x236
 538 0139 06       		.uleb128 0x6
 539 013a 83030000 		.4byte	.LASF27
 540 013e 06       		.byte	0x6
 541 013f 5F       		.byte	0x5f
 542 0140 57020000 		.4byte	0x257
 543 0144 00       		.byte	0
 544 0145 06       		.uleb128 0x6
 545 0146 19030000 		.4byte	.LASF28
 546 014a 06       		.byte	0x6
 547 014b 61       		.byte	0x61
 548 014c 57020000 		.4byte	0x257
 549 0150 04       		.byte	0x4
 550 0151 06       		.uleb128 0x6
 551 0152 6F000000 		.4byte	.LASF29
 552 0156 06       		.byte	0x6
 553 0157 63       		.byte	0x63
 554 0158 F6000000 		.4byte	0xf6
 555 015c 08       		.byte	0x8
 556 015d 06       		.uleb128 0x6
 557 015e 69050000 		.4byte	.LASF30
 558 0162 06       		.byte	0x6
 559 0163 64       		.byte	0x64
 560 0164 84030000 		.4byte	0x384
 561 0168 0C       		.byte	0xc
 562 0169 06       		.uleb128 0x6
 563 016a F6000000 		.4byte	.LASF31
 564 016e 06       		.byte	0x6
ARM GAS  /tmp/cc28dqBY.s 			page 11


 565 016f 66       		.byte	0x66
 566 0170 57020000 		.4byte	0x257
 567 0174 10       		.byte	0x10
 568 0175 06       		.uleb128 0x6
 569 0176 BE020000 		.4byte	.LASF32
 570 017a 06       		.byte	0x6
 571 017b 67       		.byte	0x67
 572 017c 57020000 		.4byte	0x257
 573 0180 14       		.byte	0x14
 574 0181 06       		.uleb128 0x6
 575 0182 4F050000 		.4byte	.LASF33
 576 0186 06       		.byte	0x6
 577 0187 6E       		.byte	0x6e
 578 0188 FD050000 		.4byte	0x5fd
 579 018c 18       		.byte	0x18
 580 018d 06       		.uleb128 0x6
 581 018e 5A010000 		.4byte	.LASF34
 582 0192 06       		.byte	0x6
 583 0193 74       		.byte	0x74
 584 0194 0F060000 		.4byte	0x60f
 585 0198 1C       		.byte	0x1c
 586 0199 06       		.uleb128 0x6
 587 019a 5E030000 		.4byte	.LASF35
 588 019e 06       		.byte	0x6
 589 019f 79       		.byte	0x79
 590 01a0 D5000000 		.4byte	0xd5
 591 01a4 20       		.byte	0x20
 592 01a5 06       		.uleb128 0x6
 593 01a6 8A030000 		.4byte	.LASF36
 594 01aa 06       		.byte	0x6
 595 01ab 7D       		.byte	0x7d
 596 01ac CA000000 		.4byte	0xca
 597 01b0 21       		.byte	0x21
 598 01b1 06       		.uleb128 0x6
 599 01b2 01050000 		.4byte	.LASF37
 600 01b6 06       		.byte	0x6
 601 01b7 82       		.byte	0x82
 602 01b8 E0000000 		.4byte	0xe0
 603 01bc 22       		.byte	0x22
 604 01bd 06       		.uleb128 0x6
 605 01be 66030000 		.4byte	.LASF38
 606 01c2 06       		.byte	0x6
 607 01c3 88       		.byte	0x88
 608 01c4 EB000000 		.4byte	0xeb
 609 01c8 23       		.byte	0x23
 610 01c9 06       		.uleb128 0x6
 611 01ca CF040000 		.4byte	.LASF39
 612 01ce 06       		.byte	0x6
 613 01cf 8F       		.byte	0x8f
 614 01d0 25050000 		.4byte	0x525
 615 01d4 24       		.byte	0x24
 616 01d5 07       		.uleb128 0x7
 617 01d6 705F7500 		.ascii	"p_u\000"
 618 01da 06       		.byte	0x6
 619 01db B4       		.byte	0xb4
 620 01dc C8050000 		.4byte	0x5c8
 621 01e0 28       		.byte	0x28
ARM GAS  /tmp/cc28dqBY.s 			page 12


 622 01e1 06       		.uleb128 0x6
 623 01e2 6F050000 		.4byte	.LASF40
 624 01e6 06       		.byte	0x6
 625 01e7 B9       		.byte	0xb9
 626 01e8 7D020000 		.4byte	0x27d
 627 01ec 2C       		.byte	0x2c
 628 01ed 06       		.uleb128 0x6
 629 01ee F6040000 		.4byte	.LASF41
 630 01f2 06       		.byte	0x6
 631 01f3 BF       		.byte	0xbf
 632 01f4 5D020000 		.4byte	0x25d
 633 01f8 30       		.byte	0x30
 634 01f9 06       		.uleb128 0x6
 635 01fa 00000000 		.4byte	.LASF42
 636 01fe 06       		.byte	0x6
 637 01ff C3       		.byte	0xc3
 638 0200 01010000 		.4byte	0x101
 639 0204 38       		.byte	0x38
 640 0205 06       		.uleb128 0x6
 641 0206 99030000 		.4byte	.LASF43
 642 020a 06       		.byte	0x6
 643 020b C9       		.byte	0xc9
 644 020c 0C010000 		.4byte	0x10c
 645 0210 3C       		.byte	0x3c
 646 0211 06       		.uleb128 0x6
 647 0212 4A030000 		.4byte	.LASF44
 648 0216 06       		.byte	0x6
 649 0217 D0       		.byte	0xd0
 650 0218 15060000 		.4byte	0x615
 651 021c 40       		.byte	0x40
 652 021d 06       		.uleb128 0x6
 653 021e BA040000 		.4byte	.LASF45
 654 0222 06       		.byte	0x6
 655 0223 D4       		.byte	0xd4
 656 0224 F6000000 		.4byte	0xf6
 657 0228 44       		.byte	0x44
 658 0229 06       		.uleb128 0x6
 659 022a AA000000 		.4byte	.LASF46
 660 022e 06       		.byte	0x6
 661 022f DA       		.byte	0xda
 662 0230 93020000 		.4byte	0x293
 663 0234 48       		.byte	0x48
 664 0235 00       		.byte	0
 665 0236 08       		.uleb128 0x8
 666 0237 08       		.byte	0x8
 667 0238 05       		.byte	0x5
 668 0239 61       		.byte	0x61
 669 023a 57020000 		.4byte	0x257
 670 023e 06       		.uleb128 0x6
 671 023f 83030000 		.4byte	.LASF27
 672 0243 05       		.byte	0x5
 673 0244 62       		.byte	0x62
 674 0245 57020000 		.4byte	0x257
 675 0249 00       		.byte	0
 676 024a 06       		.uleb128 0x6
 677 024b 19030000 		.4byte	.LASF28
 678 024f 05       		.byte	0x5
ARM GAS  /tmp/cc28dqBY.s 			page 13


 679 0250 64       		.byte	0x64
 680 0251 57020000 		.4byte	0x257
 681 0255 04       		.byte	0x4
 682 0256 00       		.byte	0
 683 0257 09       		.uleb128 0x9
 684 0258 04       		.byte	0x4
 685 0259 22010000 		.4byte	0x122
 686 025d 04       		.uleb128 0x4
 687 025e CC020000 		.4byte	.LASF47
 688 0262 05       		.byte	0x5
 689 0263 66       		.byte	0x66
 690 0264 36020000 		.4byte	0x236
 691 0268 08       		.uleb128 0x8
 692 0269 04       		.byte	0x4
 693 026a 05       		.byte	0x5
 694 026b 6B       		.byte	0x6b
 695 026c 7D020000 		.4byte	0x27d
 696 0270 06       		.uleb128 0x6
 697 0271 83030000 		.4byte	.LASF27
 698 0275 05       		.byte	0x5
 699 0276 6D       		.byte	0x6d
 700 0277 57020000 		.4byte	0x257
 701 027b 00       		.byte	0
 702 027c 00       		.byte	0
 703 027d 04       		.uleb128 0x4
 704 027e 39020000 		.4byte	.LASF48
 705 0282 05       		.byte	0x5
 706 0283 70       		.byte	0x70
 707 0284 68020000 		.4byte	0x268
 708 0288 04       		.uleb128 0x4
 709 0289 2B010000 		.4byte	.LASF49
 710 028d 07       		.byte	0x7
 711 028e E5       		.byte	0xe5
 712 028f 93020000 		.4byte	0x293
 713 0293 0A       		.uleb128 0xa
 714 0294 04       		.byte	0x4
 715 0295 04       		.uleb128 0x4
 716 0296 57020000 		.4byte	.LASF50
 717 029a 07       		.byte	0x7
 718 029b EB       		.byte	0xeb
 719 029c B8000000 		.4byte	0xb8
 720 02a0 05       		.uleb128 0x5
 721 02a1 79010000 		.4byte	.LASF51
 722 02a5 20       		.byte	0x20
 723 02a6 07       		.byte	0x7
 724 02a7 ED       		.byte	0xed
 725 02a8 08030000 		.4byte	0x308
 726 02ac 07       		.uleb128 0x7
 727 02ad 723000   		.ascii	"r0\000"
 728 02b0 07       		.byte	0x7
 729 02b1 EE       		.byte	0xee
 730 02b2 88020000 		.4byte	0x288
 731 02b6 00       		.byte	0
 732 02b7 07       		.uleb128 0x7
 733 02b8 723100   		.ascii	"r1\000"
 734 02bb 07       		.byte	0x7
 735 02bc EF       		.byte	0xef
ARM GAS  /tmp/cc28dqBY.s 			page 14


 736 02bd 88020000 		.4byte	0x288
 737 02c1 04       		.byte	0x4
 738 02c2 07       		.uleb128 0x7
 739 02c3 723200   		.ascii	"r2\000"
 740 02c6 07       		.byte	0x7
 741 02c7 F0       		.byte	0xf0
 742 02c8 88020000 		.4byte	0x288
 743 02cc 08       		.byte	0x8
 744 02cd 07       		.uleb128 0x7
 745 02ce 723300   		.ascii	"r3\000"
 746 02d1 07       		.byte	0x7
 747 02d2 F1       		.byte	0xf1
 748 02d3 88020000 		.4byte	0x288
 749 02d7 0C       		.byte	0xc
 750 02d8 07       		.uleb128 0x7
 751 02d9 72313200 		.ascii	"r12\000"
 752 02dd 07       		.byte	0x7
 753 02de F2       		.byte	0xf2
 754 02df 88020000 		.4byte	0x288
 755 02e3 10       		.byte	0x10
 756 02e4 06       		.uleb128 0x6
 757 02e5 72010000 		.4byte	.LASF52
 758 02e9 07       		.byte	0x7
 759 02ea F3       		.byte	0xf3
 760 02eb 88020000 		.4byte	0x288
 761 02ef 14       		.byte	0x14
 762 02f0 07       		.uleb128 0x7
 763 02f1 706300   		.ascii	"pc\000"
 764 02f4 07       		.byte	0x7
 765 02f5 F4       		.byte	0xf4
 766 02f6 88020000 		.4byte	0x288
 767 02fa 18       		.byte	0x18
 768 02fb 06       		.uleb128 0x6
 769 02fc 70030000 		.4byte	.LASF53
 770 0300 07       		.byte	0x7
 771 0301 F5       		.byte	0xf5
 772 0302 88020000 		.4byte	0x288
 773 0306 1C       		.byte	0x1c
 774 0307 00       		.byte	0
 775 0308 0B       		.uleb128 0xb
 776 0309 EF040000 		.4byte	.LASF54
 777 030d 24       		.byte	0x24
 778 030e 07       		.byte	0x7
 779 030f 0C01     		.2byte	0x10c
 780 0311 84030000 		.4byte	0x384
 781 0315 0C       		.uleb128 0xc
 782 0316 723400   		.ascii	"r4\000"
 783 0319 07       		.byte	0x7
 784 031a 1F01     		.2byte	0x11f
 785 031c 88020000 		.4byte	0x288
 786 0320 00       		.byte	0
 787 0321 0C       		.uleb128 0xc
 788 0322 723500   		.ascii	"r5\000"
 789 0325 07       		.byte	0x7
 790 0326 2001     		.2byte	0x120
 791 0328 88020000 		.4byte	0x288
 792 032c 04       		.byte	0x4
ARM GAS  /tmp/cc28dqBY.s 			page 15


 793 032d 0C       		.uleb128 0xc
 794 032e 723600   		.ascii	"r6\000"
 795 0331 07       		.byte	0x7
 796 0332 2101     		.2byte	0x121
 797 0334 88020000 		.4byte	0x288
 798 0338 08       		.byte	0x8
 799 0339 0C       		.uleb128 0xc
 800 033a 723700   		.ascii	"r7\000"
 801 033d 07       		.byte	0x7
 802 033e 2201     		.2byte	0x122
 803 0340 88020000 		.4byte	0x288
 804 0344 0C       		.byte	0xc
 805 0345 0C       		.uleb128 0xc
 806 0346 723800   		.ascii	"r8\000"
 807 0349 07       		.byte	0x7
 808 034a 2301     		.2byte	0x123
 809 034c 88020000 		.4byte	0x288
 810 0350 10       		.byte	0x10
 811 0351 0C       		.uleb128 0xc
 812 0352 723900   		.ascii	"r9\000"
 813 0355 07       		.byte	0x7
 814 0356 2401     		.2byte	0x124
 815 0358 88020000 		.4byte	0x288
 816 035c 14       		.byte	0x14
 817 035d 0C       		.uleb128 0xc
 818 035e 72313000 		.ascii	"r10\000"
 819 0362 07       		.byte	0x7
 820 0363 2501     		.2byte	0x125
 821 0365 88020000 		.4byte	0x288
 822 0369 18       		.byte	0x18
 823 036a 0C       		.uleb128 0xc
 824 036b 72313100 		.ascii	"r11\000"
 825 036f 07       		.byte	0x7
 826 0370 2601     		.2byte	0x126
 827 0372 88020000 		.4byte	0x288
 828 0376 1C       		.byte	0x1c
 829 0377 0C       		.uleb128 0xc
 830 0378 6C7200   		.ascii	"lr\000"
 831 037b 07       		.byte	0x7
 832 037c 2701     		.2byte	0x127
 833 037e 88020000 		.4byte	0x288
 834 0382 20       		.byte	0x20
 835 0383 00       		.byte	0
 836 0384 0B       		.uleb128 0xb
 837 0385 BA010000 		.4byte	.LASF55
 838 0389 04       		.byte	0x4
 839 038a 07       		.byte	0x7
 840 038b 3101     		.2byte	0x131
 841 038d 9F030000 		.4byte	0x39f
 842 0391 0C       		.uleb128 0xc
 843 0392 72313300 		.ascii	"r13\000"
 844 0396 07       		.byte	0x7
 845 0397 3201     		.2byte	0x132
 846 0399 9F030000 		.4byte	0x39f
 847 039d 00       		.byte	0
 848 039e 00       		.byte	0
 849 039f 09       		.uleb128 0x9
ARM GAS  /tmp/cc28dqBY.s 			page 16


 850 03a0 04       		.byte	0x4
 851 03a1 08030000 		.4byte	0x308
 852 03a5 04       		.uleb128 0x4
 853 03a6 C7030000 		.4byte	.LASF56
 854 03aa 08       		.byte	0x8
 855 03ab 3A       		.byte	0x3a
 856 03ac B0030000 		.4byte	0x3b0
 857 03b0 0D       		.uleb128 0xd
 858 03b1 AD000000 		.4byte	0xad
 859 03b5 03       		.uleb128 0x3
 860 03b6 04       		.byte	0x4
 861 03b7 07       		.byte	0x7
 862 03b8 A1020000 		.4byte	.LASF57
 863 03bc 08       		.uleb128 0x8
 864 03bd 8C       		.byte	0x8c
 865 03be 08       		.byte	0x8
 866 03bf 89       		.byte	0x89
 867 03c0 C1040000 		.4byte	0x4c1
 868 03c4 06       		.uleb128 0x6
 869 03c5 69000000 		.4byte	.LASF58
 870 03c9 08       		.byte	0x8
 871 03ca 8A       		.byte	0x8a
 872 03cb A5030000 		.4byte	0x3a5
 873 03cf 00       		.byte	0
 874 03d0 06       		.uleb128 0x6
 875 03d1 D5010000 		.4byte	.LASF59
 876 03d5 08       		.byte	0x8
 877 03d6 8B       		.byte	0x8b
 878 03d7 A5030000 		.4byte	0x3a5
 879 03db 04       		.byte	0x4
 880 03dc 06       		.uleb128 0x6
 881 03dd 9F010000 		.4byte	.LASF60
 882 03e1 08       		.byte	0x8
 883 03e2 8C       		.byte	0x8c
 884 03e3 A5030000 		.4byte	0x3a5
 885 03e7 08       		.byte	0x8
 886 03e8 06       		.uleb128 0x6
 887 03e9 0A020000 		.4byte	.LASF61
 888 03ed 08       		.byte	0x8
 889 03ee 8D       		.byte	0x8d
 890 03ef A5030000 		.4byte	0x3a5
 891 03f3 0C       		.byte	0xc
 892 03f4 07       		.uleb128 0x7
 893 03f5 53435200 		.ascii	"SCR\000"
 894 03f9 08       		.byte	0x8
 895 03fa 8E       		.byte	0x8e
 896 03fb A5030000 		.4byte	0x3a5
 897 03ff 10       		.byte	0x10
 898 0400 07       		.uleb128 0x7
 899 0401 43435200 		.ascii	"CCR\000"
 900 0405 08       		.byte	0x8
 901 0406 8F       		.byte	0x8f
 902 0407 A5030000 		.4byte	0x3a5
 903 040b 14       		.byte	0x14
 904 040c 06       		.uleb128 0x6
 905 040d D6040000 		.4byte	.LASF62
 906 0411 08       		.byte	0x8
ARM GAS  /tmp/cc28dqBY.s 			page 17


 907 0412 90       		.byte	0x90
 908 0413 D1040000 		.4byte	0x4d1
 909 0417 18       		.byte	0x18
 910 0418 06       		.uleb128 0x6
 911 0419 44030000 		.4byte	.LASF63
 912 041d 08       		.byte	0x8
 913 041e 91       		.byte	0x91
 914 041f A5030000 		.4byte	0x3a5
 915 0423 24       		.byte	0x24
 916 0424 06       		.uleb128 0x6
 917 0425 B9020000 		.4byte	.LASF64
 918 0429 08       		.byte	0x8
 919 042a 92       		.byte	0x92
 920 042b A5030000 		.4byte	0x3a5
 921 042f 28       		.byte	0x28
 922 0430 06       		.uleb128 0x6
 923 0431 5C050000 		.4byte	.LASF65
 924 0435 08       		.byte	0x8
 925 0436 93       		.byte	0x93
 926 0437 A5030000 		.4byte	0x3a5
 927 043b 2C       		.byte	0x2c
 928 043c 06       		.uleb128 0x6
 929 043d 0F030000 		.4byte	.LASF66
 930 0441 08       		.byte	0x8
 931 0442 94       		.byte	0x94
 932 0443 A5030000 		.4byte	0x3a5
 933 0447 30       		.byte	0x30
 934 0448 06       		.uleb128 0x6
 935 0449 18020000 		.4byte	.LASF67
 936 044d 08       		.byte	0x8
 937 044e 95       		.byte	0x95
 938 044f A5030000 		.4byte	0x3a5
 939 0453 34       		.byte	0x34
 940 0454 06       		.uleb128 0x6
 941 0455 FE000000 		.4byte	.LASF68
 942 0459 08       		.byte	0x8
 943 045a 96       		.byte	0x96
 944 045b A5030000 		.4byte	0x3a5
 945 045f 38       		.byte	0x38
 946 0460 06       		.uleb128 0x6
 947 0461 B5030000 		.4byte	.LASF69
 948 0465 08       		.byte	0x8
 949 0466 97       		.byte	0x97
 950 0467 A5030000 		.4byte	0x3a5
 951 046b 3C       		.byte	0x3c
 952 046c 07       		.uleb128 0x7
 953 046d 50465200 		.ascii	"PFR\000"
 954 0471 08       		.byte	0x8
 955 0472 98       		.byte	0x98
 956 0473 E6040000 		.4byte	0x4e6
 957 0477 40       		.byte	0x40
 958 0478 07       		.uleb128 0x7
 959 0479 44465200 		.ascii	"DFR\000"
 960 047d 08       		.byte	0x8
 961 047e 99       		.byte	0x99
 962 047f A5030000 		.4byte	0x3a5
 963 0483 48       		.byte	0x48
ARM GAS  /tmp/cc28dqBY.s 			page 18


 964 0484 07       		.uleb128 0x7
 965 0485 41445200 		.ascii	"ADR\000"
 966 0489 08       		.byte	0x8
 967 048a 9A       		.byte	0x9a
 968 048b A5030000 		.4byte	0x3a5
 969 048f 4C       		.byte	0x4c
 970 0490 06       		.uleb128 0x6
 971 0491 12050000 		.4byte	.LASF70
 972 0495 08       		.byte	0x8
 973 0496 9B       		.byte	0x9b
 974 0497 FB040000 		.4byte	0x4fb
 975 049b 50       		.byte	0x50
 976 049c 07       		.uleb128 0x7
 977 049d 53415200 		.ascii	"SAR\000"
 978 04a1 08       		.byte	0x8
 979 04a2 9C       		.byte	0x9c
 980 04a3 10050000 		.4byte	0x510
 981 04a7 60       		.byte	0x60
 982 04a8 06       		.uleb128 0x6
 983 04a9 BA030000 		.4byte	.LASF71
 984 04ad 08       		.byte	0x8
 985 04ae 9D       		.byte	0x9d
 986 04af 15050000 		.4byte	0x515
 987 04b3 74       		.byte	0x74
 988 04b4 06       		.uleb128 0x6
 989 04b5 56050000 		.4byte	.LASF72
 990 04b9 08       		.byte	0x8
 991 04ba 9E       		.byte	0x9e
 992 04bb A5030000 		.4byte	0x3a5
 993 04bf 88       		.byte	0x88
 994 04c0 00       		.byte	0
 995 04c1 0E       		.uleb128 0xe
 996 04c2 A5030000 		.4byte	0x3a5
 997 04c6 D1040000 		.4byte	0x4d1
 998 04ca 0F       		.uleb128 0xf
 999 04cb B5030000 		.4byte	0x3b5
 1000 04cf 02       		.byte	0x2
 1001 04d0 00       		.byte	0
 1002 04d1 0D       		.uleb128 0xd
 1003 04d2 C1040000 		.4byte	0x4c1
 1004 04d6 0E       		.uleb128 0xe
 1005 04d7 A5030000 		.4byte	0x3a5
 1006 04db E6040000 		.4byte	0x4e6
 1007 04df 0F       		.uleb128 0xf
 1008 04e0 B5030000 		.4byte	0x3b5
 1009 04e4 01       		.byte	0x1
 1010 04e5 00       		.byte	0
 1011 04e6 0D       		.uleb128 0xd
 1012 04e7 D6040000 		.4byte	0x4d6
 1013 04eb 0E       		.uleb128 0xe
 1014 04ec A5030000 		.4byte	0x3a5
 1015 04f0 FB040000 		.4byte	0x4fb
 1016 04f4 0F       		.uleb128 0xf
 1017 04f5 B5030000 		.4byte	0x3b5
 1018 04f9 03       		.byte	0x3
 1019 04fa 00       		.byte	0
 1020 04fb 0D       		.uleb128 0xd
ARM GAS  /tmp/cc28dqBY.s 			page 19


 1021 04fc EB040000 		.4byte	0x4eb
 1022 0500 0E       		.uleb128 0xe
 1023 0501 A5030000 		.4byte	0x3a5
 1024 0505 10050000 		.4byte	0x510
 1025 0509 0F       		.uleb128 0xf
 1026 050a B5030000 		.4byte	0x3b5
 1027 050e 04       		.byte	0x4
 1028 050f 00       		.byte	0
 1029 0510 0D       		.uleb128 0xd
 1030 0511 00050000 		.4byte	0x500
 1031 0515 0D       		.uleb128 0xd
 1032 0516 00050000 		.4byte	0x500
 1033 051a 04       		.uleb128 0x4
 1034 051b 20000000 		.4byte	.LASF73
 1035 051f 08       		.byte	0x8
 1036 0520 9F       		.byte	0x9f
 1037 0521 BC030000 		.4byte	0x3bc
 1038 0525 0D       		.uleb128 0xd
 1039 0526 17010000 		.4byte	0x117
 1040 052a 08       		.uleb128 0x8
 1041 052b 1C       		.byte	0x1c
 1042 052c 09       		.byte	0x9
 1043 052d 5E       		.byte	0x5e
 1044 052e 7B050000 		.4byte	0x57b
 1045 0532 06       		.uleb128 0x6
 1046 0533 AD030000 		.4byte	.LASF74
 1047 0537 09       		.byte	0x9
 1048 0538 5F       		.byte	0x5f
 1049 0539 5D020000 		.4byte	0x25d
 1050 053d 00       		.byte	0
 1051 053e 06       		.uleb128 0x6
 1052 053f 75030000 		.4byte	.LASF75
 1053 0543 09       		.byte	0x9
 1054 0544 60       		.byte	0x60
 1055 0545 F6000000 		.4byte	0xf6
 1056 0549 08       		.byte	0x8
 1057 054a 06       		.uleb128 0x6
 1058 054b C6020000 		.4byte	.LASF76
 1059 054f 09       		.byte	0x9
 1060 0550 62       		.byte	0x62
 1061 0551 84030000 		.4byte	0x384
 1062 0555 0C       		.byte	0xc
 1063 0556 06       		.uleb128 0x6
 1064 0557 10020000 		.4byte	.LASF77
 1065 055b 09       		.byte	0x9
 1066 055c 65       		.byte	0x65
 1067 055d 57020000 		.4byte	0x257
 1068 0561 10       		.byte	0x10
 1069 0562 06       		.uleb128 0x6
 1070 0563 E3020000 		.4byte	.LASF78
 1071 0567 09       		.byte	0x9
 1072 0568 66       		.byte	0x66
 1073 0569 57020000 		.4byte	0x257
 1074 056d 14       		.byte	0x14
 1075 056e 06       		.uleb128 0x6
 1076 056f D9020000 		.4byte	.LASF79
 1077 0573 09       		.byte	0x9
ARM GAS  /tmp/cc28dqBY.s 			page 20


 1078 0574 69       		.byte	0x69
 1079 0575 57020000 		.4byte	0x257
 1080 0579 18       		.byte	0x18
 1081 057a 00       		.byte	0
 1082 057b 04       		.uleb128 0x4
 1083 057c 08050000 		.4byte	.LASF80
 1084 0580 09       		.byte	0x9
 1085 0581 6B       		.byte	0x6b
 1086 0582 2A050000 		.4byte	0x52a
 1087 0586 05       		.uleb128 0x5
 1088 0587 51020000 		.4byte	.LASF81
 1089 058b 10       		.byte	0x10
 1090 058c 0A       		.byte	0xa
 1091 058d 2C       		.byte	0x2c
 1092 058e B7050000 		.4byte	0x5b7
 1093 0592 06       		.uleb128 0x6
 1094 0593 B2000000 		.4byte	.LASF82
 1095 0597 0A       		.byte	0xa
 1096 0598 2D       		.byte	0x2d
 1097 0599 5D020000 		.4byte	0x25d
 1098 059d 00       		.byte	0
 1099 059e 06       		.uleb128 0x6
 1100 059f 61050000 		.4byte	.LASF83
 1101 05a3 0A       		.byte	0xa
 1102 05a4 2F       		.byte	0x2f
 1103 05a5 57020000 		.4byte	0x257
 1104 05a9 08       		.byte	0x8
 1105 05aa 06       		.uleb128 0x6
 1106 05ab A9040000 		.4byte	.LASF84
 1107 05af 0A       		.byte	0xa
 1108 05b0 31       		.byte	0x31
 1109 05b1 B7050000 		.4byte	0x5b7
 1110 05b5 0C       		.byte	0xc
 1111 05b6 00       		.byte	0
 1112 05b7 09       		.uleb128 0x9
 1113 05b8 04       		.byte	0x4
 1114 05b9 86050000 		.4byte	0x586
 1115 05bd 04       		.uleb128 0x4
 1116 05be 51020000 		.4byte	.LASF81
 1117 05c2 0A       		.byte	0xa
 1118 05c3 33       		.byte	0x33
 1119 05c4 86050000 		.4byte	0x586
 1120 05c8 10       		.uleb128 0x10
 1121 05c9 04       		.byte	0x4
 1122 05ca 06       		.byte	0x6
 1123 05cb 96       		.byte	0x96
 1124 05cc FD050000 		.4byte	0x5fd
 1125 05d0 11       		.uleb128 0x11
 1126 05d1 06000000 		.4byte	.LASF85
 1127 05d5 06       		.byte	0x6
 1128 05d6 9D       		.byte	0x9d
 1129 05d7 01010000 		.4byte	0x101
 1130 05db 11       		.uleb128 0x11
 1131 05dc 60000000 		.4byte	.LASF86
 1132 05e0 06       		.byte	0x6
 1133 05e1 A4       		.byte	0xa4
 1134 05e2 01010000 		.4byte	0x101
ARM GAS  /tmp/cc28dqBY.s 			page 21


 1135 05e6 11       		.uleb128 0x11
 1136 05e7 48050000 		.4byte	.LASF87
 1137 05eb 06       		.byte	0x6
 1138 05ec AB       		.byte	0xab
 1139 05ed 93020000 		.4byte	0x293
 1140 05f1 11       		.uleb128 0x11
 1141 05f2 7C030000 		.4byte	.LASF88
 1142 05f6 06       		.byte	0x6
 1143 05f7 B2       		.byte	0xb2
 1144 05f8 0C010000 		.4byte	0x10c
 1145 05fc 00       		.byte	0
 1146 05fd 09       		.uleb128 0x9
 1147 05fe 04       		.byte	0x4
 1148 05ff 03060000 		.4byte	0x603
 1149 0603 12       		.uleb128 0x12
 1150 0604 08060000 		.4byte	0x608
 1151 0608 03       		.uleb128 0x3
 1152 0609 01       		.byte	0x1
 1153 060a 08       		.byte	0x8
 1154 060b C2030000 		.4byte	.LASF89
 1155 060f 09       		.uleb128 0x9
 1156 0610 04       		.byte	0x4
 1157 0611 95020000 		.4byte	0x295
 1158 0615 09       		.uleb128 0x9
 1159 0616 04       		.byte	0x4
 1160 0617 BD050000 		.4byte	0x5bd
 1161 061b 13       		.uleb128 0x13
 1162 061c A4010000 		.4byte	.LASF90
 1163 0620 01       		.byte	0x1
 1164 0621 C5       		.byte	0xc5
 1165 0622 00000000 		.4byte	.LFB11
 1166 0626 0E000000 		.4byte	.LFE11-.LFB11
 1167 062a 01       		.uleb128 0x1
 1168 062b 9C       		.byte	0x9c
 1169 062c 4C060000 		.4byte	0x64c
 1170 0630 14       		.uleb128 0x14
 1171 0631 04000000 		.4byte	.LVL0
 1172 0635 42080000 		.4byte	0x842
 1173 0639 14       		.uleb128 0x14
 1174 063a 08000000 		.4byte	.LVL1
 1175 063e 49080000 		.4byte	0x849
 1176 0642 14       		.uleb128 0x14
 1177 0643 0C000000 		.4byte	.LVL2
 1178 0647 50080000 		.4byte	0x850
 1179 064b 00       		.byte	0
 1180 064c 13       		.uleb128 0x13
 1181 064d CD000000 		.4byte	.LASF91
 1182 0651 01       		.byte	0x1
 1183 0652 41       		.byte	0x41
 1184 0653 00000000 		.4byte	.LFB8
 1185 0657 12000000 		.4byte	.LFE8-.LFB8
 1186 065b 01       		.uleb128 0x1
 1187 065c 9C       		.byte	0x9c
 1188 065d 88060000 		.4byte	0x688
 1189 0661 15       		.uleb128 0x15
 1190 0662 14030000 		.4byte	.LASF92
 1191 0666 01       		.byte	0x1
ARM GAS  /tmp/cc28dqBY.s 			page 22


 1192 0667 42       		.byte	0x42
 1193 0668 88060000 		.4byte	0x688
 1194 066c 00000000 		.4byte	.LLST0
 1195 0670 16       		.uleb128 0x16
 1196 0671 0A000000 		.4byte	.LBB2
 1197 0675 08000000 		.4byte	.LBE2-.LBB2
 1198 0679 17       		.uleb128 0x17
 1199 067a 746D7000 		.ascii	"tmp\000"
 1200 067e 01       		.byte	0x1
 1201 067f 52       		.byte	0x52
 1202 0680 AD000000 		.4byte	0xad
 1203 0684 01       		.uleb128 0x1
 1204 0685 53       		.byte	0x53
 1205 0686 00       		.byte	0
 1206 0687 00       		.byte	0
 1207 0688 09       		.uleb128 0x9
 1208 0689 04       		.byte	0x4
 1209 068a A0020000 		.4byte	0x2a0
 1210 068e 13       		.uleb128 0x13
 1211 068f 25050000 		.4byte	.LASF93
 1212 0693 01       		.byte	0x1
 1213 0694 78       		.byte	0x78
 1214 0695 00000000 		.4byte	.LFB9
 1215 0699 30000000 		.4byte	.LFE9-.LFB9
 1216 069d 01       		.uleb128 0x1
 1217 069e 9C       		.byte	0x9c
 1218 069f EA060000 		.4byte	0x6ea
 1219 06a3 18       		.uleb128 0x18
 1220 06a4 14000000 		.4byte	.LVL6
 1221 06a8 57080000 		.4byte	0x857
 1222 06ac BB060000 		.4byte	0x6bb
 1223 06b0 19       		.uleb128 0x19
 1224 06b1 01       		.uleb128 0x1
 1225 06b2 51       		.byte	0x51
 1226 06b3 01       		.uleb128 0x1
 1227 06b4 40       		.byte	0x40
 1228 06b5 19       		.uleb128 0x19
 1229 06b6 01       		.uleb128 0x1
 1230 06b7 50       		.byte	0x50
 1231 06b8 01       		.uleb128 0x1
 1232 06b9 37       		.byte	0x37
 1233 06ba 00       		.byte	0
 1234 06bb 18       		.uleb128 0x18
 1235 06bc 1C000000 		.4byte	.LVL7
 1236 06c0 57080000 		.4byte	0x857
 1237 06c4 D4060000 		.4byte	0x6d4
 1238 06c8 19       		.uleb128 0x19
 1239 06c9 01       		.uleb128 0x1
 1240 06ca 51       		.byte	0x51
 1241 06cb 02       		.uleb128 0x2
 1242 06cc 08       		.byte	0x8
 1243 06cd 20       		.byte	0x20
 1244 06ce 19       		.uleb128 0x19
 1245 06cf 01       		.uleb128 0x1
 1246 06d0 50       		.byte	0x50
 1247 06d1 01       		.uleb128 0x1
 1248 06d2 3A       		.byte	0x3a
ARM GAS  /tmp/cc28dqBY.s 			page 23


 1249 06d3 00       		.byte	0
 1250 06d4 1A       		.uleb128 0x1a
 1251 06d5 28000000 		.4byte	.LVL8
 1252 06d9 57080000 		.4byte	0x857
 1253 06dd 19       		.uleb128 0x19
 1254 06de 01       		.uleb128 0x1
 1255 06df 51       		.byte	0x51
 1256 06e0 02       		.uleb128 0x2
 1257 06e1 08       		.byte	0x8
 1258 06e2 80       		.byte	0x80
 1259 06e3 19       		.uleb128 0x19
 1260 06e4 01       		.uleb128 0x1
 1261 06e5 50       		.byte	0x50
 1262 06e6 01       		.uleb128 0x1
 1263 06e7 3B       		.byte	0x3b
 1264 06e8 00       		.byte	0
 1265 06e9 00       		.byte	0
 1266 06ea 13       		.uleb128 0x13
 1267 06eb 1E020000 		.4byte	.LASF94
 1268 06ef 01       		.byte	0x1
 1269 06f0 96       		.byte	0x96
 1270 06f1 00000000 		.4byte	.LFB10
 1271 06f5 70000000 		.4byte	.LFE10-.LFB10
 1272 06f9 01       		.uleb128 0x1
 1273 06fa 9C       		.byte	0x9c
 1274 06fb 4B070000 		.4byte	0x74b
 1275 06ff 1B       		.uleb128 0x1b
 1276 0700 00000000 		.4byte	.LBB3
 1277 0704 06000000 		.4byte	.LBE3-.LBB3
 1278 0708 1A070000 		.4byte	0x71a
 1279 070c 17       		.uleb128 0x17
 1280 070d 746D7000 		.ascii	"tmp\000"
 1281 0711 01       		.byte	0x1
 1282 0712 98       		.byte	0x98
 1283 0713 AD000000 		.4byte	0xad
 1284 0717 01       		.uleb128 0x1
 1285 0718 53       		.byte	0x53
 1286 0719 00       		.byte	0
 1287 071a 1C       		.uleb128 0x1c
 1288 071b 00000000 		.4byte	.Ldebug_ranges0+0
 1289 071f 33070000 		.4byte	0x733
 1290 0723 15       		.uleb128 0x15
 1291 0724 14030000 		.4byte	.LASF92
 1292 0728 01       		.byte	0x1
 1293 0729 9A       		.byte	0x9a
 1294 072a 88060000 		.4byte	0x688
 1295 072e 20000000 		.4byte	.LLST1
 1296 0732 00       		.byte	0
 1297 0733 16       		.uleb128 0x16
 1298 0734 46000000 		.4byte	.LBB5
 1299 0738 06000000 		.4byte	.LBE5-.LBB5
 1300 073c 17       		.uleb128 0x17
 1301 073d 746D7000 		.ascii	"tmp\000"
 1302 0741 01       		.byte	0x1
 1303 0742 BB       		.byte	0xbb
 1304 0743 AD000000 		.4byte	0xad
 1305 0747 01       		.uleb128 0x1
ARM GAS  /tmp/cc28dqBY.s 			page 24


 1306 0748 53       		.byte	0x53
 1307 0749 00       		.byte	0
 1308 074a 00       		.byte	0
 1309 074b 13       		.uleb128 0x13
 1310 074c 3B000000 		.4byte	.LASF95
 1311 0750 01       		.byte	0x1
 1312 0751 2F       		.byte	0x2f
 1313 0752 00000000 		.4byte	.LFB7
 1314 0756 2A000000 		.4byte	.LFE7-.LFB7
 1315 075a 01       		.uleb128 0x1
 1316 075b 9C       		.byte	0x9c
 1317 075c CD070000 		.4byte	0x7cd
 1318 0760 1B       		.uleb128 0x1b
 1319 0761 06000000 		.4byte	.LBB7
 1320 0765 06000000 		.4byte	.LBE7-.LBB7
 1321 0769 7B070000 		.4byte	0x77b
 1322 076d 17       		.uleb128 0x17
 1323 076e 746D7000 		.ascii	"tmp\000"
 1324 0772 01       		.byte	0x1
 1325 0773 33       		.byte	0x33
 1326 0774 AD000000 		.4byte	0xad
 1327 0778 01       		.uleb128 0x1
 1328 0779 53       		.byte	0x53
 1329 077a 00       		.byte	0
 1330 077b 1B       		.uleb128 0x1b
 1331 077c 18000000 		.4byte	.LBB8
 1332 0780 06000000 		.4byte	.LBE8-.LBB8
 1333 0784 96070000 		.4byte	0x796
 1334 0788 17       		.uleb128 0x17
 1335 0789 746D7000 		.ascii	"tmp\000"
 1336 078d 01       		.byte	0x1
 1337 078e 35       		.byte	0x35
 1338 078f AD000000 		.4byte	0xad
 1339 0793 01       		.uleb128 0x1
 1340 0794 53       		.byte	0x53
 1341 0795 00       		.byte	0
 1342 0796 14       		.uleb128 0x14
 1343 0797 06000000 		.4byte	.LVL14
 1344 079b 6E080000 		.4byte	0x86e
 1345 079f 14       		.uleb128 0x14
 1346 07a0 10000000 		.4byte	.LVL15
 1347 07a4 75080000 		.4byte	0x875
 1348 07a8 14       		.uleb128 0x14
 1349 07a9 14000000 		.4byte	.LVL16
 1350 07ad 7C080000 		.4byte	0x87c
 1351 07b1 14       		.uleb128 0x14
 1352 07b2 18000000 		.4byte	.LVL17
 1353 07b6 83080000 		.4byte	0x883
 1354 07ba 14       		.uleb128 0x14
 1355 07bb 22000000 		.4byte	.LVL18
 1356 07bf 8A080000 		.4byte	0x88a
 1357 07c3 1D       		.uleb128 0x1d
 1358 07c4 2A000000 		.4byte	.LVL19
 1359 07c8 EA060000 		.4byte	0x6ea
 1360 07cc 00       		.byte	0
 1361 07cd 13       		.uleb128 0x13
 1362 07ce 80010000 		.4byte	.LASF96
ARM GAS  /tmp/cc28dqBY.s 			page 25


 1363 07d2 01       		.byte	0x1
 1364 07d3 E2       		.byte	0xe2
 1365 07d4 00000000 		.4byte	.LFB12
 1366 07d8 10000000 		.4byte	.LFE12-.LFB12
 1367 07dc 01       		.uleb128 0x1
 1368 07dd 9C       		.byte	0x9c
 1369 07de FD070000 		.4byte	0x7fd
 1370 07e2 1E       		.uleb128 0x1e
 1371 07e3 6E747000 		.ascii	"ntp\000"
 1372 07e7 01       		.byte	0x1
 1373 07e8 E2       		.byte	0xe2
 1374 07e9 57020000 		.4byte	0x257
 1375 07ed 01       		.uleb128 0x1
 1376 07ee 50       		.byte	0x50
 1377 07ef 1E       		.uleb128 0x1e
 1378 07f0 6F747000 		.ascii	"otp\000"
 1379 07f4 01       		.byte	0x1
 1380 07f5 E2       		.byte	0xe2
 1381 07f6 57020000 		.4byte	0x257
 1382 07fa 01       		.uleb128 0x1
 1383 07fb 51       		.byte	0x51
 1384 07fc 00       		.byte	0
 1385 07fd 13       		.uleb128 0x13
 1386 07fe E3000000 		.4byte	.LASF97
 1387 0802 01       		.byte	0x1
 1388 0803 F9       		.byte	0xf9
 1389 0804 00000000 		.4byte	.LFB13
 1390 0808 16000000 		.4byte	.LFE13-.LFB13
 1391 080c 01       		.uleb128 0x1
 1392 080d 9C       		.byte	0x9c
 1393 080e 37080000 		.4byte	0x837
 1394 0812 1B       		.uleb128 0x1b
 1395 0813 06000000 		.4byte	.LBB9
 1396 0817 06000000 		.4byte	.LBE9-.LBB9
 1397 081b 2D080000 		.4byte	0x82d
 1398 081f 17       		.uleb128 0x17
 1399 0820 746D7000 		.ascii	"tmp\000"
 1400 0824 01       		.byte	0x1
 1401 0825 FB       		.byte	0xfb
 1402 0826 AD000000 		.4byte	0xad
 1403 082a 01       		.uleb128 0x1
 1404 082b 53       		.byte	0x53
 1405 082c 00       		.byte	0
 1406 082d 14       		.uleb128 0x14
 1407 082e 06000000 		.4byte	.LVL21
 1408 0832 50080000 		.4byte	0x850
 1409 0836 00       		.byte	0
 1410 0837 1F       		.uleb128 0x1f
 1411 0838 17050000 		.4byte	.LASF109
 1412 083c 09       		.byte	0x9
 1413 083d 6F       		.byte	0x6f
 1414 083e 7B050000 		.4byte	0x57b
 1415 0842 20       		.uleb128 0x20
 1416 0843 AA020000 		.4byte	.LASF98
 1417 0847 0B       		.byte	0xb
 1418 0848 E7       		.byte	0xe7
 1419 0849 20       		.uleb128 0x20
ARM GAS  /tmp/cc28dqBY.s 			page 26


 1420 084a 34010000 		.4byte	.LASF99
 1421 084e 09       		.byte	0x9
 1422 084f A8       		.byte	0xa8
 1423 0850 20       		.uleb128 0x20
 1424 0851 EB020000 		.4byte	.LASF100
 1425 0855 0B       		.byte	0xb
 1426 0856 E8       		.byte	0xe8
 1427 0857 21       		.uleb128 0x21
 1428 0858 0E010000 		.4byte	.LASF110
 1429 085c 08       		.byte	0x8
 1430 085d 2501     		.2byte	0x125
 1431 085f 6E080000 		.4byte	0x86e
 1432 0863 22       		.uleb128 0x22
 1433 0864 AD000000 		.4byte	0xad
 1434 0868 22       		.uleb128 0x22
 1435 0869 AD000000 		.4byte	0xad
 1436 086d 00       		.byte	0
 1437 086e 20       		.uleb128 0x20
 1438 086f 46010000 		.4byte	.LASF101
 1439 0873 0B       		.byte	0xb
 1440 0874 EB       		.byte	0xeb
 1441 0875 20       		.uleb128 0x20
 1442 0876 30050000 		.4byte	.LASF102
 1443 087a 0B       		.byte	0xb
 1444 087b E9       		.byte	0xe9
 1445 087c 20       		.uleb128 0x20
 1446 087d 28000000 		.4byte	.LASF103
 1447 0881 0C       		.byte	0xc
 1448 0882 F7       		.byte	0xf7
 1449 0883 20       		.uleb128 0x20
 1450 0884 90000000 		.4byte	.LASF104
 1451 0888 0B       		.byte	0xb
 1452 0889 EA       		.byte	0xea
 1453 088a 20       		.uleb128 0x20
 1454 088b DB040000 		.4byte	.LASF105
 1455 088f 0B       		.byte	0xb
 1456 0890 EC       		.byte	0xec
 1457 0891 00       		.byte	0
 1458              		.section	.debug_abbrev,"",%progbits
 1459              	.Ldebug_abbrev0:
 1460 0000 01       		.uleb128 0x1
 1461 0001 11       		.uleb128 0x11
 1462 0002 01       		.byte	0x1
 1463 0003 25       		.uleb128 0x25
 1464 0004 0E       		.uleb128 0xe
 1465 0005 13       		.uleb128 0x13
 1466 0006 0B       		.uleb128 0xb
 1467 0007 03       		.uleb128 0x3
 1468 0008 0E       		.uleb128 0xe
 1469 0009 1B       		.uleb128 0x1b
 1470 000a 0E       		.uleb128 0xe
 1471 000b 55       		.uleb128 0x55
 1472 000c 17       		.uleb128 0x17
 1473 000d 11       		.uleb128 0x11
 1474 000e 01       		.uleb128 0x1
 1475 000f 10       		.uleb128 0x10
 1476 0010 17       		.uleb128 0x17
ARM GAS  /tmp/cc28dqBY.s 			page 27


 1477 0011 00       		.byte	0
 1478 0012 00       		.byte	0
 1479 0013 02       		.uleb128 0x2
 1480 0014 24       		.uleb128 0x24
 1481 0015 00       		.byte	0
 1482 0016 0B       		.uleb128 0xb
 1483 0017 0B       		.uleb128 0xb
 1484 0018 3E       		.uleb128 0x3e
 1485 0019 0B       		.uleb128 0xb
 1486 001a 03       		.uleb128 0x3
 1487 001b 08       		.uleb128 0x8
 1488 001c 00       		.byte	0
 1489 001d 00       		.byte	0
 1490 001e 03       		.uleb128 0x3
 1491 001f 24       		.uleb128 0x24
 1492 0020 00       		.byte	0
 1493 0021 0B       		.uleb128 0xb
 1494 0022 0B       		.uleb128 0xb
 1495 0023 3E       		.uleb128 0x3e
 1496 0024 0B       		.uleb128 0xb
 1497 0025 03       		.uleb128 0x3
 1498 0026 0E       		.uleb128 0xe
 1499 0027 00       		.byte	0
 1500 0028 00       		.byte	0
 1501 0029 04       		.uleb128 0x4
 1502 002a 16       		.uleb128 0x16
 1503 002b 00       		.byte	0
 1504 002c 03       		.uleb128 0x3
 1505 002d 0E       		.uleb128 0xe
 1506 002e 3A       		.uleb128 0x3a
 1507 002f 0B       		.uleb128 0xb
 1508 0030 3B       		.uleb128 0x3b
 1509 0031 0B       		.uleb128 0xb
 1510 0032 49       		.uleb128 0x49
 1511 0033 13       		.uleb128 0x13
 1512 0034 00       		.byte	0
 1513 0035 00       		.byte	0
 1514 0036 05       		.uleb128 0x5
 1515 0037 13       		.uleb128 0x13
 1516 0038 01       		.byte	0x1
 1517 0039 03       		.uleb128 0x3
 1518 003a 0E       		.uleb128 0xe
 1519 003b 0B       		.uleb128 0xb
 1520 003c 0B       		.uleb128 0xb
 1521 003d 3A       		.uleb128 0x3a
 1522 003e 0B       		.uleb128 0xb
 1523 003f 3B       		.uleb128 0x3b
 1524 0040 0B       		.uleb128 0xb
 1525 0041 01       		.uleb128 0x1
 1526 0042 13       		.uleb128 0x13
 1527 0043 00       		.byte	0
 1528 0044 00       		.byte	0
 1529 0045 06       		.uleb128 0x6
 1530 0046 0D       		.uleb128 0xd
 1531 0047 00       		.byte	0
 1532 0048 03       		.uleb128 0x3
 1533 0049 0E       		.uleb128 0xe
ARM GAS  /tmp/cc28dqBY.s 			page 28


 1534 004a 3A       		.uleb128 0x3a
 1535 004b 0B       		.uleb128 0xb
 1536 004c 3B       		.uleb128 0x3b
 1537 004d 0B       		.uleb128 0xb
 1538 004e 49       		.uleb128 0x49
 1539 004f 13       		.uleb128 0x13
 1540 0050 38       		.uleb128 0x38
 1541 0051 0B       		.uleb128 0xb
 1542 0052 00       		.byte	0
 1543 0053 00       		.byte	0
 1544 0054 07       		.uleb128 0x7
 1545 0055 0D       		.uleb128 0xd
 1546 0056 00       		.byte	0
 1547 0057 03       		.uleb128 0x3
 1548 0058 08       		.uleb128 0x8
 1549 0059 3A       		.uleb128 0x3a
 1550 005a 0B       		.uleb128 0xb
 1551 005b 3B       		.uleb128 0x3b
 1552 005c 0B       		.uleb128 0xb
 1553 005d 49       		.uleb128 0x49
 1554 005e 13       		.uleb128 0x13
 1555 005f 38       		.uleb128 0x38
 1556 0060 0B       		.uleb128 0xb
 1557 0061 00       		.byte	0
 1558 0062 00       		.byte	0
 1559 0063 08       		.uleb128 0x8
 1560 0064 13       		.uleb128 0x13
 1561 0065 01       		.byte	0x1
 1562 0066 0B       		.uleb128 0xb
 1563 0067 0B       		.uleb128 0xb
 1564 0068 3A       		.uleb128 0x3a
 1565 0069 0B       		.uleb128 0xb
 1566 006a 3B       		.uleb128 0x3b
 1567 006b 0B       		.uleb128 0xb
 1568 006c 01       		.uleb128 0x1
 1569 006d 13       		.uleb128 0x13
 1570 006e 00       		.byte	0
 1571 006f 00       		.byte	0
 1572 0070 09       		.uleb128 0x9
 1573 0071 0F       		.uleb128 0xf
 1574 0072 00       		.byte	0
 1575 0073 0B       		.uleb128 0xb
 1576 0074 0B       		.uleb128 0xb
 1577 0075 49       		.uleb128 0x49
 1578 0076 13       		.uleb128 0x13
 1579 0077 00       		.byte	0
 1580 0078 00       		.byte	0
 1581 0079 0A       		.uleb128 0xa
 1582 007a 0F       		.uleb128 0xf
 1583 007b 00       		.byte	0
 1584 007c 0B       		.uleb128 0xb
 1585 007d 0B       		.uleb128 0xb
 1586 007e 00       		.byte	0
 1587 007f 00       		.byte	0
 1588 0080 0B       		.uleb128 0xb
 1589 0081 13       		.uleb128 0x13
 1590 0082 01       		.byte	0x1
ARM GAS  /tmp/cc28dqBY.s 			page 29


 1591 0083 03       		.uleb128 0x3
 1592 0084 0E       		.uleb128 0xe
 1593 0085 0B       		.uleb128 0xb
 1594 0086 0B       		.uleb128 0xb
 1595 0087 3A       		.uleb128 0x3a
 1596 0088 0B       		.uleb128 0xb
 1597 0089 3B       		.uleb128 0x3b
 1598 008a 05       		.uleb128 0x5
 1599 008b 01       		.uleb128 0x1
 1600 008c 13       		.uleb128 0x13
 1601 008d 00       		.byte	0
 1602 008e 00       		.byte	0
 1603 008f 0C       		.uleb128 0xc
 1604 0090 0D       		.uleb128 0xd
 1605 0091 00       		.byte	0
 1606 0092 03       		.uleb128 0x3
 1607 0093 08       		.uleb128 0x8
 1608 0094 3A       		.uleb128 0x3a
 1609 0095 0B       		.uleb128 0xb
 1610 0096 3B       		.uleb128 0x3b
 1611 0097 05       		.uleb128 0x5
 1612 0098 49       		.uleb128 0x49
 1613 0099 13       		.uleb128 0x13
 1614 009a 38       		.uleb128 0x38
 1615 009b 0B       		.uleb128 0xb
 1616 009c 00       		.byte	0
 1617 009d 00       		.byte	0
 1618 009e 0D       		.uleb128 0xd
 1619 009f 35       		.uleb128 0x35
 1620 00a0 00       		.byte	0
 1621 00a1 49       		.uleb128 0x49
 1622 00a2 13       		.uleb128 0x13
 1623 00a3 00       		.byte	0
 1624 00a4 00       		.byte	0
 1625 00a5 0E       		.uleb128 0xe
 1626 00a6 01       		.uleb128 0x1
 1627 00a7 01       		.byte	0x1
 1628 00a8 49       		.uleb128 0x49
 1629 00a9 13       		.uleb128 0x13
 1630 00aa 01       		.uleb128 0x1
 1631 00ab 13       		.uleb128 0x13
 1632 00ac 00       		.byte	0
 1633 00ad 00       		.byte	0
 1634 00ae 0F       		.uleb128 0xf
 1635 00af 21       		.uleb128 0x21
 1636 00b0 00       		.byte	0
 1637 00b1 49       		.uleb128 0x49
 1638 00b2 13       		.uleb128 0x13
 1639 00b3 2F       		.uleb128 0x2f
 1640 00b4 0B       		.uleb128 0xb
 1641 00b5 00       		.byte	0
 1642 00b6 00       		.byte	0
 1643 00b7 10       		.uleb128 0x10
 1644 00b8 17       		.uleb128 0x17
 1645 00b9 01       		.byte	0x1
 1646 00ba 0B       		.uleb128 0xb
 1647 00bb 0B       		.uleb128 0xb
ARM GAS  /tmp/cc28dqBY.s 			page 30


 1648 00bc 3A       		.uleb128 0x3a
 1649 00bd 0B       		.uleb128 0xb
 1650 00be 3B       		.uleb128 0x3b
 1651 00bf 0B       		.uleb128 0xb
 1652 00c0 01       		.uleb128 0x1
 1653 00c1 13       		.uleb128 0x13
 1654 00c2 00       		.byte	0
 1655 00c3 00       		.byte	0
 1656 00c4 11       		.uleb128 0x11
 1657 00c5 0D       		.uleb128 0xd
 1658 00c6 00       		.byte	0
 1659 00c7 03       		.uleb128 0x3
 1660 00c8 0E       		.uleb128 0xe
 1661 00c9 3A       		.uleb128 0x3a
 1662 00ca 0B       		.uleb128 0xb
 1663 00cb 3B       		.uleb128 0x3b
 1664 00cc 0B       		.uleb128 0xb
 1665 00cd 49       		.uleb128 0x49
 1666 00ce 13       		.uleb128 0x13
 1667 00cf 00       		.byte	0
 1668 00d0 00       		.byte	0
 1669 00d1 12       		.uleb128 0x12
 1670 00d2 26       		.uleb128 0x26
 1671 00d3 00       		.byte	0
 1672 00d4 49       		.uleb128 0x49
 1673 00d5 13       		.uleb128 0x13
 1674 00d6 00       		.byte	0
 1675 00d7 00       		.byte	0
 1676 00d8 13       		.uleb128 0x13
 1677 00d9 2E       		.uleb128 0x2e
 1678 00da 01       		.byte	0x1
 1679 00db 3F       		.uleb128 0x3f
 1680 00dc 19       		.uleb128 0x19
 1681 00dd 03       		.uleb128 0x3
 1682 00de 0E       		.uleb128 0xe
 1683 00df 3A       		.uleb128 0x3a
 1684 00e0 0B       		.uleb128 0xb
 1685 00e1 3B       		.uleb128 0x3b
 1686 00e2 0B       		.uleb128 0xb
 1687 00e3 27       		.uleb128 0x27
 1688 00e4 19       		.uleb128 0x19
 1689 00e5 11       		.uleb128 0x11
 1690 00e6 01       		.uleb128 0x1
 1691 00e7 12       		.uleb128 0x12
 1692 00e8 06       		.uleb128 0x6
 1693 00e9 40       		.uleb128 0x40
 1694 00ea 18       		.uleb128 0x18
 1695 00eb 9742     		.uleb128 0x2117
 1696 00ed 19       		.uleb128 0x19
 1697 00ee 01       		.uleb128 0x1
 1698 00ef 13       		.uleb128 0x13
 1699 00f0 00       		.byte	0
 1700 00f1 00       		.byte	0
 1701 00f2 14       		.uleb128 0x14
 1702 00f3 898201   		.uleb128 0x4109
 1703 00f6 00       		.byte	0
 1704 00f7 11       		.uleb128 0x11
ARM GAS  /tmp/cc28dqBY.s 			page 31


 1705 00f8 01       		.uleb128 0x1
 1706 00f9 31       		.uleb128 0x31
 1707 00fa 13       		.uleb128 0x13
 1708 00fb 00       		.byte	0
 1709 00fc 00       		.byte	0
 1710 00fd 15       		.uleb128 0x15
 1711 00fe 34       		.uleb128 0x34
 1712 00ff 00       		.byte	0
 1713 0100 03       		.uleb128 0x3
 1714 0101 0E       		.uleb128 0xe
 1715 0102 3A       		.uleb128 0x3a
 1716 0103 0B       		.uleb128 0xb
 1717 0104 3B       		.uleb128 0x3b
 1718 0105 0B       		.uleb128 0xb
 1719 0106 49       		.uleb128 0x49
 1720 0107 13       		.uleb128 0x13
 1721 0108 02       		.uleb128 0x2
 1722 0109 17       		.uleb128 0x17
 1723 010a 00       		.byte	0
 1724 010b 00       		.byte	0
 1725 010c 16       		.uleb128 0x16
 1726 010d 0B       		.uleb128 0xb
 1727 010e 01       		.byte	0x1
 1728 010f 11       		.uleb128 0x11
 1729 0110 01       		.uleb128 0x1
 1730 0111 12       		.uleb128 0x12
 1731 0112 06       		.uleb128 0x6
 1732 0113 00       		.byte	0
 1733 0114 00       		.byte	0
 1734 0115 17       		.uleb128 0x17
 1735 0116 34       		.uleb128 0x34
 1736 0117 00       		.byte	0
 1737 0118 03       		.uleb128 0x3
 1738 0119 08       		.uleb128 0x8
 1739 011a 3A       		.uleb128 0x3a
 1740 011b 0B       		.uleb128 0xb
 1741 011c 3B       		.uleb128 0x3b
 1742 011d 0B       		.uleb128 0xb
 1743 011e 49       		.uleb128 0x49
 1744 011f 13       		.uleb128 0x13
 1745 0120 02       		.uleb128 0x2
 1746 0121 18       		.uleb128 0x18
 1747 0122 00       		.byte	0
 1748 0123 00       		.byte	0
 1749 0124 18       		.uleb128 0x18
 1750 0125 898201   		.uleb128 0x4109
 1751 0128 01       		.byte	0x1
 1752 0129 11       		.uleb128 0x11
 1753 012a 01       		.uleb128 0x1
 1754 012b 31       		.uleb128 0x31
 1755 012c 13       		.uleb128 0x13
 1756 012d 01       		.uleb128 0x1
 1757 012e 13       		.uleb128 0x13
 1758 012f 00       		.byte	0
 1759 0130 00       		.byte	0
 1760 0131 19       		.uleb128 0x19
 1761 0132 8A8201   		.uleb128 0x410a
ARM GAS  /tmp/cc28dqBY.s 			page 32


 1762 0135 00       		.byte	0
 1763 0136 02       		.uleb128 0x2
 1764 0137 18       		.uleb128 0x18
 1765 0138 9142     		.uleb128 0x2111
 1766 013a 18       		.uleb128 0x18
 1767 013b 00       		.byte	0
 1768 013c 00       		.byte	0
 1769 013d 1A       		.uleb128 0x1a
 1770 013e 898201   		.uleb128 0x4109
 1771 0141 01       		.byte	0x1
 1772 0142 11       		.uleb128 0x11
 1773 0143 01       		.uleb128 0x1
 1774 0144 9542     		.uleb128 0x2115
 1775 0146 19       		.uleb128 0x19
 1776 0147 31       		.uleb128 0x31
 1777 0148 13       		.uleb128 0x13
 1778 0149 00       		.byte	0
 1779 014a 00       		.byte	0
 1780 014b 1B       		.uleb128 0x1b
 1781 014c 0B       		.uleb128 0xb
 1782 014d 01       		.byte	0x1
 1783 014e 11       		.uleb128 0x11
 1784 014f 01       		.uleb128 0x1
 1785 0150 12       		.uleb128 0x12
 1786 0151 06       		.uleb128 0x6
 1787 0152 01       		.uleb128 0x1
 1788 0153 13       		.uleb128 0x13
 1789 0154 00       		.byte	0
 1790 0155 00       		.byte	0
 1791 0156 1C       		.uleb128 0x1c
 1792 0157 0B       		.uleb128 0xb
 1793 0158 01       		.byte	0x1
 1794 0159 55       		.uleb128 0x55
 1795 015a 17       		.uleb128 0x17
 1796 015b 01       		.uleb128 0x1
 1797 015c 13       		.uleb128 0x13
 1798 015d 00       		.byte	0
 1799 015e 00       		.byte	0
 1800 015f 1D       		.uleb128 0x1d
 1801 0160 898201   		.uleb128 0x4109
 1802 0163 00       		.byte	0
 1803 0164 11       		.uleb128 0x11
 1804 0165 01       		.uleb128 0x1
 1805 0166 9542     		.uleb128 0x2115
 1806 0168 19       		.uleb128 0x19
 1807 0169 31       		.uleb128 0x31
 1808 016a 13       		.uleb128 0x13
 1809 016b 00       		.byte	0
 1810 016c 00       		.byte	0
 1811 016d 1E       		.uleb128 0x1e
 1812 016e 05       		.uleb128 0x5
 1813 016f 00       		.byte	0
 1814 0170 03       		.uleb128 0x3
 1815 0171 08       		.uleb128 0x8
 1816 0172 3A       		.uleb128 0x3a
 1817 0173 0B       		.uleb128 0xb
 1818 0174 3B       		.uleb128 0x3b
ARM GAS  /tmp/cc28dqBY.s 			page 33


 1819 0175 0B       		.uleb128 0xb
 1820 0176 49       		.uleb128 0x49
 1821 0177 13       		.uleb128 0x13
 1822 0178 02       		.uleb128 0x2
 1823 0179 18       		.uleb128 0x18
 1824 017a 00       		.byte	0
 1825 017b 00       		.byte	0
 1826 017c 1F       		.uleb128 0x1f
 1827 017d 34       		.uleb128 0x34
 1828 017e 00       		.byte	0
 1829 017f 03       		.uleb128 0x3
 1830 0180 0E       		.uleb128 0xe
 1831 0181 3A       		.uleb128 0x3a
 1832 0182 0B       		.uleb128 0xb
 1833 0183 3B       		.uleb128 0x3b
 1834 0184 0B       		.uleb128 0xb
 1835 0185 49       		.uleb128 0x49
 1836 0186 13       		.uleb128 0x13
 1837 0187 3F       		.uleb128 0x3f
 1838 0188 19       		.uleb128 0x19
 1839 0189 3C       		.uleb128 0x3c
 1840 018a 19       		.uleb128 0x19
 1841 018b 00       		.byte	0
 1842 018c 00       		.byte	0
 1843 018d 20       		.uleb128 0x20
 1844 018e 2E       		.uleb128 0x2e
 1845 018f 00       		.byte	0
 1846 0190 3F       		.uleb128 0x3f
 1847 0191 19       		.uleb128 0x19
 1848 0192 03       		.uleb128 0x3
 1849 0193 0E       		.uleb128 0xe
 1850 0194 3A       		.uleb128 0x3a
 1851 0195 0B       		.uleb128 0xb
 1852 0196 3B       		.uleb128 0x3b
 1853 0197 0B       		.uleb128 0xb
 1854 0198 27       		.uleb128 0x27
 1855 0199 19       		.uleb128 0x19
 1856 019a 3C       		.uleb128 0x3c
 1857 019b 19       		.uleb128 0x19
 1858 019c 00       		.byte	0
 1859 019d 00       		.byte	0
 1860 019e 21       		.uleb128 0x21
 1861 019f 2E       		.uleb128 0x2e
 1862 01a0 01       		.byte	0x1
 1863 01a1 3F       		.uleb128 0x3f
 1864 01a2 19       		.uleb128 0x19
 1865 01a3 03       		.uleb128 0x3
 1866 01a4 0E       		.uleb128 0xe
 1867 01a5 3A       		.uleb128 0x3a
 1868 01a6 0B       		.uleb128 0xb
 1869 01a7 3B       		.uleb128 0x3b
 1870 01a8 05       		.uleb128 0x5
 1871 01a9 27       		.uleb128 0x27
 1872 01aa 19       		.uleb128 0x19
 1873 01ab 3C       		.uleb128 0x3c
 1874 01ac 19       		.uleb128 0x19
 1875 01ad 01       		.uleb128 0x1
ARM GAS  /tmp/cc28dqBY.s 			page 34


 1876 01ae 13       		.uleb128 0x13
 1877 01af 00       		.byte	0
 1878 01b0 00       		.byte	0
 1879 01b1 22       		.uleb128 0x22
 1880 01b2 05       		.uleb128 0x5
 1881 01b3 00       		.byte	0
 1882 01b4 49       		.uleb128 0x49
 1883 01b5 13       		.uleb128 0x13
 1884 01b6 00       		.byte	0
 1885 01b7 00       		.byte	0
 1886 01b8 00       		.byte	0
 1887              		.section	.debug_loc,"",%progbits
 1888              	.Ldebug_loc0:
 1889              	.LLST0:
 1890 0000 04000000 		.4byte	.LVL3
 1891 0004 06000000 		.4byte	.LVL4
 1892 0008 0300     		.2byte	0x3
 1893 000a 73       		.byte	0x73
 1894 000b 20       		.sleb128 32
 1895 000c 9F       		.byte	0x9f
 1896 000d 06000000 		.4byte	.LVL4
 1897 0011 0C000000 		.4byte	.LVL5
 1898 0015 0100     		.2byte	0x1
 1899 0017 53       		.byte	0x53
 1900 0018 00000000 		.4byte	0
 1901 001c 00000000 		.4byte	0
 1902              	.LLST1:
 1903 0020 14000000 		.4byte	.LVL9
 1904 0024 20000000 		.4byte	.LVL10
 1905 0028 0300     		.2byte	0x3
 1906 002a 73       		.byte	0x73
 1907 002b 60       		.sleb128 -32
 1908 002c 9F       		.byte	0x9f
 1909 002d 20000000 		.4byte	.LVL10
 1910 0031 28000000 		.4byte	.LVL11
 1911 0035 0100     		.2byte	0x1
 1912 0037 52       		.byte	0x52
 1913 0038 28000000 		.4byte	.LVL11
 1914 003c 46000000 		.4byte	.LVL12
 1915 0040 0300     		.2byte	0x3
 1916 0042 73       		.byte	0x73
 1917 0043 60       		.sleb128 -32
 1918 0044 9F       		.byte	0x9f
 1919 0045 4C000000 		.4byte	.LVL13
 1920 0049 70000000 		.4byte	.LFE10
 1921 004d 0300     		.2byte	0x3
 1922 004f 73       		.byte	0x73
 1923 0050 60       		.sleb128 -32
 1924 0051 9F       		.byte	0x9f
 1925 0052 00000000 		.4byte	0
 1926 0056 00000000 		.4byte	0
 1927              		.section	.debug_aranges,"",%progbits
 1928 0000 4C000000 		.4byte	0x4c
 1929 0004 0200     		.2byte	0x2
 1930 0006 00000000 		.4byte	.Ldebug_info0
 1931 000a 04       		.byte	0x4
 1932 000b 00       		.byte	0
ARM GAS  /tmp/cc28dqBY.s 			page 35


 1933 000c 0000     		.2byte	0
 1934 000e 0000     		.2byte	0
 1935 0010 00000000 		.4byte	.LFB11
 1936 0014 0E000000 		.4byte	.LFE11-.LFB11
 1937 0018 00000000 		.4byte	.LFB8
 1938 001c 12000000 		.4byte	.LFE8-.LFB8
 1939 0020 00000000 		.4byte	.LFB9
 1940 0024 30000000 		.4byte	.LFE9-.LFB9
 1941 0028 00000000 		.4byte	.LFB10
 1942 002c 70000000 		.4byte	.LFE10-.LFB10
 1943 0030 00000000 		.4byte	.LFB7
 1944 0034 2A000000 		.4byte	.LFE7-.LFB7
 1945 0038 00000000 		.4byte	.LFB12
 1946 003c 10000000 		.4byte	.LFE12-.LFB12
 1947 0040 00000000 		.4byte	.LFB13
 1948 0044 16000000 		.4byte	.LFE13-.LFB13
 1949 0048 00000000 		.4byte	0
 1950 004c 00000000 		.4byte	0
 1951              		.section	.debug_ranges,"",%progbits
 1952              	.Ldebug_ranges0:
 1953 0000 10000000 		.4byte	.LBB4
 1954 0004 46000000 		.4byte	.LBE4
 1955 0008 4C000000 		.4byte	.LBB6
 1956 000c 70000000 		.4byte	.LBE6
 1957 0010 00000000 		.4byte	0
 1958 0014 00000000 		.4byte	0
 1959 0018 00000000 		.4byte	.LFB11
 1960 001c 0E000000 		.4byte	.LFE11
 1961 0020 00000000 		.4byte	.LFB8
 1962 0024 12000000 		.4byte	.LFE8
 1963 0028 00000000 		.4byte	.LFB9
 1964 002c 30000000 		.4byte	.LFE9
 1965 0030 00000000 		.4byte	.LFB10
 1966 0034 70000000 		.4byte	.LFE10
 1967 0038 00000000 		.4byte	.LFB7
 1968 003c 2A000000 		.4byte	.LFE7
 1969 0040 00000000 		.4byte	.LFB12
 1970 0044 10000000 		.4byte	.LFE12
 1971 0048 00000000 		.4byte	.LFB13
 1972 004c 16000000 		.4byte	.LFE13
 1973 0050 00000000 		.4byte	0
 1974 0054 00000000 		.4byte	0
 1975              		.section	.debug_line,"",%progbits
 1976              	.Ldebug_line0:
 1977 0000 0A020000 		.section	.debug_str,"MS",%progbits,1
 1977      02005301 
 1977      00000201 
 1977      FB0E0D00 
 1977      01010101 
 1978              	.LASF42:
 1979 0000 705F6D73 		.ascii	"p_msg\000"
 1979      6700
 1980              	.LASF85:
 1981 0006 7264796D 		.ascii	"rdymsg\000"
 1981      736700
 1982              	.LASF16:
 1983 000d 75696E74 		.ascii	"uint64_t\000"
ARM GAS  /tmp/cc28dqBY.s 			page 36


 1983      36345F74 
 1983      00
 1984              	.LASF5:
 1985 0016 5F5F7569 		.ascii	"__uint8_t\000"
 1985      6E74385F 
 1985      7400
 1986              	.LASF73:
 1987 0020 434D785F 		.ascii	"CMx_SCB\000"
 1987      53434200 
 1988              	.LASF103:
 1989 0028 63685379 		.ascii	"chSysTimerHandlerI\000"
 1989      7354696D 
 1989      65724861 
 1989      6E646C65 
 1989      724900
 1990              	.LASF95:
 1991 003b 53797354 		.ascii	"SysTickVector\000"
 1991      69636B56 
 1991      6563746F 
 1991      7200
 1992              	.LASF12:
 1993 0049 6C6F6E67 		.ascii	"long long unsigned int\000"
 1993      206C6F6E 
 1993      6720756E 
 1993      7369676E 
 1993      65642069 
 1994              	.LASF86:
 1995 0060 65786974 		.ascii	"exitcode\000"
 1995      636F6465 
 1995      00
 1996              	.LASF58:
 1997 0069 43505549 		.ascii	"CPUID\000"
 1997      4400
 1998              	.LASF29:
 1999 006f 705F7072 		.ascii	"p_prio\000"
 1999      696F00
 2000              	.LASF10:
 2001 0076 6C6F6E67 		.ascii	"long long int\000"
 2001      206C6F6E 
 2001      6720696E 
 2001      7400
 2002              	.LASF1:
 2003 0084 7369676E 		.ascii	"signed char\000"
 2003      65642063 
 2003      68617200 
 2004              	.LASF104:
 2005 0090 6462675F 		.ascii	"dbg_check_unlock_from_isr\000"
 2005      63686563 
 2005      6B5F756E 
 2005      6C6F636B 
 2005      5F66726F 
 2006              	.LASF46:
 2007 00aa 705F6D70 		.ascii	"p_mpool\000"
 2007      6F6F6C00 
 2008              	.LASF82:
 2009 00b2 6D5F7175 		.ascii	"m_queue\000"
 2009      65756500 
ARM GAS  /tmp/cc28dqBY.s 			page 37


 2010              	.LASF21:
 2011 00ba 74736C69 		.ascii	"tslices_t\000"
 2011      6365735F 
 2011      7400
 2012              	.LASF7:
 2013 00c4 6C6F6E67 		.ascii	"long int\000"
 2013      20696E74 
 2013      00
 2014              	.LASF91:
 2015 00cd 53564361 		.ascii	"SVCallVector\000"
 2015      6C6C5665 
 2015      63746F72 
 2015      00
 2016              	.LASF19:
 2017 00da 74737461 		.ascii	"tstate_t\000"
 2017      74655F74 
 2017      00
 2018              	.LASF97:
 2019 00e3 5F706F72 		.ascii	"_port_thread_start\000"
 2019      745F7468 
 2019      72656164 
 2019      5F737461 
 2019      727400
 2020              	.LASF31:
 2021 00f6 705F6E65 		.ascii	"p_newer\000"
 2021      77657200 
 2022              	.LASF68:
 2023 00fe 42464152 		.ascii	"BFAR\000"
 2023      00
 2024              	.LASF8:
 2025 0103 5F5F7569 		.ascii	"__uint32_t\000"
 2025      6E743332 
 2025      5F7400
 2026              	.LASF110:
 2027 010e 6E766963 		.ascii	"nvicSetSystemHandlerPriority\000"
 2027      53657453 
 2027      79737465 
 2027      6D48616E 
 2027      646C6572 
 2028              	.LASF49:
 2029 012b 72656761 		.ascii	"regarm_t\000"
 2029      726D5F74 
 2029      00
 2030              	.LASF99:
 2031 0134 63685363 		.ascii	"chSchDoReschedule\000"
 2031      68446F52 
 2031      65736368 
 2031      6564756C 
 2031      6500
 2032              	.LASF101:
 2033 0146 6462675F 		.ascii	"dbg_check_enter_isr\000"
 2033      63686563 
 2033      6B5F656E 
 2033      7465725F 
 2033      69737200 
 2034              	.LASF34:
 2035 015a 705F7374 		.ascii	"p_stklimit\000"
ARM GAS  /tmp/cc28dqBY.s 			page 38


 2035      6B6C696D 
 2035      697400
 2036              	.LASF0:
 2037 0165 756E7369 		.ascii	"unsigned int\000"
 2037      676E6564 
 2037      20696E74 
 2037      00
 2038              	.LASF52:
 2039 0172 6C725F74 		.ascii	"lr_thd\000"
 2039      686400
 2040              	.LASF51:
 2041 0179 65787463 		.ascii	"extctx\000"
 2041      747800
 2042              	.LASF96:
 2043 0180 5F706F72 		.ascii	"_port_switch\000"
 2043      745F7377 
 2043      69746368 
 2043      00
 2044              	.LASF9:
 2045 018d 6C6F6E67 		.ascii	"long unsigned int\000"
 2045      20756E73 
 2045      69676E65 
 2045      6420696E 
 2045      7400
 2046              	.LASF60:
 2047 019f 56544F52 		.ascii	"VTOR\000"
 2047      00
 2048              	.LASF90:
 2049 01a4 5F706F72 		.ascii	"_port_switch_from_isr\000"
 2049      745F7377 
 2049      69746368 
 2049      5F66726F 
 2049      6D5F6973 
 2050              	.LASF55:
 2051 01ba 636F6E74 		.ascii	"context\000"
 2051      65787400 
 2052              	.LASF4:
 2053 01c2 73686F72 		.ascii	"short unsigned int\000"
 2053      7420756E 
 2053      7369676E 
 2053      65642069 
 2053      6E7400
 2054              	.LASF59:
 2055 01d5 49435352 		.ascii	"ICSR\000"
 2055      00
 2056              	.LASF23:
 2057 01da 6D73675F 		.ascii	"msg_t\000"
 2057      7400
 2058              	.LASF107:
 2059 01e0 2E2E2F2E 		.ascii	"../../../os/ports/GCC/ARMCMx/chcore_v7m.c\000"
 2059      2E2F2E2E 
 2059      2F6F732F 
 2059      706F7274 
 2059      732F4743 
 2060              	.LASF61:
 2061 020a 41495243 		.ascii	"AIRCR\000"
 2061      5200
ARM GAS  /tmp/cc28dqBY.s 			page 39


 2062              	.LASF77:
 2063 0210 725F6E65 		.ascii	"r_newer\000"
 2063      77657200 
 2064              	.LASF67:
 2065 0218 4D4D4641 		.ascii	"MMFAR\000"
 2065      5200
 2066              	.LASF94:
 2067 021e 5F706F72 		.ascii	"_port_irq_epilogue\000"
 2067      745F6972 
 2067      715F6570 
 2067      696C6F67 
 2067      756500
 2068              	.LASF18:
 2069 0231 746D6F64 		.ascii	"tmode_t\000"
 2069      655F7400 
 2070              	.LASF48:
 2071 0239 54687265 		.ascii	"ThreadsList\000"
 2071      6164734C 
 2071      69737400 
 2072              	.LASF24:
 2073 0245 6576656E 		.ascii	"eventmask_t\000"
 2073      746D6173 
 2073      6B5F7400 
 2074              	.LASF81:
 2075 0251 4D757465 		.ascii	"Mutex\000"
 2075      7800
 2076              	.LASF50:
 2077 0257 73746B61 		.ascii	"stkalign_t\000"
 2077      6C69676E 
 2077      5F7400
 2078              	.LASF108:
 2079 0262 2F686F6D 		.ascii	"/home/makkmarci/devel/ChibiOS_2.6.5/testhal/STM32F4"
 2079      652F6D61 
 2079      6B6B6D61 
 2079      7263692F 
 2079      64657665 
 2080 0295 78782F55 		.ascii	"xx/USB_CDC/\000"
 2080      53425F43 
 2080      44432F00 
 2081              	.LASF57:
 2082 02a1 73697A65 		.ascii	"sizetype\000"
 2082      74797065 
 2082      00
 2083              	.LASF98:
 2084 02aa 6462675F 		.ascii	"dbg_check_lock\000"
 2084      63686563 
 2084      6B5F6C6F 
 2084      636B00
 2085              	.LASF64:
 2086 02b9 43465352 		.ascii	"CFSR\000"
 2086      00
 2087              	.LASF32:
 2088 02be 705F6F6C 		.ascii	"p_older\000"
 2088      64657200 
 2089              	.LASF76:
 2090 02c6 725F6374 		.ascii	"r_ctx\000"
 2090      7800
ARM GAS  /tmp/cc28dqBY.s 			page 40


 2091              	.LASF47:
 2092 02cc 54687265 		.ascii	"ThreadsQueue\000"
 2092      61647351 
 2092      75657565 
 2092      00
 2093              	.LASF79:
 2094 02d9 725F6375 		.ascii	"r_current\000"
 2094      7272656E 
 2094      7400
 2095              	.LASF78:
 2096 02e3 725F6F6C 		.ascii	"r_older\000"
 2096      64657200 
 2097              	.LASF100:
 2098 02eb 6462675F 		.ascii	"dbg_check_unlock\000"
 2098      63686563 
 2098      6B5F756E 
 2098      6C6F636B 
 2098      00
 2099              	.LASF11:
 2100 02fc 5F5F7569 		.ascii	"__uint64_t\000"
 2100      6E743634 
 2100      5F7400
 2101              	.LASF20:
 2102 0307 74726566 		.ascii	"trefs_t\000"
 2102      735F7400 
 2103              	.LASF66:
 2104 030f 44465352 		.ascii	"DFSR\000"
 2104      00
 2105              	.LASF92:
 2106 0314 63747870 		.ascii	"ctxp\000"
 2106      00
 2107              	.LASF28:
 2108 0319 705F7072 		.ascii	"p_prev\000"
 2108      657600
 2109              	.LASF22:
 2110 0320 74707269 		.ascii	"tprio_t\000"
 2110      6F5F7400 
 2111              	.LASF17:
 2112 0328 5F426F6F 		.ascii	"_Bool\000"
 2112      6C00
 2113              	.LASF14:
 2114 032e 696E7433 		.ascii	"int32_t\000"
 2114      325F7400 
 2115              	.LASF2:
 2116 0336 756E7369 		.ascii	"unsigned char\000"
 2116      676E6564 
 2116      20636861 
 2116      7200
 2117              	.LASF63:
 2118 0344 53484353 		.ascii	"SHCSR\000"
 2118      5200
 2119              	.LASF44:
 2120 034a 705F6D74 		.ascii	"p_mtxlist\000"
 2120      786C6973 
 2120      7400
 2121              	.LASF3:
 2122 0354 73686F72 		.ascii	"short int\000"
ARM GAS  /tmp/cc28dqBY.s 			page 41


 2122      7420696E 
 2122      7400
 2123              	.LASF35:
 2124 035e 705F7374 		.ascii	"p_state\000"
 2124      61746500 
 2125              	.LASF38:
 2126 0366 705F7072 		.ascii	"p_preempt\000"
 2126      65656D70 
 2126      7400
 2127              	.LASF53:
 2128 0370 78707372 		.ascii	"xpsr\000"
 2128      00
 2129              	.LASF75:
 2130 0375 725F7072 		.ascii	"r_prio\000"
 2130      696F00
 2131              	.LASF88:
 2132 037c 65776D61 		.ascii	"ewmask\000"
 2132      736B00
 2133              	.LASF27:
 2134 0383 705F6E65 		.ascii	"p_next\000"
 2134      787400
 2135              	.LASF36:
 2136 038a 705F666C 		.ascii	"p_flags\000"
 2136      61677300 
 2137              	.LASF26:
 2138 0392 54687265 		.ascii	"Thread\000"
 2138      616400
 2139              	.LASF43:
 2140 0399 705F6570 		.ascii	"p_epending\000"
 2140      656E6469 
 2140      6E6700
 2141              	.LASF15:
 2142 03a4 75696E74 		.ascii	"uint32_t\000"
 2142      33325F74 
 2142      00
 2143              	.LASF74:
 2144 03ad 725F7175 		.ascii	"r_queue\000"
 2144      65756500 
 2145              	.LASF69:
 2146 03b5 41465352 		.ascii	"AFSR\000"
 2146      00
 2147              	.LASF71:
 2148 03ba 756E7573 		.ascii	"unused1\000"
 2148      65643100 
 2149              	.LASF89:
 2150 03c2 63686172 		.ascii	"char\000"
 2150      00
 2151              	.LASF56:
 2152 03c7 494F5245 		.ascii	"IOREG32\000"
 2152      47333200 
 2153              	.LASF106:
 2154 03cf 474E5520 		.ascii	"GNU C 4.8.4 20140526 (release) [ARM/embedded-4_8-br"
 2154      4320342E 
 2154      382E3420 
 2154      32303134 
 2154      30353236 
 2155 0402 616E6368 		.ascii	"anch revision 211358] -mcpu=cortex-m4 -mno-thumb-in"
ARM GAS  /tmp/cc28dqBY.s 			page 42


 2155      20726576 
 2155      6973696F 
 2155      6E203231 
 2155      31333538 
 2156 0435 74657277 		.ascii	"terwork -mthumb -ggdb -O2 -fomit-frame-pointer -fal"
 2156      6F726B20 
 2156      2D6D7468 
 2156      756D6220 
 2156      2D676764 
 2157 0468 69676E2D 		.ascii	"ign-functions=16 -ffunction-sections -fdata-section"
 2157      66756E63 
 2157      74696F6E 
 2157      733D3136 
 2157      202D6666 
 2158 049b 73202D66 		.ascii	"s -fno-common\000"
 2158      6E6F2D63 
 2158      6F6D6D6F 
 2158      6E00
 2159              	.LASF84:
 2160 04a9 6D5F6E65 		.ascii	"m_next\000"
 2160      787400
 2161              	.LASF25:
 2162 04b0 73797374 		.ascii	"systime_t\000"
 2162      696D655F 
 2162      7400
 2163              	.LASF45:
 2164 04ba 705F7265 		.ascii	"p_realprio\000"
 2164      616C7072 
 2164      696F00
 2165              	.LASF6:
 2166 04c5 5F5F696E 		.ascii	"__int32_t\000"
 2166      7433325F 
 2166      7400
 2167              	.LASF39:
 2168 04cf 705F7469 		.ascii	"p_time\000"
 2168      6D6500
 2169              	.LASF62:
 2170 04d6 53485052 		.ascii	"SHPR\000"
 2170      00
 2171              	.LASF105:
 2172 04db 6462675F 		.ascii	"dbg_check_leave_isr\000"
 2172      63686563 
 2172      6B5F6C65 
 2172      6176655F 
 2172      69737200 
 2173              	.LASF54:
 2174 04ef 696E7463 		.ascii	"intctx\000"
 2174      747800
 2175              	.LASF41:
 2176 04f6 705F6D73 		.ascii	"p_msgqueue\000"
 2176      67717565 
 2176      756500
 2177              	.LASF37:
 2178 0501 705F7265 		.ascii	"p_refs\000"
 2178      667300
 2179              	.LASF80:
 2180 0508 52656164 		.ascii	"ReadyList\000"
ARM GAS  /tmp/cc28dqBY.s 			page 43


 2180      794C6973 
 2180      7400
 2181              	.LASF70:
 2182 0512 4D4D4652 		.ascii	"MMFR\000"
 2182      00
 2183              	.LASF109:
 2184 0517 726C6973 		.ascii	"rlist\000"
 2184      7400
 2185              	.LASF13:
 2186 051d 75696E74 		.ascii	"uint8_t\000"
 2186      385F7400 
 2187              	.LASF93:
 2188 0525 5F706F72 		.ascii	"_port_init\000"
 2188      745F696E 
 2188      697400
 2189              	.LASF102:
 2190 0530 6462675F 		.ascii	"dbg_check_lock_from_isr\000"
 2190      63686563 
 2190      6B5F6C6F 
 2190      636B5F66 
 2190      726F6D5F 
 2191              	.LASF87:
 2192 0548 77746F62 		.ascii	"wtobjp\000"
 2192      6A7000
 2193              	.LASF33:
 2194 054f 705F6E61 		.ascii	"p_name\000"
 2194      6D6500
 2195              	.LASF72:
 2196 0556 43504143 		.ascii	"CPACR\000"
 2196      5200
 2197              	.LASF65:
 2198 055c 48465352 		.ascii	"HFSR\000"
 2198      00
 2199              	.LASF83:
 2200 0561 6D5F6F77 		.ascii	"m_owner\000"
 2200      6E657200 
 2201              	.LASF30:
 2202 0569 705F6374 		.ascii	"p_ctx\000"
 2202      7800
 2203              	.LASF40:
 2204 056f 705F7761 		.ascii	"p_waiting\000"
 2204      6974696E 
 2204      6700
 2205              		.ident	"GCC: (GNU Tools for ARM Embedded Processors) 4.8.4 20140526 (release) [ARM/embedded-4_8-br
ARM GAS  /tmp/cc28dqBY.s 			page 44


DEFINED SYMBOLS
                            *ABS*:00000000 chcore_v7m.c
     /tmp/cc28dqBY.s:19     .text._port_switch_from_isr:00000000 $t
     /tmp/cc28dqBY.s:25     .text._port_switch_from_isr:00000000 _port_switch_from_isr
     /tmp/cc28dqBY.s:44     .text._port_switch_from_isr:0000000c _port_exit_from_isr
     /tmp/cc28dqBY.s:56     .text.SVCallVector:00000000 $t
     /tmp/cc28dqBY.s:62     .text.SVCallVector:00000000 SVCallVector
     /tmp/cc28dqBY.s:97     .text._port_init:00000000 $t
     /tmp/cc28dqBY.s:103    .text._port_init:00000000 _port_init
     /tmp/cc28dqBY.s:144    .text._port_init:00000028 $d
     /tmp/cc28dqBY.s:150    .text._port_irq_epilogue:00000000 $t
     /tmp/cc28dqBY.s:156    .text._port_irq_epilogue:00000000 _port_irq_epilogue
     /tmp/cc28dqBY.s:243    .text._port_irq_epilogue:00000060 $d
     /tmp/cc28dqBY.s:252    .text.SysTickVector:00000000 $t
     /tmp/cc28dqBY.s:258    .text.SysTickVector:00000000 SysTickVector
     /tmp/cc28dqBY.s:306    .text._port_switch:00000000 $t
     /tmp/cc28dqBY.s:312    .text._port_switch:00000000 _port_switch
     /tmp/cc28dqBY.s:339    .text._port_thread_start:00000000 $t
     /tmp/cc28dqBY.s:345    .text._port_thread_start:00000000 _port_thread_start
                     .debug_frame:00000010 $d

UNDEFINED SYMBOLS
dbg_check_lock
chSchDoReschedule
dbg_check_unlock
nvicSetSystemHandlerPriority
rlist
dbg_check_enter_isr
dbg_check_lock_from_isr
chSysTimerHandlerI
dbg_check_unlock_from_isr
dbg_check_leave_isr
chThdExit
