ARM GAS  /tmp/ccWbFbv8.s 			page 1


   1              		.syntax unified
   2              		.cpu cortex-m4
   3              		.fpu softvfp
   4              		.eabi_attribute 20, 1
   5              		.eabi_attribute 21, 1
   6              		.eabi_attribute 23, 3
   7              		.eabi_attribute 24, 1
   8              		.eabi_attribute 25, 1
   9              		.eabi_attribute 26, 1
  10              		.eabi_attribute 30, 2
  11              		.eabi_attribute 34, 1
  12              		.eabi_attribute 18, 4
  13              		.thumb
  14              		.file	"chsys.c"
  15              		.text
  16              	.Ltext0:
  17              		.cfi_sections	.debug_frame
  18              		.section	.text._idle_thread,"ax",%progbits
  19              		.align	2
  20              		.p2align 4,,15
  21              		.global	_idle_thread
  22              		.thumb
  23              		.thumb_func
  24              		.type	_idle_thread, %function
  25              	_idle_thread:
  26              	.LFB7:
  27              		.file 1 "../../../os/kernel/src/chsys.c"
  28              		.loc 1 61 0
  29              		.cfi_startproc
  30              		@ Volatile: function does not return.
  31              		@ args = 0, pretend = 0, frame = 0
  32              		@ frame_needed = 0, uses_anonymous_args = 0
  33              		@ link register save eliminated.
  34              	.LVL0:
  35              		.loc 1 64 0
  36 0000 024B     		ldr	r3, .L4
  37 0002 034A     		ldr	r2, .L4+4
  38 0004 9B69     		ldr	r3, [r3, #24]
  39 0006 9A61     		str	r2, [r3, #24]
  40              	.L2:
  41 0008 FEE7     		b	.L2
  42              	.L5:
  43 000a 00BF     		.align	2
  44              	.L4:
  45 000c 00000000 		.word	rlist
  46 0010 00000000 		.word	.LC0
  47              		.cfi_endproc
  48              	.LFE7:
  49              		.size	_idle_thread, .-_idle_thread
  50 0014 AFF30080 		.section	.text.chSysInit,"ax",%progbits
  50      AFF30080 
  50      AFF30080 
  51              		.align	2
  52              		.p2align 4,,15
  53              		.global	chSysInit
  54              		.thumb
  55              		.thumb_func
ARM GAS  /tmp/ccWbFbv8.s 			page 2


  56              		.type	chSysInit, %function
  57              	chSysInit:
  58              	.LFB8:
  59              		.loc 1 84 0
  60              		.cfi_startproc
  61              		@ args = 0, pretend = 0, frame = 0
  62              		@ frame_needed = 0, uses_anonymous_args = 0
  63 0000 30B5     		push	{r4, r5, lr}
  64              		.cfi_def_cfa_offset 12
  65              		.cfi_offset 4, -12
  66              		.cfi_offset 5, -8
  67              		.cfi_offset 14, -4
  68 0002 83B0     		sub	sp, sp, #12
  69              		.cfi_def_cfa_offset 24
  70              		.loc 1 90 0
  71 0004 FFF7FEFF 		bl	_port_init
  72              	.LVL1:
  73              		.loc 1 91 0
  74 0008 FFF7FEFF 		bl	_scheduler_init
  75              	.LVL2:
  76              		.loc 1 92 0
  77 000c FFF7FEFF 		bl	_vt_init
  78              	.LVL3:
  79              		.loc 1 94 0
  80 0010 FFF7FEFF 		bl	_core_init
  81              	.LVL4:
  82              		.loc 1 97 0
  83 0014 FFF7FEFF 		bl	_heap_init
  84              	.LVL5:
  85              		.loc 1 100 0
  86 0018 FFF7FEFF 		bl	_trace_init
  87              	.LVL6:
  88              		.loc 1 104 0
  89 001c 4021     		movs	r1, #64
  90 001e 0E48     		ldr	r0, .L7
  91 0020 0E4C     		ldr	r4, .L7+4
  92 0022 FFF7FEFF 		bl	_thread_init
  93              	.LVL7:
  94              		.loc 1 105 0
  95 0026 0125     		movs	r5, #1
  96              		.loc 1 109 0
  97 0028 0D4B     		ldr	r3, .L7+8
  98 002a C361     		str	r3, [r0, #28]
  99              		.loc 1 105 0
 100 002c 80F82050 		strb	r5, [r0, #32]
 101              		.loc 1 104 0
 102 0030 A061     		str	r0, [r4, #24]
 103              		.loc 1 111 0
 104 0032 FFF7FEFF 		bl	dbg_check_enable
 105              	.LVL8:
 106              	.LBB2:
 107 0036 0023     		movs	r3, #0
 108              	@ 111 "../../../os/kernel/src/chsys.c" 1
 109 0038 83F31188 		msr     BASEPRI, r3                    
 110 003c 62B6     		cpsie   i
 111              	@ 0 "" 2
 112              		.thumb
ARM GAS  /tmp/ccWbFbv8.s 			page 3


 113              	.LBE2:
 114              		.loc 1 115 0
 115 003e A269     		ldr	r2, [r4, #24]
 116 0040 0849     		ldr	r1, .L7+12
 117 0042 9161     		str	r1, [r2, #24]
 118              		.loc 1 121 0
 119 0044 0848     		ldr	r0, .L7+16
 120 0046 0093     		str	r3, [sp]
 121 0048 2A46     		mov	r2, r5
 122 004a 084B     		ldr	r3, .L7+20
 123 004c E021     		movs	r1, #224
 124 004e FFF7FEFF 		bl	chThdCreateStatic
 125              	.LVL9:
 126              		.loc 1 124 0
 127 0052 03B0     		add	sp, sp, #12
 128              		@ sp needed
 129 0054 30BD     		pop	{r4, r5, pc}
 130              	.L8:
 131 0056 00BF     		.align	2
 132              	.L7:
 133 0058 00000000 		.word	.LANCHOR0
 134 005c 00000000 		.word	rlist
 135 0060 00000000 		.word	__main_thread_stack_base__
 136 0064 00000000 		.word	ch_debug
 137 0068 00000000 		.word	.LANCHOR1
 138 006c 00000000 		.word	_idle_thread
 139              		.cfi_endproc
 140              	.LFE8:
 141              		.size	chSysInit, .-chSysInit
 142              		.section	.text.chSysTimerHandlerI,"ax",%progbits
 143              		.align	2
 144              		.p2align 4,,15
 145              		.global	chSysTimerHandlerI
 146              		.thumb
 147              		.thumb_func
 148              		.type	chSysTimerHandlerI, %function
 149              	chSysTimerHandlerI:
 150              	.LFB9:
 151              		.loc 1 137 0
 152              		.cfi_startproc
 153              		@ args = 0, pretend = 0, frame = 0
 154              		@ frame_needed = 0, uses_anonymous_args = 0
 155 0000 F8B5     		push	{r3, r4, r5, r6, r7, lr}
 156              		.cfi_def_cfa_offset 24
 157              		.cfi_offset 3, -24
 158              		.cfi_offset 4, -20
 159              		.cfi_offset 5, -16
 160              		.cfi_offset 6, -12
 161              		.cfi_offset 7, -8
 162              		.cfi_offset 14, -4
 163              		.loc 1 139 0
 164 0002 FFF7FEFF 		bl	chDbgCheckClassI
 165              	.LVL10:
 166              		.loc 1 143 0
 167 0006 164B     		ldr	r3, .L17
 168 0008 9B69     		ldr	r3, [r3, #24]
 169 000a 93F82320 		ldrb	r2, [r3, #35]	@ zero_extendqisi2
ARM GAS  /tmp/ccWbFbv8.s 			page 4


 170 000e 12B1     		cbz	r2, .L10
 171              		.loc 1 145 0
 172 0010 013A     		subs	r2, r2, #1
 173 0012 83F82320 		strb	r2, [r3, #35]
 174              	.L10:
 175              		.loc 1 148 0
 176 0016 5A6A     		ldr	r2, [r3, #36]
 177              		.loc 1 150 0
 178 0018 124D     		ldr	r5, .L17+4
 179              		.loc 1 148 0
 180 001a 0132     		adds	r2, r2, #1
 181 001c 5A62     		str	r2, [r3, #36]
 182              		.loc 1 150 0
 183 001e EB68     		ldr	r3, [r5, #12]
 184 0020 2C68     		ldr	r4, [r5]
 185 0022 0133     		adds	r3, r3, #1
 186 0024 AC42     		cmp	r4, r5
 187 0026 EB60     		str	r3, [r5, #12]
 188 0028 18D0     		beq	.L9
 189              	.LBB3:
 190              		.loc 1 150 0 is_stmt 0 discriminator 1
 191 002a A768     		ldr	r7, [r4, #8]
 192 002c 013F     		subs	r7, r7, #1
 193 002e A760     		str	r7, [r4, #8]
 194              	.LVL11:
 195 0030 A7B9     		cbnz	r7, .L9
 196              	.L13:
 197              	.LBB4:
 198              		.loc 1 150 0 discriminator 2
 199 0032 2368     		ldr	r3, [r4]
 200 0034 E668     		ldr	r6, [r4, #12]
 201              	.LVL12:
 202 0036 E760     		str	r7, [r4, #12]
 203 0038 5D60     		str	r5, [r3, #4]
 204 003a 2B60     		str	r3, [r5]
 205 003c FFF7FEFF 		bl	dbg_check_unlock_from_isr
 206              	.LVL13:
 207              	.LBB5:
 208 0040 0023     		movs	r3, #0
 209              	@ 150 "../../../os/kernel/src/chsys.c" 1
 210 0042 83F31188 		msr     BASEPRI, r3
 211              	@ 0 "" 2
 212              		.thumb
 213              	.LBE5:
 214 0046 2069     		ldr	r0, [r4, #16]
 215 0048 B047     		blx	r6
 216              	.LVL14:
 217              	.LBB6:
 218 004a 2023     		movs	r3, #32
 219              	@ 150 "../../../os/kernel/src/chsys.c" 1
 220 004c 83F31188 		msr     BASEPRI, r3
 221              	@ 0 "" 2
 222              		.thumb
 223              	.LBE6:
 224 0050 FFF7FEFF 		bl	dbg_check_lock_from_isr
 225              	.LVL15:
 226              	.LBE4:
ARM GAS  /tmp/ccWbFbv8.s 			page 5


 227 0054 2C68     		ldr	r4, [r5]
 228              	.LVL16:
 229 0056 A368     		ldr	r3, [r4, #8]
 230 0058 002B     		cmp	r3, #0
 231 005a EAD0     		beq	.L13
 232              	.LVL17:
 233              	.L9:
 234 005c F8BD     		pop	{r3, r4, r5, r6, r7, pc}
 235              	.L18:
 236 005e 00BF     		.align	2
 237              	.L17:
 238 0060 00000000 		.word	rlist
 239 0064 00000000 		.word	vtlist
 240              	.LBE3:
 241              		.cfi_endproc
 242              	.LFE9:
 243              		.size	chSysTimerHandlerI, .-chSysTimerHandlerI
 244              		.global	_idle_thread_wa
 245 0068 AFF30080 		.section	.rodata.str1.4,"aMS",%progbits,1
 245      AFF30080 
 246              		.align	2
 247              	.LC0:
 248 0000 69646C65 		.ascii	"idle\000"
 248      00
 249 0005 000000   		.section	.bss.mainthread.4845,"aw",%nobits
 250              		.align	2
 251              		.set	.LANCHOR0,. + 0
 252              		.type	mainthread.4845, %object
 253              		.size	mainthread.4845, 76
 254              	mainthread.4845:
 255 0000 00000000 		.space	76
 255      00000000 
 255      00000000 
 255      00000000 
 255      00000000 
 256              		.section	.bss._idle_thread_wa,"aw",%nobits
 257              		.align	3
 258              		.set	.LANCHOR1,. + 0
 259              		.type	_idle_thread_wa, %object
 260              		.size	_idle_thread_wa, 224
 261              	_idle_thread_wa:
 262 0000 00000000 		.space	224
 262      00000000 
 262      00000000 
 262      00000000 
 262      00000000 
 263              		.text
 264              	.Letext0:
 265              		.file 2 "/opt/ARM/lib/gcc/arm-none-eabi/4.8.4/include/stddef.h"
 266              		.file 3 "/opt/ARM/arm-none-eabi/include/machine/_default_types.h"
 267              		.file 4 "/opt/ARM/arm-none-eabi/include/stdint.h"
 268              		.file 5 "../../../os/ports/GCC/ARMCMx/chtypes.h"
 269              		.file 6 "../../../os/kernel/include/chlists.h"
 270              		.file 7 "../../../os/kernel/include/chthreads.h"
 271              		.file 8 "../../../os/ports/GCC/ARMCMx/chcore_v7m.h"
 272              		.file 9 "../../../os/kernel/include/chvt.h"
 273              		.file 10 "../../../os/kernel/include/chschd.h"
ARM GAS  /tmp/ccWbFbv8.s 			page 6


 274              		.file 11 "../../../os/kernel/include/chmtx.h"
 275              		.file 12 "../../../os/kernel/include/chregistry.h"
 276              		.file 13 "../../../os/kernel/include/chmemcore.h"
 277              		.file 14 "../../../os/kernel/include/chheap.h"
 278              		.file 15 "../../../os/kernel/include/chdebug.h"
 279              		.section	.debug_info,"",%progbits
 280              	.Ldebug_info0:
 281 0000 A8080000 		.4byte	0x8a8
 282 0004 0400     		.2byte	0x4
 283 0006 00000000 		.4byte	.Ldebug_abbrev0
 284 000a 04       		.byte	0x4
 285 000b 01       		.uleb128 0x1
 286 000c 7F040000 		.4byte	.LASF123
 287 0010 01       		.byte	0x1
 288 0011 A3000000 		.4byte	.LASF124
 289 0015 93020000 		.4byte	.LASF125
 290 0019 00000000 		.4byte	.Ldebug_ranges0+0
 291 001d 00000000 		.4byte	0
 292 0021 00000000 		.4byte	.Ldebug_line0
 293 0025 02       		.uleb128 0x2
 294 0026 04       		.byte	0x4
 295 0027 05       		.byte	0x5
 296 0028 696E7400 		.ascii	"int\000"
 297 002c 03       		.uleb128 0x3
 298 002d 1B000000 		.4byte	.LASF2
 299 0031 02       		.byte	0x2
 300 0032 D4       		.byte	0xd4
 301 0033 37000000 		.4byte	0x37
 302 0037 04       		.uleb128 0x4
 303 0038 04       		.byte	0x4
 304 0039 07       		.byte	0x7
 305 003a B6010000 		.4byte	.LASF0
 306 003e 04       		.uleb128 0x4
 307 003f 01       		.byte	0x1
 308 0040 06       		.byte	0x6
 309 0041 E0000000 		.4byte	.LASF1
 310 0045 03       		.uleb128 0x3
 311 0046 32000000 		.4byte	.LASF3
 312 004a 03       		.byte	0x3
 313 004b 1C       		.byte	0x1c
 314 004c 50000000 		.4byte	0x50
 315 0050 04       		.uleb128 0x4
 316 0051 01       		.byte	0x1
 317 0052 08       		.byte	0x8
 318 0053 8C030000 		.4byte	.LASF4
 319 0057 04       		.uleb128 0x4
 320 0058 02       		.byte	0x2
 321 0059 05       		.byte	0x5
 322 005a AF030000 		.4byte	.LASF5
 323 005e 03       		.uleb128 0x3
 324 005f 59040000 		.4byte	.LASF6
 325 0063 03       		.byte	0x3
 326 0064 26       		.byte	0x26
 327 0065 69000000 		.4byte	0x69
 328 0069 04       		.uleb128 0x4
 329 006a 02       		.byte	0x2
 330 006b 07       		.byte	0x7
ARM GAS  /tmp/ccWbFbv8.s 			page 7


 331 006c 12020000 		.4byte	.LASF7
 332 0070 03       		.uleb128 0x3
 333 0071 75050000 		.4byte	.LASF8
 334 0075 03       		.byte	0x3
 335 0076 37       		.byte	0x37
 336 0077 7B000000 		.4byte	0x7b
 337 007b 04       		.uleb128 0x4
 338 007c 04       		.byte	0x4
 339 007d 05       		.byte	0x5
 340 007e 3D010000 		.4byte	.LASF9
 341 0082 03       		.uleb128 0x3
 342 0083 7A010000 		.4byte	.LASF10
 343 0087 03       		.byte	0x3
 344 0088 38       		.byte	0x38
 345 0089 8D000000 		.4byte	0x8d
 346 008d 04       		.uleb128 0x4
 347 008e 04       		.byte	0x4
 348 008f 07       		.byte	0x7
 349 0090 D8010000 		.4byte	.LASF11
 350 0094 04       		.uleb128 0x4
 351 0095 08       		.byte	0x8
 352 0096 05       		.byte	0x5
 353 0097 D2000000 		.4byte	.LASF12
 354 009b 03       		.uleb128 0x3
 355 009c 51030000 		.4byte	.LASF13
 356 00a0 03       		.byte	0x3
 357 00a1 4E       		.byte	0x4e
 358 00a2 A6000000 		.4byte	0xa6
 359 00a6 04       		.uleb128 0x4
 360 00a7 08       		.byte	0x8
 361 00a8 07       		.byte	0x7
 362 00a9 56000000 		.4byte	.LASF14
 363 00ad 03       		.uleb128 0x3
 364 00ae DB050000 		.4byte	.LASF15
 365 00b2 04       		.byte	0x4
 366 00b3 2A       		.byte	0x2a
 367 00b4 45000000 		.4byte	0x45
 368 00b8 03       		.uleb128 0x3
 369 00b9 4F010000 		.4byte	.LASF16
 370 00bd 04       		.byte	0x4
 371 00be 36       		.byte	0x36
 372 00bf 5E000000 		.4byte	0x5e
 373 00c3 03       		.uleb128 0x3
 374 00c4 84030000 		.4byte	.LASF17
 375 00c8 04       		.byte	0x4
 376 00c9 41       		.byte	0x41
 377 00ca 70000000 		.4byte	0x70
 378 00ce 03       		.uleb128 0x3
 379 00cf 22040000 		.4byte	.LASF18
 380 00d3 04       		.byte	0x4
 381 00d4 42       		.byte	0x42
 382 00d5 82000000 		.4byte	0x82
 383 00d9 03       		.uleb128 0x3
 384 00da 29000000 		.4byte	.LASF19
 385 00de 04       		.byte	0x4
 386 00df 4E       		.byte	0x4e
 387 00e0 9B000000 		.4byte	0x9b
ARM GAS  /tmp/ccWbFbv8.s 			page 8


 388 00e4 04       		.uleb128 0x4
 389 00e5 01       		.byte	0x1
 390 00e6 02       		.byte	0x2
 391 00e7 7E030000 		.4byte	.LASF20
 392 00eb 03       		.uleb128 0x3
 393 00ec 50020000 		.4byte	.LASF21
 394 00f0 05       		.byte	0x5
 395 00f1 2C       		.byte	0x2c
 396 00f2 AD000000 		.4byte	0xad
 397 00f6 03       		.uleb128 0x3
 398 00f7 46010000 		.4byte	.LASF22
 399 00fb 05       		.byte	0x5
 400 00fc 2D       		.byte	0x2d
 401 00fd AD000000 		.4byte	0xad
 402 0101 03       		.uleb128 0x3
 403 0102 5C030000 		.4byte	.LASF23
 404 0106 05       		.byte	0x5
 405 0107 2E       		.byte	0x2e
 406 0108 AD000000 		.4byte	0xad
 407 010c 03       		.uleb128 0x3
 408 010d 33010000 		.4byte	.LASF24
 409 0111 05       		.byte	0x5
 410 0112 2F       		.byte	0x2f
 411 0113 AD000000 		.4byte	0xad
 412 0117 03       		.uleb128 0x3
 413 0118 76030000 		.4byte	.LASF25
 414 011c 05       		.byte	0x5
 415 011d 30       		.byte	0x30
 416 011e CE000000 		.4byte	0xce
 417 0122 03       		.uleb128 0x3
 418 0123 31020000 		.4byte	.LASF26
 419 0127 05       		.byte	0x5
 420 0128 31       		.byte	0x31
 421 0129 C3000000 		.4byte	0xc3
 422 012d 03       		.uleb128 0x3
 423 012e 64020000 		.4byte	.LASF27
 424 0132 05       		.byte	0x5
 425 0133 33       		.byte	0x33
 426 0134 CE000000 		.4byte	0xce
 427 0138 03       		.uleb128 0x3
 428 0139 60050000 		.4byte	.LASF28
 429 013d 05       		.byte	0x5
 430 013e 35       		.byte	0x35
 431 013f CE000000 		.4byte	0xce
 432 0143 03       		.uleb128 0x3
 433 0144 03040000 		.4byte	.LASF29
 434 0148 06       		.byte	0x6
 435 0149 2A       		.byte	0x2a
 436 014a 4E010000 		.4byte	0x14e
 437 014e 05       		.uleb128 0x5
 438 014f 03040000 		.4byte	.LASF29
 439 0153 4C       		.byte	0x4c
 440 0154 07       		.byte	0x7
 441 0155 5E       		.byte	0x5e
 442 0156 57020000 		.4byte	0x257
 443 015a 06       		.uleb128 0x6
 444 015b E5030000 		.4byte	.LASF30
ARM GAS  /tmp/ccWbFbv8.s 			page 9


 445 015f 07       		.byte	0x7
 446 0160 5F       		.byte	0x5f
 447 0161 78020000 		.4byte	0x278
 448 0165 00       		.byte	0
 449 0166 06       		.uleb128 0x6
 450 0167 6F030000 		.4byte	.LASF31
 451 016b 07       		.byte	0x7
 452 016c 61       		.byte	0x61
 453 016d 78020000 		.4byte	0x278
 454 0171 04       		.byte	0x4
 455 0172 06       		.uleb128 0x6
 456 0173 8F000000 		.4byte	.LASF32
 457 0177 07       		.byte	0x7
 458 0178 63       		.byte	0x63
 459 0179 17010000 		.4byte	0x117
 460 017d 08       		.byte	0x8
 461 017e 06       		.uleb128 0x6
 462 017f 39060000 		.4byte	.LASF33
 463 0183 07       		.byte	0x7
 464 0184 64       		.byte	0x64
 465 0185 3D030000 		.4byte	0x33d
 466 0189 0C       		.byte	0xc
 467 018a 06       		.uleb128 0x6
 468 018b 62010000 		.4byte	.LASF34
 469 018f 07       		.byte	0x7
 470 0190 66       		.byte	0x66
 471 0191 78020000 		.4byte	0x278
 472 0195 10       		.byte	0x10
 473 0196 06       		.uleb128 0x6
 474 0197 0F030000 		.4byte	.LASF35
 475 019b 07       		.byte	0x7
 476 019c 67       		.byte	0x67
 477 019d 78020000 		.4byte	0x278
 478 01a1 14       		.byte	0x14
 479 01a2 06       		.uleb128 0x6
 480 01a3 0D060000 		.4byte	.LASF36
 481 01a7 07       		.byte	0x7
 482 01a8 6E       		.byte	0x6e
 483 01a9 F7040000 		.4byte	0x4f7
 484 01ad 18       		.byte	0x18
 485 01ae 06       		.uleb128 0x6
 486 01af AB010000 		.4byte	.LASF37
 487 01b3 07       		.byte	0x7
 488 01b4 74       		.byte	0x74
 489 01b5 09050000 		.4byte	0x509
 490 01b9 1C       		.byte	0x1c
 491 01ba 06       		.uleb128 0x6
 492 01bb B9030000 		.4byte	.LASF38
 493 01bf 07       		.byte	0x7
 494 01c0 79       		.byte	0x79
 495 01c1 F6000000 		.4byte	0xf6
 496 01c5 20       		.byte	0x20
 497 01c6 06       		.uleb128 0x6
 498 01c7 FB030000 		.4byte	.LASF39
 499 01cb 07       		.byte	0x7
 500 01cc 7D       		.byte	0x7d
 501 01cd EB000000 		.4byte	0xeb
ARM GAS  /tmp/ccWbFbv8.s 			page 10


 502 01d1 21       		.byte	0x21
 503 01d2 06       		.uleb128 0x6
 504 01d3 C4050000 		.4byte	.LASF40
 505 01d7 07       		.byte	0x7
 506 01d8 82       		.byte	0x82
 507 01d9 01010000 		.4byte	0x101
 508 01dd 22       		.byte	0x22
 509 01de 06       		.uleb128 0x6
 510 01df C1030000 		.4byte	.LASF41
 511 01e3 07       		.byte	0x7
 512 01e4 88       		.byte	0x88
 513 01e5 0C010000 		.4byte	0x10c
 514 01e9 23       		.byte	0x23
 515 01ea 06       		.uleb128 0x6
 516 01eb 88050000 		.4byte	.LASF42
 517 01ef 07       		.byte	0x7
 518 01f0 8F       		.byte	0x8f
 519 01f1 14040000 		.4byte	0x414
 520 01f5 24       		.byte	0x24
 521 01f6 07       		.uleb128 0x7
 522 01f7 705F7500 		.ascii	"p_u\000"
 523 01fb 07       		.byte	0x7
 524 01fc B4       		.byte	0xb4
 525 01fd C2040000 		.4byte	0x4c2
 526 0201 28       		.byte	0x28
 527 0202 06       		.uleb128 0x6
 528 0203 3F060000 		.4byte	.LASF43
 529 0207 07       		.byte	0x7
 530 0208 B9       		.byte	0xb9
 531 0209 9E020000 		.4byte	0x29e
 532 020d 2C       		.byte	0x2c
 533 020e 06       		.uleb128 0x6
 534 020f 96050000 		.4byte	.LASF44
 535 0213 07       		.byte	0x7
 536 0214 BF       		.byte	0xbf
 537 0215 7E020000 		.4byte	0x27e
 538 0219 30       		.byte	0x30
 539 021a 06       		.uleb128 0x6
 540 021b 15000000 		.4byte	.LASF45
 541 021f 07       		.byte	0x7
 542 0220 C3       		.byte	0xc3
 543 0221 22010000 		.4byte	0x122
 544 0225 38       		.byte	0x38
 545 0226 06       		.uleb128 0x6
 546 0227 17040000 		.4byte	.LASF46
 547 022b 07       		.byte	0x7
 548 022c C9       		.byte	0xc9
 549 022d 2D010000 		.4byte	0x12d
 550 0231 3C       		.byte	0x3c
 551 0232 06       		.uleb128 0x6
 552 0233 A5030000 		.4byte	.LASF47
 553 0237 07       		.byte	0x7
 554 0238 D0       		.byte	0xd0
 555 0239 0F050000 		.4byte	0x50f
 556 023d 40       		.byte	0x40
 557 023e 06       		.uleb128 0x6
 558 023f 6A050000 		.4byte	.LASF48
ARM GAS  /tmp/ccWbFbv8.s 			page 11


 559 0243 07       		.byte	0x7
 560 0244 D4       		.byte	0xd4
 561 0245 17010000 		.4byte	0x117
 562 0249 44       		.byte	0x44
 563 024a 06       		.uleb128 0x6
 564 024b 23010000 		.4byte	.LASF49
 565 024f 07       		.byte	0x7
 566 0250 DA       		.byte	0xda
 567 0251 B4020000 		.4byte	0x2b4
 568 0255 48       		.byte	0x48
 569 0256 00       		.byte	0
 570 0257 08       		.uleb128 0x8
 571 0258 08       		.byte	0x8
 572 0259 06       		.byte	0x6
 573 025a 61       		.byte	0x61
 574 025b 78020000 		.4byte	0x278
 575 025f 06       		.uleb128 0x6
 576 0260 E5030000 		.4byte	.LASF30
 577 0264 06       		.byte	0x6
 578 0265 62       		.byte	0x62
 579 0266 78020000 		.4byte	0x278
 580 026a 00       		.byte	0
 581 026b 06       		.uleb128 0x6
 582 026c 6F030000 		.4byte	.LASF31
 583 0270 06       		.byte	0x6
 584 0271 64       		.byte	0x64
 585 0272 78020000 		.4byte	0x278
 586 0276 04       		.byte	0x4
 587 0277 00       		.byte	0
 588 0278 09       		.uleb128 0x9
 589 0279 04       		.byte	0x4
 590 027a 43010000 		.4byte	0x143
 591 027e 03       		.uleb128 0x3
 592 027f 1D030000 		.4byte	.LASF50
 593 0283 06       		.byte	0x6
 594 0284 66       		.byte	0x66
 595 0285 57020000 		.4byte	0x257
 596 0289 08       		.uleb128 0x8
 597 028a 04       		.byte	0x4
 598 028b 06       		.byte	0x6
 599 028c 6B       		.byte	0x6b
 600 028d 9E020000 		.4byte	0x29e
 601 0291 06       		.uleb128 0x6
 602 0292 E5030000 		.4byte	.LASF30
 603 0296 06       		.byte	0x6
 604 0297 6D       		.byte	0x6d
 605 0298 78020000 		.4byte	0x278
 606 029c 00       		.byte	0
 607 029d 00       		.byte	0
 608 029e 03       		.uleb128 0x3
 609 029f 58020000 		.4byte	.LASF51
 610 02a3 06       		.byte	0x6
 611 02a4 70       		.byte	0x70
 612 02a5 89020000 		.4byte	0x289
 613 02a9 03       		.uleb128 0x3
 614 02aa 85010000 		.4byte	.LASF52
 615 02ae 08       		.byte	0x8
ARM GAS  /tmp/ccWbFbv8.s 			page 12


 616 02af E5       		.byte	0xe5
 617 02b0 B4020000 		.4byte	0x2b4
 618 02b4 0A       		.uleb128 0xa
 619 02b5 04       		.byte	0x4
 620 02b6 03       		.uleb128 0x3
 621 02b7 76020000 		.4byte	.LASF53
 622 02bb 08       		.byte	0x8
 623 02bc EB       		.byte	0xeb
 624 02bd D9000000 		.4byte	0xd9
 625 02c1 0B       		.uleb128 0xb
 626 02c2 8F050000 		.4byte	.LASF54
 627 02c6 24       		.byte	0x24
 628 02c7 08       		.byte	0x8
 629 02c8 0C01     		.2byte	0x10c
 630 02ca 3D030000 		.4byte	0x33d
 631 02ce 0C       		.uleb128 0xc
 632 02cf 723400   		.ascii	"r4\000"
 633 02d2 08       		.byte	0x8
 634 02d3 1F01     		.2byte	0x11f
 635 02d5 A9020000 		.4byte	0x2a9
 636 02d9 00       		.byte	0
 637 02da 0C       		.uleb128 0xc
 638 02db 723500   		.ascii	"r5\000"
 639 02de 08       		.byte	0x8
 640 02df 2001     		.2byte	0x120
 641 02e1 A9020000 		.4byte	0x2a9
 642 02e5 04       		.byte	0x4
 643 02e6 0C       		.uleb128 0xc
 644 02e7 723600   		.ascii	"r6\000"
 645 02ea 08       		.byte	0x8
 646 02eb 2101     		.2byte	0x121
 647 02ed A9020000 		.4byte	0x2a9
 648 02f1 08       		.byte	0x8
 649 02f2 0C       		.uleb128 0xc
 650 02f3 723700   		.ascii	"r7\000"
 651 02f6 08       		.byte	0x8
 652 02f7 2201     		.2byte	0x122
 653 02f9 A9020000 		.4byte	0x2a9
 654 02fd 0C       		.byte	0xc
 655 02fe 0C       		.uleb128 0xc
 656 02ff 723800   		.ascii	"r8\000"
 657 0302 08       		.byte	0x8
 658 0303 2301     		.2byte	0x123
 659 0305 A9020000 		.4byte	0x2a9
 660 0309 10       		.byte	0x10
 661 030a 0C       		.uleb128 0xc
 662 030b 723900   		.ascii	"r9\000"
 663 030e 08       		.byte	0x8
 664 030f 2401     		.2byte	0x124
 665 0311 A9020000 		.4byte	0x2a9
 666 0315 14       		.byte	0x14
 667 0316 0C       		.uleb128 0xc
 668 0317 72313000 		.ascii	"r10\000"
 669 031b 08       		.byte	0x8
 670 031c 2501     		.2byte	0x125
 671 031e A9020000 		.4byte	0x2a9
 672 0322 18       		.byte	0x18
ARM GAS  /tmp/ccWbFbv8.s 			page 13


 673 0323 0C       		.uleb128 0xc
 674 0324 72313100 		.ascii	"r11\000"
 675 0328 08       		.byte	0x8
 676 0329 2601     		.2byte	0x126
 677 032b A9020000 		.4byte	0x2a9
 678 032f 1C       		.byte	0x1c
 679 0330 0C       		.uleb128 0xc
 680 0331 6C7200   		.ascii	"lr\000"
 681 0334 08       		.byte	0x8
 682 0335 2701     		.2byte	0x127
 683 0337 A9020000 		.4byte	0x2a9
 684 033b 20       		.byte	0x20
 685 033c 00       		.byte	0
 686 033d 0B       		.uleb128 0xb
 687 033e 0A020000 		.4byte	.LASF55
 688 0342 04       		.byte	0x4
 689 0343 08       		.byte	0x8
 690 0344 3101     		.2byte	0x131
 691 0346 58030000 		.4byte	0x358
 692 034a 0C       		.uleb128 0xc
 693 034b 72313300 		.ascii	"r13\000"
 694 034f 08       		.byte	0x8
 695 0350 3201     		.2byte	0x132
 696 0352 58030000 		.4byte	0x358
 697 0356 00       		.byte	0
 698 0357 00       		.byte	0
 699 0358 09       		.uleb128 0x9
 700 0359 04       		.byte	0x4
 701 035a C1020000 		.4byte	0x2c1
 702 035e 04       		.uleb128 0x4
 703 035f 04       		.byte	0x4
 704 0360 07       		.byte	0x7
 705 0361 E6020000 		.4byte	.LASF56
 706 0365 03       		.uleb128 0x3
 707 0366 F3010000 		.4byte	.LASF57
 708 036a 09       		.byte	0x9
 709 036b 58       		.byte	0x58
 710 036c 70030000 		.4byte	0x370
 711 0370 09       		.uleb128 0x9
 712 0371 04       		.byte	0x4
 713 0372 76030000 		.4byte	0x376
 714 0376 0D       		.uleb128 0xd
 715 0377 81030000 		.4byte	0x381
 716 037b 0E       		.uleb128 0xe
 717 037c B4020000 		.4byte	0x2b4
 718 0380 00       		.byte	0
 719 0381 03       		.uleb128 0x3
 720 0382 3F040000 		.4byte	.LASF58
 721 0386 09       		.byte	0x9
 722 0387 5D       		.byte	0x5d
 723 0388 8C030000 		.4byte	0x38c
 724 038c 05       		.uleb128 0x5
 725 038d 3F040000 		.4byte	.LASF58
 726 0391 14       		.byte	0x14
 727 0392 09       		.byte	0x9
 728 0393 64       		.byte	0x64
 729 0394 D5030000 		.4byte	0x3d5
ARM GAS  /tmp/ccWbFbv8.s 			page 14


 730 0398 06       		.uleb128 0x6
 731 0399 D0010000 		.4byte	.LASF59
 732 039d 09       		.byte	0x9
 733 039e 65       		.byte	0x65
 734 039f D5030000 		.4byte	0x3d5
 735 03a3 00       		.byte	0
 736 03a4 06       		.uleb128 0x6
 737 03a5 8E010000 		.4byte	.LASF60
 738 03a9 09       		.byte	0x9
 739 03aa 67       		.byte	0x67
 740 03ab D5030000 		.4byte	0x3d5
 741 03af 04       		.byte	0x4
 742 03b0 06       		.uleb128 0x6
 743 03b1 DE020000 		.4byte	.LASF61
 744 03b5 09       		.byte	0x9
 745 03b6 69       		.byte	0x69
 746 03b7 38010000 		.4byte	0x138
 747 03bb 08       		.byte	0x8
 748 03bc 06       		.uleb128 0x6
 749 03bd EF020000 		.4byte	.LASF62
 750 03c1 09       		.byte	0x9
 751 03c2 6A       		.byte	0x6a
 752 03c3 65030000 		.4byte	0x365
 753 03c7 0C       		.byte	0xc
 754 03c8 06       		.uleb128 0x6
 755 03c9 B2050000 		.4byte	.LASF63
 756 03cd 09       		.byte	0x9
 757 03ce 6C       		.byte	0x6c
 758 03cf B4020000 		.4byte	0x2b4
 759 03d3 10       		.byte	0x10
 760 03d4 00       		.byte	0
 761 03d5 09       		.uleb128 0x9
 762 03d6 04       		.byte	0x4
 763 03d7 81030000 		.4byte	0x381
 764 03db 08       		.uleb128 0x8
 765 03dc 10       		.byte	0x10
 766 03dd 09       		.byte	0x9
 767 03de 76       		.byte	0x76
 768 03df 14040000 		.4byte	0x414
 769 03e3 06       		.uleb128 0x6
 770 03e4 D0010000 		.4byte	.LASF59
 771 03e8 09       		.byte	0x9
 772 03e9 77       		.byte	0x77
 773 03ea D5030000 		.4byte	0x3d5
 774 03ee 00       		.byte	0
 775 03ef 06       		.uleb128 0x6
 776 03f0 8E010000 		.4byte	.LASF60
 777 03f4 09       		.byte	0x9
 778 03f5 79       		.byte	0x79
 779 03f6 D5030000 		.4byte	0x3d5
 780 03fa 04       		.byte	0x4
 781 03fb 06       		.uleb128 0x6
 782 03fc DE020000 		.4byte	.LASF61
 783 0400 09       		.byte	0x9
 784 0401 7B       		.byte	0x7b
 785 0402 38010000 		.4byte	0x138
 786 0406 08       		.byte	0x8
ARM GAS  /tmp/ccWbFbv8.s 			page 15


 787 0407 06       		.uleb128 0x6
 788 0408 14060000 		.4byte	.LASF64
 789 040c 09       		.byte	0x9
 790 040d 7C       		.byte	0x7c
 791 040e 14040000 		.4byte	0x414
 792 0412 0C       		.byte	0xc
 793 0413 00       		.byte	0
 794 0414 0F       		.uleb128 0xf
 795 0415 38010000 		.4byte	0x138
 796 0419 03       		.uleb128 0x3
 797 041a 2A060000 		.4byte	.LASF65
 798 041e 09       		.byte	0x9
 799 041f 7D       		.byte	0x7d
 800 0420 DB030000 		.4byte	0x3db
 801 0424 08       		.uleb128 0x8
 802 0425 1C       		.byte	0x1c
 803 0426 0A       		.byte	0xa
 804 0427 5E       		.byte	0x5e
 805 0428 75040000 		.4byte	0x475
 806 042c 06       		.uleb128 0x6
 807 042d 37040000 		.4byte	.LASF66
 808 0431 0A       		.byte	0xa
 809 0432 5F       		.byte	0x5f
 810 0433 7E020000 		.4byte	0x27e
 811 0437 00       		.byte	0
 812 0438 06       		.uleb128 0x6
 813 0439 D7030000 		.4byte	.LASF67
 814 043d 0A       		.byte	0xa
 815 043e 60       		.byte	0x60
 816 043f 17010000 		.4byte	0x117
 817 0443 08       		.byte	0x8
 818 0444 06       		.uleb128 0x6
 819 0445 17030000 		.4byte	.LASF68
 820 0449 0A       		.byte	0xa
 821 044a 62       		.byte	0x62
 822 044b 3D030000 		.4byte	0x33d
 823 044f 0C       		.byte	0xc
 824 0450 06       		.uleb128 0x6
 825 0451 37020000 		.4byte	.LASF69
 826 0455 0A       		.byte	0xa
 827 0456 65       		.byte	0x65
 828 0457 78020000 		.4byte	0x278
 829 045b 10       		.byte	0x10
 830 045c 06       		.uleb128 0x6
 831 045d 3C030000 		.4byte	.LASF70
 832 0461 0A       		.byte	0xa
 833 0462 66       		.byte	0x66
 834 0463 78020000 		.4byte	0x278
 835 0467 14       		.byte	0x14
 836 0468 06       		.uleb128 0x6
 837 0469 32030000 		.4byte	.LASF71
 838 046d 0A       		.byte	0xa
 839 046e 69       		.byte	0x69
 840 046f 78020000 		.4byte	0x278
 841 0473 18       		.byte	0x18
 842 0474 00       		.byte	0
 843 0475 03       		.uleb128 0x3
ARM GAS  /tmp/ccWbFbv8.s 			page 16


 844 0476 CB050000 		.4byte	.LASF72
 845 047a 0A       		.byte	0xa
 846 047b 6B       		.byte	0x6b
 847 047c 24040000 		.4byte	0x424
 848 0480 05       		.uleb128 0x5
 849 0481 70020000 		.4byte	.LASF73
 850 0485 10       		.byte	0x10
 851 0486 0B       		.byte	0xb
 852 0487 2C       		.byte	0x2c
 853 0488 B1040000 		.4byte	0x4b1
 854 048c 06       		.uleb128 0x6
 855 048d 2B010000 		.4byte	.LASF74
 856 0491 0B       		.byte	0xb
 857 0492 2D       		.byte	0x2d
 858 0493 7E020000 		.4byte	0x27e
 859 0497 00       		.byte	0
 860 0498 06       		.uleb128 0x6
 861 0499 31060000 		.4byte	.LASF75
 862 049d 0B       		.byte	0xb
 863 049e 2F       		.byte	0x2f
 864 049f 78020000 		.4byte	0x278
 865 04a3 08       		.byte	0x8
 866 04a4 06       		.uleb128 0x6
 867 04a5 59050000 		.4byte	.LASF76
 868 04a9 0B       		.byte	0xb
 869 04aa 31       		.byte	0x31
 870 04ab B1040000 		.4byte	0x4b1
 871 04af 0C       		.byte	0xc
 872 04b0 00       		.byte	0
 873 04b1 09       		.uleb128 0x9
 874 04b2 04       		.byte	0x4
 875 04b3 80040000 		.4byte	0x480
 876 04b7 03       		.uleb128 0x3
 877 04b8 70020000 		.4byte	.LASF73
 878 04bc 0B       		.byte	0xb
 879 04bd 33       		.byte	0x33
 880 04be 80040000 		.4byte	0x480
 881 04c2 10       		.uleb128 0x10
 882 04c3 04       		.byte	0x4
 883 04c4 07       		.byte	0x7
 884 04c5 96       		.byte	0x96
 885 04c6 F7040000 		.4byte	0x4f7
 886 04ca 11       		.uleb128 0x11
 887 04cb 22000000 		.4byte	.LASF77
 888 04cf 07       		.byte	0x7
 889 04d0 9D       		.byte	0x9d
 890 04d1 22010000 		.4byte	0x122
 891 04d5 11       		.uleb128 0x11
 892 04d6 7B000000 		.4byte	.LASF78
 893 04da 07       		.byte	0x7
 894 04db A4       		.byte	0xa4
 895 04dc 22010000 		.4byte	0x122
 896 04e0 11       		.uleb128 0x11
 897 04e1 06060000 		.4byte	.LASF79
 898 04e5 07       		.byte	0x7
 899 04e6 AB       		.byte	0xab
 900 04e7 B4020000 		.4byte	0x2b4
ARM GAS  /tmp/ccWbFbv8.s 			page 17


 901 04eb 11       		.uleb128 0x11
 902 04ec DE030000 		.4byte	.LASF80
 903 04f0 07       		.byte	0x7
 904 04f1 B2       		.byte	0xb2
 905 04f2 2D010000 		.4byte	0x12d
 906 04f6 00       		.byte	0
 907 04f7 09       		.uleb128 0x9
 908 04f8 04       		.byte	0x4
 909 04f9 FD040000 		.4byte	0x4fd
 910 04fd 12       		.uleb128 0x12
 911 04fe 02050000 		.4byte	0x502
 912 0502 04       		.uleb128 0x4
 913 0503 01       		.byte	0x1
 914 0504 08       		.byte	0x8
 915 0505 54040000 		.4byte	.LASF81
 916 0509 09       		.uleb128 0x9
 917 050a 04       		.byte	0x4
 918 050b B6020000 		.4byte	0x2b6
 919 050f 09       		.uleb128 0x9
 920 0510 04       		.byte	0x4
 921 0511 B7040000 		.4byte	0x4b7
 922 0515 03       		.uleb128 0x3
 923 0516 00000000 		.4byte	.LASF82
 924 051a 07       		.byte	0x7
 925 051b E5       		.byte	0xe5
 926 051c 20050000 		.4byte	0x520
 927 0520 09       		.uleb128 0x9
 928 0521 04       		.byte	0x4
 929 0522 26050000 		.4byte	0x526
 930 0526 13       		.uleb128 0x13
 931 0527 22010000 		.4byte	0x122
 932 052b 35050000 		.4byte	0x535
 933 052f 0E       		.uleb128 0xe
 934 0530 B4020000 		.4byte	0x2b4
 935 0534 00       		.byte	0
 936 0535 08       		.uleb128 0x8
 937 0536 16       		.byte	0x16
 938 0537 0C       		.byte	0xc
 939 0538 2C       		.byte	0x2c
 940 0539 16060000 		.4byte	0x616
 941 053d 06       		.uleb128 0x6
 942 053e FC010000 		.4byte	.LASF83
 943 0542 0C       		.byte	0xc
 944 0543 2D       		.byte	0x2d
 945 0544 16060000 		.4byte	0x616
 946 0548 00       		.byte	0
 947 0549 06       		.uleb128 0x6
 948 054a 4C040000 		.4byte	.LASF84
 949 054e 0C       		.byte	0xc
 950 054f 2E       		.byte	0x2e
 951 0550 AD000000 		.4byte	0xad
 952 0554 04       		.byte	0x4
 953 0555 06       		.uleb128 0x6
 954 0556 2A030000 		.4byte	.LASF85
 955 055a 0C       		.byte	0xc
 956 055b 2F       		.byte	0x2f
 957 055c AD000000 		.4byte	0xad
ARM GAS  /tmp/ccWbFbv8.s 			page 18


 958 0560 05       		.byte	0x5
 959 0561 06       		.uleb128 0x6
 960 0562 1F060000 		.4byte	.LASF86
 961 0566 0C       		.byte	0xc
 962 0567 30       		.byte	0x30
 963 0568 B8000000 		.4byte	0xb8
 964 056c 06       		.byte	0x6
 965 056d 06       		.uleb128 0x6
 966 056e 64030000 		.4byte	.LASF87
 967 0572 0C       		.byte	0xc
 968 0573 31       		.byte	0x31
 969 0574 AD000000 		.4byte	0xad
 970 0578 08       		.byte	0x8
 971 0579 06       		.uleb128 0x6
 972 057a F7020000 		.4byte	.LASF88
 973 057e 0C       		.byte	0xc
 974 057f 32       		.byte	0x32
 975 0580 AD000000 		.4byte	0xad
 976 0584 09       		.byte	0x9
 977 0585 06       		.uleb128 0x6
 978 0586 6D000000 		.4byte	.LASF89
 979 058a 0C       		.byte	0xc
 980 058b 33       		.byte	0x33
 981 058c AD000000 		.4byte	0xad
 982 0590 0A       		.byte	0xa
 983 0591 06       		.uleb128 0x6
 984 0592 2B040000 		.4byte	.LASF90
 985 0596 0C       		.byte	0xc
 986 0597 34       		.byte	0x34
 987 0598 AD000000 		.4byte	0xad
 988 059c 0B       		.byte	0xb
 989 059d 06       		.uleb128 0x6
 990 059e B9050000 		.4byte	.LASF91
 991 05a2 0C       		.byte	0xc
 992 05a3 35       		.byte	0x35
 993 05a4 AD000000 		.4byte	0xad
 994 05a8 0C       		.byte	0xc
 995 05a9 06       		.uleb128 0x6
 996 05aa 0A040000 		.4byte	.LASF92
 997 05ae 0C       		.byte	0xc
 998 05af 36       		.byte	0x36
 999 05b0 AD000000 		.4byte	0xad
 1000 05b4 0D       		.byte	0xd
 1001 05b5 06       		.uleb128 0x6
 1002 05b6 08000000 		.4byte	.LASF93
 1003 05ba 0C       		.byte	0xc
 1004 05bb 37       		.byte	0x37
 1005 05bc AD000000 		.4byte	0xad
 1006 05c0 0E       		.byte	0xe
 1007 05c1 06       		.uleb128 0x6
 1008 05c2 03030000 		.4byte	.LASF94
 1009 05c6 0C       		.byte	0xc
 1010 05c7 38       		.byte	0x38
 1011 05c8 AD000000 		.4byte	0xad
 1012 05cc 0F       		.byte	0xf
 1013 05cd 06       		.uleb128 0x6
 1014 05ce EC000000 		.4byte	.LASF95
ARM GAS  /tmp/ccWbFbv8.s 			page 19


 1015 05d2 0C       		.byte	0xc
 1016 05d3 39       		.byte	0x39
 1017 05d4 AD000000 		.4byte	0xad
 1018 05d8 10       		.byte	0x10
 1019 05d9 06       		.uleb128 0x6
 1020 05da 96000000 		.4byte	.LASF96
 1021 05de 0C       		.byte	0xc
 1022 05df 3B       		.byte	0x3b
 1023 05e0 AD000000 		.4byte	0xad
 1024 05e4 11       		.byte	0x11
 1025 05e5 06       		.uleb128 0x6
 1026 05e6 16010000 		.4byte	.LASF97
 1027 05ea 0C       		.byte	0xc
 1028 05eb 3C       		.byte	0x3c
 1029 05ec AD000000 		.4byte	0xad
 1030 05f0 12       		.byte	0x12
 1031 05f1 06       		.uleb128 0x6
 1032 05f2 D2020000 		.4byte	.LASF98
 1033 05f6 0C       		.byte	0xc
 1034 05f7 3D       		.byte	0x3d
 1035 05f8 AD000000 		.4byte	0xad
 1036 05fc 13       		.byte	0x13
 1037 05fd 06       		.uleb128 0x6
 1038 05fe EC030000 		.4byte	.LASF99
 1039 0602 0C       		.byte	0xc
 1040 0603 3E       		.byte	0x3e
 1041 0604 AD000000 		.4byte	0xad
 1042 0608 14       		.byte	0x14
 1043 0609 06       		.uleb128 0x6
 1044 060a CB030000 		.4byte	.LASF100
 1045 060e 0C       		.byte	0xc
 1046 060f 40       		.byte	0x40
 1047 0610 AD000000 		.4byte	0xad
 1048 0614 15       		.byte	0x15
 1049 0615 00       		.byte	0
 1050 0616 14       		.uleb128 0x14
 1051 0617 02050000 		.4byte	0x502
 1052 061b 26060000 		.4byte	0x626
 1053 061f 15       		.uleb128 0x15
 1054 0620 5E030000 		.4byte	0x35e
 1055 0624 03       		.byte	0x3
 1056 0625 00       		.byte	0
 1057 0626 03       		.uleb128 0x3
 1058 0627 58010000 		.4byte	.LASF101
 1059 062b 0C       		.byte	0xc
 1060 062c 41       		.byte	0x41
 1061 062d 35050000 		.4byte	0x535
 1062 0631 16       		.uleb128 0x16
 1063 0632 44030000 		.4byte	.LASF102
 1064 0636 01       		.byte	0x1
 1065 0637 3D       		.byte	0x3d
 1066 0638 00000000 		.4byte	.LFB7
 1067 063c 14000000 		.4byte	.LFE7-.LFB7
 1068 0640 01       		.uleb128 0x1
 1069 0641 9C       		.byte	0x9c
 1070 0642 52060000 		.4byte	0x652
 1071 0646 17       		.uleb128 0x17
ARM GAS  /tmp/ccWbFbv8.s 			page 20


 1072 0647 7000     		.ascii	"p\000"
 1073 0649 01       		.byte	0x1
 1074 064a 3D       		.byte	0x3d
 1075 064b B4020000 		.4byte	0x2b4
 1076 064f 01       		.uleb128 0x1
 1077 0650 50       		.byte	0x50
 1078 0651 00       		.byte	0
 1079 0652 16       		.uleb128 0x16
 1080 0653 96010000 		.4byte	.LASF103
 1081 0657 01       		.byte	0x1
 1082 0658 54       		.byte	0x54
 1083 0659 00000000 		.4byte	.LFB8
 1084 065d 70000000 		.4byte	.LFE8-.LFB8
 1085 0661 01       		.uleb128 0x1
 1086 0662 9C       		.byte	0x9c
 1087 0663 29070000 		.4byte	0x729
 1088 0667 18       		.uleb128 0x18
 1089 0668 84000000 		.4byte	.LASF104
 1090 066c 01       		.byte	0x1
 1091 066d 55       		.byte	0x55
 1092 066e 43010000 		.4byte	0x143
 1093 0672 05       		.uleb128 0x5
 1094 0673 03       		.byte	0x3
 1095 0674 00000000 		.4byte	mainthread.4845
 1096 0678 19       		.uleb128 0x19
 1097 0679 64040000 		.4byte	.LASF106
 1098 067d 01       		.byte	0x1
 1099 067e 57       		.byte	0x57
 1100 067f B6020000 		.4byte	0x2b6
 1101 0683 1A       		.uleb128 0x1a
 1102 0684 36000000 		.4byte	.LBB2
 1103 0688 08000000 		.4byte	.LBE2-.LBB2
 1104 068c 9E060000 		.4byte	0x69e
 1105 0690 1B       		.uleb128 0x1b
 1106 0691 746D7000 		.ascii	"tmp\000"
 1107 0695 01       		.byte	0x1
 1108 0696 6F       		.byte	0x6f
 1109 0697 CE000000 		.4byte	0xce
 1110 069b 01       		.uleb128 0x1
 1111 069c 53       		.byte	0x53
 1112 069d 00       		.byte	0
 1113 069e 1C       		.uleb128 0x1c
 1114 069f 08000000 		.4byte	.LVL1
 1115 06a3 1F080000 		.4byte	0x81f
 1116 06a7 1C       		.uleb128 0x1c
 1117 06a8 0C000000 		.4byte	.LVL2
 1118 06ac 27080000 		.4byte	0x827
 1119 06b0 1C       		.uleb128 0x1c
 1120 06b1 10000000 		.4byte	.LVL3
 1121 06b5 2E080000 		.4byte	0x82e
 1122 06b9 1C       		.uleb128 0x1c
 1123 06ba 14000000 		.4byte	.LVL4
 1124 06be 35080000 		.4byte	0x835
 1125 06c2 1C       		.uleb128 0x1c
 1126 06c3 18000000 		.4byte	.LVL5
 1127 06c7 3C080000 		.4byte	0x83c
 1128 06cb 1C       		.uleb128 0x1c
ARM GAS  /tmp/ccWbFbv8.s 			page 21


 1129 06cc 1C000000 		.4byte	.LVL6
 1130 06d0 43080000 		.4byte	0x843
 1131 06d4 1D       		.uleb128 0x1d
 1132 06d5 26000000 		.4byte	.LVL7
 1133 06d9 4A080000 		.4byte	0x84a
 1134 06dd F1060000 		.4byte	0x6f1
 1135 06e1 1E       		.uleb128 0x1e
 1136 06e2 01       		.uleb128 0x1
 1137 06e3 51       		.byte	0x51
 1138 06e4 02       		.uleb128 0x2
 1139 06e5 08       		.byte	0x8
 1140 06e6 40       		.byte	0x40
 1141 06e7 1E       		.uleb128 0x1e
 1142 06e8 01       		.uleb128 0x1
 1143 06e9 50       		.byte	0x50
 1144 06ea 05       		.uleb128 0x5
 1145 06eb 03       		.byte	0x3
 1146 06ec 00000000 		.4byte	.LANCHOR0
 1147 06f0 00       		.byte	0
 1148 06f1 1C       		.uleb128 0x1c
 1149 06f2 36000000 		.4byte	.LVL8
 1150 06f6 65080000 		.4byte	0x865
 1151 06fa 1F       		.uleb128 0x1f
 1152 06fb 52000000 		.4byte	.LVL9
 1153 06ff 6C080000 		.4byte	0x86c
 1154 0703 1E       		.uleb128 0x1e
 1155 0704 01       		.uleb128 0x1
 1156 0705 53       		.byte	0x53
 1157 0706 05       		.uleb128 0x5
 1158 0707 03       		.byte	0x3
 1159 0708 00000000 		.4byte	_idle_thread
 1160 070c 1E       		.uleb128 0x1e
 1161 070d 01       		.uleb128 0x1
 1162 070e 52       		.byte	0x52
 1163 070f 02       		.uleb128 0x2
 1164 0710 75       		.byte	0x75
 1165 0711 00       		.sleb128 0
 1166 0712 1E       		.uleb128 0x1e
 1167 0713 01       		.uleb128 0x1
 1168 0714 51       		.byte	0x51
 1169 0715 02       		.uleb128 0x2
 1170 0716 08       		.byte	0x8
 1171 0717 E0       		.byte	0xe0
 1172 0718 1E       		.uleb128 0x1e
 1173 0719 01       		.uleb128 0x1
 1174 071a 50       		.byte	0x50
 1175 071b 05       		.uleb128 0x5
 1176 071c 03       		.byte	0x3
 1177 071d 00000000 		.4byte	.LANCHOR1
 1178 0721 1E       		.uleb128 0x1e
 1179 0722 02       		.uleb128 0x2
 1180 0723 7D       		.byte	0x7d
 1181 0724 00       		.sleb128 0
 1182 0725 01       		.uleb128 0x1
 1183 0726 30       		.byte	0x30
 1184 0727 00       		.byte	0
 1185 0728 00       		.byte	0
ARM GAS  /tmp/ccWbFbv8.s 			page 22


 1186 0729 16       		.uleb128 0x16
 1187 072a 43000000 		.4byte	.LASF105
 1188 072e 01       		.byte	0x1
 1189 072f 89       		.byte	0x89
 1190 0730 00000000 		.4byte	.LFB9
 1191 0734 68000000 		.4byte	.LFE9-.LFB9
 1192 0738 01       		.uleb128 0x1
 1193 0739 9C       		.byte	0x9c
 1194 073a CD070000 		.4byte	0x7cd
 1195 073e 1A       		.uleb128 0x1a
 1196 073f 2A000000 		.4byte	.LBB3
 1197 0743 3E000000 		.4byte	.LBE3-.LBB3
 1198 0747 C3070000 		.4byte	0x7c3
 1199 074b 20       		.uleb128 0x20
 1200 074c 76747000 		.ascii	"vtp\000"
 1201 0750 01       		.byte	0x1
 1202 0751 96       		.byte	0x96
 1203 0752 D5030000 		.4byte	0x3d5
 1204 0756 00000000 		.4byte	.LLST0
 1205 075a 21       		.uleb128 0x21
 1206 075b 32000000 		.4byte	.LBB4
 1207 075f 22000000 		.4byte	.LBE4-.LBB4
 1208 0763 20       		.uleb128 0x20
 1209 0764 666E00   		.ascii	"fn\000"
 1210 0767 01       		.byte	0x1
 1211 0768 96       		.byte	0x96
 1212 0769 65030000 		.4byte	0x365
 1213 076d 13000000 		.4byte	.LLST1
 1214 0771 1A       		.uleb128 0x1a
 1215 0772 40000000 		.4byte	.LBB5
 1216 0776 06000000 		.4byte	.LBE5-.LBB5
 1217 077a 8C070000 		.4byte	0x78c
 1218 077e 1B       		.uleb128 0x1b
 1219 077f 746D7000 		.ascii	"tmp\000"
 1220 0783 01       		.byte	0x1
 1221 0784 96       		.byte	0x96
 1222 0785 CE000000 		.4byte	0xce
 1223 0789 01       		.uleb128 0x1
 1224 078a 53       		.byte	0x53
 1225 078b 00       		.byte	0
 1226 078c 1A       		.uleb128 0x1a
 1227 078d 4A000000 		.4byte	.LBB6
 1228 0791 06000000 		.4byte	.LBE6-.LBB6
 1229 0795 A7070000 		.4byte	0x7a7
 1230 0799 1B       		.uleb128 0x1b
 1231 079a 746D7000 		.ascii	"tmp\000"
 1232 079e 01       		.byte	0x1
 1233 079f 96       		.byte	0x96
 1234 07a0 CE000000 		.4byte	0xce
 1235 07a4 01       		.uleb128 0x1
 1236 07a5 53       		.byte	0x53
 1237 07a6 00       		.byte	0
 1238 07a7 1C       		.uleb128 0x1c
 1239 07a8 40000000 		.4byte	.LVL13
 1240 07ac 96080000 		.4byte	0x896
 1241 07b0 22       		.uleb128 0x22
 1242 07b1 4A000000 		.4byte	.LVL14
ARM GAS  /tmp/ccWbFbv8.s 			page 23


 1243 07b5 02       		.uleb128 0x2
 1244 07b6 76       		.byte	0x76
 1245 07b7 00       		.sleb128 0
 1246 07b8 1C       		.uleb128 0x1c
 1247 07b9 54000000 		.4byte	.LVL15
 1248 07bd 9D080000 		.4byte	0x89d
 1249 07c1 00       		.byte	0
 1250 07c2 00       		.byte	0
 1251 07c3 1C       		.uleb128 0x1c
 1252 07c4 06000000 		.4byte	.LVL10
 1253 07c8 A4080000 		.4byte	0x8a4
 1254 07cc 00       		.byte	0
 1255 07cd 19       		.uleb128 0x19
 1256 07ce 3C000000 		.4byte	.LASF107
 1257 07d2 09       		.byte	0x9
 1258 07d3 F5       		.byte	0xf5
 1259 07d4 19040000 		.4byte	0x419
 1260 07d8 19       		.uleb128 0x19
 1261 07d9 D5050000 		.4byte	.LASF108
 1262 07dd 0A       		.byte	0xa
 1263 07de 6F       		.byte	0x6f
 1264 07df 75040000 		.4byte	0x475
 1265 07e3 19       		.uleb128 0x19
 1266 07e4 EA010000 		.4byte	.LASF109
 1267 07e8 0C       		.byte	0xc
 1268 07e9 7E       		.byte	0x7e
 1269 07ea EE070000 		.4byte	0x7ee
 1270 07ee 12       		.uleb128 0x12
 1271 07ef 26060000 		.4byte	0x626
 1272 07f3 14       		.uleb128 0x14
 1273 07f4 B6020000 		.4byte	0x2b6
 1274 07f8 03080000 		.4byte	0x803
 1275 07fc 15       		.uleb128 0x15
 1276 07fd 5E030000 		.4byte	0x35e
 1277 0801 1B       		.byte	0x1b
 1278 0802 00       		.byte	0
 1279 0803 23       		.uleb128 0x23
 1280 0804 6A010000 		.4byte	.LASF110
 1281 0808 01       		.byte	0x1
 1282 0809 31       		.byte	0x31
 1283 080a F3070000 		.4byte	0x7f3
 1284 080e 05       		.uleb128 0x5
 1285 080f 03       		.byte	0x3
 1286 0810 00000000 		.4byte	_idle_thread_wa
 1287 0814 19       		.uleb128 0x19
 1288 0815 64040000 		.4byte	.LASF106
 1289 0819 01       		.byte	0x1
 1290 081a 57       		.byte	0x57
 1291 081b B6020000 		.4byte	0x2b6
 1292 081f 24       		.uleb128 0x24
 1293 0820 E3050000 		.4byte	.LASF111
 1294 0824 08       		.byte	0x8
 1295 0825 0202     		.2byte	0x202
 1296 0827 25       		.uleb128 0x25
 1297 0828 C2000000 		.4byte	.LASF112
 1298 082c 0A       		.byte	0xa
 1299 082d 8E       		.byte	0x8e
ARM GAS  /tmp/ccWbFbv8.s 			page 24


 1300 082e 25       		.uleb128 0x25
 1301 082f 7F050000 		.4byte	.LASF113
 1302 0833 09       		.byte	0x9
 1303 0834 FD       		.byte	0xfd
 1304 0835 25       		.uleb128 0x25
 1305 0836 9A030000 		.4byte	.LASF114
 1306 083a 0D       		.byte	0xd
 1307 083b 51       		.byte	0x51
 1308 083c 25       		.uleb128 0x25
 1309 083d A0010000 		.4byte	.LASF115
 1310 0841 0E       		.byte	0xe
 1311 0842 55       		.byte	0x55
 1312 0843 25       		.uleb128 0x25
 1313 0844 25020000 		.4byte	.LASF116
 1314 0848 0F       		.byte	0xf
 1315 0849 F1       		.byte	0xf1
 1316 084a 26       		.uleb128 0x26
 1317 084b C3010000 		.4byte	.LASF118
 1318 084f 07       		.byte	0x7
 1319 0850 6A01     		.2byte	0x16a
 1320 0852 78020000 		.4byte	0x278
 1321 0856 65080000 		.4byte	0x865
 1322 085a 0E       		.uleb128 0xe
 1323 085b 78020000 		.4byte	0x278
 1324 085f 0E       		.uleb128 0xe
 1325 0860 17010000 		.4byte	0x117
 1326 0864 00       		.byte	0
 1327 0865 25       		.uleb128 0x25
 1328 0866 A1050000 		.4byte	.LASF117
 1329 086a 0F       		.byte	0xf
 1330 086b E6       		.byte	0xe6
 1331 086c 26       		.uleb128 0x26
 1332 086d 81020000 		.4byte	.LASF119
 1333 0871 07       		.byte	0x7
 1334 0872 7001     		.2byte	0x170
 1335 0874 78020000 		.4byte	0x278
 1336 0878 96080000 		.4byte	0x896
 1337 087c 0E       		.uleb128 0xe
 1338 087d B4020000 		.4byte	0x2b4
 1339 0881 0E       		.uleb128 0xe
 1340 0882 2C000000 		.4byte	0x2c
 1341 0886 0E       		.uleb128 0xe
 1342 0887 17010000 		.4byte	0x117
 1343 088b 0E       		.uleb128 0xe
 1344 088c 15050000 		.4byte	0x515
 1345 0890 0E       		.uleb128 0xe
 1346 0891 B4020000 		.4byte	0x2b4
 1347 0895 00       		.byte	0
 1348 0896 25       		.uleb128 0x25
 1349 0897 FC000000 		.4byte	.LASF120
 1350 089b 0F       		.byte	0xf
 1351 089c EA       		.byte	0xea
 1352 089d 25       		.uleb128 0x25
 1353 089e EE050000 		.4byte	.LASF121
 1354 08a2 0F       		.byte	0xf
 1355 08a3 E9       		.byte	0xe9
 1356 08a4 25       		.uleb128 0x25
ARM GAS  /tmp/ccWbFbv8.s 			page 25


 1357 08a5 3F020000 		.4byte	.LASF122
 1358 08a9 0F       		.byte	0xf
 1359 08aa ED       		.byte	0xed
 1360 08ab 00       		.byte	0
 1361              		.section	.debug_abbrev,"",%progbits
 1362              	.Ldebug_abbrev0:
 1363 0000 01       		.uleb128 0x1
 1364 0001 11       		.uleb128 0x11
 1365 0002 01       		.byte	0x1
 1366 0003 25       		.uleb128 0x25
 1367 0004 0E       		.uleb128 0xe
 1368 0005 13       		.uleb128 0x13
 1369 0006 0B       		.uleb128 0xb
 1370 0007 03       		.uleb128 0x3
 1371 0008 0E       		.uleb128 0xe
 1372 0009 1B       		.uleb128 0x1b
 1373 000a 0E       		.uleb128 0xe
 1374 000b 55       		.uleb128 0x55
 1375 000c 17       		.uleb128 0x17
 1376 000d 11       		.uleb128 0x11
 1377 000e 01       		.uleb128 0x1
 1378 000f 10       		.uleb128 0x10
 1379 0010 17       		.uleb128 0x17
 1380 0011 00       		.byte	0
 1381 0012 00       		.byte	0
 1382 0013 02       		.uleb128 0x2
 1383 0014 24       		.uleb128 0x24
 1384 0015 00       		.byte	0
 1385 0016 0B       		.uleb128 0xb
 1386 0017 0B       		.uleb128 0xb
 1387 0018 3E       		.uleb128 0x3e
 1388 0019 0B       		.uleb128 0xb
 1389 001a 03       		.uleb128 0x3
 1390 001b 08       		.uleb128 0x8
 1391 001c 00       		.byte	0
 1392 001d 00       		.byte	0
 1393 001e 03       		.uleb128 0x3
 1394 001f 16       		.uleb128 0x16
 1395 0020 00       		.byte	0
 1396 0021 03       		.uleb128 0x3
 1397 0022 0E       		.uleb128 0xe
 1398 0023 3A       		.uleb128 0x3a
 1399 0024 0B       		.uleb128 0xb
 1400 0025 3B       		.uleb128 0x3b
 1401 0026 0B       		.uleb128 0xb
 1402 0027 49       		.uleb128 0x49
 1403 0028 13       		.uleb128 0x13
 1404 0029 00       		.byte	0
 1405 002a 00       		.byte	0
 1406 002b 04       		.uleb128 0x4
 1407 002c 24       		.uleb128 0x24
 1408 002d 00       		.byte	0
 1409 002e 0B       		.uleb128 0xb
 1410 002f 0B       		.uleb128 0xb
 1411 0030 3E       		.uleb128 0x3e
 1412 0031 0B       		.uleb128 0xb
 1413 0032 03       		.uleb128 0x3
ARM GAS  /tmp/ccWbFbv8.s 			page 26


 1414 0033 0E       		.uleb128 0xe
 1415 0034 00       		.byte	0
 1416 0035 00       		.byte	0
 1417 0036 05       		.uleb128 0x5
 1418 0037 13       		.uleb128 0x13
 1419 0038 01       		.byte	0x1
 1420 0039 03       		.uleb128 0x3
 1421 003a 0E       		.uleb128 0xe
 1422 003b 0B       		.uleb128 0xb
 1423 003c 0B       		.uleb128 0xb
 1424 003d 3A       		.uleb128 0x3a
 1425 003e 0B       		.uleb128 0xb
 1426 003f 3B       		.uleb128 0x3b
 1427 0040 0B       		.uleb128 0xb
 1428 0041 01       		.uleb128 0x1
 1429 0042 13       		.uleb128 0x13
 1430 0043 00       		.byte	0
 1431 0044 00       		.byte	0
 1432 0045 06       		.uleb128 0x6
 1433 0046 0D       		.uleb128 0xd
 1434 0047 00       		.byte	0
 1435 0048 03       		.uleb128 0x3
 1436 0049 0E       		.uleb128 0xe
 1437 004a 3A       		.uleb128 0x3a
 1438 004b 0B       		.uleb128 0xb
 1439 004c 3B       		.uleb128 0x3b
 1440 004d 0B       		.uleb128 0xb
 1441 004e 49       		.uleb128 0x49
 1442 004f 13       		.uleb128 0x13
 1443 0050 38       		.uleb128 0x38
 1444 0051 0B       		.uleb128 0xb
 1445 0052 00       		.byte	0
 1446 0053 00       		.byte	0
 1447 0054 07       		.uleb128 0x7
 1448 0055 0D       		.uleb128 0xd
 1449 0056 00       		.byte	0
 1450 0057 03       		.uleb128 0x3
 1451 0058 08       		.uleb128 0x8
 1452 0059 3A       		.uleb128 0x3a
 1453 005a 0B       		.uleb128 0xb
 1454 005b 3B       		.uleb128 0x3b
 1455 005c 0B       		.uleb128 0xb
 1456 005d 49       		.uleb128 0x49
 1457 005e 13       		.uleb128 0x13
 1458 005f 38       		.uleb128 0x38
 1459 0060 0B       		.uleb128 0xb
 1460 0061 00       		.byte	0
 1461 0062 00       		.byte	0
 1462 0063 08       		.uleb128 0x8
 1463 0064 13       		.uleb128 0x13
 1464 0065 01       		.byte	0x1
 1465 0066 0B       		.uleb128 0xb
 1466 0067 0B       		.uleb128 0xb
 1467 0068 3A       		.uleb128 0x3a
 1468 0069 0B       		.uleb128 0xb
 1469 006a 3B       		.uleb128 0x3b
 1470 006b 0B       		.uleb128 0xb
ARM GAS  /tmp/ccWbFbv8.s 			page 27


 1471 006c 01       		.uleb128 0x1
 1472 006d 13       		.uleb128 0x13
 1473 006e 00       		.byte	0
 1474 006f 00       		.byte	0
 1475 0070 09       		.uleb128 0x9
 1476 0071 0F       		.uleb128 0xf
 1477 0072 00       		.byte	0
 1478 0073 0B       		.uleb128 0xb
 1479 0074 0B       		.uleb128 0xb
 1480 0075 49       		.uleb128 0x49
 1481 0076 13       		.uleb128 0x13
 1482 0077 00       		.byte	0
 1483 0078 00       		.byte	0
 1484 0079 0A       		.uleb128 0xa
 1485 007a 0F       		.uleb128 0xf
 1486 007b 00       		.byte	0
 1487 007c 0B       		.uleb128 0xb
 1488 007d 0B       		.uleb128 0xb
 1489 007e 00       		.byte	0
 1490 007f 00       		.byte	0
 1491 0080 0B       		.uleb128 0xb
 1492 0081 13       		.uleb128 0x13
 1493 0082 01       		.byte	0x1
 1494 0083 03       		.uleb128 0x3
 1495 0084 0E       		.uleb128 0xe
 1496 0085 0B       		.uleb128 0xb
 1497 0086 0B       		.uleb128 0xb
 1498 0087 3A       		.uleb128 0x3a
 1499 0088 0B       		.uleb128 0xb
 1500 0089 3B       		.uleb128 0x3b
 1501 008a 05       		.uleb128 0x5
 1502 008b 01       		.uleb128 0x1
 1503 008c 13       		.uleb128 0x13
 1504 008d 00       		.byte	0
 1505 008e 00       		.byte	0
 1506 008f 0C       		.uleb128 0xc
 1507 0090 0D       		.uleb128 0xd
 1508 0091 00       		.byte	0
 1509 0092 03       		.uleb128 0x3
 1510 0093 08       		.uleb128 0x8
 1511 0094 3A       		.uleb128 0x3a
 1512 0095 0B       		.uleb128 0xb
 1513 0096 3B       		.uleb128 0x3b
 1514 0097 05       		.uleb128 0x5
 1515 0098 49       		.uleb128 0x49
 1516 0099 13       		.uleb128 0x13
 1517 009a 38       		.uleb128 0x38
 1518 009b 0B       		.uleb128 0xb
 1519 009c 00       		.byte	0
 1520 009d 00       		.byte	0
 1521 009e 0D       		.uleb128 0xd
 1522 009f 15       		.uleb128 0x15
 1523 00a0 01       		.byte	0x1
 1524 00a1 27       		.uleb128 0x27
 1525 00a2 19       		.uleb128 0x19
 1526 00a3 01       		.uleb128 0x1
 1527 00a4 13       		.uleb128 0x13
ARM GAS  /tmp/ccWbFbv8.s 			page 28


 1528 00a5 00       		.byte	0
 1529 00a6 00       		.byte	0
 1530 00a7 0E       		.uleb128 0xe
 1531 00a8 05       		.uleb128 0x5
 1532 00a9 00       		.byte	0
 1533 00aa 49       		.uleb128 0x49
 1534 00ab 13       		.uleb128 0x13
 1535 00ac 00       		.byte	0
 1536 00ad 00       		.byte	0
 1537 00ae 0F       		.uleb128 0xf
 1538 00af 35       		.uleb128 0x35
 1539 00b0 00       		.byte	0
 1540 00b1 49       		.uleb128 0x49
 1541 00b2 13       		.uleb128 0x13
 1542 00b3 00       		.byte	0
 1543 00b4 00       		.byte	0
 1544 00b5 10       		.uleb128 0x10
 1545 00b6 17       		.uleb128 0x17
 1546 00b7 01       		.byte	0x1
 1547 00b8 0B       		.uleb128 0xb
 1548 00b9 0B       		.uleb128 0xb
 1549 00ba 3A       		.uleb128 0x3a
 1550 00bb 0B       		.uleb128 0xb
 1551 00bc 3B       		.uleb128 0x3b
 1552 00bd 0B       		.uleb128 0xb
 1553 00be 01       		.uleb128 0x1
 1554 00bf 13       		.uleb128 0x13
 1555 00c0 00       		.byte	0
 1556 00c1 00       		.byte	0
 1557 00c2 11       		.uleb128 0x11
 1558 00c3 0D       		.uleb128 0xd
 1559 00c4 00       		.byte	0
 1560 00c5 03       		.uleb128 0x3
 1561 00c6 0E       		.uleb128 0xe
 1562 00c7 3A       		.uleb128 0x3a
 1563 00c8 0B       		.uleb128 0xb
 1564 00c9 3B       		.uleb128 0x3b
 1565 00ca 0B       		.uleb128 0xb
 1566 00cb 49       		.uleb128 0x49
 1567 00cc 13       		.uleb128 0x13
 1568 00cd 00       		.byte	0
 1569 00ce 00       		.byte	0
 1570 00cf 12       		.uleb128 0x12
 1571 00d0 26       		.uleb128 0x26
 1572 00d1 00       		.byte	0
 1573 00d2 49       		.uleb128 0x49
 1574 00d3 13       		.uleb128 0x13
 1575 00d4 00       		.byte	0
 1576 00d5 00       		.byte	0
 1577 00d6 13       		.uleb128 0x13
 1578 00d7 15       		.uleb128 0x15
 1579 00d8 01       		.byte	0x1
 1580 00d9 27       		.uleb128 0x27
 1581 00da 19       		.uleb128 0x19
 1582 00db 49       		.uleb128 0x49
 1583 00dc 13       		.uleb128 0x13
 1584 00dd 01       		.uleb128 0x1
ARM GAS  /tmp/ccWbFbv8.s 			page 29


 1585 00de 13       		.uleb128 0x13
 1586 00df 00       		.byte	0
 1587 00e0 00       		.byte	0
 1588 00e1 14       		.uleb128 0x14
 1589 00e2 01       		.uleb128 0x1
 1590 00e3 01       		.byte	0x1
 1591 00e4 49       		.uleb128 0x49
 1592 00e5 13       		.uleb128 0x13
 1593 00e6 01       		.uleb128 0x1
 1594 00e7 13       		.uleb128 0x13
 1595 00e8 00       		.byte	0
 1596 00e9 00       		.byte	0
 1597 00ea 15       		.uleb128 0x15
 1598 00eb 21       		.uleb128 0x21
 1599 00ec 00       		.byte	0
 1600 00ed 49       		.uleb128 0x49
 1601 00ee 13       		.uleb128 0x13
 1602 00ef 2F       		.uleb128 0x2f
 1603 00f0 0B       		.uleb128 0xb
 1604 00f1 00       		.byte	0
 1605 00f2 00       		.byte	0
 1606 00f3 16       		.uleb128 0x16
 1607 00f4 2E       		.uleb128 0x2e
 1608 00f5 01       		.byte	0x1
 1609 00f6 3F       		.uleb128 0x3f
 1610 00f7 19       		.uleb128 0x19
 1611 00f8 03       		.uleb128 0x3
 1612 00f9 0E       		.uleb128 0xe
 1613 00fa 3A       		.uleb128 0x3a
 1614 00fb 0B       		.uleb128 0xb
 1615 00fc 3B       		.uleb128 0x3b
 1616 00fd 0B       		.uleb128 0xb
 1617 00fe 27       		.uleb128 0x27
 1618 00ff 19       		.uleb128 0x19
 1619 0100 11       		.uleb128 0x11
 1620 0101 01       		.uleb128 0x1
 1621 0102 12       		.uleb128 0x12
 1622 0103 06       		.uleb128 0x6
 1623 0104 40       		.uleb128 0x40
 1624 0105 18       		.uleb128 0x18
 1625 0106 9742     		.uleb128 0x2117
 1626 0108 19       		.uleb128 0x19
 1627 0109 01       		.uleb128 0x1
 1628 010a 13       		.uleb128 0x13
 1629 010b 00       		.byte	0
 1630 010c 00       		.byte	0
 1631 010d 17       		.uleb128 0x17
 1632 010e 05       		.uleb128 0x5
 1633 010f 00       		.byte	0
 1634 0110 03       		.uleb128 0x3
 1635 0111 08       		.uleb128 0x8
 1636 0112 3A       		.uleb128 0x3a
 1637 0113 0B       		.uleb128 0xb
 1638 0114 3B       		.uleb128 0x3b
 1639 0115 0B       		.uleb128 0xb
 1640 0116 49       		.uleb128 0x49
 1641 0117 13       		.uleb128 0x13
ARM GAS  /tmp/ccWbFbv8.s 			page 30


 1642 0118 02       		.uleb128 0x2
 1643 0119 18       		.uleb128 0x18
 1644 011a 00       		.byte	0
 1645 011b 00       		.byte	0
 1646 011c 18       		.uleb128 0x18
 1647 011d 34       		.uleb128 0x34
 1648 011e 00       		.byte	0
 1649 011f 03       		.uleb128 0x3
 1650 0120 0E       		.uleb128 0xe
 1651 0121 3A       		.uleb128 0x3a
 1652 0122 0B       		.uleb128 0xb
 1653 0123 3B       		.uleb128 0x3b
 1654 0124 0B       		.uleb128 0xb
 1655 0125 49       		.uleb128 0x49
 1656 0126 13       		.uleb128 0x13
 1657 0127 02       		.uleb128 0x2
 1658 0128 18       		.uleb128 0x18
 1659 0129 00       		.byte	0
 1660 012a 00       		.byte	0
 1661 012b 19       		.uleb128 0x19
 1662 012c 34       		.uleb128 0x34
 1663 012d 00       		.byte	0
 1664 012e 03       		.uleb128 0x3
 1665 012f 0E       		.uleb128 0xe
 1666 0130 3A       		.uleb128 0x3a
 1667 0131 0B       		.uleb128 0xb
 1668 0132 3B       		.uleb128 0x3b
 1669 0133 0B       		.uleb128 0xb
 1670 0134 49       		.uleb128 0x49
 1671 0135 13       		.uleb128 0x13
 1672 0136 3F       		.uleb128 0x3f
 1673 0137 19       		.uleb128 0x19
 1674 0138 3C       		.uleb128 0x3c
 1675 0139 19       		.uleb128 0x19
 1676 013a 00       		.byte	0
 1677 013b 00       		.byte	0
 1678 013c 1A       		.uleb128 0x1a
 1679 013d 0B       		.uleb128 0xb
 1680 013e 01       		.byte	0x1
 1681 013f 11       		.uleb128 0x11
 1682 0140 01       		.uleb128 0x1
 1683 0141 12       		.uleb128 0x12
 1684 0142 06       		.uleb128 0x6
 1685 0143 01       		.uleb128 0x1
 1686 0144 13       		.uleb128 0x13
 1687 0145 00       		.byte	0
 1688 0146 00       		.byte	0
 1689 0147 1B       		.uleb128 0x1b
 1690 0148 34       		.uleb128 0x34
 1691 0149 00       		.byte	0
 1692 014a 03       		.uleb128 0x3
 1693 014b 08       		.uleb128 0x8
 1694 014c 3A       		.uleb128 0x3a
 1695 014d 0B       		.uleb128 0xb
 1696 014e 3B       		.uleb128 0x3b
 1697 014f 0B       		.uleb128 0xb
 1698 0150 49       		.uleb128 0x49
ARM GAS  /tmp/ccWbFbv8.s 			page 31


 1699 0151 13       		.uleb128 0x13
 1700 0152 02       		.uleb128 0x2
 1701 0153 18       		.uleb128 0x18
 1702 0154 00       		.byte	0
 1703 0155 00       		.byte	0
 1704 0156 1C       		.uleb128 0x1c
 1705 0157 898201   		.uleb128 0x4109
 1706 015a 00       		.byte	0
 1707 015b 11       		.uleb128 0x11
 1708 015c 01       		.uleb128 0x1
 1709 015d 31       		.uleb128 0x31
 1710 015e 13       		.uleb128 0x13
 1711 015f 00       		.byte	0
 1712 0160 00       		.byte	0
 1713 0161 1D       		.uleb128 0x1d
 1714 0162 898201   		.uleb128 0x4109
 1715 0165 01       		.byte	0x1
 1716 0166 11       		.uleb128 0x11
 1717 0167 01       		.uleb128 0x1
 1718 0168 31       		.uleb128 0x31
 1719 0169 13       		.uleb128 0x13
 1720 016a 01       		.uleb128 0x1
 1721 016b 13       		.uleb128 0x13
 1722 016c 00       		.byte	0
 1723 016d 00       		.byte	0
 1724 016e 1E       		.uleb128 0x1e
 1725 016f 8A8201   		.uleb128 0x410a
 1726 0172 00       		.byte	0
 1727 0173 02       		.uleb128 0x2
 1728 0174 18       		.uleb128 0x18
 1729 0175 9142     		.uleb128 0x2111
 1730 0177 18       		.uleb128 0x18
 1731 0178 00       		.byte	0
 1732 0179 00       		.byte	0
 1733 017a 1F       		.uleb128 0x1f
 1734 017b 898201   		.uleb128 0x4109
 1735 017e 01       		.byte	0x1
 1736 017f 11       		.uleb128 0x11
 1737 0180 01       		.uleb128 0x1
 1738 0181 31       		.uleb128 0x31
 1739 0182 13       		.uleb128 0x13
 1740 0183 00       		.byte	0
 1741 0184 00       		.byte	0
 1742 0185 20       		.uleb128 0x20
 1743 0186 34       		.uleb128 0x34
 1744 0187 00       		.byte	0
 1745 0188 03       		.uleb128 0x3
 1746 0189 08       		.uleb128 0x8
 1747 018a 3A       		.uleb128 0x3a
 1748 018b 0B       		.uleb128 0xb
 1749 018c 3B       		.uleb128 0x3b
 1750 018d 0B       		.uleb128 0xb
 1751 018e 49       		.uleb128 0x49
 1752 018f 13       		.uleb128 0x13
 1753 0190 02       		.uleb128 0x2
 1754 0191 17       		.uleb128 0x17
 1755 0192 00       		.byte	0
ARM GAS  /tmp/ccWbFbv8.s 			page 32


 1756 0193 00       		.byte	0
 1757 0194 21       		.uleb128 0x21
 1758 0195 0B       		.uleb128 0xb
 1759 0196 01       		.byte	0x1
 1760 0197 11       		.uleb128 0x11
 1761 0198 01       		.uleb128 0x1
 1762 0199 12       		.uleb128 0x12
 1763 019a 06       		.uleb128 0x6
 1764 019b 00       		.byte	0
 1765 019c 00       		.byte	0
 1766 019d 22       		.uleb128 0x22
 1767 019e 898201   		.uleb128 0x4109
 1768 01a1 00       		.byte	0
 1769 01a2 11       		.uleb128 0x11
 1770 01a3 01       		.uleb128 0x1
 1771 01a4 9342     		.uleb128 0x2113
 1772 01a6 18       		.uleb128 0x18
 1773 01a7 00       		.byte	0
 1774 01a8 00       		.byte	0
 1775 01a9 23       		.uleb128 0x23
 1776 01aa 34       		.uleb128 0x34
 1777 01ab 00       		.byte	0
 1778 01ac 03       		.uleb128 0x3
 1779 01ad 0E       		.uleb128 0xe
 1780 01ae 3A       		.uleb128 0x3a
 1781 01af 0B       		.uleb128 0xb
 1782 01b0 3B       		.uleb128 0x3b
 1783 01b1 0B       		.uleb128 0xb
 1784 01b2 49       		.uleb128 0x49
 1785 01b3 13       		.uleb128 0x13
 1786 01b4 3F       		.uleb128 0x3f
 1787 01b5 19       		.uleb128 0x19
 1788 01b6 02       		.uleb128 0x2
 1789 01b7 18       		.uleb128 0x18
 1790 01b8 00       		.byte	0
 1791 01b9 00       		.byte	0
 1792 01ba 24       		.uleb128 0x24
 1793 01bb 2E       		.uleb128 0x2e
 1794 01bc 00       		.byte	0
 1795 01bd 3F       		.uleb128 0x3f
 1796 01be 19       		.uleb128 0x19
 1797 01bf 03       		.uleb128 0x3
 1798 01c0 0E       		.uleb128 0xe
 1799 01c1 3A       		.uleb128 0x3a
 1800 01c2 0B       		.uleb128 0xb
 1801 01c3 3B       		.uleb128 0x3b
 1802 01c4 05       		.uleb128 0x5
 1803 01c5 27       		.uleb128 0x27
 1804 01c6 19       		.uleb128 0x19
 1805 01c7 3C       		.uleb128 0x3c
 1806 01c8 19       		.uleb128 0x19
 1807 01c9 00       		.byte	0
 1808 01ca 00       		.byte	0
 1809 01cb 25       		.uleb128 0x25
 1810 01cc 2E       		.uleb128 0x2e
 1811 01cd 00       		.byte	0
 1812 01ce 3F       		.uleb128 0x3f
ARM GAS  /tmp/ccWbFbv8.s 			page 33


 1813 01cf 19       		.uleb128 0x19
 1814 01d0 03       		.uleb128 0x3
 1815 01d1 0E       		.uleb128 0xe
 1816 01d2 3A       		.uleb128 0x3a
 1817 01d3 0B       		.uleb128 0xb
 1818 01d4 3B       		.uleb128 0x3b
 1819 01d5 0B       		.uleb128 0xb
 1820 01d6 27       		.uleb128 0x27
 1821 01d7 19       		.uleb128 0x19
 1822 01d8 3C       		.uleb128 0x3c
 1823 01d9 19       		.uleb128 0x19
 1824 01da 00       		.byte	0
 1825 01db 00       		.byte	0
 1826 01dc 26       		.uleb128 0x26
 1827 01dd 2E       		.uleb128 0x2e
 1828 01de 01       		.byte	0x1
 1829 01df 3F       		.uleb128 0x3f
 1830 01e0 19       		.uleb128 0x19
 1831 01e1 03       		.uleb128 0x3
 1832 01e2 0E       		.uleb128 0xe
 1833 01e3 3A       		.uleb128 0x3a
 1834 01e4 0B       		.uleb128 0xb
 1835 01e5 3B       		.uleb128 0x3b
 1836 01e6 05       		.uleb128 0x5
 1837 01e7 27       		.uleb128 0x27
 1838 01e8 19       		.uleb128 0x19
 1839 01e9 49       		.uleb128 0x49
 1840 01ea 13       		.uleb128 0x13
 1841 01eb 3C       		.uleb128 0x3c
 1842 01ec 19       		.uleb128 0x19
 1843 01ed 01       		.uleb128 0x1
 1844 01ee 13       		.uleb128 0x13
 1845 01ef 00       		.byte	0
 1846 01f0 00       		.byte	0
 1847 01f1 00       		.byte	0
 1848              		.section	.debug_loc,"",%progbits
 1849              	.Ldebug_loc0:
 1850              	.LLST0:
 1851 0000 30000000 		.4byte	.LVL11
 1852 0004 5C000000 		.4byte	.LVL17
 1853 0008 0100     		.2byte	0x1
 1854 000a 54       		.byte	0x54
 1855 000b 00000000 		.4byte	0
 1856 000f 00000000 		.4byte	0
 1857              	.LLST1:
 1858 0013 36000000 		.4byte	.LVL12
 1859 0017 5C000000 		.4byte	.LVL17
 1860 001b 0100     		.2byte	0x1
 1861 001d 56       		.byte	0x56
 1862 001e 00000000 		.4byte	0
 1863 0022 00000000 		.4byte	0
 1864              		.section	.debug_aranges,"",%progbits
 1865 0000 2C000000 		.4byte	0x2c
 1866 0004 0200     		.2byte	0x2
 1867 0006 00000000 		.4byte	.Ldebug_info0
 1868 000a 04       		.byte	0x4
 1869 000b 00       		.byte	0
ARM GAS  /tmp/ccWbFbv8.s 			page 34


 1870 000c 0000     		.2byte	0
 1871 000e 0000     		.2byte	0
 1872 0010 00000000 		.4byte	.LFB7
 1873 0014 14000000 		.4byte	.LFE7-.LFB7
 1874 0018 00000000 		.4byte	.LFB8
 1875 001c 70000000 		.4byte	.LFE8-.LFB8
 1876 0020 00000000 		.4byte	.LFB9
 1877 0024 68000000 		.4byte	.LFE9-.LFB9
 1878 0028 00000000 		.4byte	0
 1879 002c 00000000 		.4byte	0
 1880              		.section	.debug_ranges,"",%progbits
 1881              	.Ldebug_ranges0:
 1882 0000 00000000 		.4byte	.LFB7
 1883 0004 14000000 		.4byte	.LFE7
 1884 0008 00000000 		.4byte	.LFB8
 1885 000c 70000000 		.4byte	.LFE8
 1886 0010 00000000 		.4byte	.LFB9
 1887 0014 68000000 		.4byte	.LFE9
 1888 0018 00000000 		.4byte	0
 1889 001c 00000000 		.4byte	0
 1890              		.section	.debug_line,"",%progbits
 1891              	.Ldebug_line0:
 1892 0000 F5010000 		.section	.debug_str,"MS",%progbits,1
 1892      02009E01 
 1892      00000201 
 1892      FB0E0D00 
 1892      01010101 
 1893              	.LASF82:
 1894 0000 7466756E 		.ascii	"tfunc_t\000"
 1894      635F7400 
 1895              	.LASF93:
 1896 0008 63665F6F 		.ascii	"cf_off_older\000"
 1896      66665F6F 
 1896      6C646572 
 1896      00
 1897              	.LASF45:
 1898 0015 705F6D73 		.ascii	"p_msg\000"
 1898      6700
 1899              	.LASF2:
 1900 001b 73697A65 		.ascii	"size_t\000"
 1900      5F7400
 1901              	.LASF77:
 1902 0022 7264796D 		.ascii	"rdymsg\000"
 1902      736700
 1903              	.LASF19:
 1904 0029 75696E74 		.ascii	"uint64_t\000"
 1904      36345F74 
 1904      00
 1905              	.LASF3:
 1906 0032 5F5F7569 		.ascii	"__uint8_t\000"
 1906      6E74385F 
 1906      7400
 1907              	.LASF107:
 1908 003c 76746C69 		.ascii	"vtlist\000"
 1908      737400
 1909              	.LASF105:
 1910 0043 63685379 		.ascii	"chSysTimerHandlerI\000"
ARM GAS  /tmp/ccWbFbv8.s 			page 35


 1910      7354696D 
 1910      65724861 
 1910      6E646C65 
 1910      724900
 1911              	.LASF14:
 1912 0056 6C6F6E67 		.ascii	"long long unsigned int\000"
 1912      206C6F6E 
 1912      6720756E 
 1912      7369676E 
 1912      65642069 
 1913              	.LASF89:
 1914 006d 63685F74 		.ascii	"ch_threadsize\000"
 1914      68726561 
 1914      6473697A 
 1914      6500
 1915              	.LASF78:
 1916 007b 65786974 		.ascii	"exitcode\000"
 1916      636F6465 
 1916      00
 1917              	.LASF104:
 1918 0084 6D61696E 		.ascii	"mainthread\000"
 1918      74687265 
 1918      616400
 1919              	.LASF32:
 1920 008f 705F7072 		.ascii	"p_prio\000"
 1920      696F00
 1921              	.LASF96:
 1922 0096 63665F6F 		.ascii	"cf_off_state\000"
 1922      66665F73 
 1922      74617465 
 1922      00
 1923              	.LASF124:
 1924 00a3 2E2E2F2E 		.ascii	"../../../os/kernel/src/chsys.c\000"
 1924      2E2F2E2E 
 1924      2F6F732F 
 1924      6B65726E 
 1924      656C2F73 
 1925              	.LASF112:
 1926 00c2 5F736368 		.ascii	"_scheduler_init\000"
 1926      6564756C 
 1926      65725F69 
 1926      6E697400 
 1927              	.LASF12:
 1928 00d2 6C6F6E67 		.ascii	"long long int\000"
 1928      206C6F6E 
 1928      6720696E 
 1928      7400
 1929              	.LASF1:
 1930 00e0 7369676E 		.ascii	"signed char\000"
 1930      65642063 
 1930      68617200 
 1931              	.LASF95:
 1932 00ec 63665F6F 		.ascii	"cf_off_stklimit\000"
 1932      66665F73 
 1932      746B6C69 
 1932      6D697400 
 1933              	.LASF120:
ARM GAS  /tmp/ccWbFbv8.s 			page 36


 1934 00fc 6462675F 		.ascii	"dbg_check_unlock_from_isr\000"
 1934      63686563 
 1934      6B5F756E 
 1934      6C6F636B 
 1934      5F66726F 
 1935              	.LASF97:
 1936 0116 63665F6F 		.ascii	"cf_off_flags\000"
 1936      66665F66 
 1936      6C616773 
 1936      00
 1937              	.LASF49:
 1938 0123 705F6D70 		.ascii	"p_mpool\000"
 1938      6F6F6C00 
 1939              	.LASF74:
 1940 012b 6D5F7175 		.ascii	"m_queue\000"
 1940      65756500 
 1941              	.LASF24:
 1942 0133 74736C69 		.ascii	"tslices_t\000"
 1942      6365735F 
 1942      7400
 1943              	.LASF9:
 1944 013d 6C6F6E67 		.ascii	"long int\000"
 1944      20696E74 
 1944      00
 1945              	.LASF22:
 1946 0146 74737461 		.ascii	"tstate_t\000"
 1946      74655F74 
 1946      00
 1947              	.LASF16:
 1948 014f 75696E74 		.ascii	"uint16_t\000"
 1948      31365F74 
 1948      00
 1949              	.LASF101:
 1950 0158 63686465 		.ascii	"chdebug_t\000"
 1950      6275675F 
 1950      7400
 1951              	.LASF34:
 1952 0162 705F6E65 		.ascii	"p_newer\000"
 1952      77657200 
 1953              	.LASF110:
 1954 016a 5F69646C 		.ascii	"_idle_thread_wa\000"
 1954      655F7468 
 1954      72656164 
 1954      5F776100 
 1955              	.LASF10:
 1956 017a 5F5F7569 		.ascii	"__uint32_t\000"
 1956      6E743332 
 1956      5F7400
 1957              	.LASF52:
 1958 0185 72656761 		.ascii	"regarm_t\000"
 1958      726D5F74 
 1958      00
 1959              	.LASF60:
 1960 018e 76745F70 		.ascii	"vt_prev\000"
 1960      72657600 
 1961              	.LASF103:
 1962 0196 63685379 		.ascii	"chSysInit\000"
ARM GAS  /tmp/ccWbFbv8.s 			page 37


 1962      73496E69 
 1962      7400
 1963              	.LASF115:
 1964 01a0 5F686561 		.ascii	"_heap_init\000"
 1964      705F696E 
 1964      697400
 1965              	.LASF37:
 1966 01ab 705F7374 		.ascii	"p_stklimit\000"
 1966      6B6C696D 
 1966      697400
 1967              	.LASF0:
 1968 01b6 756E7369 		.ascii	"unsigned int\000"
 1968      676E6564 
 1968      20696E74 
 1968      00
 1969              	.LASF118:
 1970 01c3 5F746872 		.ascii	"_thread_init\000"
 1970      6561645F 
 1970      696E6974 
 1970      00
 1971              	.LASF59:
 1972 01d0 76745F6E 		.ascii	"vt_next\000"
 1972      65787400 
 1973              	.LASF11:
 1974 01d8 6C6F6E67 		.ascii	"long unsigned int\000"
 1974      20756E73 
 1974      69676E65 
 1974      6420696E 
 1974      7400
 1975              	.LASF109:
 1976 01ea 63685F64 		.ascii	"ch_debug\000"
 1976      65627567 
 1976      00
 1977              	.LASF57:
 1978 01f3 76746675 		.ascii	"vtfunc_t\000"
 1978      6E635F74 
 1978      00
 1979              	.LASF83:
 1980 01fc 63685F69 		.ascii	"ch_identifier\000"
 1980      64656E74 
 1980      69666965 
 1980      7200
 1981              	.LASF55:
 1982 020a 636F6E74 		.ascii	"context\000"
 1982      65787400 
 1983              	.LASF7:
 1984 0212 73686F72 		.ascii	"short unsigned int\000"
 1984      7420756E 
 1984      7369676E 
 1984      65642069 
 1984      6E7400
 1985              	.LASF116:
 1986 0225 5F747261 		.ascii	"_trace_init\000"
 1986      63655F69 
 1986      6E697400 
 1987              	.LASF26:
 1988 0231 6D73675F 		.ascii	"msg_t\000"
ARM GAS  /tmp/ccWbFbv8.s 			page 38


 1988      7400
 1989              	.LASF69:
 1990 0237 725F6E65 		.ascii	"r_newer\000"
 1990      77657200 
 1991              	.LASF122:
 1992 023f 63684462 		.ascii	"chDbgCheckClassI\000"
 1992      67436865 
 1992      636B436C 
 1992      61737349 
 1992      00
 1993              	.LASF21:
 1994 0250 746D6F64 		.ascii	"tmode_t\000"
 1994      655F7400 
 1995              	.LASF51:
 1996 0258 54687265 		.ascii	"ThreadsList\000"
 1996      6164734C 
 1996      69737400 
 1997              	.LASF27:
 1998 0264 6576656E 		.ascii	"eventmask_t\000"
 1998      746D6173 
 1998      6B5F7400 
 1999              	.LASF73:
 2000 0270 4D757465 		.ascii	"Mutex\000"
 2000      7800
 2001              	.LASF53:
 2002 0276 73746B61 		.ascii	"stkalign_t\000"
 2002      6C69676E 
 2002      5F7400
 2003              	.LASF119:
 2004 0281 63685468 		.ascii	"chThdCreateStatic\000"
 2004      64437265 
 2004      61746553 
 2004      74617469 
 2004      6300
 2005              	.LASF125:
 2006 0293 2F686F6D 		.ascii	"/home/makkmarci/devel/ChibiOS_2.6.5/testhal/STM32F4"
 2006      652F6D61 
 2006      6B6B6D61 
 2006      7263692F 
 2006      64657665 
 2007 02c6 78782F55 		.ascii	"xx/USB_CDC/\000"
 2007      53425F43 
 2007      44432F00 
 2008              	.LASF98:
 2009 02d2 63665F6F 		.ascii	"cf_off_refs\000"
 2009      66665F72 
 2009      65667300 
 2010              	.LASF61:
 2011 02de 76745F74 		.ascii	"vt_time\000"
 2011      696D6500 
 2012              	.LASF56:
 2013 02e6 73697A65 		.ascii	"sizetype\000"
 2013      74797065 
 2013      00
 2014              	.LASF62:
 2015 02ef 76745F66 		.ascii	"vt_func\000"
 2015      756E6300 
ARM GAS  /tmp/ccWbFbv8.s 			page 39


 2016              	.LASF88:
 2017 02f7 63685F74 		.ascii	"ch_timesize\000"
 2017      696D6573 
 2017      697A6500 
 2018              	.LASF94:
 2019 0303 63665F6F 		.ascii	"cf_off_name\000"
 2019      66665F6E 
 2019      616D6500 
 2020              	.LASF35:
 2021 030f 705F6F6C 		.ascii	"p_older\000"
 2021      64657200 
 2022              	.LASF68:
 2023 0317 725F6374 		.ascii	"r_ctx\000"
 2023      7800
 2024              	.LASF50:
 2025 031d 54687265 		.ascii	"ThreadsQueue\000"
 2025      61647351 
 2025      75657565 
 2025      00
 2026              	.LASF85:
 2027 032a 63685F73 		.ascii	"ch_size\000"
 2027      697A6500 
 2028              	.LASF71:
 2029 0332 725F6375 		.ascii	"r_current\000"
 2029      7272656E 
 2029      7400
 2030              	.LASF70:
 2031 033c 725F6F6C 		.ascii	"r_older\000"
 2031      64657200 
 2032              	.LASF102:
 2033 0344 5F69646C 		.ascii	"_idle_thread\000"
 2033      655F7468 
 2033      72656164 
 2033      00
 2034              	.LASF13:
 2035 0351 5F5F7569 		.ascii	"__uint64_t\000"
 2035      6E743634 
 2035      5F7400
 2036              	.LASF23:
 2037 035c 74726566 		.ascii	"trefs_t\000"
 2037      735F7400 
 2038              	.LASF87:
 2039 0364 63685F70 		.ascii	"ch_ptrsize\000"
 2039      74727369 
 2039      7A6500
 2040              	.LASF31:
 2041 036f 705F7072 		.ascii	"p_prev\000"
 2041      657600
 2042              	.LASF25:
 2043 0376 74707269 		.ascii	"tprio_t\000"
 2043      6F5F7400 
 2044              	.LASF20:
 2045 037e 5F426F6F 		.ascii	"_Bool\000"
 2045      6C00
 2046              	.LASF17:
 2047 0384 696E7433 		.ascii	"int32_t\000"
 2047      325F7400 
ARM GAS  /tmp/ccWbFbv8.s 			page 40


 2048              	.LASF4:
 2049 038c 756E7369 		.ascii	"unsigned char\000"
 2049      676E6564 
 2049      20636861 
 2049      7200
 2050              	.LASF114:
 2051 039a 5F636F72 		.ascii	"_core_init\000"
 2051      655F696E 
 2051      697400
 2052              	.LASF47:
 2053 03a5 705F6D74 		.ascii	"p_mtxlist\000"
 2053      786C6973 
 2053      7400
 2054              	.LASF5:
 2055 03af 73686F72 		.ascii	"short int\000"
 2055      7420696E 
 2055      7400
 2056              	.LASF38:
 2057 03b9 705F7374 		.ascii	"p_state\000"
 2057      61746500 
 2058              	.LASF41:
 2059 03c1 705F7072 		.ascii	"p_preempt\000"
 2059      65656D70 
 2059      7400
 2060              	.LASF100:
 2061 03cb 63665F6F 		.ascii	"cf_off_time\000"
 2061      66665F74 
 2061      696D6500 
 2062              	.LASF67:
 2063 03d7 725F7072 		.ascii	"r_prio\000"
 2063      696F00
 2064              	.LASF80:
 2065 03de 65776D61 		.ascii	"ewmask\000"
 2065      736B00
 2066              	.LASF30:
 2067 03e5 705F6E65 		.ascii	"p_next\000"
 2067      787400
 2068              	.LASF99:
 2069 03ec 63665F6F 		.ascii	"cf_off_preempt\000"
 2069      66665F70 
 2069      7265656D 
 2069      707400
 2070              	.LASF39:
 2071 03fb 705F666C 		.ascii	"p_flags\000"
 2071      61677300 
 2072              	.LASF29:
 2073 0403 54687265 		.ascii	"Thread\000"
 2073      616400
 2074              	.LASF92:
 2075 040a 63665F6F 		.ascii	"cf_off_newer\000"
 2075      66665F6E 
 2075      65776572 
 2075      00
 2076              	.LASF46:
 2077 0417 705F6570 		.ascii	"p_epending\000"
 2077      656E6469 
 2077      6E6700
ARM GAS  /tmp/ccWbFbv8.s 			page 41


 2078              	.LASF18:
 2079 0422 75696E74 		.ascii	"uint32_t\000"
 2079      33325F74 
 2079      00
 2080              	.LASF90:
 2081 042b 63665F6F 		.ascii	"cf_off_prio\000"
 2081      66665F70 
 2081      72696F00 
 2082              	.LASF66:
 2083 0437 725F7175 		.ascii	"r_queue\000"
 2083      65756500 
 2084              	.LASF58:
 2085 043f 56697274 		.ascii	"VirtualTimer\000"
 2085      75616C54 
 2085      696D6572 
 2085      00
 2086              	.LASF84:
 2087 044c 63685F7A 		.ascii	"ch_zero\000"
 2087      65726F00 
 2088              	.LASF81:
 2089 0454 63686172 		.ascii	"char\000"
 2089      00
 2090              	.LASF6:
 2091 0459 5F5F7569 		.ascii	"__uint16_t\000"
 2091      6E743136 
 2091      5F7400
 2092              	.LASF106:
 2093 0464 5F5F6D61 		.ascii	"__main_thread_stack_base__\000"
 2093      696E5F74 
 2093      68726561 
 2093      645F7374 
 2093      61636B5F 
 2094              	.LASF123:
 2095 047f 474E5520 		.ascii	"GNU C 4.8.4 20140526 (release) [ARM/embedded-4_8-br"
 2095      4320342E 
 2095      382E3420 
 2095      32303134 
 2095      30353236 
 2096 04b2 616E6368 		.ascii	"anch revision 211358] -mcpu=cortex-m4 -mno-thumb-in"
 2096      20726576 
 2096      6973696F 
 2096      6E203231 
 2096      31333538 
 2097 04e5 74657277 		.ascii	"terwork -mthumb -ggdb -O2 -fomit-frame-pointer -fal"
 2097      6F726B20 
 2097      2D6D7468 
 2097      756D6220 
 2097      2D676764 
 2098 0518 69676E2D 		.ascii	"ign-functions=16 -ffunction-sections -fdata-section"
 2098      66756E63 
 2098      74696F6E 
 2098      733D3136 
 2098      202D6666 
 2099 054b 73202D66 		.ascii	"s -fno-common\000"
 2099      6E6F2D63 
 2099      6F6D6D6F 
 2099      6E00
ARM GAS  /tmp/ccWbFbv8.s 			page 42


 2100              	.LASF76:
 2101 0559 6D5F6E65 		.ascii	"m_next\000"
 2101      787400
 2102              	.LASF28:
 2103 0560 73797374 		.ascii	"systime_t\000"
 2103      696D655F 
 2103      7400
 2104              	.LASF48:
 2105 056a 705F7265 		.ascii	"p_realprio\000"
 2105      616C7072 
 2105      696F00
 2106              	.LASF8:
 2107 0575 5F5F696E 		.ascii	"__int32_t\000"
 2107      7433325F 
 2107      7400
 2108              	.LASF113:
 2109 057f 5F76745F 		.ascii	"_vt_init\000"
 2109      696E6974 
 2109      00
 2110              	.LASF42:
 2111 0588 705F7469 		.ascii	"p_time\000"
 2111      6D6500
 2112              	.LASF54:
 2113 058f 696E7463 		.ascii	"intctx\000"
 2113      747800
 2114              	.LASF44:
 2115 0596 705F6D73 		.ascii	"p_msgqueue\000"
 2115      67717565 
 2115      756500
 2116              	.LASF117:
 2117 05a1 6462675F 		.ascii	"dbg_check_enable\000"
 2117      63686563 
 2117      6B5F656E 
 2117      61626C65 
 2117      00
 2118              	.LASF63:
 2119 05b2 76745F70 		.ascii	"vt_par\000"
 2119      617200
 2120              	.LASF91:
 2121 05b9 63665F6F 		.ascii	"cf_off_ctx\000"
 2121      66665F63 
 2121      747800
 2122              	.LASF40:
 2123 05c4 705F7265 		.ascii	"p_refs\000"
 2123      667300
 2124              	.LASF72:
 2125 05cb 52656164 		.ascii	"ReadyList\000"
 2125      794C6973 
 2125      7400
 2126              	.LASF108:
 2127 05d5 726C6973 		.ascii	"rlist\000"
 2127      7400
 2128              	.LASF15:
 2129 05db 75696E74 		.ascii	"uint8_t\000"
 2129      385F7400 
 2130              	.LASF111:
 2131 05e3 5F706F72 		.ascii	"_port_init\000"
ARM GAS  /tmp/ccWbFbv8.s 			page 43


 2131      745F696E 
 2131      697400
 2132              	.LASF121:
 2133 05ee 6462675F 		.ascii	"dbg_check_lock_from_isr\000"
 2133      63686563 
 2133      6B5F6C6F 
 2133      636B5F66 
 2133      726F6D5F 
 2134              	.LASF79:
 2135 0606 77746F62 		.ascii	"wtobjp\000"
 2135      6A7000
 2136              	.LASF36:
 2137 060d 705F6E61 		.ascii	"p_name\000"
 2137      6D6500
 2138              	.LASF64:
 2139 0614 76745F73 		.ascii	"vt_systime\000"
 2139      79737469 
 2139      6D6500
 2140              	.LASF86:
 2141 061f 63685F76 		.ascii	"ch_version\000"
 2141      65727369 
 2141      6F6E00
 2142              	.LASF65:
 2143 062a 56544C69 		.ascii	"VTList\000"
 2143      737400
 2144              	.LASF75:
 2145 0631 6D5F6F77 		.ascii	"m_owner\000"
 2145      6E657200 
 2146              	.LASF33:
 2147 0639 705F6374 		.ascii	"p_ctx\000"
 2147      7800
 2148              	.LASF43:
 2149 063f 705F7761 		.ascii	"p_waiting\000"
 2149      6974696E 
 2149      6700
 2150              		.ident	"GCC: (GNU Tools for ARM Embedded Processors) 4.8.4 20140526 (release) [ARM/embedded-4_8-br
ARM GAS  /tmp/ccWbFbv8.s 			page 44


DEFINED SYMBOLS
                            *ABS*:00000000 chsys.c
     /tmp/ccWbFbv8.s:19     .text._idle_thread:00000000 $t
     /tmp/ccWbFbv8.s:25     .text._idle_thread:00000000 _idle_thread
     /tmp/ccWbFbv8.s:45     .text._idle_thread:0000000c $d
     /tmp/ccWbFbv8.s:51     .text.chSysInit:00000000 $t
     /tmp/ccWbFbv8.s:57     .text.chSysInit:00000000 chSysInit
     /tmp/ccWbFbv8.s:133    .text.chSysInit:00000058 $d
     /tmp/ccWbFbv8.s:143    .text.chSysTimerHandlerI:00000000 $t
     /tmp/ccWbFbv8.s:149    .text.chSysTimerHandlerI:00000000 chSysTimerHandlerI
     /tmp/ccWbFbv8.s:238    .text.chSysTimerHandlerI:00000060 $d
     /tmp/ccWbFbv8.s:261    .bss._idle_thread_wa:00000000 _idle_thread_wa
     /tmp/ccWbFbv8.s:246    .rodata.str1.4:00000000 $d
     /tmp/ccWbFbv8.s:250    .bss.mainthread.4845:00000000 $d
     /tmp/ccWbFbv8.s:254    .bss.mainthread.4845:00000000 mainthread.4845
     /tmp/ccWbFbv8.s:257    .bss._idle_thread_wa:00000000 $d
                     .debug_frame:00000010 $d
     /tmp/ccWbFbv8.s:50     .text._idle_thread:00000014 $t
     /tmp/ccWbFbv8.s:245    .text.chSysTimerHandlerI:00000068 $t

UNDEFINED SYMBOLS
rlist
_port_init
_scheduler_init
_vt_init
_core_init
_heap_init
_trace_init
_thread_init
dbg_check_enable
chThdCreateStatic
__main_thread_stack_base__
ch_debug
chDbgCheckClassI
dbg_check_unlock_from_isr
dbg_check_lock_from_isr
vtlist
