ARM GAS  /tmp/ccWX75ZD.s 			page 1


   1              		.syntax unified
   2              		.cpu cortex-m4
   3              		.fpu softvfp
   4              		.eabi_attribute 20, 1
   5              		.eabi_attribute 21, 1
   6              		.eabi_attribute 23, 3
   7              		.eabi_attribute 24, 1
   8              		.eabi_attribute 25, 1
   9              		.eabi_attribute 26, 1
  10              		.eabi_attribute 30, 2
  11              		.eabi_attribute 34, 1
  12              		.eabi_attribute 18, 4
  13              		.thumb
  14              		.file	"vectors.c"
  15              		.text
  16              	.Ltext0:
  17              		.cfi_sections	.debug_frame
  18              		.section	.text._unhandled_exception,"ax",%progbits
  19              		.align	2
  20              		.p2align 4,,15
  21              		.global	_unhandled_exception
  22              		.thumb
  23              		.thumb_func
  24              		.type	_unhandled_exception, %function
  25              	_unhandled_exception:
  26              	.LFB7:
  27              		.file 1 "../../../os/ports/GCC/ARMCMx/STM32F4xx/vectors.c"
  28              		.loc 1 226 0
  29              		.cfi_startproc
  30              		@ Naked Function: prologue and epilogue provided by programmer.
  31              		@ Volatile: function does not return.
  32              		@ args = 0, pretend = 0, frame = 0
  33              		@ frame_needed = 0, uses_anonymous_args = 0
  34              	.L2:
  35 0000 FEE7     		b	.L2
  36              		.cfi_endproc
  37              	.LFE7:
  38              		.size	_unhandled_exception, .-_unhandled_exception
  39              		.weak	NMIVector
  40              		.thumb_set NMIVector,_unhandled_exception
  41              		.weak	HardFaultVector
  42              		.thumb_set HardFaultVector,_unhandled_exception
  43              		.weak	MemManageVector
  44              		.thumb_set MemManageVector,_unhandled_exception
  45              		.weak	BusFaultVector
  46              		.thumb_set BusFaultVector,_unhandled_exception
  47              		.weak	UsageFaultVector
  48              		.thumb_set UsageFaultVector,_unhandled_exception
  49              		.weak	Vector1C
  50              		.thumb_set Vector1C,_unhandled_exception
  51              		.weak	Vector20
  52              		.thumb_set Vector20,_unhandled_exception
  53              		.weak	Vector24
  54              		.thumb_set Vector24,_unhandled_exception
  55              		.weak	Vector28
  56              		.thumb_set Vector28,_unhandled_exception
  57              		.weak	SVCallVector
ARM GAS  /tmp/ccWX75ZD.s 			page 2


  58              		.thumb_set SVCallVector,_unhandled_exception
  59              		.weak	DebugMonitorVector
  60              		.thumb_set DebugMonitorVector,_unhandled_exception
  61              		.weak	Vector34
  62              		.thumb_set Vector34,_unhandled_exception
  63              		.weak	PendSVVector
  64              		.thumb_set PendSVVector,_unhandled_exception
  65              		.weak	SysTickVector
  66              		.thumb_set SysTickVector,_unhandled_exception
  67              		.weak	Vector40
  68              		.thumb_set Vector40,_unhandled_exception
  69              		.weak	Vector44
  70              		.thumb_set Vector44,_unhandled_exception
  71              		.weak	Vector48
  72              		.thumb_set Vector48,_unhandled_exception
  73              		.weak	Vector4C
  74              		.thumb_set Vector4C,_unhandled_exception
  75              		.weak	Vector50
  76              		.thumb_set Vector50,_unhandled_exception
  77              		.weak	Vector54
  78              		.thumb_set Vector54,_unhandled_exception
  79              		.weak	Vector58
  80              		.thumb_set Vector58,_unhandled_exception
  81              		.weak	Vector5C
  82              		.thumb_set Vector5C,_unhandled_exception
  83              		.weak	Vector60
  84              		.thumb_set Vector60,_unhandled_exception
  85              		.weak	Vector64
  86              		.thumb_set Vector64,_unhandled_exception
  87              		.weak	Vector68
  88              		.thumb_set Vector68,_unhandled_exception
  89              		.weak	Vector6C
  90              		.thumb_set Vector6C,_unhandled_exception
  91              		.weak	Vector70
  92              		.thumb_set Vector70,_unhandled_exception
  93              		.weak	Vector74
  94              		.thumb_set Vector74,_unhandled_exception
  95              		.weak	Vector78
  96              		.thumb_set Vector78,_unhandled_exception
  97              		.weak	Vector7C
  98              		.thumb_set Vector7C,_unhandled_exception
  99              		.weak	Vector80
 100              		.thumb_set Vector80,_unhandled_exception
 101              		.weak	Vector84
 102              		.thumb_set Vector84,_unhandled_exception
 103              		.weak	Vector88
 104              		.thumb_set Vector88,_unhandled_exception
 105              		.weak	Vector8C
 106              		.thumb_set Vector8C,_unhandled_exception
 107              		.weak	Vector90
 108              		.thumb_set Vector90,_unhandled_exception
 109              		.weak	Vector94
 110              		.thumb_set Vector94,_unhandled_exception
 111              		.weak	Vector98
 112              		.thumb_set Vector98,_unhandled_exception
 113              		.weak	Vector9C
 114              		.thumb_set Vector9C,_unhandled_exception
ARM GAS  /tmp/ccWX75ZD.s 			page 3


 115              		.weak	VectorA0
 116              		.thumb_set VectorA0,_unhandled_exception
 117              		.weak	VectorA4
 118              		.thumb_set VectorA4,_unhandled_exception
 119              		.weak	VectorA8
 120              		.thumb_set VectorA8,_unhandled_exception
 121              		.weak	VectorAC
 122              		.thumb_set VectorAC,_unhandled_exception
 123              		.weak	VectorB0
 124              		.thumb_set VectorB0,_unhandled_exception
 125              		.weak	VectorB4
 126              		.thumb_set VectorB4,_unhandled_exception
 127              		.weak	VectorB8
 128              		.thumb_set VectorB8,_unhandled_exception
 129              		.weak	VectorBC
 130              		.thumb_set VectorBC,_unhandled_exception
 131              		.weak	VectorC0
 132              		.thumb_set VectorC0,_unhandled_exception
 133              		.weak	VectorC4
 134              		.thumb_set VectorC4,_unhandled_exception
 135              		.weak	VectorC8
 136              		.thumb_set VectorC8,_unhandled_exception
 137              		.weak	VectorCC
 138              		.thumb_set VectorCC,_unhandled_exception
 139              		.weak	VectorD0
 140              		.thumb_set VectorD0,_unhandled_exception
 141              		.weak	VectorD4
 142              		.thumb_set VectorD4,_unhandled_exception
 143              		.weak	VectorD8
 144              		.thumb_set VectorD8,_unhandled_exception
 145              		.weak	VectorDC
 146              		.thumb_set VectorDC,_unhandled_exception
 147              		.weak	VectorE0
 148              		.thumb_set VectorE0,_unhandled_exception
 149              		.weak	VectorE4
 150              		.thumb_set VectorE4,_unhandled_exception
 151              		.weak	VectorE8
 152              		.thumb_set VectorE8,_unhandled_exception
 153              		.weak	VectorEC
 154              		.thumb_set VectorEC,_unhandled_exception
 155              		.weak	VectorF0
 156              		.thumb_set VectorF0,_unhandled_exception
 157              		.weak	VectorF4
 158              		.thumb_set VectorF4,_unhandled_exception
 159              		.weak	VectorF8
 160              		.thumb_set VectorF8,_unhandled_exception
 161              		.weak	VectorFC
 162              		.thumb_set VectorFC,_unhandled_exception
 163              		.weak	Vector100
 164              		.thumb_set Vector100,_unhandled_exception
 165              		.weak	Vector104
 166              		.thumb_set Vector104,_unhandled_exception
 167              		.weak	Vector108
 168              		.thumb_set Vector108,_unhandled_exception
 169              		.weak	Vector10C
 170              		.thumb_set Vector10C,_unhandled_exception
 171              		.weak	Vector110
ARM GAS  /tmp/ccWX75ZD.s 			page 4


 172              		.thumb_set Vector110,_unhandled_exception
 173              		.weak	Vector114
 174              		.thumb_set Vector114,_unhandled_exception
 175              		.weak	Vector118
 176              		.thumb_set Vector118,_unhandled_exception
 177              		.weak	Vector11C
 178              		.thumb_set Vector11C,_unhandled_exception
 179              		.weak	Vector120
 180              		.thumb_set Vector120,_unhandled_exception
 181              		.weak	Vector124
 182              		.thumb_set Vector124,_unhandled_exception
 183              		.weak	Vector128
 184              		.thumb_set Vector128,_unhandled_exception
 185              		.weak	Vector12C
 186              		.thumb_set Vector12C,_unhandled_exception
 187              		.weak	Vector130
 188              		.thumb_set Vector130,_unhandled_exception
 189              		.weak	Vector134
 190              		.thumb_set Vector134,_unhandled_exception
 191              		.weak	Vector138
 192              		.thumb_set Vector138,_unhandled_exception
 193              		.weak	Vector13C
 194              		.thumb_set Vector13C,_unhandled_exception
 195              		.weak	Vector140
 196              		.thumb_set Vector140,_unhandled_exception
 197              		.weak	Vector144
 198              		.thumb_set Vector144,_unhandled_exception
 199              		.weak	Vector148
 200              		.thumb_set Vector148,_unhandled_exception
 201              		.weak	Vector14C
 202              		.thumb_set Vector14C,_unhandled_exception
 203              		.weak	Vector150
 204              		.thumb_set Vector150,_unhandled_exception
 205              		.weak	Vector154
 206              		.thumb_set Vector154,_unhandled_exception
 207              		.weak	Vector158
 208              		.thumb_set Vector158,_unhandled_exception
 209              		.weak	Vector15C
 210              		.thumb_set Vector15C,_unhandled_exception
 211              		.weak	Vector160
 212              		.thumb_set Vector160,_unhandled_exception
 213              		.weak	Vector164
 214              		.thumb_set Vector164,_unhandled_exception
 215              		.weak	Vector168
 216              		.thumb_set Vector168,_unhandled_exception
 217              		.weak	Vector16C
 218              		.thumb_set Vector16C,_unhandled_exception
 219              		.weak	Vector170
 220              		.thumb_set Vector170,_unhandled_exception
 221              		.weak	Vector174
 222              		.thumb_set Vector174,_unhandled_exception
 223              		.weak	Vector178
 224              		.thumb_set Vector178,_unhandled_exception
 225              		.weak	Vector17C
 226              		.thumb_set Vector17C,_unhandled_exception
 227              		.weak	Vector180
 228              		.thumb_set Vector180,_unhandled_exception
ARM GAS  /tmp/ccWX75ZD.s 			page 5


 229              		.weak	Vector184
 230              		.thumb_set Vector184,_unhandled_exception
 231              		.weak	Vector188
 232              		.thumb_set Vector188,_unhandled_exception
 233              		.weak	Vector18C
 234              		.thumb_set Vector18C,_unhandled_exception
 235              		.weak	Vector190
 236              		.thumb_set Vector190,_unhandled_exception
 237              		.weak	Vector194
 238              		.thumb_set Vector194,_unhandled_exception
 239              		.weak	Vector198
 240              		.thumb_set Vector198,_unhandled_exception
 241              		.weak	Vector19C
 242              		.thumb_set Vector19C,_unhandled_exception
 243              		.weak	Vector1A0
 244              		.thumb_set Vector1A0,_unhandled_exception
 245              		.weak	Vector1A4
 246              		.thumb_set Vector1A4,_unhandled_exception
 247              		.weak	Vector1A8
 248              		.thumb_set Vector1A8,_unhandled_exception
 249              		.global	_vectors
 250              		.section	vectors,"aw",%progbits
 251              		.align	2
 252              		.type	_vectors, %object
 253              		.size	_vectors, 428
 254              	_vectors:
 255 0000 00000000 		.word	__main_stack_end__
 256 0004 00000000 		.word	ResetHandler
 257 0008 00000000 		.word	NMIVector
 258 000c 00000000 		.word	HardFaultVector
 259 0010 00000000 		.word	MemManageVector
 260 0014 00000000 		.word	BusFaultVector
 261 0018 00000000 		.word	UsageFaultVector
 262 001c 00000000 		.word	Vector1C
 263 0020 00000000 		.word	Vector20
 264 0024 00000000 		.word	Vector24
 265 0028 00000000 		.word	Vector28
 266 002c 00000000 		.word	SVCallVector
 267 0030 00000000 		.word	DebugMonitorVector
 268 0034 00000000 		.word	Vector34
 269 0038 00000000 		.word	PendSVVector
 270 003c 00000000 		.word	SysTickVector
 271 0040 00000000 		.word	Vector40
 272 0044 00000000 		.word	Vector44
 273 0048 00000000 		.word	Vector48
 274 004c 00000000 		.word	Vector4C
 275 0050 00000000 		.word	Vector50
 276 0054 00000000 		.word	Vector54
 277 0058 00000000 		.word	Vector58
 278 005c 00000000 		.word	Vector5C
 279 0060 00000000 		.word	Vector60
 280 0064 00000000 		.word	Vector64
 281 0068 00000000 		.word	Vector68
 282 006c 00000000 		.word	Vector6C
 283 0070 00000000 		.word	Vector70
 284 0074 00000000 		.word	Vector74
 285 0078 00000000 		.word	Vector78
ARM GAS  /tmp/ccWX75ZD.s 			page 6


 286 007c 00000000 		.word	Vector7C
 287 0080 00000000 		.word	Vector80
 288 0084 00000000 		.word	Vector84
 289 0088 00000000 		.word	Vector88
 290 008c 00000000 		.word	Vector8C
 291 0090 00000000 		.word	Vector90
 292 0094 00000000 		.word	Vector94
 293 0098 00000000 		.word	Vector98
 294 009c 00000000 		.word	Vector9C
 295 00a0 00000000 		.word	VectorA0
 296 00a4 00000000 		.word	VectorA4
 297 00a8 00000000 		.word	VectorA8
 298 00ac 00000000 		.word	VectorAC
 299 00b0 00000000 		.word	VectorB0
 300 00b4 00000000 		.word	VectorB4
 301 00b8 00000000 		.word	VectorB8
 302 00bc 00000000 		.word	VectorBC
 303 00c0 00000000 		.word	VectorC0
 304 00c4 00000000 		.word	VectorC4
 305 00c8 00000000 		.word	VectorC8
 306 00cc 00000000 		.word	VectorCC
 307 00d0 00000000 		.word	VectorD0
 308 00d4 00000000 		.word	VectorD4
 309 00d8 00000000 		.word	VectorD8
 310 00dc 00000000 		.word	VectorDC
 311 00e0 00000000 		.word	VectorE0
 312 00e4 00000000 		.word	VectorE4
 313 00e8 00000000 		.word	VectorE8
 314 00ec 00000000 		.word	VectorEC
 315 00f0 00000000 		.word	VectorF0
 316 00f4 00000000 		.word	VectorF4
 317 00f8 00000000 		.word	VectorF8
 318 00fc 00000000 		.word	VectorFC
 319 0100 00000000 		.word	Vector100
 320 0104 00000000 		.word	Vector104
 321 0108 00000000 		.word	Vector108
 322 010c 00000000 		.word	Vector10C
 323 0110 00000000 		.word	Vector110
 324 0114 00000000 		.word	Vector114
 325 0118 00000000 		.word	Vector118
 326 011c 00000000 		.word	Vector11C
 327 0120 00000000 		.word	Vector120
 328 0124 00000000 		.word	Vector124
 329 0128 00000000 		.word	Vector128
 330 012c 00000000 		.word	Vector12C
 331 0130 00000000 		.word	Vector130
 332 0134 00000000 		.word	Vector134
 333 0138 00000000 		.word	Vector138
 334 013c 00000000 		.word	Vector13C
 335 0140 00000000 		.word	Vector140
 336 0144 00000000 		.word	Vector144
 337 0148 00000000 		.word	Vector148
 338 014c 00000000 		.word	Vector14C
 339 0150 00000000 		.word	Vector150
 340 0154 00000000 		.word	Vector154
 341 0158 00000000 		.word	Vector158
 342 015c 00000000 		.word	Vector15C
ARM GAS  /tmp/ccWX75ZD.s 			page 7


 343 0160 00000000 		.word	Vector160
 344 0164 00000000 		.word	Vector164
 345 0168 00000000 		.word	Vector168
 346 016c 00000000 		.word	Vector16C
 347 0170 00000000 		.word	Vector170
 348 0174 00000000 		.word	Vector174
 349 0178 00000000 		.word	Vector178
 350 017c 00000000 		.word	Vector17C
 351 0180 00000000 		.word	Vector180
 352 0184 00000000 		.word	Vector184
 353 0188 00000000 		.word	Vector188
 354 018c 00000000 		.word	Vector18C
 355 0190 00000000 		.word	Vector190
 356 0194 00000000 		.word	Vector194
 357 0198 00000000 		.word	Vector198
 358 019c 00000000 		.word	Vector19C
 359 01a0 00000000 		.word	Vector1A0
 360 01a4 00000000 		.word	Vector1A4
 361 01a8 00000000 		.word	Vector1A8
 362              		.text
 363              	.Letext0:
 364              		.file 2 "/opt/ARM/arm-none-eabi/include/machine/_default_types.h"
 365              		.file 3 "/opt/ARM/arm-none-eabi/include/stdint.h"
 366              		.section	.debug_info,"",%progbits
 367              	.Ldebug_info0:
 368 0000 C9010000 		.4byte	0x1c9
 369 0004 0400     		.2byte	0x4
 370 0006 00000000 		.4byte	.Ldebug_abbrev0
 371 000a 04       		.byte	0x4
 372 000b 01       		.uleb128 0x1
 373 000c 4F000000 		.4byte	.LASF35
 374 0010 01       		.byte	0x1
 375 0011 4E010000 		.4byte	.LASF36
 376 0015 C7020000 		.4byte	.LASF37
 377 0019 00000000 		.4byte	.Ldebug_ranges0+0
 378 001d 00000000 		.4byte	0
 379 0021 00000000 		.4byte	.Ldebug_line0
 380 0025 02       		.uleb128 0x2
 381 0026 04       		.byte	0x4
 382 0027 05       		.byte	0x5
 383 0028 696E7400 		.ascii	"int\000"
 384 002c 03       		.uleb128 0x3
 385 002d 04       		.byte	0x4
 386 002e 07       		.byte	0x7
 387 002f A2010000 		.4byte	.LASF0
 388 0033 03       		.uleb128 0x3
 389 0034 01       		.byte	0x1
 390 0035 06       		.byte	0x6
 391 0036 98020000 		.4byte	.LASF1
 392 003a 03       		.uleb128 0x3
 393 003b 01       		.byte	0x1
 394 003c 08       		.byte	0x8
 395 003d 41000000 		.4byte	.LASF2
 396 0041 03       		.uleb128 0x3
 397 0042 02       		.byte	0x2
 398 0043 05       		.byte	0x5
 399 0044 6F020000 		.4byte	.LASF3
ARM GAS  /tmp/ccWX75ZD.s 			page 8


 400 0048 03       		.uleb128 0x3
 401 0049 02       		.byte	0x2
 402 004a 07       		.byte	0x7
 403 004b 3B010000 		.4byte	.LASF4
 404 004f 03       		.uleb128 0x3
 405 0050 04       		.byte	0x4
 406 0051 05       		.byte	0x5
 407 0052 8F020000 		.4byte	.LASF5
 408 0056 04       		.uleb128 0x4
 409 0057 97010000 		.4byte	.LASF9
 410 005b 02       		.byte	0x2
 411 005c 38       		.byte	0x38
 412 005d 61000000 		.4byte	0x61
 413 0061 03       		.uleb128 0x3
 414 0062 04       		.byte	0x4
 415 0063 07       		.byte	0x7
 416 0064 29010000 		.4byte	.LASF6
 417 0068 03       		.uleb128 0x3
 418 0069 08       		.byte	0x8
 419 006a 05       		.byte	0x5
 420 006b 2E020000 		.4byte	.LASF7
 421 006f 03       		.uleb128 0x3
 422 0070 08       		.byte	0x8
 423 0071 07       		.byte	0x7
 424 0072 BA010000 		.4byte	.LASF8
 425 0076 04       		.uleb128 0x4
 426 0077 86020000 		.4byte	.LASF10
 427 007b 03       		.byte	0x3
 428 007c 42       		.byte	0x42
 429 007d 56000000 		.4byte	0x56
 430 0081 03       		.uleb128 0x3
 431 0082 01       		.byte	0x1
 432 0083 02       		.byte	0x2
 433 0084 C1020000 		.4byte	.LASF11
 434 0088 03       		.uleb128 0x3
 435 0089 04       		.byte	0x4
 436 008a 07       		.byte	0x7
 437 008b 06020000 		.4byte	.LASF12
 438 008f 03       		.uleb128 0x3
 439 0090 01       		.byte	0x1
 440 0091 08       		.byte	0x8
 441 0092 3C020000 		.4byte	.LASF13
 442 0096 04       		.uleb128 0x4
 443 0097 09000000 		.4byte	.LASF14
 444 009b 01       		.byte	0x1
 445 009c 2B       		.byte	0x2b
 446 009d A1000000 		.4byte	0xa1
 447 00a1 05       		.uleb128 0x5
 448 00a2 04       		.byte	0x4
 449 00a3 A7000000 		.4byte	0xa7
 450 00a7 06       		.uleb128 0x6
 451 00a8 07       		.uleb128 0x7
 452 00a9 AC01     		.2byte	0x1ac
 453 00ab 01       		.byte	0x1
 454 00ac 30       		.byte	0x30
 455 00ad 7E010000 		.4byte	0x17e
 456 00b1 08       		.uleb128 0x8
ARM GAS  /tmp/ccWX75ZD.s 			page 9


 457 00b2 28000000 		.4byte	.LASF15
 458 00b6 01       		.byte	0x1
 459 00b7 31       		.byte	0x31
 460 00b8 7E010000 		.4byte	0x17e
 461 00bc 00       		.byte	0
 462 00bd 08       		.uleb128 0x8
 463 00be 79020000 		.4byte	.LASF16
 464 00c2 01       		.byte	0x1
 465 00c3 32       		.byte	0x32
 466 00c4 96000000 		.4byte	0x96
 467 00c8 04       		.byte	0x4
 468 00c9 08       		.uleb128 0x8
 469 00ca AF010000 		.4byte	.LASF17
 470 00ce 01       		.byte	0x1
 471 00cf 33       		.byte	0x33
 472 00d0 96000000 		.4byte	0x96
 473 00d4 08       		.byte	0x8
 474 00d5 08       		.uleb128 0x8
 475 00d6 1D020000 		.4byte	.LASF18
 476 00da 01       		.byte	0x1
 477 00db 34       		.byte	0x34
 478 00dc 96000000 		.4byte	0x96
 479 00e0 0C       		.byte	0xc
 480 00e1 08       		.uleb128 0x8
 481 00e2 41020000 		.4byte	.LASF19
 482 00e6 01       		.byte	0x1
 483 00e7 35       		.byte	0x35
 484 00e8 96000000 		.4byte	0x96
 485 00ec 10       		.byte	0x10
 486 00ed 08       		.uleb128 0x8
 487 00ee D1010000 		.4byte	.LASF20
 488 00f2 01       		.byte	0x1
 489 00f3 36       		.byte	0x36
 490 00f4 96000000 		.4byte	0x96
 491 00f8 14       		.byte	0x14
 492 00f9 08       		.uleb128 0x8
 493 00fa EA010000 		.4byte	.LASF21
 494 00fe 01       		.byte	0x1
 495 00ff 37       		.byte	0x37
 496 0100 96000000 		.4byte	0x96
 497 0104 18       		.byte	0x18
 498 0105 08       		.uleb128 0x8
 499 0106 7F010000 		.4byte	.LASF22
 500 010a 01       		.byte	0x1
 501 010b 38       		.byte	0x38
 502 010c 96000000 		.4byte	0x96
 503 0110 1C       		.byte	0x1c
 504 0111 08       		.uleb128 0x8
 505 0112 B8020000 		.4byte	.LASF23
 506 0116 01       		.byte	0x1
 507 0117 39       		.byte	0x39
 508 0118 96000000 		.4byte	0x96
 509 011c 20       		.byte	0x20
 510 011d 08       		.uleb128 0x8
 511 011e 00000000 		.4byte	.LASF24
 512 0122 01       		.byte	0x1
 513 0123 3A       		.byte	0x3a
ARM GAS  /tmp/ccWX75ZD.s 			page 10


 514 0124 96000000 		.4byte	0x96
 515 0128 24       		.byte	0x24
 516 0129 08       		.uleb128 0x8
 517 012a E1010000 		.4byte	.LASF25
 518 012e 01       		.byte	0x1
 519 012f 3B       		.byte	0x3b
 520 0130 96000000 		.4byte	0x96
 521 0134 28       		.byte	0x28
 522 0135 08       		.uleb128 0x8
 523 0136 33000000 		.4byte	.LASF26
 524 013a 01       		.byte	0x1
 525 013b 3C       		.byte	0x3c
 526 013c 96000000 		.4byte	0x96
 527 0140 2C       		.byte	0x2c
 528 0141 08       		.uleb128 0x8
 529 0142 A4020000 		.4byte	.LASF27
 530 0146 01       		.byte	0x1
 531 0147 3D       		.byte	0x3d
 532 0148 96000000 		.4byte	0x96
 533 014c 30       		.byte	0x30
 534 014d 08       		.uleb128 0x8
 535 014e 16000000 		.4byte	.LASF28
 536 0152 01       		.byte	0x1
 537 0153 3E       		.byte	0x3e
 538 0154 96000000 		.4byte	0x96
 539 0158 34       		.byte	0x34
 540 0159 08       		.uleb128 0x8
 541 015a 0F020000 		.4byte	.LASF29
 542 015e 01       		.byte	0x1
 543 015f 3F       		.byte	0x3f
 544 0160 96000000 		.4byte	0x96
 545 0164 38       		.byte	0x38
 546 0165 08       		.uleb128 0x8
 547 0166 88010000 		.4byte	.LASF30
 548 016a 01       		.byte	0x1
 549 016b 40       		.byte	0x40
 550 016c 96000000 		.4byte	0x96
 551 0170 3C       		.byte	0x3c
 552 0171 08       		.uleb128 0x8
 553 0172 67020000 		.4byte	.LASF31
 554 0176 01       		.byte	0x1
 555 0177 41       		.byte	0x41
 556 0178 84010000 		.4byte	0x184
 557 017c 40       		.byte	0x40
 558 017d 00       		.byte	0
 559 017e 05       		.uleb128 0x5
 560 017f 04       		.byte	0x4
 561 0180 76000000 		.4byte	0x76
 562 0184 09       		.uleb128 0x9
 563 0185 96000000 		.4byte	0x96
 564 0189 94010000 		.4byte	0x194
 565 018d 0A       		.uleb128 0xa
 566 018e 88000000 		.4byte	0x88
 567 0192 5A       		.byte	0x5a
 568 0193 00       		.byte	0
 569 0194 04       		.uleb128 0x4
 570 0195 FC010000 		.4byte	.LASF32
ARM GAS  /tmp/ccWX75ZD.s 			page 11


 571 0199 01       		.byte	0x1
 572 019a 42       		.byte	0x42
 573 019b A8000000 		.4byte	0xa8
 574 019f 0B       		.uleb128 0xb
 575 01a0 52020000 		.4byte	.LASF38
 576 01a4 01       		.byte	0x1
 577 01a5 E2       		.byte	0xe2
 578 01a6 00000000 		.4byte	.LFB7
 579 01aa 02000000 		.4byte	.LFE7-.LFB7
 580 01ae 01       		.uleb128 0x1
 581 01af 9C       		.byte	0x9c
 582 01b0 0C       		.uleb128 0xc
 583 01b1 06030000 		.4byte	.LASF33
 584 01b5 01       		.byte	0x1
 585 01b6 45       		.byte	0x45
 586 01b7 76000000 		.4byte	0x76
 587 01bb 0D       		.uleb128 0xd
 588 01bc 1F000000 		.4byte	.LASF34
 589 01c0 01       		.byte	0x1
 590 01c1 B8       		.byte	0xb8
 591 01c2 94010000 		.4byte	0x194
 592 01c6 05       		.uleb128 0x5
 593 01c7 03       		.byte	0x3
 594 01c8 00000000 		.4byte	_vectors
 595 01cc 00       		.byte	0
 596              		.section	.debug_abbrev,"",%progbits
 597              	.Ldebug_abbrev0:
 598 0000 01       		.uleb128 0x1
 599 0001 11       		.uleb128 0x11
 600 0002 01       		.byte	0x1
 601 0003 25       		.uleb128 0x25
 602 0004 0E       		.uleb128 0xe
 603 0005 13       		.uleb128 0x13
 604 0006 0B       		.uleb128 0xb
 605 0007 03       		.uleb128 0x3
 606 0008 0E       		.uleb128 0xe
 607 0009 1B       		.uleb128 0x1b
 608 000a 0E       		.uleb128 0xe
 609 000b 55       		.uleb128 0x55
 610 000c 17       		.uleb128 0x17
 611 000d 11       		.uleb128 0x11
 612 000e 01       		.uleb128 0x1
 613 000f 10       		.uleb128 0x10
 614 0010 17       		.uleb128 0x17
 615 0011 00       		.byte	0
 616 0012 00       		.byte	0
 617 0013 02       		.uleb128 0x2
 618 0014 24       		.uleb128 0x24
 619 0015 00       		.byte	0
 620 0016 0B       		.uleb128 0xb
 621 0017 0B       		.uleb128 0xb
 622 0018 3E       		.uleb128 0x3e
 623 0019 0B       		.uleb128 0xb
 624 001a 03       		.uleb128 0x3
 625 001b 08       		.uleb128 0x8
 626 001c 00       		.byte	0
 627 001d 00       		.byte	0
ARM GAS  /tmp/ccWX75ZD.s 			page 12


 628 001e 03       		.uleb128 0x3
 629 001f 24       		.uleb128 0x24
 630 0020 00       		.byte	0
 631 0021 0B       		.uleb128 0xb
 632 0022 0B       		.uleb128 0xb
 633 0023 3E       		.uleb128 0x3e
 634 0024 0B       		.uleb128 0xb
 635 0025 03       		.uleb128 0x3
 636 0026 0E       		.uleb128 0xe
 637 0027 00       		.byte	0
 638 0028 00       		.byte	0
 639 0029 04       		.uleb128 0x4
 640 002a 16       		.uleb128 0x16
 641 002b 00       		.byte	0
 642 002c 03       		.uleb128 0x3
 643 002d 0E       		.uleb128 0xe
 644 002e 3A       		.uleb128 0x3a
 645 002f 0B       		.uleb128 0xb
 646 0030 3B       		.uleb128 0x3b
 647 0031 0B       		.uleb128 0xb
 648 0032 49       		.uleb128 0x49
 649 0033 13       		.uleb128 0x13
 650 0034 00       		.byte	0
 651 0035 00       		.byte	0
 652 0036 05       		.uleb128 0x5
 653 0037 0F       		.uleb128 0xf
 654 0038 00       		.byte	0
 655 0039 0B       		.uleb128 0xb
 656 003a 0B       		.uleb128 0xb
 657 003b 49       		.uleb128 0x49
 658 003c 13       		.uleb128 0x13
 659 003d 00       		.byte	0
 660 003e 00       		.byte	0
 661 003f 06       		.uleb128 0x6
 662 0040 15       		.uleb128 0x15
 663 0041 00       		.byte	0
 664 0042 27       		.uleb128 0x27
 665 0043 19       		.uleb128 0x19
 666 0044 00       		.byte	0
 667 0045 00       		.byte	0
 668 0046 07       		.uleb128 0x7
 669 0047 13       		.uleb128 0x13
 670 0048 01       		.byte	0x1
 671 0049 0B       		.uleb128 0xb
 672 004a 05       		.uleb128 0x5
 673 004b 3A       		.uleb128 0x3a
 674 004c 0B       		.uleb128 0xb
 675 004d 3B       		.uleb128 0x3b
 676 004e 0B       		.uleb128 0xb
 677 004f 01       		.uleb128 0x1
 678 0050 13       		.uleb128 0x13
 679 0051 00       		.byte	0
 680 0052 00       		.byte	0
 681 0053 08       		.uleb128 0x8
 682 0054 0D       		.uleb128 0xd
 683 0055 00       		.byte	0
 684 0056 03       		.uleb128 0x3
ARM GAS  /tmp/ccWX75ZD.s 			page 13


 685 0057 0E       		.uleb128 0xe
 686 0058 3A       		.uleb128 0x3a
 687 0059 0B       		.uleb128 0xb
 688 005a 3B       		.uleb128 0x3b
 689 005b 0B       		.uleb128 0xb
 690 005c 49       		.uleb128 0x49
 691 005d 13       		.uleb128 0x13
 692 005e 38       		.uleb128 0x38
 693 005f 0B       		.uleb128 0xb
 694 0060 00       		.byte	0
 695 0061 00       		.byte	0
 696 0062 09       		.uleb128 0x9
 697 0063 01       		.uleb128 0x1
 698 0064 01       		.byte	0x1
 699 0065 49       		.uleb128 0x49
 700 0066 13       		.uleb128 0x13
 701 0067 01       		.uleb128 0x1
 702 0068 13       		.uleb128 0x13
 703 0069 00       		.byte	0
 704 006a 00       		.byte	0
 705 006b 0A       		.uleb128 0xa
 706 006c 21       		.uleb128 0x21
 707 006d 00       		.byte	0
 708 006e 49       		.uleb128 0x49
 709 006f 13       		.uleb128 0x13
 710 0070 2F       		.uleb128 0x2f
 711 0071 0B       		.uleb128 0xb
 712 0072 00       		.byte	0
 713 0073 00       		.byte	0
 714 0074 0B       		.uleb128 0xb
 715 0075 2E       		.uleb128 0x2e
 716 0076 00       		.byte	0
 717 0077 3F       		.uleb128 0x3f
 718 0078 19       		.uleb128 0x19
 719 0079 03       		.uleb128 0x3
 720 007a 0E       		.uleb128 0xe
 721 007b 3A       		.uleb128 0x3a
 722 007c 0B       		.uleb128 0xb
 723 007d 3B       		.uleb128 0x3b
 724 007e 0B       		.uleb128 0xb
 725 007f 27       		.uleb128 0x27
 726 0080 19       		.uleb128 0x19
 727 0081 11       		.uleb128 0x11
 728 0082 01       		.uleb128 0x1
 729 0083 12       		.uleb128 0x12
 730 0084 06       		.uleb128 0x6
 731 0085 40       		.uleb128 0x40
 732 0086 18       		.uleb128 0x18
 733 0087 9742     		.uleb128 0x2117
 734 0089 19       		.uleb128 0x19
 735 008a 00       		.byte	0
 736 008b 00       		.byte	0
 737 008c 0C       		.uleb128 0xc
 738 008d 34       		.uleb128 0x34
 739 008e 00       		.byte	0
 740 008f 03       		.uleb128 0x3
 741 0090 0E       		.uleb128 0xe
ARM GAS  /tmp/ccWX75ZD.s 			page 14


 742 0091 3A       		.uleb128 0x3a
 743 0092 0B       		.uleb128 0xb
 744 0093 3B       		.uleb128 0x3b
 745 0094 0B       		.uleb128 0xb
 746 0095 49       		.uleb128 0x49
 747 0096 13       		.uleb128 0x13
 748 0097 3F       		.uleb128 0x3f
 749 0098 19       		.uleb128 0x19
 750 0099 3C       		.uleb128 0x3c
 751 009a 19       		.uleb128 0x19
 752 009b 00       		.byte	0
 753 009c 00       		.byte	0
 754 009d 0D       		.uleb128 0xd
 755 009e 34       		.uleb128 0x34
 756 009f 00       		.byte	0
 757 00a0 03       		.uleb128 0x3
 758 00a1 0E       		.uleb128 0xe
 759 00a2 3A       		.uleb128 0x3a
 760 00a3 0B       		.uleb128 0xb
 761 00a4 3B       		.uleb128 0x3b
 762 00a5 0B       		.uleb128 0xb
 763 00a6 49       		.uleb128 0x49
 764 00a7 13       		.uleb128 0x13
 765 00a8 3F       		.uleb128 0x3f
 766 00a9 19       		.uleb128 0x19
 767 00aa 02       		.uleb128 0x2
 768 00ab 18       		.uleb128 0x18
 769 00ac 00       		.byte	0
 770 00ad 00       		.byte	0
 771 00ae 00       		.byte	0
 772              		.section	.debug_aranges,"",%progbits
 773 0000 1C000000 		.4byte	0x1c
 774 0004 0200     		.2byte	0x2
 775 0006 00000000 		.4byte	.Ldebug_info0
 776 000a 04       		.byte	0x4
 777 000b 00       		.byte	0
 778 000c 0000     		.2byte	0
 779 000e 0000     		.2byte	0
 780 0010 00000000 		.4byte	.LFB7
 781 0014 02000000 		.4byte	.LFE7-.LFB7
 782 0018 00000000 		.4byte	0
 783 001c 00000000 		.4byte	0
 784              		.section	.debug_ranges,"",%progbits
 785              	.Ldebug_ranges0:
 786 0000 00000000 		.4byte	.LFB7
 787 0004 02000000 		.4byte	.LFE7
 788 0008 00000000 		.4byte	0
 789 000c 00000000 		.4byte	0
 790              		.section	.debug_line,"",%progbits
 791              	.Ldebug_line0:
 792 0000 C3000000 		.section	.debug_str,"MS",%progbits,1
 792      0200AD00 
 792      00000201 
 792      FB0E0D00 
 792      01010101 
 793              	.LASF24:
 794 0000 76656374 		.ascii	"vector24\000"
ARM GAS  /tmp/ccWX75ZD.s 			page 15


 794      6F723234 
 794      00
 795              	.LASF14:
 796 0009 6972715F 		.ascii	"irq_vector_t\000"
 796      76656374 
 796      6F725F74 
 796      00
 797              	.LASF28:
 798 0016 76656374 		.ascii	"vector34\000"
 798      6F723334 
 798      00
 799              	.LASF34:
 800 001f 5F766563 		.ascii	"_vectors\000"
 800      746F7273 
 800      00
 801              	.LASF15:
 802 0028 696E6974 		.ascii	"init_stack\000"
 802      5F737461 
 802      636B00
 803              	.LASF26:
 804 0033 73766361 		.ascii	"svcall_vector\000"
 804      6C6C5F76 
 804      6563746F 
 804      7200
 805              	.LASF2:
 806 0041 756E7369 		.ascii	"unsigned char\000"
 806      676E6564 
 806      20636861 
 806      7200
 807              	.LASF35:
 808 004f 474E5520 		.ascii	"GNU C 4.8.4 20140526 (release) [ARM/embedded-4_8-br"
 808      4320342E 
 808      382E3420 
 808      32303134 
 808      30353236 
 809 0082 616E6368 		.ascii	"anch revision 211358] -mcpu=cortex-m4 -mno-thumb-in"
 809      20726576 
 809      6973696F 
 809      6E203231 
 809      31333538 
 810 00b5 74657277 		.ascii	"terwork -mthumb -ggdb -O2 -fomit-frame-pointer -fal"
 810      6F726B20 
 810      2D6D7468 
 810      756D6220 
 810      2D676764 
 811 00e8 69676E2D 		.ascii	"ign-functions=16 -ffunction-sections -fdata-section"
 811      66756E63 
 811      74696F6E 
 811      733D3136 
 811      202D6666 
 812 011b 73202D66 		.ascii	"s -fno-common\000"
 812      6E6F2D63 
 812      6F6D6D6F 
 812      6E00
 813              	.LASF6:
 814 0129 6C6F6E67 		.ascii	"long unsigned int\000"
 814      20756E73 
ARM GAS  /tmp/ccWX75ZD.s 			page 16


 814      69676E65 
 814      6420696E 
 814      7400
 815              	.LASF4:
 816 013b 73686F72 		.ascii	"short unsigned int\000"
 816      7420756E 
 816      7369676E 
 816      65642069 
 816      6E7400
 817              	.LASF36:
 818 014e 2E2E2F2E 		.ascii	"../../../os/ports/GCC/ARMCMx/STM32F4xx/vectors.c\000"
 818      2E2F2E2E 
 818      2F6F732F 
 818      706F7274 
 818      732F4743 
 819              	.LASF22:
 820 017f 76656374 		.ascii	"vector1c\000"
 820      6F723163 
 820      00
 821              	.LASF30:
 822 0188 73797374 		.ascii	"systick_vector\000"
 822      69636B5F 
 822      76656374 
 822      6F7200
 823              	.LASF9:
 824 0197 5F5F7569 		.ascii	"__uint32_t\000"
 824      6E743332 
 824      5F7400
 825              	.LASF0:
 826 01a2 756E7369 		.ascii	"unsigned int\000"
 826      676E6564 
 826      20696E74 
 826      00
 827              	.LASF17:
 828 01af 6E6D695F 		.ascii	"nmi_vector\000"
 828      76656374 
 828      6F7200
 829              	.LASF8:
 830 01ba 6C6F6E67 		.ascii	"long long unsigned int\000"
 830      206C6F6E 
 830      6720756E 
 830      7369676E 
 830      65642069 
 831              	.LASF20:
 832 01d1 62757366 		.ascii	"busfault_vector\000"
 832      61756C74 
 832      5F766563 
 832      746F7200 
 833              	.LASF25:
 834 01e1 76656374 		.ascii	"vector28\000"
 834      6F723238 
 834      00
 835              	.LASF21:
 836 01ea 75736167 		.ascii	"usagefault_vector\000"
 836      65666175 
 836      6C745F76 
 836      6563746F 
ARM GAS  /tmp/ccWX75ZD.s 			page 17


 836      7200
 837              	.LASF32:
 838 01fc 76656374 		.ascii	"vectors_t\000"
 838      6F72735F 
 838      7400
 839              	.LASF12:
 840 0206 73697A65 		.ascii	"sizetype\000"
 840      74797065 
 840      00
 841              	.LASF29:
 842 020f 70656E64 		.ascii	"pendsv_vector\000"
 842      73765F76 
 842      6563746F 
 842      7200
 843              	.LASF18:
 844 021d 68617264 		.ascii	"hardfault_vector\000"
 844      6661756C 
 844      745F7665 
 844      63746F72 
 844      00
 845              	.LASF7:
 846 022e 6C6F6E67 		.ascii	"long long int\000"
 846      206C6F6E 
 846      6720696E 
 846      7400
 847              	.LASF13:
 848 023c 63686172 		.ascii	"char\000"
 848      00
 849              	.LASF19:
 850 0241 6D656D6D 		.ascii	"memmanage_vector\000"
 850      616E6167 
 850      655F7665 
 850      63746F72 
 850      00
 851              	.LASF38:
 852 0252 5F756E68 		.ascii	"_unhandled_exception\000"
 852      616E646C 
 852      65645F65 
 852      78636570 
 852      74696F6E 
 853              	.LASF31:
 854 0267 76656374 		.ascii	"vectors\000"
 854      6F727300 
 855              	.LASF3:
 856 026f 73686F72 		.ascii	"short int\000"
 856      7420696E 
 856      7400
 857              	.LASF16:
 858 0279 72657365 		.ascii	"reset_vector\000"
 858      745F7665 
 858      63746F72 
 858      00
 859              	.LASF10:
 860 0286 75696E74 		.ascii	"uint32_t\000"
 860      33325F74 
 860      00
 861              	.LASF5:
ARM GAS  /tmp/ccWX75ZD.s 			page 18


 862 028f 6C6F6E67 		.ascii	"long int\000"
 862      20696E74 
 862      00
 863              	.LASF1:
 864 0298 7369676E 		.ascii	"signed char\000"
 864      65642063 
 864      68617200 
 865              	.LASF27:
 866 02a4 64656275 		.ascii	"debugmonitor_vector\000"
 866      676D6F6E 
 866      69746F72 
 866      5F766563 
 866      746F7200 
 867              	.LASF23:
 868 02b8 76656374 		.ascii	"vector20\000"
 868      6F723230 
 868      00
 869              	.LASF11:
 870 02c1 5F426F6F 		.ascii	"_Bool\000"
 870      6C00
 871              	.LASF37:
 872 02c7 2F686F6D 		.ascii	"/home/makkmarci/devel/ChibiOS_2.6.5/testhal/STM32F4"
 872      652F6D61 
 872      6B6B6D61 
 872      7263692F 
 872      64657665 
 873 02fa 78782F55 		.ascii	"xx/USB_CDC/\000"
 873      53425F43 
 873      44432F00 
 874              	.LASF33:
 875 0306 5F5F6D61 		.ascii	"__main_stack_end__\000"
 875      696E5F73 
 875      7461636B 
 875      5F656E64 
 875      5F5F00
 876              		.ident	"GCC: (GNU Tools for ARM Embedded Processors) 4.8.4 20140526 (release) [ARM/embedded-4_8-br
ARM GAS  /tmp/ccWX75ZD.s 			page 19


DEFINED SYMBOLS
                            *ABS*:00000000 vectors.c
     /tmp/ccWX75ZD.s:19     .text._unhandled_exception:00000000 $t
     /tmp/ccWX75ZD.s:25     .text._unhandled_exception:00000000 _unhandled_exception
     /tmp/ccWX75ZD.s:25     .text._unhandled_exception:00000000 NMIVector
     /tmp/ccWX75ZD.s:25     .text._unhandled_exception:00000000 HardFaultVector
     /tmp/ccWX75ZD.s:25     .text._unhandled_exception:00000000 MemManageVector
     /tmp/ccWX75ZD.s:25     .text._unhandled_exception:00000000 BusFaultVector
     /tmp/ccWX75ZD.s:25     .text._unhandled_exception:00000000 UsageFaultVector
     /tmp/ccWX75ZD.s:25     .text._unhandled_exception:00000000 Vector1C
     /tmp/ccWX75ZD.s:25     .text._unhandled_exception:00000000 Vector20
     /tmp/ccWX75ZD.s:25     .text._unhandled_exception:00000000 Vector24
     /tmp/ccWX75ZD.s:25     .text._unhandled_exception:00000000 Vector28
     /tmp/ccWX75ZD.s:25     .text._unhandled_exception:00000000 SVCallVector
     /tmp/ccWX75ZD.s:25     .text._unhandled_exception:00000000 DebugMonitorVector
     /tmp/ccWX75ZD.s:25     .text._unhandled_exception:00000000 Vector34
     /tmp/ccWX75ZD.s:25     .text._unhandled_exception:00000000 PendSVVector
     /tmp/ccWX75ZD.s:25     .text._unhandled_exception:00000000 SysTickVector
     /tmp/ccWX75ZD.s:25     .text._unhandled_exception:00000000 Vector40
     /tmp/ccWX75ZD.s:25     .text._unhandled_exception:00000000 Vector44
     /tmp/ccWX75ZD.s:25     .text._unhandled_exception:00000000 Vector48
     /tmp/ccWX75ZD.s:25     .text._unhandled_exception:00000000 Vector4C
     /tmp/ccWX75ZD.s:25     .text._unhandled_exception:00000000 Vector50
     /tmp/ccWX75ZD.s:25     .text._unhandled_exception:00000000 Vector54
     /tmp/ccWX75ZD.s:25     .text._unhandled_exception:00000000 Vector58
     /tmp/ccWX75ZD.s:25     .text._unhandled_exception:00000000 Vector5C
     /tmp/ccWX75ZD.s:25     .text._unhandled_exception:00000000 Vector60
     /tmp/ccWX75ZD.s:25     .text._unhandled_exception:00000000 Vector64
     /tmp/ccWX75ZD.s:25     .text._unhandled_exception:00000000 Vector68
     /tmp/ccWX75ZD.s:25     .text._unhandled_exception:00000000 Vector6C
     /tmp/ccWX75ZD.s:25     .text._unhandled_exception:00000000 Vector70
     /tmp/ccWX75ZD.s:25     .text._unhandled_exception:00000000 Vector74
     /tmp/ccWX75ZD.s:25     .text._unhandled_exception:00000000 Vector78
     /tmp/ccWX75ZD.s:25     .text._unhandled_exception:00000000 Vector7C
     /tmp/ccWX75ZD.s:25     .text._unhandled_exception:00000000 Vector80
     /tmp/ccWX75ZD.s:25     .text._unhandled_exception:00000000 Vector84
     /tmp/ccWX75ZD.s:25     .text._unhandled_exception:00000000 Vector88
     /tmp/ccWX75ZD.s:25     .text._unhandled_exception:00000000 Vector8C
     /tmp/ccWX75ZD.s:25     .text._unhandled_exception:00000000 Vector90
     /tmp/ccWX75ZD.s:25     .text._unhandled_exception:00000000 Vector94
     /tmp/ccWX75ZD.s:25     .text._unhandled_exception:00000000 Vector98
     /tmp/ccWX75ZD.s:25     .text._unhandled_exception:00000000 Vector9C
     /tmp/ccWX75ZD.s:25     .text._unhandled_exception:00000000 VectorA0
     /tmp/ccWX75ZD.s:25     .text._unhandled_exception:00000000 VectorA4
     /tmp/ccWX75ZD.s:25     .text._unhandled_exception:00000000 VectorA8
     /tmp/ccWX75ZD.s:25     .text._unhandled_exception:00000000 VectorAC
     /tmp/ccWX75ZD.s:25     .text._unhandled_exception:00000000 VectorB0
     /tmp/ccWX75ZD.s:25     .text._unhandled_exception:00000000 VectorB4
     /tmp/ccWX75ZD.s:25     .text._unhandled_exception:00000000 VectorB8
     /tmp/ccWX75ZD.s:25     .text._unhandled_exception:00000000 VectorBC
     /tmp/ccWX75ZD.s:25     .text._unhandled_exception:00000000 VectorC0
     /tmp/ccWX75ZD.s:25     .text._unhandled_exception:00000000 VectorC4
     /tmp/ccWX75ZD.s:25     .text._unhandled_exception:00000000 VectorC8
     /tmp/ccWX75ZD.s:25     .text._unhandled_exception:00000000 VectorCC
     /tmp/ccWX75ZD.s:25     .text._unhandled_exception:00000000 VectorD0
     /tmp/ccWX75ZD.s:25     .text._unhandled_exception:00000000 VectorD4
     /tmp/ccWX75ZD.s:25     .text._unhandled_exception:00000000 VectorD8
ARM GAS  /tmp/ccWX75ZD.s 			page 20


     /tmp/ccWX75ZD.s:25     .text._unhandled_exception:00000000 VectorDC
     /tmp/ccWX75ZD.s:25     .text._unhandled_exception:00000000 VectorE0
     /tmp/ccWX75ZD.s:25     .text._unhandled_exception:00000000 VectorE4
     /tmp/ccWX75ZD.s:25     .text._unhandled_exception:00000000 VectorE8
     /tmp/ccWX75ZD.s:25     .text._unhandled_exception:00000000 VectorEC
     /tmp/ccWX75ZD.s:25     .text._unhandled_exception:00000000 VectorF0
     /tmp/ccWX75ZD.s:25     .text._unhandled_exception:00000000 VectorF4
     /tmp/ccWX75ZD.s:25     .text._unhandled_exception:00000000 VectorF8
     /tmp/ccWX75ZD.s:25     .text._unhandled_exception:00000000 VectorFC
     /tmp/ccWX75ZD.s:25     .text._unhandled_exception:00000000 Vector100
     /tmp/ccWX75ZD.s:25     .text._unhandled_exception:00000000 Vector104
     /tmp/ccWX75ZD.s:25     .text._unhandled_exception:00000000 Vector108
     /tmp/ccWX75ZD.s:25     .text._unhandled_exception:00000000 Vector10C
     /tmp/ccWX75ZD.s:25     .text._unhandled_exception:00000000 Vector110
     /tmp/ccWX75ZD.s:25     .text._unhandled_exception:00000000 Vector114
     /tmp/ccWX75ZD.s:25     .text._unhandled_exception:00000000 Vector118
     /tmp/ccWX75ZD.s:25     .text._unhandled_exception:00000000 Vector11C
     /tmp/ccWX75ZD.s:25     .text._unhandled_exception:00000000 Vector120
     /tmp/ccWX75ZD.s:25     .text._unhandled_exception:00000000 Vector124
     /tmp/ccWX75ZD.s:25     .text._unhandled_exception:00000000 Vector128
     /tmp/ccWX75ZD.s:25     .text._unhandled_exception:00000000 Vector12C
     /tmp/ccWX75ZD.s:25     .text._unhandled_exception:00000000 Vector130
     /tmp/ccWX75ZD.s:25     .text._unhandled_exception:00000000 Vector134
     /tmp/ccWX75ZD.s:25     .text._unhandled_exception:00000000 Vector138
     /tmp/ccWX75ZD.s:25     .text._unhandled_exception:00000000 Vector13C
     /tmp/ccWX75ZD.s:25     .text._unhandled_exception:00000000 Vector140
     /tmp/ccWX75ZD.s:25     .text._unhandled_exception:00000000 Vector144
     /tmp/ccWX75ZD.s:25     .text._unhandled_exception:00000000 Vector148
     /tmp/ccWX75ZD.s:25     .text._unhandled_exception:00000000 Vector14C
     /tmp/ccWX75ZD.s:25     .text._unhandled_exception:00000000 Vector150
     /tmp/ccWX75ZD.s:25     .text._unhandled_exception:00000000 Vector154
     /tmp/ccWX75ZD.s:25     .text._unhandled_exception:00000000 Vector158
     /tmp/ccWX75ZD.s:25     .text._unhandled_exception:00000000 Vector15C
     /tmp/ccWX75ZD.s:25     .text._unhandled_exception:00000000 Vector160
     /tmp/ccWX75ZD.s:25     .text._unhandled_exception:00000000 Vector164
     /tmp/ccWX75ZD.s:25     .text._unhandled_exception:00000000 Vector168
     /tmp/ccWX75ZD.s:25     .text._unhandled_exception:00000000 Vector16C
     /tmp/ccWX75ZD.s:25     .text._unhandled_exception:00000000 Vector170
     /tmp/ccWX75ZD.s:25     .text._unhandled_exception:00000000 Vector174
     /tmp/ccWX75ZD.s:25     .text._unhandled_exception:00000000 Vector178
     /tmp/ccWX75ZD.s:25     .text._unhandled_exception:00000000 Vector17C
     /tmp/ccWX75ZD.s:25     .text._unhandled_exception:00000000 Vector180
     /tmp/ccWX75ZD.s:25     .text._unhandled_exception:00000000 Vector184
     /tmp/ccWX75ZD.s:25     .text._unhandled_exception:00000000 Vector188
     /tmp/ccWX75ZD.s:25     .text._unhandled_exception:00000000 Vector18C
     /tmp/ccWX75ZD.s:25     .text._unhandled_exception:00000000 Vector190
     /tmp/ccWX75ZD.s:25     .text._unhandled_exception:00000000 Vector194
     /tmp/ccWX75ZD.s:25     .text._unhandled_exception:00000000 Vector198
     /tmp/ccWX75ZD.s:25     .text._unhandled_exception:00000000 Vector19C
     /tmp/ccWX75ZD.s:25     .text._unhandled_exception:00000000 Vector1A0
     /tmp/ccWX75ZD.s:25     .text._unhandled_exception:00000000 Vector1A4
     /tmp/ccWX75ZD.s:25     .text._unhandled_exception:00000000 Vector1A8
     /tmp/ccWX75ZD.s:254    vectors:00000000 _vectors
     /tmp/ccWX75ZD.s:251    vectors:00000000 $d
                     .debug_frame:00000010 $d

UNDEFINED SYMBOLS
ARM GAS  /tmp/ccWX75ZD.s 			page 21


__main_stack_end__
ResetHandler
