ARM GAS  /tmp/cc2HFAFr.s 			page 1


   1              		.syntax unified
   2              		.cpu cortex-m4
   3              		.fpu softvfp
   4              		.eabi_attribute 20, 1
   5              		.eabi_attribute 21, 1
   6              		.eabi_attribute 23, 3
   7              		.eabi_attribute 24, 1
   8              		.eabi_attribute 25, 1
   9              		.eabi_attribute 26, 1
  10              		.eabi_attribute 30, 2
  11              		.eabi_attribute 34, 1
  12              		.eabi_attribute 18, 4
  13              		.thumb
  14              		.file	"chvt.c"
  15              		.text
  16              	.Ltext0:
  17              		.cfi_sections	.debug_frame
  18              		.section	.text._vt_init,"ax",%progbits
  19              		.align	2
  20              		.p2align 4,,15
  21              		.global	_vt_init
  22              		.thumb
  23              		.thumb_func
  24              		.type	_vt_init, %function
  25              	_vt_init:
  26              	.LFB7:
  27              		.file 1 "../../../os/kernel/src/chvt.c"
  28              		.loc 1 50 0
  29              		.cfi_startproc
  30              		@ args = 0, pretend = 0, frame = 0
  31              		@ frame_needed = 0, uses_anonymous_args = 0
  32              		@ link register save eliminated.
  33              		.loc 1 52 0
  34 0000 044B     		ldr	r3, .L2
  35              		.loc 1 53 0
  36 0002 4FF0FF31 		mov	r1, #-1
  37              		.loc 1 54 0
  38 0006 0022     		movs	r2, #0
  39              		.loc 1 52 0
  40 0008 5B60     		str	r3, [r3, #4]
  41 000a 1B60     		str	r3, [r3]
  42              		.loc 1 53 0
  43 000c 9960     		str	r1, [r3, #8]
  44              		.loc 1 54 0
  45 000e DA60     		str	r2, [r3, #12]
  46 0010 7047     		bx	lr
  47              	.L3:
  48 0012 00BF     		.align	2
  49              	.L2:
  50 0014 00000000 		.word	.LANCHOR0
  51              		.cfi_endproc
  52              	.LFE7:
  53              		.size	_vt_init, .-_vt_init
  54 0018 AFF30080 		.section	.text.chVTSetI,"ax",%progbits
  54      AFF30080 
  55              		.align	2
  56              		.p2align 4,,15
ARM GAS  /tmp/cc2HFAFr.s 			page 2


  57              		.global	chVTSetI
  58              		.thumb
  59              		.thumb_func
  60              		.type	chVTSetI, %function
  61              	chVTSetI:
  62              	.LFB8:
  63              		.loc 1 76 0
  64              		.cfi_startproc
  65              		@ args = 0, pretend = 0, frame = 0
  66              		@ frame_needed = 0, uses_anonymous_args = 0
  67              	.LVL0:
  68 0000 F8B5     		push	{r3, r4, r5, r6, r7, lr}
  69              		.cfi_def_cfa_offset 24
  70              		.cfi_offset 3, -24
  71              		.cfi_offset 4, -20
  72              		.cfi_offset 5, -16
  73              		.cfi_offset 6, -12
  74              		.cfi_offset 7, -8
  75              		.cfi_offset 14, -4
  76              		.loc 1 76 0
  77 0002 0546     		mov	r5, r0
  78 0004 0C46     		mov	r4, r1
  79 0006 1646     		mov	r6, r2
  80 0008 1F46     		mov	r7, r3
  81              		.loc 1 79 0
  82 000a FFF7FEFF 		bl	chDbgCheckClassI
  83              	.LVL1:
  84              		.loc 1 80 0
  85 000e CDB1     		cbz	r5, .L5
  86              		.loc 1 80 0 is_stmt 0 discriminator 2
  87 0010 C6B1     		cbz	r6, .L5
  88              		.loc 1 80 0 discriminator 1
  89 0012 BCB1     		cbz	r4, .L5
  90              	.L6:
  91              		.loc 1 85 0 is_stmt 1
  92 0014 0D49     		ldr	r1, .L17
  93              		.loc 1 83 0
  94 0016 2F61     		str	r7, [r5, #16]
  95              		.loc 1 85 0
  96 0018 0B68     		ldr	r3, [r1]
  97              	.LVL2:
  98              		.loc 1 84 0
  99 001a EE60     		str	r6, [r5, #12]
 100              		.loc 1 86 0
 101 001c 9A68     		ldr	r2, [r3, #8]
 102 001e 9442     		cmp	r4, r2
 103 0020 04D9     		bls	.L7
 104              	.L8:
 105              		.loc 1 88 0
 106 0022 1B68     		ldr	r3, [r3]
 107              	.LVL3:
 108              		.loc 1 87 0
 109 0024 A41A     		subs	r4, r4, r2
 110              	.LVL4:
 111              		.loc 1 86 0
 112 0026 9A68     		ldr	r2, [r3, #8]
 113 0028 A242     		cmp	r2, r4
ARM GAS  /tmp/cc2HFAFr.s 			page 3


 114 002a FAD3     		bcc	.L8
 115              	.L7:
 116              		.loc 1 91 0
 117 002c 5A68     		ldr	r2, [r3, #4]
 118 002e 6A60     		str	r2, [r5, #4]
 119              		.loc 1 94 0
 120 0030 8B42     		cmp	r3, r1
 121              		.loc 1 91 0
 122 0032 2B60     		str	r3, [r5]
 123              		.loc 1 92 0
 124 0034 5D60     		str	r5, [r3, #4]
 125 0036 1560     		str	r5, [r2]
 126              		.loc 1 93 0
 127 0038 AC60     		str	r4, [r5, #8]
 128              		.loc 1 94 0
 129 003a 02D0     		beq	.L4
 130              		.loc 1 95 0
 131 003c 9A68     		ldr	r2, [r3, #8]
 132 003e 141B     		subs	r4, r2, r4
 133              	.LVL5:
 134 0040 9C60     		str	r4, [r3, #8]
 135              	.LVL6:
 136              	.L4:
 137 0042 F8BD     		pop	{r3, r4, r5, r6, r7, pc}
 138              	.LVL7:
 139              	.L5:
 140              		.loc 1 80 0 discriminator 1
 141 0044 0248     		ldr	r0, .L17+4
 142 0046 FFF7FEFF 		bl	chDbgPanic
 143              	.LVL8:
 144 004a E3E7     		b	.L6
 145              	.L18:
 146              		.align	2
 147              	.L17:
 148 004c 00000000 		.word	.LANCHOR0
 149 0050 00000000 		.word	.LC0
 150              		.cfi_endproc
 151              	.LFE8:
 152              		.size	chVTSetI, .-chVTSetI
 153 0054 AFF30080 		.section	.text.chVTResetI,"ax",%progbits
 153      AFF30080 
 153      AFF30080 
 154              		.align	2
 155              		.p2align 4,,15
 156              		.global	chVTResetI
 157              		.thumb
 158              		.thumb_func
 159              		.type	chVTResetI, %function
 160              	chVTResetI:
 161              	.LFB9:
 162              		.loc 1 106 0
 163              		.cfi_startproc
 164              		@ args = 0, pretend = 0, frame = 0
 165              		@ frame_needed = 0, uses_anonymous_args = 0
 166              	.LVL9:
 167 0000 10B5     		push	{r4, lr}
 168              		.cfi_def_cfa_offset 8
ARM GAS  /tmp/cc2HFAFr.s 			page 4


 169              		.cfi_offset 4, -8
 170              		.cfi_offset 14, -4
 171              		.loc 1 106 0
 172 0002 0446     		mov	r4, r0
 173              		.loc 1 108 0
 174 0004 FFF7FEFF 		bl	chDbgCheckClassI
 175              	.LVL10:
 176              		.loc 1 109 0
 177 0008 84B1     		cbz	r4, .L23
 178              	.L20:
 179              		.loc 1 110 0
 180 000a E368     		ldr	r3, [r4, #12]
 181 000c 93B1     		cbz	r3, .L24
 182              	.L21:
 183              		.loc 1 114 0
 184 000e 2368     		ldr	r3, [r4]
 185 0010 0A4A     		ldr	r2, .L25
 186 0012 9342     		cmp	r3, r2
 187 0014 03D0     		beq	.L22
 188              		.loc 1 115 0
 189 0016 9968     		ldr	r1, [r3, #8]
 190 0018 A268     		ldr	r2, [r4, #8]
 191 001a 0A44     		add	r2, r2, r1
 192 001c 9A60     		str	r2, [r3, #8]
 193              	.L22:
 194              		.loc 1 116 0
 195 001e 6268     		ldr	r2, [r4, #4]
 196 0020 1360     		str	r3, [r2]
 197              		.loc 1 117 0
 198 0022 2368     		ldr	r3, [r4]
 199              		.loc 1 118 0
 200 0024 0021     		movs	r1, #0
 201              		.loc 1 117 0
 202 0026 5A60     		str	r2, [r3, #4]
 203              		.loc 1 118 0
 204 0028 E160     		str	r1, [r4, #12]
 205 002a 10BD     		pop	{r4, pc}
 206              	.LVL11:
 207              	.L23:
 208              		.loc 1 109 0 discriminator 1
 209 002c 0448     		ldr	r0, .L25+4
 210 002e FFF7FEFF 		bl	chDbgPanic
 211              	.LVL12:
 212 0032 EAE7     		b	.L20
 213              	.L24:
 214              		.loc 1 110 0 discriminator 1
 215 0034 0348     		ldr	r0, .L25+8
 216 0036 FFF7FEFF 		bl	chDbgPanic
 217              	.LVL13:
 218 003a E8E7     		b	.L21
 219              	.L26:
 220              		.align	2
 221              	.L25:
 222 003c 00000000 		.word	.LANCHOR0
 223 0040 10000000 		.word	.LC1
 224 0044 20000000 		.word	.LC2
 225              		.cfi_endproc
ARM GAS  /tmp/cc2HFAFr.s 			page 5


 226              	.LFE9:
 227              		.size	chVTResetI, .-chVTResetI
 228              		.global	vtlist
 229 0048 AFF30080 		.section	.bss.vtlist,"aw",%nobits
 229      AFF30080 
 230              		.align	2
 231              		.set	.LANCHOR0,. + 0
 232              		.type	vtlist, %object
 233              		.size	vtlist, 16
 234              	vtlist:
 235 0000 00000000 		.space	16
 235      00000000 
 235      00000000 
 235      00000000 
 236              		.section	.rodata.str1.4,"aMS",%progbits,1
 237              		.align	2
 238              	.LC0:
 239 0000 22636856 		.ascii	"\"chVTSetI\"()\000"
 239      54536574 
 239      49222829 
 239      00
 240 000d 000000   		.space	3
 241              	.LC1:
 242 0010 22636856 		.ascii	"\"chVTResetI\"()\000"
 242      54526573 
 242      65744922 
 242      282900
 243 001f 00       		.space	1
 244              	.LC2:
 245 0020 63685654 		.ascii	"chVTResetI(), #1\000"
 245      52657365 
 245      74492829 
 245      2C202331 
 245      00
 246 0031 000000   		.text
 247              	.Letext0:
 248              		.file 2 "/opt/ARM/arm-none-eabi/include/machine/_default_types.h"
 249              		.file 3 "/opt/ARM/arm-none-eabi/include/stdint.h"
 250              		.file 4 "../../../os/ports/GCC/ARMCMx/chtypes.h"
 251              		.file 5 "../../../os/kernel/include/chvt.h"
 252              		.file 6 "../../../os/kernel/include/chdebug.h"
 253              		.section	.debug_info,"",%progbits
 254              	.Ldebug_info0:
 255 0000 73020000 		.4byte	0x273
 256 0004 0400     		.2byte	0x4
 257 0006 00000000 		.4byte	.Ldebug_abbrev0
 258 000a 04       		.byte	0x4
 259 000b 01       		.uleb128 0x1
 260 000c 63000000 		.4byte	.LASF28
 261 0010 01       		.byte	0x1
 262 0011 A7010000 		.4byte	.LASF29
 263 0015 00000000 		.4byte	.LASF30
 264 0019 00000000 		.4byte	.Ldebug_ranges0+0
 265 001d 00000000 		.4byte	0
 266 0021 00000000 		.4byte	.Ldebug_line0
 267 0025 02       		.uleb128 0x2
 268 0026 04       		.byte	0x4
ARM GAS  /tmp/cc2HFAFr.s 			page 6


 269 0027 05       		.byte	0x5
 270 0028 696E7400 		.ascii	"int\000"
 271 002c 03       		.uleb128 0x3
 272 002d 04       		.byte	0x4
 273 002e 07       		.byte	0x7
 274 002f 9A010000 		.4byte	.LASF0
 275 0033 03       		.uleb128 0x3
 276 0034 01       		.byte	0x1
 277 0035 06       		.byte	0x6
 278 0036 5C020000 		.4byte	.LASF1
 279 003a 03       		.uleb128 0x3
 280 003b 01       		.byte	0x1
 281 003c 08       		.byte	0x8
 282 003d 78010000 		.4byte	.LASF2
 283 0041 03       		.uleb128 0x3
 284 0042 02       		.byte	0x2
 285 0043 05       		.byte	0x5
 286 0044 38020000 		.4byte	.LASF3
 287 0048 03       		.uleb128 0x3
 288 0049 02       		.byte	0x2
 289 004a 07       		.byte	0x7
 290 004b 58010000 		.4byte	.LASF4
 291 004f 03       		.uleb128 0x3
 292 0050 04       		.byte	0x4
 293 0051 05       		.byte	0x5
 294 0052 53020000 		.4byte	.LASF5
 295 0056 04       		.uleb128 0x4
 296 0057 8F010000 		.4byte	.LASF9
 297 005b 02       		.byte	0x2
 298 005c 38       		.byte	0x38
 299 005d 61000000 		.4byte	0x61
 300 0061 03       		.uleb128 0x3
 301 0062 04       		.byte	0x4
 302 0063 07       		.byte	0x7
 303 0064 46010000 		.4byte	.LASF6
 304 0068 03       		.uleb128 0x3
 305 0069 08       		.byte	0x8
 306 006a 05       		.byte	0x5
 307 006b 04020000 		.4byte	.LASF7
 308 006f 03       		.uleb128 0x3
 309 0070 08       		.byte	0x8
 310 0071 07       		.byte	0x7
 311 0072 C5010000 		.4byte	.LASF8
 312 0076 04       		.uleb128 0x4
 313 0077 4A020000 		.4byte	.LASF10
 314 007b 03       		.byte	0x3
 315 007c 42       		.byte	0x42
 316 007d 56000000 		.4byte	0x56
 317 0081 03       		.uleb128 0x3
 318 0082 01       		.byte	0x1
 319 0083 02       		.byte	0x2
 320 0084 82020000 		.4byte	.LASF11
 321 0088 04       		.uleb128 0x4
 322 0089 48000000 		.4byte	.LASF12
 323 008d 04       		.byte	0x4
 324 008e 35       		.byte	0x35
 325 008f 76000000 		.4byte	0x76
ARM GAS  /tmp/cc2HFAFr.s 			page 7


 326 0093 05       		.uleb128 0x5
 327 0094 04       		.byte	0x4
 328 0095 03       		.uleb128 0x3
 329 0096 04       		.byte	0x4
 330 0097 07       		.byte	0x7
 331 0098 F0010000 		.4byte	.LASF13
 332 009c 04       		.uleb128 0x4
 333 009d 3D010000 		.4byte	.LASF14
 334 00a1 05       		.byte	0x5
 335 00a2 58       		.byte	0x58
 336 00a3 A7000000 		.4byte	0xa7
 337 00a7 06       		.uleb128 0x6
 338 00a8 04       		.byte	0x4
 339 00a9 AD000000 		.4byte	0xad
 340 00ad 07       		.uleb128 0x7
 341 00ae B8000000 		.4byte	0xb8
 342 00b2 08       		.uleb128 0x8
 343 00b3 93000000 		.4byte	0x93
 344 00b7 00       		.byte	0
 345 00b8 04       		.uleb128 0x4
 346 00b9 6B010000 		.4byte	.LASF15
 347 00bd 05       		.byte	0x5
 348 00be 5D       		.byte	0x5d
 349 00bf C3000000 		.4byte	0xc3
 350 00c3 09       		.uleb128 0x9
 351 00c4 6B010000 		.4byte	.LASF15
 352 00c8 14       		.byte	0x14
 353 00c9 05       		.byte	0x5
 354 00ca 64       		.byte	0x64
 355 00cb 0C010000 		.4byte	0x10c
 356 00cf 0A       		.uleb128 0xa
 357 00d0 6F020000 		.4byte	.LASF16
 358 00d4 05       		.byte	0x5
 359 00d5 65       		.byte	0x65
 360 00d6 0C010000 		.4byte	0x10c
 361 00da 00       		.byte	0
 362 00db 0A       		.uleb128 0xa
 363 00dc 42020000 		.4byte	.LASF17
 364 00e0 05       		.byte	0x5
 365 00e1 67       		.byte	0x67
 366 00e2 0C010000 		.4byte	0x10c
 367 00e6 04       		.byte	0x4
 368 00e7 0A       		.uleb128 0xa
 369 00e8 E8010000 		.4byte	.LASF18
 370 00ec 05       		.byte	0x5
 371 00ed 69       		.byte	0x69
 372 00ee 88000000 		.4byte	0x88
 373 00f2 08       		.byte	0x8
 374 00f3 0A       		.uleb128 0xa
 375 00f4 12020000 		.4byte	.LASF19
 376 00f8 05       		.byte	0x5
 377 00f9 6A       		.byte	0x6a
 378 00fa 9C000000 		.4byte	0x9c
 379 00fe 0C       		.byte	0xc
 380 00ff 0A       		.uleb128 0xa
 381 0100 31020000 		.4byte	.LASF20
 382 0104 05       		.byte	0x5
ARM GAS  /tmp/cc2HFAFr.s 			page 8


 383 0105 6C       		.byte	0x6c
 384 0106 93000000 		.4byte	0x93
 385 010a 10       		.byte	0x10
 386 010b 00       		.byte	0
 387 010c 06       		.uleb128 0x6
 388 010d 04       		.byte	0x4
 389 010e B8000000 		.4byte	0xb8
 390 0112 0B       		.uleb128 0xb
 391 0113 10       		.byte	0x10
 392 0114 05       		.byte	0x5
 393 0115 76       		.byte	0x76
 394 0116 4B010000 		.4byte	0x14b
 395 011a 0A       		.uleb128 0xa
 396 011b 6F020000 		.4byte	.LASF16
 397 011f 05       		.byte	0x5
 398 0120 77       		.byte	0x77
 399 0121 0C010000 		.4byte	0x10c
 400 0125 00       		.byte	0
 401 0126 0A       		.uleb128 0xa
 402 0127 42020000 		.4byte	.LASF17
 403 012b 05       		.byte	0x5
 404 012c 79       		.byte	0x79
 405 012d 0C010000 		.4byte	0x10c
 406 0131 04       		.byte	0x4
 407 0132 0A       		.uleb128 0xa
 408 0133 E8010000 		.4byte	.LASF18
 409 0137 05       		.byte	0x5
 410 0138 7B       		.byte	0x7b
 411 0139 88000000 		.4byte	0x88
 412 013d 08       		.byte	0x8
 413 013e 0A       		.uleb128 0xa
 414 013f F9010000 		.4byte	.LASF21
 415 0143 05       		.byte	0x5
 416 0144 7C       		.byte	0x7c
 417 0145 4B010000 		.4byte	0x14b
 418 0149 0C       		.byte	0xc
 419 014a 00       		.byte	0
 420 014b 0C       		.uleb128 0xc
 421 014c 88000000 		.4byte	0x88
 422 0150 04       		.uleb128 0x4
 423 0151 68020000 		.4byte	.LASF22
 424 0155 05       		.byte	0x5
 425 0156 7D       		.byte	0x7d
 426 0157 12010000 		.4byte	0x112
 427 015b 06       		.uleb128 0x6
 428 015c 04       		.byte	0x4
 429 015d 61010000 		.4byte	0x161
 430 0161 0D       		.uleb128 0xd
 431 0162 66010000 		.4byte	0x166
 432 0166 03       		.uleb128 0x3
 433 0167 01       		.byte	0x1
 434 0168 08       		.byte	0x8
 435 0169 21020000 		.4byte	.LASF23
 436 016d 0E       		.uleb128 0xe
 437 016e 86010000 		.4byte	.LASF31
 438 0172 01       		.byte	0x1
 439 0173 32       		.byte	0x32
ARM GAS  /tmp/cc2HFAFr.s 			page 9


 440 0174 00000000 		.4byte	.LFB7
 441 0178 18000000 		.4byte	.LFE7-.LFB7
 442 017c 01       		.uleb128 0x1
 443 017d 9C       		.byte	0x9c
 444 017e 0F       		.uleb128 0xf
 445 017f 3F000000 		.4byte	.LASF26
 446 0183 01       		.byte	0x1
 447 0184 4C       		.byte	0x4c
 448 0185 00000000 		.4byte	.LFB8
 449 0189 54000000 		.4byte	.LFE8-.LFB8
 450 018d 01       		.uleb128 0x1
 451 018e 9C       		.byte	0x9c
 452 018f F9010000 		.4byte	0x1f9
 453 0193 10       		.uleb128 0x10
 454 0194 76747000 		.ascii	"vtp\000"
 455 0198 01       		.byte	0x1
 456 0199 4C       		.byte	0x4c
 457 019a 0C010000 		.4byte	0x10c
 458 019e 00000000 		.4byte	.LLST0
 459 01a2 11       		.uleb128 0x11
 460 01a3 E3010000 		.4byte	.LASF24
 461 01a7 01       		.byte	0x1
 462 01a8 4C       		.byte	0x4c
 463 01a9 88000000 		.4byte	0x88
 464 01ad 1E000000 		.4byte	.LLST1
 465 01b1 11       		.uleb128 0x11
 466 01b2 1A020000 		.4byte	.LASF25
 467 01b6 01       		.byte	0x1
 468 01b7 4C       		.byte	0x4c
 469 01b8 9C000000 		.4byte	0x9c
 470 01bc 53000000 		.4byte	.LLST2
 471 01c0 10       		.uleb128 0x10
 472 01c1 70617200 		.ascii	"par\000"
 473 01c5 01       		.byte	0x1
 474 01c6 4C       		.byte	0x4c
 475 01c7 93000000 		.4byte	0x93
 476 01cb 71000000 		.4byte	.LLST3
 477 01cf 12       		.uleb128 0x12
 478 01d0 7000     		.ascii	"p\000"
 479 01d2 01       		.byte	0x1
 480 01d3 4D       		.byte	0x4d
 481 01d4 0C010000 		.4byte	0x10c
 482 01d8 8F000000 		.4byte	.LLST4
 483 01dc 13       		.uleb128 0x13
 484 01dd 0E000000 		.4byte	.LVL1
 485 01e1 62020000 		.4byte	0x262
 486 01e5 14       		.uleb128 0x14
 487 01e6 4A000000 		.4byte	.LVL8
 488 01ea 69020000 		.4byte	0x269
 489 01ee 15       		.uleb128 0x15
 490 01ef 01       		.uleb128 0x1
 491 01f0 50       		.byte	0x50
 492 01f1 05       		.uleb128 0x5
 493 01f2 03       		.byte	0x3
 494 01f3 00000000 		.4byte	.LC0
 495 01f7 00       		.byte	0
 496 01f8 00       		.byte	0
ARM GAS  /tmp/cc2HFAFr.s 			page 10


 497 01f9 0F       		.uleb128 0xf
 498 01fa 77020000 		.4byte	.LASF27
 499 01fe 01       		.byte	0x1
 500 01ff 6A       		.byte	0x6a
 501 0200 00000000 		.4byte	.LFB9
 502 0204 48000000 		.4byte	.LFE9-.LFB9
 503 0208 01       		.uleb128 0x1
 504 0209 9C       		.byte	0x9c
 505 020a 51020000 		.4byte	0x251
 506 020e 10       		.uleb128 0x10
 507 020f 76747000 		.ascii	"vtp\000"
 508 0213 01       		.byte	0x1
 509 0214 6A       		.byte	0x6a
 510 0215 0C010000 		.4byte	0x10c
 511 0219 AD000000 		.4byte	.LLST5
 512 021d 13       		.uleb128 0x13
 513 021e 08000000 		.4byte	.LVL10
 514 0222 62020000 		.4byte	0x262
 515 0226 16       		.uleb128 0x16
 516 0227 32000000 		.4byte	.LVL12
 517 022b 69020000 		.4byte	0x269
 518 022f 3D020000 		.4byte	0x23d
 519 0233 15       		.uleb128 0x15
 520 0234 01       		.uleb128 0x1
 521 0235 50       		.byte	0x50
 522 0236 05       		.uleb128 0x5
 523 0237 03       		.byte	0x3
 524 0238 10000000 		.4byte	.LC1
 525 023c 00       		.byte	0
 526 023d 14       		.uleb128 0x14
 527 023e 3A000000 		.4byte	.LVL13
 528 0242 69020000 		.4byte	0x269
 529 0246 15       		.uleb128 0x15
 530 0247 01       		.uleb128 0x1
 531 0248 50       		.byte	0x50
 532 0249 05       		.uleb128 0x5
 533 024a 03       		.byte	0x3
 534 024b 20000000 		.4byte	.LC2
 535 024f 00       		.byte	0
 536 0250 00       		.byte	0
 537 0251 17       		.uleb128 0x17
 538 0252 DC010000 		.4byte	.LASF32
 539 0256 01       		.byte	0x1
 540 0257 2A       		.byte	0x2a
 541 0258 50010000 		.4byte	0x150
 542 025c 05       		.uleb128 0x5
 543 025d 03       		.byte	0x3
 544 025e 00000000 		.4byte	vtlist
 545 0262 18       		.uleb128 0x18
 546 0263 52000000 		.4byte	.LASF33
 547 0267 06       		.byte	0x6
 548 0268 ED       		.byte	0xed
 549 0269 19       		.uleb128 0x19
 550 026a 26020000 		.4byte	.LASF34
 551 026e 06       		.byte	0x6
 552 026f F6       		.byte	0xf6
 553 0270 08       		.uleb128 0x8
ARM GAS  /tmp/cc2HFAFr.s 			page 11


 554 0271 5B010000 		.4byte	0x15b
 555 0275 00       		.byte	0
 556 0276 00       		.byte	0
 557              		.section	.debug_abbrev,"",%progbits
 558              	.Ldebug_abbrev0:
 559 0000 01       		.uleb128 0x1
 560 0001 11       		.uleb128 0x11
 561 0002 01       		.byte	0x1
 562 0003 25       		.uleb128 0x25
 563 0004 0E       		.uleb128 0xe
 564 0005 13       		.uleb128 0x13
 565 0006 0B       		.uleb128 0xb
 566 0007 03       		.uleb128 0x3
 567 0008 0E       		.uleb128 0xe
 568 0009 1B       		.uleb128 0x1b
 569 000a 0E       		.uleb128 0xe
 570 000b 55       		.uleb128 0x55
 571 000c 17       		.uleb128 0x17
 572 000d 11       		.uleb128 0x11
 573 000e 01       		.uleb128 0x1
 574 000f 10       		.uleb128 0x10
 575 0010 17       		.uleb128 0x17
 576 0011 00       		.byte	0
 577 0012 00       		.byte	0
 578 0013 02       		.uleb128 0x2
 579 0014 24       		.uleb128 0x24
 580 0015 00       		.byte	0
 581 0016 0B       		.uleb128 0xb
 582 0017 0B       		.uleb128 0xb
 583 0018 3E       		.uleb128 0x3e
 584 0019 0B       		.uleb128 0xb
 585 001a 03       		.uleb128 0x3
 586 001b 08       		.uleb128 0x8
 587 001c 00       		.byte	0
 588 001d 00       		.byte	0
 589 001e 03       		.uleb128 0x3
 590 001f 24       		.uleb128 0x24
 591 0020 00       		.byte	0
 592 0021 0B       		.uleb128 0xb
 593 0022 0B       		.uleb128 0xb
 594 0023 3E       		.uleb128 0x3e
 595 0024 0B       		.uleb128 0xb
 596 0025 03       		.uleb128 0x3
 597 0026 0E       		.uleb128 0xe
 598 0027 00       		.byte	0
 599 0028 00       		.byte	0
 600 0029 04       		.uleb128 0x4
 601 002a 16       		.uleb128 0x16
 602 002b 00       		.byte	0
 603 002c 03       		.uleb128 0x3
 604 002d 0E       		.uleb128 0xe
 605 002e 3A       		.uleb128 0x3a
 606 002f 0B       		.uleb128 0xb
 607 0030 3B       		.uleb128 0x3b
 608 0031 0B       		.uleb128 0xb
 609 0032 49       		.uleb128 0x49
 610 0033 13       		.uleb128 0x13
ARM GAS  /tmp/cc2HFAFr.s 			page 12


 611 0034 00       		.byte	0
 612 0035 00       		.byte	0
 613 0036 05       		.uleb128 0x5
 614 0037 0F       		.uleb128 0xf
 615 0038 00       		.byte	0
 616 0039 0B       		.uleb128 0xb
 617 003a 0B       		.uleb128 0xb
 618 003b 00       		.byte	0
 619 003c 00       		.byte	0
 620 003d 06       		.uleb128 0x6
 621 003e 0F       		.uleb128 0xf
 622 003f 00       		.byte	0
 623 0040 0B       		.uleb128 0xb
 624 0041 0B       		.uleb128 0xb
 625 0042 49       		.uleb128 0x49
 626 0043 13       		.uleb128 0x13
 627 0044 00       		.byte	0
 628 0045 00       		.byte	0
 629 0046 07       		.uleb128 0x7
 630 0047 15       		.uleb128 0x15
 631 0048 01       		.byte	0x1
 632 0049 27       		.uleb128 0x27
 633 004a 19       		.uleb128 0x19
 634 004b 01       		.uleb128 0x1
 635 004c 13       		.uleb128 0x13
 636 004d 00       		.byte	0
 637 004e 00       		.byte	0
 638 004f 08       		.uleb128 0x8
 639 0050 05       		.uleb128 0x5
 640 0051 00       		.byte	0
 641 0052 49       		.uleb128 0x49
 642 0053 13       		.uleb128 0x13
 643 0054 00       		.byte	0
 644 0055 00       		.byte	0
 645 0056 09       		.uleb128 0x9
 646 0057 13       		.uleb128 0x13
 647 0058 01       		.byte	0x1
 648 0059 03       		.uleb128 0x3
 649 005a 0E       		.uleb128 0xe
 650 005b 0B       		.uleb128 0xb
 651 005c 0B       		.uleb128 0xb
 652 005d 3A       		.uleb128 0x3a
 653 005e 0B       		.uleb128 0xb
 654 005f 3B       		.uleb128 0x3b
 655 0060 0B       		.uleb128 0xb
 656 0061 01       		.uleb128 0x1
 657 0062 13       		.uleb128 0x13
 658 0063 00       		.byte	0
 659 0064 00       		.byte	0
 660 0065 0A       		.uleb128 0xa
 661 0066 0D       		.uleb128 0xd
 662 0067 00       		.byte	0
 663 0068 03       		.uleb128 0x3
 664 0069 0E       		.uleb128 0xe
 665 006a 3A       		.uleb128 0x3a
 666 006b 0B       		.uleb128 0xb
 667 006c 3B       		.uleb128 0x3b
ARM GAS  /tmp/cc2HFAFr.s 			page 13


 668 006d 0B       		.uleb128 0xb
 669 006e 49       		.uleb128 0x49
 670 006f 13       		.uleb128 0x13
 671 0070 38       		.uleb128 0x38
 672 0071 0B       		.uleb128 0xb
 673 0072 00       		.byte	0
 674 0073 00       		.byte	0
 675 0074 0B       		.uleb128 0xb
 676 0075 13       		.uleb128 0x13
 677 0076 01       		.byte	0x1
 678 0077 0B       		.uleb128 0xb
 679 0078 0B       		.uleb128 0xb
 680 0079 3A       		.uleb128 0x3a
 681 007a 0B       		.uleb128 0xb
 682 007b 3B       		.uleb128 0x3b
 683 007c 0B       		.uleb128 0xb
 684 007d 01       		.uleb128 0x1
 685 007e 13       		.uleb128 0x13
 686 007f 00       		.byte	0
 687 0080 00       		.byte	0
 688 0081 0C       		.uleb128 0xc
 689 0082 35       		.uleb128 0x35
 690 0083 00       		.byte	0
 691 0084 49       		.uleb128 0x49
 692 0085 13       		.uleb128 0x13
 693 0086 00       		.byte	0
 694 0087 00       		.byte	0
 695 0088 0D       		.uleb128 0xd
 696 0089 26       		.uleb128 0x26
 697 008a 00       		.byte	0
 698 008b 49       		.uleb128 0x49
 699 008c 13       		.uleb128 0x13
 700 008d 00       		.byte	0
 701 008e 00       		.byte	0
 702 008f 0E       		.uleb128 0xe
 703 0090 2E       		.uleb128 0x2e
 704 0091 00       		.byte	0
 705 0092 3F       		.uleb128 0x3f
 706 0093 19       		.uleb128 0x19
 707 0094 03       		.uleb128 0x3
 708 0095 0E       		.uleb128 0xe
 709 0096 3A       		.uleb128 0x3a
 710 0097 0B       		.uleb128 0xb
 711 0098 3B       		.uleb128 0x3b
 712 0099 0B       		.uleb128 0xb
 713 009a 27       		.uleb128 0x27
 714 009b 19       		.uleb128 0x19
 715 009c 11       		.uleb128 0x11
 716 009d 01       		.uleb128 0x1
 717 009e 12       		.uleb128 0x12
 718 009f 06       		.uleb128 0x6
 719 00a0 40       		.uleb128 0x40
 720 00a1 18       		.uleb128 0x18
 721 00a2 9742     		.uleb128 0x2117
 722 00a4 19       		.uleb128 0x19
 723 00a5 00       		.byte	0
 724 00a6 00       		.byte	0
ARM GAS  /tmp/cc2HFAFr.s 			page 14


 725 00a7 0F       		.uleb128 0xf
 726 00a8 2E       		.uleb128 0x2e
 727 00a9 01       		.byte	0x1
 728 00aa 3F       		.uleb128 0x3f
 729 00ab 19       		.uleb128 0x19
 730 00ac 03       		.uleb128 0x3
 731 00ad 0E       		.uleb128 0xe
 732 00ae 3A       		.uleb128 0x3a
 733 00af 0B       		.uleb128 0xb
 734 00b0 3B       		.uleb128 0x3b
 735 00b1 0B       		.uleb128 0xb
 736 00b2 27       		.uleb128 0x27
 737 00b3 19       		.uleb128 0x19
 738 00b4 11       		.uleb128 0x11
 739 00b5 01       		.uleb128 0x1
 740 00b6 12       		.uleb128 0x12
 741 00b7 06       		.uleb128 0x6
 742 00b8 40       		.uleb128 0x40
 743 00b9 18       		.uleb128 0x18
 744 00ba 9742     		.uleb128 0x2117
 745 00bc 19       		.uleb128 0x19
 746 00bd 01       		.uleb128 0x1
 747 00be 13       		.uleb128 0x13
 748 00bf 00       		.byte	0
 749 00c0 00       		.byte	0
 750 00c1 10       		.uleb128 0x10
 751 00c2 05       		.uleb128 0x5
 752 00c3 00       		.byte	0
 753 00c4 03       		.uleb128 0x3
 754 00c5 08       		.uleb128 0x8
 755 00c6 3A       		.uleb128 0x3a
 756 00c7 0B       		.uleb128 0xb
 757 00c8 3B       		.uleb128 0x3b
 758 00c9 0B       		.uleb128 0xb
 759 00ca 49       		.uleb128 0x49
 760 00cb 13       		.uleb128 0x13
 761 00cc 02       		.uleb128 0x2
 762 00cd 17       		.uleb128 0x17
 763 00ce 00       		.byte	0
 764 00cf 00       		.byte	0
 765 00d0 11       		.uleb128 0x11
 766 00d1 05       		.uleb128 0x5
 767 00d2 00       		.byte	0
 768 00d3 03       		.uleb128 0x3
 769 00d4 0E       		.uleb128 0xe
 770 00d5 3A       		.uleb128 0x3a
 771 00d6 0B       		.uleb128 0xb
 772 00d7 3B       		.uleb128 0x3b
 773 00d8 0B       		.uleb128 0xb
 774 00d9 49       		.uleb128 0x49
 775 00da 13       		.uleb128 0x13
 776 00db 02       		.uleb128 0x2
 777 00dc 17       		.uleb128 0x17
 778 00dd 00       		.byte	0
 779 00de 00       		.byte	0
 780 00df 12       		.uleb128 0x12
 781 00e0 34       		.uleb128 0x34
ARM GAS  /tmp/cc2HFAFr.s 			page 15


 782 00e1 00       		.byte	0
 783 00e2 03       		.uleb128 0x3
 784 00e3 08       		.uleb128 0x8
 785 00e4 3A       		.uleb128 0x3a
 786 00e5 0B       		.uleb128 0xb
 787 00e6 3B       		.uleb128 0x3b
 788 00e7 0B       		.uleb128 0xb
 789 00e8 49       		.uleb128 0x49
 790 00e9 13       		.uleb128 0x13
 791 00ea 02       		.uleb128 0x2
 792 00eb 17       		.uleb128 0x17
 793 00ec 00       		.byte	0
 794 00ed 00       		.byte	0
 795 00ee 13       		.uleb128 0x13
 796 00ef 898201   		.uleb128 0x4109
 797 00f2 00       		.byte	0
 798 00f3 11       		.uleb128 0x11
 799 00f4 01       		.uleb128 0x1
 800 00f5 31       		.uleb128 0x31
 801 00f6 13       		.uleb128 0x13
 802 00f7 00       		.byte	0
 803 00f8 00       		.byte	0
 804 00f9 14       		.uleb128 0x14
 805 00fa 898201   		.uleb128 0x4109
 806 00fd 01       		.byte	0x1
 807 00fe 11       		.uleb128 0x11
 808 00ff 01       		.uleb128 0x1
 809 0100 31       		.uleb128 0x31
 810 0101 13       		.uleb128 0x13
 811 0102 00       		.byte	0
 812 0103 00       		.byte	0
 813 0104 15       		.uleb128 0x15
 814 0105 8A8201   		.uleb128 0x410a
 815 0108 00       		.byte	0
 816 0109 02       		.uleb128 0x2
 817 010a 18       		.uleb128 0x18
 818 010b 9142     		.uleb128 0x2111
 819 010d 18       		.uleb128 0x18
 820 010e 00       		.byte	0
 821 010f 00       		.byte	0
 822 0110 16       		.uleb128 0x16
 823 0111 898201   		.uleb128 0x4109
 824 0114 01       		.byte	0x1
 825 0115 11       		.uleb128 0x11
 826 0116 01       		.uleb128 0x1
 827 0117 31       		.uleb128 0x31
 828 0118 13       		.uleb128 0x13
 829 0119 01       		.uleb128 0x1
 830 011a 13       		.uleb128 0x13
 831 011b 00       		.byte	0
 832 011c 00       		.byte	0
 833 011d 17       		.uleb128 0x17
 834 011e 34       		.uleb128 0x34
 835 011f 00       		.byte	0
 836 0120 03       		.uleb128 0x3
 837 0121 0E       		.uleb128 0xe
 838 0122 3A       		.uleb128 0x3a
ARM GAS  /tmp/cc2HFAFr.s 			page 16


 839 0123 0B       		.uleb128 0xb
 840 0124 3B       		.uleb128 0x3b
 841 0125 0B       		.uleb128 0xb
 842 0126 49       		.uleb128 0x49
 843 0127 13       		.uleb128 0x13
 844 0128 3F       		.uleb128 0x3f
 845 0129 19       		.uleb128 0x19
 846 012a 02       		.uleb128 0x2
 847 012b 18       		.uleb128 0x18
 848 012c 00       		.byte	0
 849 012d 00       		.byte	0
 850 012e 18       		.uleb128 0x18
 851 012f 2E       		.uleb128 0x2e
 852 0130 00       		.byte	0
 853 0131 3F       		.uleb128 0x3f
 854 0132 19       		.uleb128 0x19
 855 0133 03       		.uleb128 0x3
 856 0134 0E       		.uleb128 0xe
 857 0135 3A       		.uleb128 0x3a
 858 0136 0B       		.uleb128 0xb
 859 0137 3B       		.uleb128 0x3b
 860 0138 0B       		.uleb128 0xb
 861 0139 27       		.uleb128 0x27
 862 013a 19       		.uleb128 0x19
 863 013b 3C       		.uleb128 0x3c
 864 013c 19       		.uleb128 0x19
 865 013d 00       		.byte	0
 866 013e 00       		.byte	0
 867 013f 19       		.uleb128 0x19
 868 0140 2E       		.uleb128 0x2e
 869 0141 01       		.byte	0x1
 870 0142 3F       		.uleb128 0x3f
 871 0143 19       		.uleb128 0x19
 872 0144 03       		.uleb128 0x3
 873 0145 0E       		.uleb128 0xe
 874 0146 3A       		.uleb128 0x3a
 875 0147 0B       		.uleb128 0xb
 876 0148 3B       		.uleb128 0x3b
 877 0149 0B       		.uleb128 0xb
 878 014a 27       		.uleb128 0x27
 879 014b 19       		.uleb128 0x19
 880 014c 3C       		.uleb128 0x3c
 881 014d 19       		.uleb128 0x19
 882 014e 00       		.byte	0
 883 014f 00       		.byte	0
 884 0150 00       		.byte	0
 885              		.section	.debug_loc,"",%progbits
 886              	.Ldebug_loc0:
 887              	.LLST0:
 888 0000 00000000 		.4byte	.LVL0
 889 0004 0D000000 		.4byte	.LVL1-1
 890 0008 0100     		.2byte	0x1
 891 000a 50       		.byte	0x50
 892 000b 0D000000 		.4byte	.LVL1-1
 893 000f 54000000 		.4byte	.LFE8
 894 0013 0100     		.2byte	0x1
 895 0015 55       		.byte	0x55
ARM GAS  /tmp/cc2HFAFr.s 			page 17


 896 0016 00000000 		.4byte	0
 897 001a 00000000 		.4byte	0
 898              	.LLST1:
 899 001e 00000000 		.4byte	.LVL0
 900 0022 0D000000 		.4byte	.LVL1-1
 901 0026 0100     		.2byte	0x1
 902 0028 51       		.byte	0x51
 903 0029 0D000000 		.4byte	.LVL1-1
 904 002d 40000000 		.4byte	.LVL5
 905 0031 0100     		.2byte	0x1
 906 0033 54       		.byte	0x54
 907 0034 40000000 		.4byte	.LVL5
 908 0038 42000000 		.4byte	.LVL6
 909 003c 0200     		.2byte	0x2
 910 003e 75       		.byte	0x75
 911 003f 08       		.sleb128 8
 912 0040 44000000 		.4byte	.LVL7
 913 0044 54000000 		.4byte	.LFE8
 914 0048 0100     		.2byte	0x1
 915 004a 54       		.byte	0x54
 916 004b 00000000 		.4byte	0
 917 004f 00000000 		.4byte	0
 918              	.LLST2:
 919 0053 00000000 		.4byte	.LVL0
 920 0057 0D000000 		.4byte	.LVL1-1
 921 005b 0100     		.2byte	0x1
 922 005d 52       		.byte	0x52
 923 005e 0D000000 		.4byte	.LVL1-1
 924 0062 54000000 		.4byte	.LFE8
 925 0066 0100     		.2byte	0x1
 926 0068 56       		.byte	0x56
 927 0069 00000000 		.4byte	0
 928 006d 00000000 		.4byte	0
 929              	.LLST3:
 930 0071 00000000 		.4byte	.LVL0
 931 0075 0D000000 		.4byte	.LVL1-1
 932 0079 0100     		.2byte	0x1
 933 007b 53       		.byte	0x53
 934 007c 0D000000 		.4byte	.LVL1-1
 935 0080 54000000 		.4byte	.LFE8
 936 0084 0100     		.2byte	0x1
 937 0086 57       		.byte	0x57
 938 0087 00000000 		.4byte	0
 939 008b 00000000 		.4byte	0
 940              	.LLST4:
 941 008f 1A000000 		.4byte	.LVL2
 942 0093 24000000 		.4byte	.LVL3
 943 0097 0100     		.2byte	0x1
 944 0099 53       		.byte	0x53
 945 009a 26000000 		.4byte	.LVL4
 946 009e 44000000 		.4byte	.LVL7
 947 00a2 0100     		.2byte	0x1
 948 00a4 53       		.byte	0x53
 949 00a5 00000000 		.4byte	0
 950 00a9 00000000 		.4byte	0
 951              	.LLST5:
 952 00ad 00000000 		.4byte	.LVL9
ARM GAS  /tmp/cc2HFAFr.s 			page 18


 953 00b1 07000000 		.4byte	.LVL10-1
 954 00b5 0100     		.2byte	0x1
 955 00b7 50       		.byte	0x50
 956 00b8 07000000 		.4byte	.LVL10-1
 957 00bc 48000000 		.4byte	.LFE9
 958 00c0 0100     		.2byte	0x1
 959 00c2 54       		.byte	0x54
 960 00c3 00000000 		.4byte	0
 961 00c7 00000000 		.4byte	0
 962              		.section	.debug_aranges,"",%progbits
 963 0000 2C000000 		.4byte	0x2c
 964 0004 0200     		.2byte	0x2
 965 0006 00000000 		.4byte	.Ldebug_info0
 966 000a 04       		.byte	0x4
 967 000b 00       		.byte	0
 968 000c 0000     		.2byte	0
 969 000e 0000     		.2byte	0
 970 0010 00000000 		.4byte	.LFB7
 971 0014 18000000 		.4byte	.LFE7-.LFB7
 972 0018 00000000 		.4byte	.LFB8
 973 001c 54000000 		.4byte	.LFE8-.LFB8
 974 0020 00000000 		.4byte	.LFB9
 975 0024 48000000 		.4byte	.LFE9-.LFB9
 976 0028 00000000 		.4byte	0
 977 002c 00000000 		.4byte	0
 978              		.section	.debug_ranges,"",%progbits
 979              	.Ldebug_ranges0:
 980 0000 00000000 		.4byte	.LFB7
 981 0004 18000000 		.4byte	.LFE7
 982 0008 00000000 		.4byte	.LFB8
 983 000c 54000000 		.4byte	.LFE8
 984 0010 00000000 		.4byte	.LFB9
 985 0014 48000000 		.4byte	.LFE9
 986 0018 00000000 		.4byte	0
 987 001c 00000000 		.4byte	0
 988              		.section	.debug_line,"",%progbits
 989              	.Ldebug_line0:
 990 0000 6D010000 		.section	.debug_str,"MS",%progbits,1
 990      0200F600 
 990      00000201 
 990      FB0E0D00 
 990      01010101 
 991              	.LASF30:
 992 0000 2F686F6D 		.ascii	"/home/makkmarci/devel/ChibiOS_2.6.5/testhal/STM32F4"
 992      652F6D61 
 992      6B6B6D61 
 992      7263692F 
 992      64657665 
 993 0033 78782F50 		.ascii	"xx/PWM-ICU/\000"
 993      574D2D49 
 993      43552F00 
 994              	.LASF26:
 995 003f 63685654 		.ascii	"chVTSetI\000"
 995      53657449 
 995      00
 996              	.LASF12:
 997 0048 73797374 		.ascii	"systime_t\000"
ARM GAS  /tmp/cc2HFAFr.s 			page 19


 997      696D655F 
 997      7400
 998              	.LASF33:
 999 0052 63684462 		.ascii	"chDbgCheckClassI\000"
 999      67436865 
 999      636B436C 
 999      61737349 
 999      00
 1000              	.LASF28:
 1001 0063 474E5520 		.ascii	"GNU C 4.8.4 20140526 (release) [ARM/embedded-4_8-br"
 1001      4320342E 
 1001      382E3420 
 1001      32303134 
 1001      30353236 
 1002 0096 616E6368 		.ascii	"anch revision 211358] -mcpu=cortex-m4 -mno-thumb-in"
 1002      20726576 
 1002      6973696F 
 1002      6E203231 
 1002      31333538 
 1003 00c9 74657277 		.ascii	"terwork -mthumb -ggdb -O2 -fomit-frame-pointer -fal"
 1003      6F726B20 
 1003      2D6D7468 
 1003      756D6220 
 1003      2D676764 
 1004 00fc 69676E2D 		.ascii	"ign-functions=16 -ffunction-sections -fdata-section"
 1004      66756E63 
 1004      74696F6E 
 1004      733D3136 
 1004      202D6666 
 1005 012f 73202D66 		.ascii	"s -fno-common\000"
 1005      6E6F2D63 
 1005      6F6D6D6F 
 1005      6E00
 1006              	.LASF14:
 1007 013d 76746675 		.ascii	"vtfunc_t\000"
 1007      6E635F74 
 1007      00
 1008              	.LASF6:
 1009 0146 6C6F6E67 		.ascii	"long unsigned int\000"
 1009      20756E73 
 1009      69676E65 
 1009      6420696E 
 1009      7400
 1010              	.LASF4:
 1011 0158 73686F72 		.ascii	"short unsigned int\000"
 1011      7420756E 
 1011      7369676E 
 1011      65642069 
 1011      6E7400
 1012              	.LASF15:
 1013 016b 56697274 		.ascii	"VirtualTimer\000"
 1013      75616C54 
 1013      696D6572 
 1013      00
 1014              	.LASF2:
 1015 0178 756E7369 		.ascii	"unsigned char\000"
 1015      676E6564 
ARM GAS  /tmp/cc2HFAFr.s 			page 20


 1015      20636861 
 1015      7200
 1016              	.LASF31:
 1017 0186 5F76745F 		.ascii	"_vt_init\000"
 1017      696E6974 
 1017      00
 1018              	.LASF9:
 1019 018f 5F5F7569 		.ascii	"__uint32_t\000"
 1019      6E743332 
 1019      5F7400
 1020              	.LASF0:
 1021 019a 756E7369 		.ascii	"unsigned int\000"
 1021      676E6564 
 1021      20696E74 
 1021      00
 1022              	.LASF29:
 1023 01a7 2E2E2F2E 		.ascii	"../../../os/kernel/src/chvt.c\000"
 1023      2E2F2E2E 
 1023      2F6F732F 
 1023      6B65726E 
 1023      656C2F73 
 1024              	.LASF8:
 1025 01c5 6C6F6E67 		.ascii	"long long unsigned int\000"
 1025      206C6F6E 
 1025      6720756E 
 1025      7369676E 
 1025      65642069 
 1026              	.LASF32:
 1027 01dc 76746C69 		.ascii	"vtlist\000"
 1027      737400
 1028              	.LASF24:
 1029 01e3 74696D65 		.ascii	"time\000"
 1029      00
 1030              	.LASF18:
 1031 01e8 76745F74 		.ascii	"vt_time\000"
 1031      696D6500 
 1032              	.LASF13:
 1033 01f0 73697A65 		.ascii	"sizetype\000"
 1033      74797065 
 1033      00
 1034              	.LASF21:
 1035 01f9 76745F73 		.ascii	"vt_systime\000"
 1035      79737469 
 1035      6D6500
 1036              	.LASF7:
 1037 0204 6C6F6E67 		.ascii	"long long int\000"
 1037      206C6F6E 
 1037      6720696E 
 1037      7400
 1038              	.LASF19:
 1039 0212 76745F66 		.ascii	"vt_func\000"
 1039      756E6300 
 1040              	.LASF25:
 1041 021a 76746675 		.ascii	"vtfunc\000"
 1041      6E6300
 1042              	.LASF23:
 1043 0221 63686172 		.ascii	"char\000"
ARM GAS  /tmp/cc2HFAFr.s 			page 21


 1043      00
 1044              	.LASF34:
 1045 0226 63684462 		.ascii	"chDbgPanic\000"
 1045      6750616E 
 1045      696300
 1046              	.LASF20:
 1047 0231 76745F70 		.ascii	"vt_par\000"
 1047      617200
 1048              	.LASF3:
 1049 0238 73686F72 		.ascii	"short int\000"
 1049      7420696E 
 1049      7400
 1050              	.LASF17:
 1051 0242 76745F70 		.ascii	"vt_prev\000"
 1051      72657600 
 1052              	.LASF10:
 1053 024a 75696E74 		.ascii	"uint32_t\000"
 1053      33325F74 
 1053      00
 1054              	.LASF5:
 1055 0253 6C6F6E67 		.ascii	"long int\000"
 1055      20696E74 
 1055      00
 1056              	.LASF1:
 1057 025c 7369676E 		.ascii	"signed char\000"
 1057      65642063 
 1057      68617200 
 1058              	.LASF22:
 1059 0268 56544C69 		.ascii	"VTList\000"
 1059      737400
 1060              	.LASF16:
 1061 026f 76745F6E 		.ascii	"vt_next\000"
 1061      65787400 
 1062              	.LASF27:
 1063 0277 63685654 		.ascii	"chVTResetI\000"
 1063      52657365 
 1063      744900
 1064              	.LASF11:
 1065 0282 5F426F6F 		.ascii	"_Bool\000"
 1065      6C00
 1066              		.ident	"GCC: (GNU Tools for ARM Embedded Processors) 4.8.4 20140526 (release) [ARM/embedded-4_8-br
ARM GAS  /tmp/cc2HFAFr.s 			page 22


DEFINED SYMBOLS
                            *ABS*:00000000 chvt.c
     /tmp/cc2HFAFr.s:19     .text._vt_init:00000000 $t
     /tmp/cc2HFAFr.s:25     .text._vt_init:00000000 _vt_init
     /tmp/cc2HFAFr.s:50     .text._vt_init:00000014 $d
     /tmp/cc2HFAFr.s:55     .text.chVTSetI:00000000 $t
     /tmp/cc2HFAFr.s:61     .text.chVTSetI:00000000 chVTSetI
     /tmp/cc2HFAFr.s:148    .text.chVTSetI:0000004c $d
     /tmp/cc2HFAFr.s:154    .text.chVTResetI:00000000 $t
     /tmp/cc2HFAFr.s:160    .text.chVTResetI:00000000 chVTResetI
     /tmp/cc2HFAFr.s:222    .text.chVTResetI:0000003c $d
     /tmp/cc2HFAFr.s:234    .bss.vtlist:00000000 vtlist
     /tmp/cc2HFAFr.s:230    .bss.vtlist:00000000 $d
     /tmp/cc2HFAFr.s:237    .rodata.str1.4:00000000 $d
                     .debug_frame:00000010 $d
     /tmp/cc2HFAFr.s:54     .text._vt_init:00000018 $t
     /tmp/cc2HFAFr.s:153    .text.chVTSetI:00000054 $t
     /tmp/cc2HFAFr.s:229    .text.chVTResetI:00000048 $t

UNDEFINED SYMBOLS
chDbgCheckClassI
chDbgPanic
