ARM GAS  /tmp/ccQE7KB2.s 			page 1


   1              		.syntax unified
   2              		.cpu cortex-m4
   3              		.fpu softvfp
   4              		.eabi_attribute 20, 1
   5              		.eabi_attribute 21, 1
   6              		.eabi_attribute 23, 3
   7              		.eabi_attribute 24, 1
   8              		.eabi_attribute 25, 1
   9              		.eabi_attribute 26, 1
  10              		.eabi_attribute 30, 2
  11              		.eabi_attribute 34, 1
  12              		.eabi_attribute 18, 4
  13              		.thumb
  14              		.file	"hal.c"
  15              		.text
  16              	.Ltext0:
  17              		.cfi_sections	.debug_frame
  18              		.section	.text.halInit,"ax",%progbits
  19              		.align	2
  20              		.p2align 4,,15
  21              		.global	halInit
  22              		.thumb
  23              		.thumb_func
  24              		.type	halInit, %function
  25              	halInit:
  26              	.LFB118:
  27              		.file 1 "../../../os/hal/src/hal.c"
  28              		.loc 1 68 0
  29              		.cfi_startproc
  30              		@ args = 0, pretend = 0, frame = 0
  31              		@ frame_needed = 0, uses_anonymous_args = 0
  32 0000 08B5     		push	{r3, lr}
  33              		.cfi_def_cfa_offset 8
  34              		.cfi_offset 3, -8
  35              		.cfi_offset 14, -4
  36              		.loc 1 70 0
  37 0002 FFF7FEFF 		bl	hal_lld_init
  38              	.LVL0:
  39              		.loc 1 73 0
  40 0006 FFF7FEFF 		bl	tmInit
  41              	.LVL1:
  42              		.loc 1 76 0
  43 000a 0548     		ldr	r0, .L2
  44 000c FFF7FEFF 		bl	_pal_lld_init
  45              	.LVL2:
  46              		.loc 1 94 0
  47 0010 FFF7FEFF 		bl	icuInit
  48              	.LVL3:
  49              		.loc 1 100 0
  50 0014 FFF7FEFF 		bl	pwmInit
  51              	.LVL4:
  52              		.loc 1 128 0
  53 0018 BDE80840 		pop	{r3, lr}
  54              		.loc 1 127 0
  55 001c FFF7FEBF 		b	boardInit
  56              	.LVL5:
  57              	.L3:
ARM GAS  /tmp/ccQE7KB2.s 			page 2


  58              		.align	2
  59              	.L2:
  60 0020 00000000 		.word	pal_default_config
  61              		.cfi_endproc
  62              	.LFE118:
  63              		.size	halInit, .-halInit
  64 0024 AFF30080 		.section	.text.halIsCounterWithin,"ax",%progbits
  64      AFF30080 
  64      AFF30080 
  65              		.align	2
  66              		.p2align 4,,15
  67              		.global	halIsCounterWithin
  68              		.thumb
  69              		.thumb_func
  70              		.type	halIsCounterWithin, %function
  71              	halIsCounterWithin:
  72              	.LFB119:
  73              		.loc 1 174 0
  74              		.cfi_startproc
  75              		@ args = 0, pretend = 0, frame = 0
  76              		@ frame_needed = 0, uses_anonymous_args = 0
  77              		@ link register save eliminated.
  78              	.LVL6:
  79              		.loc 1 175 0
  80 0000 084B     		ldr	r3, .L13
  81              		.loc 1 177 0
  82 0002 8142     		cmp	r1, r0
  83              		.loc 1 175 0
  84 0004 5B68     		ldr	r3, [r3, #4]
  85              	.LVL7:
  86              		.loc 1 177 0
  87 0006 06D9     		bls	.L5
  88              		.loc 1 177 0 is_stmt 0 discriminator 1
  89 0008 8342     		cmp	r3, r0
  90 000a 08D3     		bcc	.L9
  91              	.L11:
  92 000c 8B42     		cmp	r3, r1
  93 000e 2CBF     		ite	cs
  94 0010 0020     		movcs	r0, #0
  95              	.LVL8:
  96 0012 0120     		movcc	r0, #1
  97 0014 7047     		bx	lr
  98              	.LVL9:
  99              	.L5:
 100              		.loc 1 178 0 is_stmt 1
 101 0016 8342     		cmp	r3, r0
 102 0018 F8D3     		bcc	.L11
 103 001a 0120     		movs	r0, #1
 104              	.LVL10:
 105              		.loc 1 179 0
 106 001c 7047     		bx	lr
 107              	.LVL11:
 108              	.L9:
 109 001e 0020     		movs	r0, #0
 110              	.LVL12:
 111 0020 7047     		bx	lr
 112              	.L14:
ARM GAS  /tmp/ccQE7KB2.s 			page 3


 113 0022 00BF     		.align	2
 114              	.L13:
 115 0024 001000E0 		.word	-536866816
 116              		.cfi_endproc
 117              	.LFE119:
 118              		.size	halIsCounterWithin, .-halIsCounterWithin
 119 0028 AFF30080 		.section	.text.halPolledDelay,"ax",%progbits
 119      AFF30080 
 120              		.align	2
 121              		.p2align 4,,15
 122              		.global	halPolledDelay
 123              		.thumb
 124              		.thumb_func
 125              		.type	halPolledDelay, %function
 126              	halPolledDelay:
 127              	.LFB120:
 128              		.loc 1 193 0
 129              		.cfi_startproc
 130              		@ args = 0, pretend = 0, frame = 0
 131              		@ frame_needed = 0, uses_anonymous_args = 0
 132              		@ link register save eliminated.
 133              	.LVL13:
 134              		.loc 1 194 0
 135 0000 0C49     		ldr	r1, .L26
 136 0002 4A68     		ldr	r2, [r1, #4]
 137              	.LVL14:
 138              		.loc 1 195 0
 139 0004 1044     		add	r0, r0, r2
 140              	.LVL15:
 141              	.L21:
 142              	.LBB4:
 143              	.LBB5:
 144              		.loc 1 177 0 discriminator 1
 145 0006 8242     		cmp	r2, r0
 146              		.loc 1 175 0 discriminator 1
 147 0008 4B68     		ldr	r3, [r1, #4]
 148              	.LVL16:
 149              		.loc 1 177 0 discriminator 1
 150 000a 0CD2     		bcs	.L16
 151              		.loc 1 177 0 is_stmt 0
 152 000c 9A42     		cmp	r2, r3
 153 000e 03D9     		bls	.L24
 154 0010 0023     		movs	r3, #0
 155              	.LVL17:
 156              	.LBE5:
 157              	.LBE4:
 158              		.loc 1 196 0 is_stmt 1
 159 0012 002B     		cmp	r3, #0
 160 0014 F7D1     		bne	.L21
 161              	.L25:
 162              		.loc 1 198 0
 163 0016 7047     		bx	lr
 164              	.LVL18:
 165              	.L24:
 166 0018 9842     		cmp	r0, r3
 167 001a 94BF     		ite	ls
 168 001c 0023     		movls	r3, #0
ARM GAS  /tmp/ccQE7KB2.s 			page 4


 169              	.LVL19:
 170 001e 0123     		movhi	r3, #1
 171              		.loc 1 196 0
 172 0020 002B     		cmp	r3, #0
 173 0022 F0D1     		bne	.L21
 174 0024 F7E7     		b	.L25
 175              	.LVL20:
 176              	.L16:
 177              	.LBB7:
 178              	.LBB6:
 179              		.loc 1 178 0
 180 0026 9A42     		cmp	r2, r3
 181 0028 F6D8     		bhi	.L24
 182 002a 0123     		movs	r3, #1
 183              	.LVL21:
 184              	.LBE6:
 185              	.LBE7:
 186              		.loc 1 196 0
 187 002c 002B     		cmp	r3, #0
 188 002e EAD1     		bne	.L21
 189 0030 F1E7     		b	.L25
 190              	.L27:
 191 0032 00BF     		.align	2
 192              	.L26:
 193 0034 001000E0 		.word	-536866816
 194              		.cfi_endproc
 195              	.LFE120:
 196              		.size	halPolledDelay, .-halPolledDelay
 197 0038 AFF30080 		.text
 197      AFF30080 
 198              	.Letext0:
 199              		.file 2 "/opt/ARM/arm-none-eabi/include/machine/_default_types.h"
 200              		.file 3 "/opt/ARM/arm-none-eabi/include/stdint.h"
 201              		.file 4 "../../../os/ports/GCC/ARMCMx/chtypes.h"
 202              		.file 5 "../../../os/ports/common/ARMCMx/nvic.h"
 203              		.file 6 "../../../os/hal/platforms/STM32F4xx/hal_lld.h"
 204              		.file 7 "../../../os/hal/platforms/STM32/GPIOv2/pal_lld.h"
 205              		.file 8 "../../../os/ports/common/ARMCMx/CMSIS/include/core_cm4.h"
 206              		.file 9 "../../../os/hal/include/tm.h"
 207              		.file 10 "../../../os/hal/include/icu.h"
 208              		.file 11 "../../../os/hal/include/pwm.h"
 209              		.file 12 "../../../boards/ST_STM32F4_DISCOVERY/board.h"
 210              		.section	.debug_info,"",%progbits
 211              	.Ldebug_info0:
 212 0000 AA030000 		.4byte	0x3aa
 213 0004 0400     		.2byte	0x4
 214 0006 00000000 		.4byte	.Ldebug_abbrev0
 215 000a 04       		.byte	0x4
 216 000b 01       		.uleb128 0x1
 217 000c 70000000 		.4byte	.LASF56
 218 0010 01       		.byte	0x1
 219 0011 7D020000 		.4byte	.LASF57
 220 0015 06000000 		.4byte	.LASF58
 221 0019 18000000 		.4byte	.Ldebug_ranges0+0x18
 222 001d 00000000 		.4byte	0
 223 0021 00000000 		.4byte	.Ldebug_line0
 224 0025 02       		.uleb128 0x2
ARM GAS  /tmp/ccQE7KB2.s 			page 5


 225 0026 04       		.byte	0x4
 226 0027 05       		.byte	0x5
 227 0028 696E7400 		.ascii	"int\000"
 228 002c 03       		.uleb128 0x3
 229 002d 04       		.byte	0x4
 230 002e 07       		.byte	0x7
 231 002f 36030000 		.4byte	.LASF0
 232 0033 03       		.uleb128 0x3
 233 0034 01       		.byte	0x1
 234 0035 06       		.byte	0x6
 235 0036 11020000 		.4byte	.LASF1
 236 003a 03       		.uleb128 0x3
 237 003b 01       		.byte	0x1
 238 003c 08       		.byte	0x8
 239 003d FE010000 		.4byte	.LASF2
 240 0041 03       		.uleb128 0x3
 241 0042 02       		.byte	0x2
 242 0043 05       		.byte	0x5
 243 0044 66000000 		.4byte	.LASF3
 244 0048 03       		.uleb128 0x3
 245 0049 02       		.byte	0x2
 246 004a 07       		.byte	0x7
 247 004b 6A020000 		.4byte	.LASF4
 248 004f 04       		.uleb128 0x4
 249 0050 AD010000 		.4byte	.LASF6
 250 0054 02       		.byte	0x2
 251 0055 37       		.byte	0x37
 252 0056 5A000000 		.4byte	0x5a
 253 005a 03       		.uleb128 0x3
 254 005b 04       		.byte	0x4
 255 005c 05       		.byte	0x5
 256 005d BF010000 		.4byte	.LASF5
 257 0061 04       		.uleb128 0x4
 258 0062 6E010000 		.4byte	.LASF7
 259 0066 02       		.byte	0x2
 260 0067 38       		.byte	0x38
 261 0068 6C000000 		.4byte	0x6c
 262 006c 03       		.uleb128 0x3
 263 006d 04       		.byte	0x4
 264 006e 07       		.byte	0x7
 265 006f D8020000 		.4byte	.LASF8
 266 0073 03       		.uleb128 0x3
 267 0074 08       		.byte	0x8
 268 0075 05       		.byte	0x5
 269 0076 90010000 		.4byte	.LASF9
 270 007a 03       		.uleb128 0x3
 271 007b 08       		.byte	0x8
 272 007c 07       		.byte	0x7
 273 007d 1D020000 		.4byte	.LASF10
 274 0081 04       		.uleb128 0x4
 275 0082 9C020000 		.4byte	.LASF11
 276 0086 03       		.byte	0x3
 277 0087 41       		.byte	0x41
 278 0088 4F000000 		.4byte	0x4f
 279 008c 04       		.uleb128 0x4
 280 008d 34020000 		.4byte	.LASF12
 281 0091 03       		.byte	0x3
ARM GAS  /tmp/ccQE7KB2.s 			page 6


 282 0092 42       		.byte	0x42
 283 0093 61000000 		.4byte	0x61
 284 0097 04       		.uleb128 0x4
 285 0098 A4020000 		.4byte	.LASF13
 286 009c 04       		.byte	0x4
 287 009d 2B       		.byte	0x2b
 288 009e A2000000 		.4byte	0xa2
 289 00a2 03       		.uleb128 0x3
 290 00a3 01       		.byte	0x1
 291 00a4 02       		.byte	0x2
 292 00a5 BC020000 		.4byte	.LASF14
 293 00a9 04       		.uleb128 0x4
 294 00aa 81010000 		.4byte	.LASF15
 295 00ae 05       		.byte	0x5
 296 00af 3A       		.byte	0x3a
 297 00b0 B4000000 		.4byte	0xb4
 298 00b4 05       		.uleb128 0x5
 299 00b5 8C000000 		.4byte	0x8c
 300 00b9 03       		.uleb128 0x3
 301 00ba 04       		.byte	0x4
 302 00bb 07       		.byte	0x7
 303 00bc 4A010000 		.4byte	.LASF16
 304 00c0 06       		.uleb128 0x6
 305 00c1 20       		.byte	0x20
 306 00c2 05       		.byte	0x5
 307 00c3 0601     		.2byte	0x106
 308 00c5 32010000 		.4byte	0x132
 309 00c9 07       		.uleb128 0x7
 310 00ca 0C020000 		.4byte	.LASF17
 311 00ce 05       		.byte	0x5
 312 00cf 0701     		.2byte	0x107
 313 00d1 A9000000 		.4byte	0xa9
 314 00d5 00       		.byte	0
 315 00d6 07       		.uleb128 0x7
 316 00d7 A6010000 		.4byte	.LASF18
 317 00db 05       		.byte	0x5
 318 00dc 0801     		.2byte	0x108
 319 00de A9000000 		.4byte	0xa9
 320 00e2 04       		.byte	0x4
 321 00e3 07       		.uleb128 0x7
 322 00e4 D1020000 		.4byte	.LASF19
 323 00e8 05       		.byte	0x5
 324 00e9 0901     		.2byte	0x109
 325 00eb A9000000 		.4byte	0xa9
 326 00ef 08       		.byte	0x8
 327 00f0 07       		.uleb128 0x7
 328 00f1 56030000 		.4byte	.LASF20
 329 00f5 05       		.byte	0x5
 330 00f6 0A01     		.2byte	0x10a
 331 00f8 A9000000 		.4byte	0xa9
 332 00fc 0C       		.byte	0xc
 333 00fd 07       		.uleb128 0x7
 334 00fe FC020000 		.4byte	.LASF21
 335 0102 05       		.byte	0x5
 336 0103 0B01     		.2byte	0x10b
 337 0105 A9000000 		.4byte	0xa9
 338 0109 10       		.byte	0x10
ARM GAS  /tmp/ccQE7KB2.s 			page 7


 339 010a 07       		.uleb128 0x7
 340 010b 0B030000 		.4byte	.LASF22
 341 010f 05       		.byte	0x5
 342 0110 0C01     		.2byte	0x10c
 343 0112 A9000000 		.4byte	0xa9
 344 0116 14       		.byte	0x14
 345 0117 07       		.uleb128 0x7
 346 0118 66010000 		.4byte	.LASF23
 347 011c 05       		.byte	0x5
 348 011d 0D01     		.2byte	0x10d
 349 011f A9000000 		.4byte	0xa9
 350 0123 18       		.byte	0x18
 351 0124 07       		.uleb128 0x7
 352 0125 53010000 		.4byte	.LASF24
 353 0129 05       		.byte	0x5
 354 012a 0E01     		.2byte	0x10e
 355 012c A9000000 		.4byte	0xa9
 356 0130 1C       		.byte	0x1c
 357 0131 00       		.byte	0
 358 0132 08       		.uleb128 0x8
 359 0133 C2020000 		.4byte	.LASF25
 360 0137 05       		.byte	0x5
 361 0138 0F01     		.2byte	0x10f
 362 013a C0000000 		.4byte	0xc0
 363 013e 03       		.uleb128 0x3
 364 013f 01       		.byte	0x1
 365 0140 08       		.byte	0x8
 366 0141 97020000 		.4byte	.LASF26
 367 0145 05       		.uleb128 0x5
 368 0146 81000000 		.4byte	0x81
 369 014a 08       		.uleb128 0x8
 370 014b F1020000 		.4byte	.LASF27
 371 014f 06       		.byte	0x6
 372 0150 C006     		.2byte	0x6c0
 373 0152 8C000000 		.4byte	0x8c
 374 0156 09       		.uleb128 0x9
 375 0157 1C       		.byte	0x1c
 376 0158 07       		.byte	0x7
 377 0159 A3       		.byte	0xa3
 378 015a B3010000 		.4byte	0x1b3
 379 015e 0A       		.uleb128 0xa
 380 015f 1C030000 		.4byte	.LASF28
 381 0163 07       		.byte	0x7
 382 0164 A5       		.byte	0xa5
 383 0165 8C000000 		.4byte	0x8c
 384 0169 00       		.byte	0
 385 016a 0A       		.uleb128 0xa
 386 016b 3D020000 		.4byte	.LASF29
 387 016f 07       		.byte	0x7
 388 0170 A7       		.byte	0xa7
 389 0171 8C000000 		.4byte	0x8c
 390 0175 04       		.byte	0x4
 391 0176 0A       		.uleb128 0xa
 392 0177 B7010000 		.4byte	.LASF30
 393 017b 07       		.byte	0x7
 394 017c A9       		.byte	0xa9
 395 017d 8C000000 		.4byte	0x8c
ARM GAS  /tmp/ccQE7KB2.s 			page 8


 396 0181 08       		.byte	0x8
 397 0182 0A       		.uleb128 0xa
 398 0183 05030000 		.4byte	.LASF31
 399 0187 07       		.byte	0x7
 400 0188 AB       		.byte	0xab
 401 0189 8C000000 		.4byte	0x8c
 402 018d 0C       		.byte	0xc
 403 018e 0B       		.uleb128 0xb
 404 018f 6F647200 		.ascii	"odr\000"
 405 0193 07       		.byte	0x7
 406 0194 AD       		.byte	0xad
 407 0195 8C000000 		.4byte	0x8c
 408 0199 10       		.byte	0x10
 409 019a 0A       		.uleb128 0xa
 410 019b 17030000 		.4byte	.LASF32
 411 019f 07       		.byte	0x7
 412 01a0 AF       		.byte	0xaf
 413 01a1 8C000000 		.4byte	0x8c
 414 01a5 14       		.byte	0x14
 415 01a6 0A       		.uleb128 0xa
 416 01a7 12030000 		.4byte	.LASF33
 417 01ab 07       		.byte	0x7
 418 01ac B1       		.byte	0xb1
 419 01ad 8C000000 		.4byte	0x8c
 420 01b1 18       		.byte	0x18
 421 01b2 00       		.byte	0
 422 01b3 04       		.uleb128 0x4
 423 01b4 44020000 		.4byte	.LASF34
 424 01b8 07       		.byte	0x7
 425 01b9 B2       		.byte	0xb2
 426 01ba 56010000 		.4byte	0x156
 427 01be 09       		.uleb128 0x9
 428 01bf FC       		.byte	0xfc
 429 01c0 07       		.byte	0x7
 430 01c1 BB       		.byte	0xbb
 431 01c2 33020000 		.4byte	0x233
 432 01c6 0A       		.uleb128 0xa
 433 01c7 89010000 		.4byte	.LASF35
 434 01cb 07       		.byte	0x7
 435 01cc BE       		.byte	0xbe
 436 01cd B3010000 		.4byte	0x1b3
 437 01d1 00       		.byte	0
 438 01d2 0A       		.uleb128 0xa
 439 01d3 B5020000 		.4byte	.LASF36
 440 01d7 07       		.byte	0x7
 441 01d8 C2       		.byte	0xc2
 442 01d9 B3010000 		.4byte	0x1b3
 443 01dd 1C       		.byte	0x1c
 444 01de 0A       		.uleb128 0xa
 445 01df F7010000 		.4byte	.LASF37
 446 01e3 07       		.byte	0x7
 447 01e4 C6       		.byte	0xc6
 448 01e5 B3010000 		.4byte	0x1b3
 449 01e9 38       		.byte	0x38
 450 01ea 0A       		.uleb128 0xa
 451 01eb D0010000 		.4byte	.LASF38
 452 01ef 07       		.byte	0x7
ARM GAS  /tmp/ccQE7KB2.s 			page 9


 453 01f0 CA       		.byte	0xca
 454 01f1 B3010000 		.4byte	0x1b3
 455 01f5 54       		.byte	0x54
 456 01f6 0A       		.uleb128 0xa
 457 01f7 CA020000 		.4byte	.LASF39
 458 01fb 07       		.byte	0x7
 459 01fc CE       		.byte	0xce
 460 01fd B3010000 		.4byte	0x1b3
 461 0201 70       		.byte	0x70
 462 0202 0A       		.uleb128 0xa
 463 0203 58010000 		.4byte	.LASF40
 464 0207 07       		.byte	0x7
 465 0208 D2       		.byte	0xd2
 466 0209 B3010000 		.4byte	0x1b3
 467 020d 8C       		.byte	0x8c
 468 020e 0A       		.uleb128 0xa
 469 020f F0010000 		.4byte	.LASF41
 470 0213 07       		.byte	0x7
 471 0214 D6       		.byte	0xd6
 472 0215 B3010000 		.4byte	0x1b3
 473 0219 A8       		.byte	0xa8
 474 021a 0A       		.uleb128 0xa
 475 021b EA020000 		.4byte	.LASF42
 476 021f 07       		.byte	0x7
 477 0220 DA       		.byte	0xda
 478 0221 B3010000 		.4byte	0x1b3
 479 0225 C4       		.byte	0xc4
 480 0226 0A       		.uleb128 0xa
 481 0227 5F010000 		.4byte	.LASF43
 482 022b 07       		.byte	0x7
 483 022c DE       		.byte	0xde
 484 022d B3010000 		.4byte	0x1b3
 485 0231 E0       		.byte	0xe0
 486 0232 00       		.byte	0
 487 0233 04       		.uleb128 0x4
 488 0234 AB020000 		.4byte	.LASF44
 489 0238 07       		.byte	0x7
 490 0239 E0       		.byte	0xe0
 491 023a BE010000 		.4byte	0x1be
 492 023e 0C       		.uleb128 0xc
 493 023f 43030000 		.4byte	.LASF59
 494 0243 01       		.byte	0x1
 495 0244 AE       		.byte	0xae
 496 0245 97000000 		.4byte	0x97
 497 0249 01       		.byte	0x1
 498 024a 70020000 		.4byte	0x270
 499 024e 0D       		.uleb128 0xd
 500 024f 64020000 		.4byte	.LASF45
 501 0253 01       		.byte	0x1
 502 0254 AE       		.byte	0xae
 503 0255 4A010000 		.4byte	0x14a
 504 0259 0E       		.uleb128 0xe
 505 025a 656E6400 		.ascii	"end\000"
 506 025e 01       		.byte	0x1
 507 025f AE       		.byte	0xae
 508 0260 4A010000 		.4byte	0x14a
 509 0264 0F       		.uleb128 0xf
ARM GAS  /tmp/ccQE7KB2.s 			page 10


 510 0265 6E6F7700 		.ascii	"now\000"
 511 0269 01       		.byte	0x1
 512 026a AF       		.byte	0xaf
 513 026b 4A010000 		.4byte	0x14a
 514 026f 00       		.byte	0
 515 0270 10       		.uleb128 0x10
 516 0271 9E010000 		.4byte	.LASF46
 517 0275 01       		.byte	0x1
 518 0276 44       		.byte	0x44
 519 0277 00000000 		.4byte	.LFB118
 520 027b 24000000 		.4byte	.LFE118-.LFB118
 521 027f 01       		.uleb128 0x1
 522 0280 9C       		.byte	0x9c
 523 0281 BC020000 		.4byte	0x2bc
 524 0285 11       		.uleb128 0x11
 525 0286 06000000 		.4byte	.LVL0
 526 028a 70030000 		.4byte	0x370
 527 028e 11       		.uleb128 0x11
 528 028f 0A000000 		.4byte	.LVL1
 529 0293 78030000 		.4byte	0x378
 530 0297 11       		.uleb128 0x11
 531 0298 10000000 		.4byte	.LVL2
 532 029c 7F030000 		.4byte	0x37f
 533 02a0 11       		.uleb128 0x11
 534 02a1 14000000 		.4byte	.LVL3
 535 02a5 97030000 		.4byte	0x397
 536 02a9 11       		.uleb128 0x11
 537 02aa 18000000 		.4byte	.LVL4
 538 02ae 9E030000 		.4byte	0x39e
 539 02b2 12       		.uleb128 0x12
 540 02b3 20000000 		.4byte	.LVL5
 541 02b7 A5030000 		.4byte	0x3a5
 542 02bb 00       		.byte	0
 543 02bc 13       		.uleb128 0x13
 544 02bd 3E020000 		.4byte	0x23e
 545 02c1 00000000 		.4byte	.LFB119
 546 02c5 28000000 		.4byte	.LFE119-.LFB119
 547 02c9 01       		.uleb128 0x1
 548 02ca 9C       		.byte	0x9c
 549 02cb E7020000 		.4byte	0x2e7
 550 02cf 14       		.uleb128 0x14
 551 02d0 4E020000 		.4byte	0x24e
 552 02d4 00000000 		.4byte	.LLST0
 553 02d8 15       		.uleb128 0x15
 554 02d9 59020000 		.4byte	0x259
 555 02dd 01       		.uleb128 0x1
 556 02de 51       		.byte	0x51
 557 02df 16       		.uleb128 0x16
 558 02e0 64020000 		.4byte	0x264
 559 02e4 01       		.uleb128 0x1
 560 02e5 53       		.byte	0x53
 561 02e6 00       		.byte	0
 562 02e7 10       		.uleb128 0x10
 563 02e8 D7010000 		.4byte	.LASF47
 564 02ec 01       		.byte	0x1
 565 02ed C1       		.byte	0xc1
 566 02ee 00000000 		.4byte	.LFB120
ARM GAS  /tmp/ccQE7KB2.s 			page 11


 567 02f2 38000000 		.4byte	.LFE120-.LFB120
 568 02f6 01       		.uleb128 0x1
 569 02f7 9C       		.byte	0x9c
 570 02f8 53030000 		.4byte	0x353
 571 02fc 17       		.uleb128 0x17
 572 02fd 00000000 		.4byte	.LASF60
 573 0301 01       		.byte	0x1
 574 0302 C1       		.byte	0xc1
 575 0303 4A010000 		.4byte	0x14a
 576 0307 53000000 		.4byte	.LLST1
 577 030b 18       		.uleb128 0x18
 578 030c 64020000 		.4byte	.LASF45
 579 0310 01       		.byte	0x1
 580 0311 C2       		.byte	0xc2
 581 0312 4A010000 		.4byte	0x14a
 582 0316 01       		.uleb128 0x1
 583 0317 52       		.byte	0x52
 584 0318 18       		.uleb128 0x18
 585 0319 5D030000 		.4byte	.LASF48
 586 031d 01       		.byte	0x1
 587 031e C3       		.byte	0xc3
 588 031f 4A010000 		.4byte	0x14a
 589 0323 01       		.uleb128 0x1
 590 0324 50       		.byte	0x50
 591 0325 19       		.uleb128 0x19
 592 0326 3E020000 		.4byte	0x23e
 593 032a 06000000 		.4byte	.LBB4
 594 032e 00000000 		.4byte	.Ldebug_ranges0+0
 595 0332 01       		.byte	0x1
 596 0333 C4       		.byte	0xc4
 597 0334 15       		.uleb128 0x15
 598 0335 59020000 		.4byte	0x259
 599 0339 01       		.uleb128 0x1
 600 033a 50       		.byte	0x50
 601 033b 15       		.uleb128 0x15
 602 033c 4E020000 		.4byte	0x24e
 603 0340 01       		.uleb128 0x1
 604 0341 52       		.byte	0x52
 605 0342 1A       		.uleb128 0x1a
 606 0343 00000000 		.4byte	.Ldebug_ranges0+0
 607 0347 1B       		.uleb128 0x1b
 608 0348 64020000 		.4byte	0x264
 609 034c 74000000 		.4byte	.LLST2
 610 0350 00       		.byte	0
 611 0351 00       		.byte	0
 612 0352 00       		.byte	0
 613 0353 1C       		.uleb128 0x1c
 614 0354 22030000 		.4byte	.LASF49
 615 0358 08       		.byte	0x8
 616 0359 9806     		.2byte	0x698
 617 035b 45010000 		.4byte	0x145
 618 035f 1C       		.uleb128 0x1c
 619 0360 53000000 		.4byte	.LASF50
 620 0364 07       		.byte	0x7
 621 0365 BC01     		.2byte	0x1bc
 622 0367 6B030000 		.4byte	0x36b
 623 036b 1D       		.uleb128 0x1d
ARM GAS  /tmp/ccQE7KB2.s 			page 12


 624 036c 33020000 		.4byte	0x233
 625 0370 1E       		.uleb128 0x1e
 626 0371 57020000 		.4byte	.LASF51
 627 0375 06       		.byte	0x6
 628 0376 E906     		.2byte	0x6e9
 629 0378 1F       		.uleb128 0x1f
 630 0379 2F030000 		.4byte	.LASF52
 631 037d 09       		.byte	0x9
 632 037e 73       		.byte	0x73
 633 037f 20       		.uleb128 0x20
 634 0380 45000000 		.4byte	.LASF61
 635 0384 07       		.byte	0x7
 636 0385 C101     		.2byte	0x1c1
 637 0387 91030000 		.4byte	0x391
 638 038b 21       		.uleb128 0x21
 639 038c 91030000 		.4byte	0x391
 640 0390 00       		.byte	0
 641 0391 22       		.uleb128 0x22
 642 0392 04       		.byte	0x4
 643 0393 6B030000 		.4byte	0x36b
 644 0397 1F       		.uleb128 0x1f
 645 0398 79010000 		.4byte	.LASF53
 646 039c 0A       		.byte	0xa
 647 039d BD       		.byte	0xbd
 648 039e 1F       		.uleb128 0x1f
 649 039f C8010000 		.4byte	.LASF54
 650 03a3 0B       		.byte	0xb
 651 03a4 F2       		.byte	0xf2
 652 03a5 1E       		.uleb128 0x1e
 653 03a6 E6010000 		.4byte	.LASF55
 654 03aa 0C       		.byte	0xc
 655 03ab 0A05     		.2byte	0x50a
 656 03ad 00       		.byte	0
 657              		.section	.debug_abbrev,"",%progbits
 658              	.Ldebug_abbrev0:
 659 0000 01       		.uleb128 0x1
 660 0001 11       		.uleb128 0x11
 661 0002 01       		.byte	0x1
 662 0003 25       		.uleb128 0x25
 663 0004 0E       		.uleb128 0xe
 664 0005 13       		.uleb128 0x13
 665 0006 0B       		.uleb128 0xb
 666 0007 03       		.uleb128 0x3
 667 0008 0E       		.uleb128 0xe
 668 0009 1B       		.uleb128 0x1b
 669 000a 0E       		.uleb128 0xe
 670 000b 55       		.uleb128 0x55
 671 000c 17       		.uleb128 0x17
 672 000d 11       		.uleb128 0x11
 673 000e 01       		.uleb128 0x1
 674 000f 10       		.uleb128 0x10
 675 0010 17       		.uleb128 0x17
 676 0011 00       		.byte	0
 677 0012 00       		.byte	0
 678 0013 02       		.uleb128 0x2
 679 0014 24       		.uleb128 0x24
 680 0015 00       		.byte	0
ARM GAS  /tmp/ccQE7KB2.s 			page 13


 681 0016 0B       		.uleb128 0xb
 682 0017 0B       		.uleb128 0xb
 683 0018 3E       		.uleb128 0x3e
 684 0019 0B       		.uleb128 0xb
 685 001a 03       		.uleb128 0x3
 686 001b 08       		.uleb128 0x8
 687 001c 00       		.byte	0
 688 001d 00       		.byte	0
 689 001e 03       		.uleb128 0x3
 690 001f 24       		.uleb128 0x24
 691 0020 00       		.byte	0
 692 0021 0B       		.uleb128 0xb
 693 0022 0B       		.uleb128 0xb
 694 0023 3E       		.uleb128 0x3e
 695 0024 0B       		.uleb128 0xb
 696 0025 03       		.uleb128 0x3
 697 0026 0E       		.uleb128 0xe
 698 0027 00       		.byte	0
 699 0028 00       		.byte	0
 700 0029 04       		.uleb128 0x4
 701 002a 16       		.uleb128 0x16
 702 002b 00       		.byte	0
 703 002c 03       		.uleb128 0x3
 704 002d 0E       		.uleb128 0xe
 705 002e 3A       		.uleb128 0x3a
 706 002f 0B       		.uleb128 0xb
 707 0030 3B       		.uleb128 0x3b
 708 0031 0B       		.uleb128 0xb
 709 0032 49       		.uleb128 0x49
 710 0033 13       		.uleb128 0x13
 711 0034 00       		.byte	0
 712 0035 00       		.byte	0
 713 0036 05       		.uleb128 0x5
 714 0037 35       		.uleb128 0x35
 715 0038 00       		.byte	0
 716 0039 49       		.uleb128 0x49
 717 003a 13       		.uleb128 0x13
 718 003b 00       		.byte	0
 719 003c 00       		.byte	0
 720 003d 06       		.uleb128 0x6
 721 003e 13       		.uleb128 0x13
 722 003f 01       		.byte	0x1
 723 0040 0B       		.uleb128 0xb
 724 0041 0B       		.uleb128 0xb
 725 0042 3A       		.uleb128 0x3a
 726 0043 0B       		.uleb128 0xb
 727 0044 3B       		.uleb128 0x3b
 728 0045 05       		.uleb128 0x5
 729 0046 01       		.uleb128 0x1
 730 0047 13       		.uleb128 0x13
 731 0048 00       		.byte	0
 732 0049 00       		.byte	0
 733 004a 07       		.uleb128 0x7
 734 004b 0D       		.uleb128 0xd
 735 004c 00       		.byte	0
 736 004d 03       		.uleb128 0x3
 737 004e 0E       		.uleb128 0xe
ARM GAS  /tmp/ccQE7KB2.s 			page 14


 738 004f 3A       		.uleb128 0x3a
 739 0050 0B       		.uleb128 0xb
 740 0051 3B       		.uleb128 0x3b
 741 0052 05       		.uleb128 0x5
 742 0053 49       		.uleb128 0x49
 743 0054 13       		.uleb128 0x13
 744 0055 38       		.uleb128 0x38
 745 0056 0B       		.uleb128 0xb
 746 0057 00       		.byte	0
 747 0058 00       		.byte	0
 748 0059 08       		.uleb128 0x8
 749 005a 16       		.uleb128 0x16
 750 005b 00       		.byte	0
 751 005c 03       		.uleb128 0x3
 752 005d 0E       		.uleb128 0xe
 753 005e 3A       		.uleb128 0x3a
 754 005f 0B       		.uleb128 0xb
 755 0060 3B       		.uleb128 0x3b
 756 0061 05       		.uleb128 0x5
 757 0062 49       		.uleb128 0x49
 758 0063 13       		.uleb128 0x13
 759 0064 00       		.byte	0
 760 0065 00       		.byte	0
 761 0066 09       		.uleb128 0x9
 762 0067 13       		.uleb128 0x13
 763 0068 01       		.byte	0x1
 764 0069 0B       		.uleb128 0xb
 765 006a 0B       		.uleb128 0xb
 766 006b 3A       		.uleb128 0x3a
 767 006c 0B       		.uleb128 0xb
 768 006d 3B       		.uleb128 0x3b
 769 006e 0B       		.uleb128 0xb
 770 006f 01       		.uleb128 0x1
 771 0070 13       		.uleb128 0x13
 772 0071 00       		.byte	0
 773 0072 00       		.byte	0
 774 0073 0A       		.uleb128 0xa
 775 0074 0D       		.uleb128 0xd
 776 0075 00       		.byte	0
 777 0076 03       		.uleb128 0x3
 778 0077 0E       		.uleb128 0xe
 779 0078 3A       		.uleb128 0x3a
 780 0079 0B       		.uleb128 0xb
 781 007a 3B       		.uleb128 0x3b
 782 007b 0B       		.uleb128 0xb
 783 007c 49       		.uleb128 0x49
 784 007d 13       		.uleb128 0x13
 785 007e 38       		.uleb128 0x38
 786 007f 0B       		.uleb128 0xb
 787 0080 00       		.byte	0
 788 0081 00       		.byte	0
 789 0082 0B       		.uleb128 0xb
 790 0083 0D       		.uleb128 0xd
 791 0084 00       		.byte	0
 792 0085 03       		.uleb128 0x3
 793 0086 08       		.uleb128 0x8
 794 0087 3A       		.uleb128 0x3a
ARM GAS  /tmp/ccQE7KB2.s 			page 15


 795 0088 0B       		.uleb128 0xb
 796 0089 3B       		.uleb128 0x3b
 797 008a 0B       		.uleb128 0xb
 798 008b 49       		.uleb128 0x49
 799 008c 13       		.uleb128 0x13
 800 008d 38       		.uleb128 0x38
 801 008e 0B       		.uleb128 0xb
 802 008f 00       		.byte	0
 803 0090 00       		.byte	0
 804 0091 0C       		.uleb128 0xc
 805 0092 2E       		.uleb128 0x2e
 806 0093 01       		.byte	0x1
 807 0094 3F       		.uleb128 0x3f
 808 0095 19       		.uleb128 0x19
 809 0096 03       		.uleb128 0x3
 810 0097 0E       		.uleb128 0xe
 811 0098 3A       		.uleb128 0x3a
 812 0099 0B       		.uleb128 0xb
 813 009a 3B       		.uleb128 0x3b
 814 009b 0B       		.uleb128 0xb
 815 009c 27       		.uleb128 0x27
 816 009d 19       		.uleb128 0x19
 817 009e 49       		.uleb128 0x49
 818 009f 13       		.uleb128 0x13
 819 00a0 20       		.uleb128 0x20
 820 00a1 0B       		.uleb128 0xb
 821 00a2 01       		.uleb128 0x1
 822 00a3 13       		.uleb128 0x13
 823 00a4 00       		.byte	0
 824 00a5 00       		.byte	0
 825 00a6 0D       		.uleb128 0xd
 826 00a7 05       		.uleb128 0x5
 827 00a8 00       		.byte	0
 828 00a9 03       		.uleb128 0x3
 829 00aa 0E       		.uleb128 0xe
 830 00ab 3A       		.uleb128 0x3a
 831 00ac 0B       		.uleb128 0xb
 832 00ad 3B       		.uleb128 0x3b
 833 00ae 0B       		.uleb128 0xb
 834 00af 49       		.uleb128 0x49
 835 00b0 13       		.uleb128 0x13
 836 00b1 00       		.byte	0
 837 00b2 00       		.byte	0
 838 00b3 0E       		.uleb128 0xe
 839 00b4 05       		.uleb128 0x5
 840 00b5 00       		.byte	0
 841 00b6 03       		.uleb128 0x3
 842 00b7 08       		.uleb128 0x8
 843 00b8 3A       		.uleb128 0x3a
 844 00b9 0B       		.uleb128 0xb
 845 00ba 3B       		.uleb128 0x3b
 846 00bb 0B       		.uleb128 0xb
 847 00bc 49       		.uleb128 0x49
 848 00bd 13       		.uleb128 0x13
 849 00be 00       		.byte	0
 850 00bf 00       		.byte	0
 851 00c0 0F       		.uleb128 0xf
ARM GAS  /tmp/ccQE7KB2.s 			page 16


 852 00c1 34       		.uleb128 0x34
 853 00c2 00       		.byte	0
 854 00c3 03       		.uleb128 0x3
 855 00c4 08       		.uleb128 0x8
 856 00c5 3A       		.uleb128 0x3a
 857 00c6 0B       		.uleb128 0xb
 858 00c7 3B       		.uleb128 0x3b
 859 00c8 0B       		.uleb128 0xb
 860 00c9 49       		.uleb128 0x49
 861 00ca 13       		.uleb128 0x13
 862 00cb 00       		.byte	0
 863 00cc 00       		.byte	0
 864 00cd 10       		.uleb128 0x10
 865 00ce 2E       		.uleb128 0x2e
 866 00cf 01       		.byte	0x1
 867 00d0 3F       		.uleb128 0x3f
 868 00d1 19       		.uleb128 0x19
 869 00d2 03       		.uleb128 0x3
 870 00d3 0E       		.uleb128 0xe
 871 00d4 3A       		.uleb128 0x3a
 872 00d5 0B       		.uleb128 0xb
 873 00d6 3B       		.uleb128 0x3b
 874 00d7 0B       		.uleb128 0xb
 875 00d8 27       		.uleb128 0x27
 876 00d9 19       		.uleb128 0x19
 877 00da 11       		.uleb128 0x11
 878 00db 01       		.uleb128 0x1
 879 00dc 12       		.uleb128 0x12
 880 00dd 06       		.uleb128 0x6
 881 00de 40       		.uleb128 0x40
 882 00df 18       		.uleb128 0x18
 883 00e0 9742     		.uleb128 0x2117
 884 00e2 19       		.uleb128 0x19
 885 00e3 01       		.uleb128 0x1
 886 00e4 13       		.uleb128 0x13
 887 00e5 00       		.byte	0
 888 00e6 00       		.byte	0
 889 00e7 11       		.uleb128 0x11
 890 00e8 898201   		.uleb128 0x4109
 891 00eb 00       		.byte	0
 892 00ec 11       		.uleb128 0x11
 893 00ed 01       		.uleb128 0x1
 894 00ee 31       		.uleb128 0x31
 895 00ef 13       		.uleb128 0x13
 896 00f0 00       		.byte	0
 897 00f1 00       		.byte	0
 898 00f2 12       		.uleb128 0x12
 899 00f3 898201   		.uleb128 0x4109
 900 00f6 00       		.byte	0
 901 00f7 11       		.uleb128 0x11
 902 00f8 01       		.uleb128 0x1
 903 00f9 9542     		.uleb128 0x2115
 904 00fb 19       		.uleb128 0x19
 905 00fc 31       		.uleb128 0x31
 906 00fd 13       		.uleb128 0x13
 907 00fe 00       		.byte	0
 908 00ff 00       		.byte	0
ARM GAS  /tmp/ccQE7KB2.s 			page 17


 909 0100 13       		.uleb128 0x13
 910 0101 2E       		.uleb128 0x2e
 911 0102 01       		.byte	0x1
 912 0103 31       		.uleb128 0x31
 913 0104 13       		.uleb128 0x13
 914 0105 11       		.uleb128 0x11
 915 0106 01       		.uleb128 0x1
 916 0107 12       		.uleb128 0x12
 917 0108 06       		.uleb128 0x6
 918 0109 40       		.uleb128 0x40
 919 010a 18       		.uleb128 0x18
 920 010b 9742     		.uleb128 0x2117
 921 010d 19       		.uleb128 0x19
 922 010e 01       		.uleb128 0x1
 923 010f 13       		.uleb128 0x13
 924 0110 00       		.byte	0
 925 0111 00       		.byte	0
 926 0112 14       		.uleb128 0x14
 927 0113 05       		.uleb128 0x5
 928 0114 00       		.byte	0
 929 0115 31       		.uleb128 0x31
 930 0116 13       		.uleb128 0x13
 931 0117 02       		.uleb128 0x2
 932 0118 17       		.uleb128 0x17
 933 0119 00       		.byte	0
 934 011a 00       		.byte	0
 935 011b 15       		.uleb128 0x15
 936 011c 05       		.uleb128 0x5
 937 011d 00       		.byte	0
 938 011e 31       		.uleb128 0x31
 939 011f 13       		.uleb128 0x13
 940 0120 02       		.uleb128 0x2
 941 0121 18       		.uleb128 0x18
 942 0122 00       		.byte	0
 943 0123 00       		.byte	0
 944 0124 16       		.uleb128 0x16
 945 0125 34       		.uleb128 0x34
 946 0126 00       		.byte	0
 947 0127 31       		.uleb128 0x31
 948 0128 13       		.uleb128 0x13
 949 0129 02       		.uleb128 0x2
 950 012a 18       		.uleb128 0x18
 951 012b 00       		.byte	0
 952 012c 00       		.byte	0
 953 012d 17       		.uleb128 0x17
 954 012e 05       		.uleb128 0x5
 955 012f 00       		.byte	0
 956 0130 03       		.uleb128 0x3
 957 0131 0E       		.uleb128 0xe
 958 0132 3A       		.uleb128 0x3a
 959 0133 0B       		.uleb128 0xb
 960 0134 3B       		.uleb128 0x3b
 961 0135 0B       		.uleb128 0xb
 962 0136 49       		.uleb128 0x49
 963 0137 13       		.uleb128 0x13
 964 0138 02       		.uleb128 0x2
 965 0139 17       		.uleb128 0x17
ARM GAS  /tmp/ccQE7KB2.s 			page 18


 966 013a 00       		.byte	0
 967 013b 00       		.byte	0
 968 013c 18       		.uleb128 0x18
 969 013d 34       		.uleb128 0x34
 970 013e 00       		.byte	0
 971 013f 03       		.uleb128 0x3
 972 0140 0E       		.uleb128 0xe
 973 0141 3A       		.uleb128 0x3a
 974 0142 0B       		.uleb128 0xb
 975 0143 3B       		.uleb128 0x3b
 976 0144 0B       		.uleb128 0xb
 977 0145 49       		.uleb128 0x49
 978 0146 13       		.uleb128 0x13
 979 0147 02       		.uleb128 0x2
 980 0148 18       		.uleb128 0x18
 981 0149 00       		.byte	0
 982 014a 00       		.byte	0
 983 014b 19       		.uleb128 0x19
 984 014c 1D       		.uleb128 0x1d
 985 014d 01       		.byte	0x1
 986 014e 31       		.uleb128 0x31
 987 014f 13       		.uleb128 0x13
 988 0150 52       		.uleb128 0x52
 989 0151 01       		.uleb128 0x1
 990 0152 55       		.uleb128 0x55
 991 0153 17       		.uleb128 0x17
 992 0154 58       		.uleb128 0x58
 993 0155 0B       		.uleb128 0xb
 994 0156 59       		.uleb128 0x59
 995 0157 0B       		.uleb128 0xb
 996 0158 00       		.byte	0
 997 0159 00       		.byte	0
 998 015a 1A       		.uleb128 0x1a
 999 015b 0B       		.uleb128 0xb
 1000 015c 01       		.byte	0x1
 1001 015d 55       		.uleb128 0x55
 1002 015e 17       		.uleb128 0x17
 1003 015f 00       		.byte	0
 1004 0160 00       		.byte	0
 1005 0161 1B       		.uleb128 0x1b
 1006 0162 34       		.uleb128 0x34
 1007 0163 00       		.byte	0
 1008 0164 31       		.uleb128 0x31
 1009 0165 13       		.uleb128 0x13
 1010 0166 02       		.uleb128 0x2
 1011 0167 17       		.uleb128 0x17
 1012 0168 00       		.byte	0
 1013 0169 00       		.byte	0
 1014 016a 1C       		.uleb128 0x1c
 1015 016b 34       		.uleb128 0x34
 1016 016c 00       		.byte	0
 1017 016d 03       		.uleb128 0x3
 1018 016e 0E       		.uleb128 0xe
 1019 016f 3A       		.uleb128 0x3a
 1020 0170 0B       		.uleb128 0xb
 1021 0171 3B       		.uleb128 0x3b
 1022 0172 05       		.uleb128 0x5
ARM GAS  /tmp/ccQE7KB2.s 			page 19


 1023 0173 49       		.uleb128 0x49
 1024 0174 13       		.uleb128 0x13
 1025 0175 3F       		.uleb128 0x3f
 1026 0176 19       		.uleb128 0x19
 1027 0177 3C       		.uleb128 0x3c
 1028 0178 19       		.uleb128 0x19
 1029 0179 00       		.byte	0
 1030 017a 00       		.byte	0
 1031 017b 1D       		.uleb128 0x1d
 1032 017c 26       		.uleb128 0x26
 1033 017d 00       		.byte	0
 1034 017e 49       		.uleb128 0x49
 1035 017f 13       		.uleb128 0x13
 1036 0180 00       		.byte	0
 1037 0181 00       		.byte	0
 1038 0182 1E       		.uleb128 0x1e
 1039 0183 2E       		.uleb128 0x2e
 1040 0184 00       		.byte	0
 1041 0185 3F       		.uleb128 0x3f
 1042 0186 19       		.uleb128 0x19
 1043 0187 03       		.uleb128 0x3
 1044 0188 0E       		.uleb128 0xe
 1045 0189 3A       		.uleb128 0x3a
 1046 018a 0B       		.uleb128 0xb
 1047 018b 3B       		.uleb128 0x3b
 1048 018c 05       		.uleb128 0x5
 1049 018d 27       		.uleb128 0x27
 1050 018e 19       		.uleb128 0x19
 1051 018f 3C       		.uleb128 0x3c
 1052 0190 19       		.uleb128 0x19
 1053 0191 00       		.byte	0
 1054 0192 00       		.byte	0
 1055 0193 1F       		.uleb128 0x1f
 1056 0194 2E       		.uleb128 0x2e
 1057 0195 00       		.byte	0
 1058 0196 3F       		.uleb128 0x3f
 1059 0197 19       		.uleb128 0x19
 1060 0198 03       		.uleb128 0x3
 1061 0199 0E       		.uleb128 0xe
 1062 019a 3A       		.uleb128 0x3a
 1063 019b 0B       		.uleb128 0xb
 1064 019c 3B       		.uleb128 0x3b
 1065 019d 0B       		.uleb128 0xb
 1066 019e 27       		.uleb128 0x27
 1067 019f 19       		.uleb128 0x19
 1068 01a0 3C       		.uleb128 0x3c
 1069 01a1 19       		.uleb128 0x19
 1070 01a2 00       		.byte	0
 1071 01a3 00       		.byte	0
 1072 01a4 20       		.uleb128 0x20
 1073 01a5 2E       		.uleb128 0x2e
 1074 01a6 01       		.byte	0x1
 1075 01a7 3F       		.uleb128 0x3f
 1076 01a8 19       		.uleb128 0x19
 1077 01a9 03       		.uleb128 0x3
 1078 01aa 0E       		.uleb128 0xe
 1079 01ab 3A       		.uleb128 0x3a
ARM GAS  /tmp/ccQE7KB2.s 			page 20


 1080 01ac 0B       		.uleb128 0xb
 1081 01ad 3B       		.uleb128 0x3b
 1082 01ae 05       		.uleb128 0x5
 1083 01af 27       		.uleb128 0x27
 1084 01b0 19       		.uleb128 0x19
 1085 01b1 3C       		.uleb128 0x3c
 1086 01b2 19       		.uleb128 0x19
 1087 01b3 01       		.uleb128 0x1
 1088 01b4 13       		.uleb128 0x13
 1089 01b5 00       		.byte	0
 1090 01b6 00       		.byte	0
 1091 01b7 21       		.uleb128 0x21
 1092 01b8 05       		.uleb128 0x5
 1093 01b9 00       		.byte	0
 1094 01ba 49       		.uleb128 0x49
 1095 01bb 13       		.uleb128 0x13
 1096 01bc 00       		.byte	0
 1097 01bd 00       		.byte	0
 1098 01be 22       		.uleb128 0x22
 1099 01bf 0F       		.uleb128 0xf
 1100 01c0 00       		.byte	0
 1101 01c1 0B       		.uleb128 0xb
 1102 01c2 0B       		.uleb128 0xb
 1103 01c3 49       		.uleb128 0x49
 1104 01c4 13       		.uleb128 0x13
 1105 01c5 00       		.byte	0
 1106 01c6 00       		.byte	0
 1107 01c7 00       		.byte	0
 1108              		.section	.debug_loc,"",%progbits
 1109              	.Ldebug_loc0:
 1110              	.LLST0:
 1111 0000 00000000 		.4byte	.LVL6
 1112 0004 12000000 		.4byte	.LVL8
 1113 0008 0100     		.2byte	0x1
 1114 000a 50       		.byte	0x50
 1115 000b 12000000 		.4byte	.LVL8
 1116 000f 16000000 		.4byte	.LVL9
 1117 0013 0400     		.2byte	0x4
 1118 0015 F3       		.byte	0xf3
 1119 0016 01       		.uleb128 0x1
 1120 0017 50       		.byte	0x50
 1121 0018 9F       		.byte	0x9f
 1122 0019 16000000 		.4byte	.LVL9
 1123 001d 1C000000 		.4byte	.LVL10
 1124 0021 0100     		.2byte	0x1
 1125 0023 50       		.byte	0x50
 1126 0024 1C000000 		.4byte	.LVL10
 1127 0028 1E000000 		.4byte	.LVL11
 1128 002c 0400     		.2byte	0x4
 1129 002e F3       		.byte	0xf3
 1130 002f 01       		.uleb128 0x1
 1131 0030 50       		.byte	0x50
 1132 0031 9F       		.byte	0x9f
 1133 0032 1E000000 		.4byte	.LVL11
 1134 0036 20000000 		.4byte	.LVL12
 1135 003a 0100     		.2byte	0x1
 1136 003c 50       		.byte	0x50
ARM GAS  /tmp/ccQE7KB2.s 			page 21


 1137 003d 20000000 		.4byte	.LVL12
 1138 0041 28000000 		.4byte	.LFE119
 1139 0045 0400     		.2byte	0x4
 1140 0047 F3       		.byte	0xf3
 1141 0048 01       		.uleb128 0x1
 1142 0049 50       		.byte	0x50
 1143 004a 9F       		.byte	0x9f
 1144 004b 00000000 		.4byte	0
 1145 004f 00000000 		.4byte	0
 1146              	.LLST1:
 1147 0053 00000000 		.4byte	.LVL13
 1148 0057 06000000 		.4byte	.LVL15
 1149 005b 0100     		.2byte	0x1
 1150 005d 50       		.byte	0x50
 1151 005e 06000000 		.4byte	.LVL15
 1152 0062 38000000 		.4byte	.LFE120
 1153 0066 0400     		.2byte	0x4
 1154 0068 F3       		.byte	0xf3
 1155 0069 01       		.uleb128 0x1
 1156 006a 50       		.byte	0x50
 1157 006b 9F       		.byte	0x9f
 1158 006c 00000000 		.4byte	0
 1159 0070 00000000 		.4byte	0
 1160              	.LLST2:
 1161 0074 0A000000 		.4byte	.LVL16
 1162 0078 12000000 		.4byte	.LVL17
 1163 007c 0100     		.2byte	0x1
 1164 007e 53       		.byte	0x53
 1165 007f 18000000 		.4byte	.LVL18
 1166 0083 1E000000 		.4byte	.LVL19
 1167 0087 0100     		.2byte	0x1
 1168 0089 53       		.byte	0x53
 1169 008a 26000000 		.4byte	.LVL20
 1170 008e 2C000000 		.4byte	.LVL21
 1171 0092 0100     		.2byte	0x1
 1172 0094 53       		.byte	0x53
 1173 0095 00000000 		.4byte	0
 1174 0099 00000000 		.4byte	0
 1175              		.section	.debug_aranges,"",%progbits
 1176 0000 2C000000 		.4byte	0x2c
 1177 0004 0200     		.2byte	0x2
 1178 0006 00000000 		.4byte	.Ldebug_info0
 1179 000a 04       		.byte	0x4
 1180 000b 00       		.byte	0
 1181 000c 0000     		.2byte	0
 1182 000e 0000     		.2byte	0
 1183 0010 00000000 		.4byte	.LFB118
 1184 0014 24000000 		.4byte	.LFE118-.LFB118
 1185 0018 00000000 		.4byte	.LFB119
 1186 001c 28000000 		.4byte	.LFE119-.LFB119
 1187 0020 00000000 		.4byte	.LFB120
 1188 0024 38000000 		.4byte	.LFE120-.LFB120
 1189 0028 00000000 		.4byte	0
 1190 002c 00000000 		.4byte	0
 1191              		.section	.debug_ranges,"",%progbits
 1192              	.Ldebug_ranges0:
 1193 0000 06000000 		.4byte	.LBB4
ARM GAS  /tmp/ccQE7KB2.s 			page 22


 1194 0004 12000000 		.4byte	.LBE4
 1195 0008 26000000 		.4byte	.LBB7
 1196 000c 2C000000 		.4byte	.LBE7
 1197 0010 00000000 		.4byte	0
 1198 0014 00000000 		.4byte	0
 1199 0018 00000000 		.4byte	.LFB118
 1200 001c 24000000 		.4byte	.LFE118
 1201 0020 00000000 		.4byte	.LFB119
 1202 0024 28000000 		.4byte	.LFE119
 1203 0028 00000000 		.4byte	.LFB120
 1204 002c 38000000 		.4byte	.LFE120
 1205 0030 00000000 		.4byte	0
 1206 0034 00000000 		.4byte	0
 1207              		.section	.debug_line,"",%progbits
 1208              	.Ldebug_line0:
 1209 0000 5C020000 		.section	.debug_str,"MS",%progbits,1
 1209      0200ED01 
 1209      00000201 
 1209      FB0E0D00 
 1209      01010101 
 1210              	.LASF60:
 1211 0000 7469636B 		.ascii	"ticks\000"
 1211      7300
 1212              	.LASF58:
 1213 0006 2F686F6D 		.ascii	"/home/makkmarci/devel/ChibiOS_2.6.5/testhal/STM32F4"
 1213      652F6D61 
 1213      6B6B6D61 
 1213      7263692F 
 1213      64657665 
 1214 0039 78782F50 		.ascii	"xx/PWM-ICU/\000"
 1214      574D2D49 
 1214      43552F00 
 1215              	.LASF61:
 1216 0045 5F70616C 		.ascii	"_pal_lld_init\000"
 1216      5F6C6C64 
 1216      5F696E69 
 1216      7400
 1217              	.LASF50:
 1218 0053 70616C5F 		.ascii	"pal_default_config\000"
 1218      64656661 
 1218      756C745F 
 1218      636F6E66 
 1218      696700
 1219              	.LASF3:
 1220 0066 73686F72 		.ascii	"short int\000"
 1220      7420696E 
 1220      7400
 1221              	.LASF56:
 1222 0070 474E5520 		.ascii	"GNU C 4.8.4 20140526 (release) [ARM/embedded-4_8-br"
 1222      4320342E 
 1222      382E3420 
 1222      32303134 
 1222      30353236 
 1223 00a3 616E6368 		.ascii	"anch revision 211358] -mcpu=cortex-m4 -mno-thumb-in"
 1223      20726576 
 1223      6973696F 
 1223      6E203231 
ARM GAS  /tmp/ccQE7KB2.s 			page 23


 1223      31333538 
 1224 00d6 74657277 		.ascii	"terwork -mthumb -ggdb -O2 -fomit-frame-pointer -fal"
 1224      6F726B20 
 1224      2D6D7468 
 1224      756D6220 
 1224      2D676764 
 1225 0109 69676E2D 		.ascii	"ign-functions=16 -ffunction-sections -fdata-section"
 1225      66756E63 
 1225      74696F6E 
 1225      733D3136 
 1225      202D6666 
 1226 013c 73202D66 		.ascii	"s -fno-common\000"
 1226      6E6F2D63 
 1226      6F6D6D6F 
 1226      6E00
 1227              	.LASF16:
 1228 014a 73697A65 		.ascii	"sizetype\000"
 1228      74797065 
 1228      00
 1229              	.LASF24:
 1230 0153 50435352 		.ascii	"PCSR\000"
 1230      00
 1231              	.LASF40:
 1232 0158 50464461 		.ascii	"PFData\000"
 1232      746100
 1233              	.LASF43:
 1234 015f 50494461 		.ascii	"PIData\000"
 1234      746100
 1235              	.LASF23:
 1236 0166 464F4C44 		.ascii	"FOLDCNT\000"
 1236      434E5400 
 1237              	.LASF7:
 1238 016e 5F5F7569 		.ascii	"__uint32_t\000"
 1238      6E743332 
 1238      5F7400
 1239              	.LASF53:
 1240 0179 69637549 		.ascii	"icuInit\000"
 1240      6E697400 
 1241              	.LASF15:
 1242 0181 494F5245 		.ascii	"IOREG32\000"
 1242      47333200 
 1243              	.LASF35:
 1244 0189 50414461 		.ascii	"PAData\000"
 1244      746100
 1245              	.LASF9:
 1246 0190 6C6F6E67 		.ascii	"long long int\000"
 1246      206C6F6E 
 1246      6720696E 
 1246      7400
 1247              	.LASF46:
 1248 019e 68616C49 		.ascii	"halInit\000"
 1248      6E697400 
 1249              	.LASF18:
 1250 01a6 43594343 		.ascii	"CYCCNT\000"
 1250      4E5400
 1251              	.LASF6:
 1252 01ad 5F5F696E 		.ascii	"__int32_t\000"
ARM GAS  /tmp/ccQE7KB2.s 			page 24


 1252      7433325F 
 1252      7400
 1253              	.LASF30:
 1254 01b7 6F737065 		.ascii	"ospeedr\000"
 1254      65647200 
 1255              	.LASF5:
 1256 01bf 6C6F6E67 		.ascii	"long int\000"
 1256      20696E74 
 1256      00
 1257              	.LASF54:
 1258 01c8 70776D49 		.ascii	"pwmInit\000"
 1258      6E697400 
 1259              	.LASF38:
 1260 01d0 50444461 		.ascii	"PDData\000"
 1260      746100
 1261              	.LASF47:
 1262 01d7 68616C50 		.ascii	"halPolledDelay\000"
 1262      6F6C6C65 
 1262      6444656C 
 1262      617900
 1263              	.LASF55:
 1264 01e6 626F6172 		.ascii	"boardInit\000"
 1264      64496E69 
 1264      7400
 1265              	.LASF41:
 1266 01f0 50474461 		.ascii	"PGData\000"
 1266      746100
 1267              	.LASF37:
 1268 01f7 50434461 		.ascii	"PCData\000"
 1268      746100
 1269              	.LASF2:
 1270 01fe 756E7369 		.ascii	"unsigned char\000"
 1270      676E6564 
 1270      20636861 
 1270      7200
 1271              	.LASF17:
 1272 020c 4354524C 		.ascii	"CTRL\000"
 1272      00
 1273              	.LASF1:
 1274 0211 7369676E 		.ascii	"signed char\000"
 1274      65642063 
 1274      68617200 
 1275              	.LASF10:
 1276 021d 6C6F6E67 		.ascii	"long long unsigned int\000"
 1276      206C6F6E 
 1276      6720756E 
 1276      7369676E 
 1276      65642069 
 1277              	.LASF12:
 1278 0234 75696E74 		.ascii	"uint32_t\000"
 1278      33325F74 
 1278      00
 1279              	.LASF29:
 1280 023d 6F747970 		.ascii	"otyper\000"
 1280      657200
 1281              	.LASF34:
 1282 0244 73746D33 		.ascii	"stm32_gpio_setup_t\000"
ARM GAS  /tmp/ccQE7KB2.s 			page 25


 1282      325F6770 
 1282      696F5F73 
 1282      65747570 
 1282      5F7400
 1283              	.LASF51:
 1284 0257 68616C5F 		.ascii	"hal_lld_init\000"
 1284      6C6C645F 
 1284      696E6974 
 1284      00
 1285              	.LASF45:
 1286 0264 73746172 		.ascii	"start\000"
 1286      7400
 1287              	.LASF4:
 1288 026a 73686F72 		.ascii	"short unsigned int\000"
 1288      7420756E 
 1288      7369676E 
 1288      65642069 
 1288      6E7400
 1289              	.LASF57:
 1290 027d 2E2E2F2E 		.ascii	"../../../os/hal/src/hal.c\000"
 1290      2E2F2E2E 
 1290      2F6F732F 
 1290      68616C2F 
 1290      7372632F 
 1291              	.LASF26:
 1292 0297 63686172 		.ascii	"char\000"
 1292      00
 1293              	.LASF11:
 1294 029c 696E7433 		.ascii	"int32_t\000"
 1294      325F7400 
 1295              	.LASF13:
 1296 02a4 626F6F6C 		.ascii	"bool_t\000"
 1296      5F7400
 1297              	.LASF44:
 1298 02ab 50414C43 		.ascii	"PALConfig\000"
 1298      6F6E6669 
 1298      6700
 1299              	.LASF36:
 1300 02b5 50424461 		.ascii	"PBData\000"
 1300      746100
 1301              	.LASF14:
 1302 02bc 5F426F6F 		.ascii	"_Bool\000"
 1302      6C00
 1303              	.LASF25:
 1304 02c2 434D785F 		.ascii	"CMx_DWT\000"
 1304      44575400 
 1305              	.LASF39:
 1306 02ca 50454461 		.ascii	"PEData\000"
 1306      746100
 1307              	.LASF19:
 1308 02d1 43504943 		.ascii	"CPICNT\000"
 1308      4E5400
 1309              	.LASF8:
 1310 02d8 6C6F6E67 		.ascii	"long unsigned int\000"
 1310      20756E73 
 1310      69676E65 
 1310      6420696E 
ARM GAS  /tmp/ccQE7KB2.s 			page 26


 1310      7400
 1311              	.LASF42:
 1312 02ea 50484461 		.ascii	"PHData\000"
 1312      746100
 1313              	.LASF27:
 1314 02f1 68616C72 		.ascii	"halrtcnt_t\000"
 1314      74636E74 
 1314      5F7400
 1315              	.LASF21:
 1316 02fc 534C4545 		.ascii	"SLEEPCNT\000"
 1316      50434E54 
 1316      00
 1317              	.LASF31:
 1318 0305 70757064 		.ascii	"pupdr\000"
 1318      7200
 1319              	.LASF22:
 1320 030b 4C535543 		.ascii	"LSUCNT\000"
 1320      4E5400
 1321              	.LASF33:
 1322 0312 61667268 		.ascii	"afrh\000"
 1322      00
 1323              	.LASF32:
 1324 0317 6166726C 		.ascii	"afrl\000"
 1324      00
 1325              	.LASF28:
 1326 031c 6D6F6465 		.ascii	"moder\000"
 1326      7200
 1327              	.LASF49:
 1328 0322 49544D5F 		.ascii	"ITM_RxBuffer\000"
 1328      52784275 
 1328      66666572 
 1328      00
 1329              	.LASF52:
 1330 032f 746D496E 		.ascii	"tmInit\000"
 1330      697400
 1331              	.LASF0:
 1332 0336 756E7369 		.ascii	"unsigned int\000"
 1332      676E6564 
 1332      20696E74 
 1332      00
 1333              	.LASF59:
 1334 0343 68616C49 		.ascii	"halIsCounterWithin\000"
 1334      73436F75 
 1334      6E746572 
 1334      57697468 
 1334      696E00
 1335              	.LASF20:
 1336 0356 45584343 		.ascii	"EXCCNT\000"
 1336      4E5400
 1337              	.LASF48:
 1338 035d 74696D65 		.ascii	"timeout\000"
 1338      6F757400 
 1339              		.ident	"GCC: (GNU Tools for ARM Embedded Processors) 4.8.4 20140526 (release) [ARM/embedded-4_8-br
ARM GAS  /tmp/ccQE7KB2.s 			page 27


DEFINED SYMBOLS
                            *ABS*:00000000 hal.c
     /tmp/ccQE7KB2.s:19     .text.halInit:00000000 $t
     /tmp/ccQE7KB2.s:25     .text.halInit:00000000 halInit
     /tmp/ccQE7KB2.s:60     .text.halInit:00000020 $d
     /tmp/ccQE7KB2.s:65     .text.halIsCounterWithin:00000000 $t
     /tmp/ccQE7KB2.s:71     .text.halIsCounterWithin:00000000 halIsCounterWithin
     /tmp/ccQE7KB2.s:115    .text.halIsCounterWithin:00000024 $d
     /tmp/ccQE7KB2.s:120    .text.halPolledDelay:00000000 $t
     /tmp/ccQE7KB2.s:126    .text.halPolledDelay:00000000 halPolledDelay
     /tmp/ccQE7KB2.s:193    .text.halPolledDelay:00000034 $d
                     .debug_frame:00000010 $d
     /tmp/ccQE7KB2.s:64     .text.halInit:00000024 $t
     /tmp/ccQE7KB2.s:119    .text.halIsCounterWithin:00000028 $t
     /tmp/ccQE7KB2.s:197    .text.halPolledDelay:00000038 $t

UNDEFINED SYMBOLS
hal_lld_init
tmInit
_pal_lld_init
icuInit
pwmInit
boardInit
pal_default_config
