ARM GAS  /tmp/ccTVLo7g.s 			page 1


   1              		.syntax unified
   2              		.cpu cortex-m4
   3              		.fpu softvfp
   4              		.eabi_attribute 20, 1
   5              		.eabi_attribute 21, 1
   6              		.eabi_attribute 23, 3
   7              		.eabi_attribute 24, 1
   8              		.eabi_attribute 25, 1
   9              		.eabi_attribute 26, 1
  10              		.eabi_attribute 30, 2
  11              		.eabi_attribute 34, 1
  12              		.eabi_attribute 18, 4
  13              		.thumb
  14              		.file	"pwm_lld.c"
  15              		.text
  16              	.Ltext0:
  17              		.cfi_sections	.debug_frame
  18              		.section	.text.VectorB0,"ax",%progbits
  19              		.align	2
  20              		.p2align 4,,15
  21              		.global	VectorB0
  22              		.thumb
  23              		.thumb_func
  24              		.type	VectorB0, %function
  25              	VectorB0:
  26              	.LFB119:
  27              		.file 1 "../../../os/hal/platforms/STM32/TIMv1/pwm_lld.c"
  28              		.loc 1 197 0
  29              		.cfi_startproc
  30              		@ args = 0, pretend = 0, frame = 0
  31              		@ frame_needed = 0, uses_anonymous_args = 0
  32 0000 38B5     		push	{r3, r4, r5, lr}
  33              		.cfi_def_cfa_offset 16
  34              		.cfi_offset 3, -16
  35              		.cfi_offset 4, -12
  36              		.cfi_offset 5, -8
  37              		.cfi_offset 14, -4
  38              	.LBB4:
  39              	.LBB5:
  40              		.loc 1 115 0
  41 0002 194D     		ldr	r5, .L27
  42              	.LBE5:
  43              	.LBE4:
  44              		.loc 1 199 0
  45 0004 FFF7FEFF 		bl	dbg_check_enter_isr
  46              	.LVL0:
  47              	.LBB8:
  48              	.LBB6:
  49              		.loc 1 115 0
  50 0008 2B69     		ldr	r3, [r5, #16]
  51 000a 1A69     		ldr	r2, [r3, #16]
  52              	.LVL1:
  53              		.loc 1 116 0
  54 000c DC68     		ldr	r4, [r3, #12]
  55 000e 1440     		ands	r4, r4, r2
  56 0010 A4B2     		uxth	r4, r4
  57              	.LVL2:
ARM GAS  /tmp/ccTVLo7g.s 			page 2


  58              		.loc 1 117 0
  59 0012 E2B2     		uxtb	r2, r4
  60 0014 D243     		mvns	r2, r2
  61 0016 1A61     		str	r2, [r3, #16]
  62              		.loc 1 118 0
  63 0018 A307     		lsls	r3, r4, #30
  64 001a 20D4     		bmi	.L23
  65              	.L2:
  66              		.loc 1 120 0
  67 001c 6007     		lsls	r0, r4, #29
  68 001e 19D4     		bmi	.L24
  69              	.L3:
  70              		.loc 1 122 0
  71 0020 2107     		lsls	r1, r4, #28
  72 0022 12D4     		bmi	.L25
  73              	.L4:
  74              		.loc 1 124 0
  75 0024 E206     		lsls	r2, r4, #27
  76 0026 0BD4     		bmi	.L26
  77              	.L5:
  78              		.loc 1 126 0
  79 0028 E307     		lsls	r3, r4, #31
  80 002a 03D5     		bpl	.L6
  81              		.loc 1 127 0
  82 002c 6B68     		ldr	r3, [r5, #4]
  83 002e 0E48     		ldr	r0, .L27
  84 0030 9B68     		ldr	r3, [r3, #8]
  85 0032 9847     		blx	r3
  86              	.LVL3:
  87              	.L6:
  88              	.LBE6:
  89              	.LBE8:
  90              		.loc 1 203 0
  91 0034 FFF7FEFF 		bl	dbg_check_leave_isr
  92              	.LVL4:
  93              		.loc 1 204 0
  94 0038 BDE83840 		pop	{r3, r4, r5, lr}
  95              	.LVL5:
  96              		.loc 1 203 0
  97 003c FFF7FEBF 		b	_port_irq_epilogue
  98              	.LVL6:
  99              	.L26:
 100              	.LBB9:
 101              	.LBB7:
 102              		.loc 1 125 0
 103 0040 6B68     		ldr	r3, [r5, #4]
 104 0042 0948     		ldr	r0, .L27
 105 0044 9B6A     		ldr	r3, [r3, #40]
 106 0046 9847     		blx	r3
 107              	.LVL7:
 108 0048 EEE7     		b	.L5
 109              	.L25:
 110              		.loc 1 123 0
 111 004a 6B68     		ldr	r3, [r5, #4]
 112 004c 0648     		ldr	r0, .L27
 113 004e 1B6A     		ldr	r3, [r3, #32]
 114 0050 9847     		blx	r3
ARM GAS  /tmp/ccTVLo7g.s 			page 3


 115              	.LVL8:
 116 0052 E7E7     		b	.L4
 117              	.L24:
 118              		.loc 1 121 0
 119 0054 6B68     		ldr	r3, [r5, #4]
 120 0056 0448     		ldr	r0, .L27
 121 0058 9B69     		ldr	r3, [r3, #24]
 122 005a 9847     		blx	r3
 123              	.LVL9:
 124 005c E0E7     		b	.L3
 125              	.L23:
 126              		.loc 1 119 0
 127 005e 6B68     		ldr	r3, [r5, #4]
 128 0060 2846     		mov	r0, r5
 129 0062 1B69     		ldr	r3, [r3, #16]
 130 0064 9847     		blx	r3
 131              	.LVL10:
 132 0066 D9E7     		b	.L2
 133              	.L28:
 134              		.align	2
 135              	.L27:
 136 0068 00000000 		.word	.LANCHOR0
 137              	.LBE7:
 138              	.LBE9:
 139              		.cfi_endproc
 140              	.LFE119:
 141              		.size	VectorB0, .-VectorB0
 142 006c AFF30080 		.section	.text.pwm_lld_init,"ax",%progbits
 143              		.align	2
 144              		.p2align 4,,15
 145              		.global	pwm_lld_init
 146              		.thumb
 147              		.thumb_func
 148              		.type	pwm_lld_init, %function
 149              	pwm_lld_init:
 150              	.LFB120:
 151              		.loc 1 345 0
 152              		.cfi_startproc
 153              		@ args = 0, pretend = 0, frame = 0
 154              		@ frame_needed = 0, uses_anonymous_args = 0
 155 0000 10B5     		push	{r4, lr}
 156              		.cfi_def_cfa_offset 8
 157              		.cfi_offset 4, -8
 158              		.cfi_offset 14, -4
 159              		.loc 1 355 0
 160 0002 044C     		ldr	r4, .L30
 161 0004 2046     		mov	r0, r4
 162 0006 FFF7FEFF 		bl	pwmObjectInit
 163              	.LVL11:
 164              		.loc 1 356 0
 165 000a 4FF08043 		mov	r3, #1073741824
 166 000e 2361     		str	r3, [r4, #16]
 167 0010 10BD     		pop	{r4, pc}
 168              	.L31:
 169 0012 00BF     		.align	2
 170              	.L30:
 171 0014 00000000 		.word	.LANCHOR0
ARM GAS  /tmp/ccTVLo7g.s 			page 4


 172              		.cfi_endproc
 173              	.LFE120:
 174              		.size	pwm_lld_init, .-pwm_lld_init
 175 0018 AFF30080 		.section	.text.pwm_lld_start,"ax",%progbits
 175      AFF30080 
 176              		.align	2
 177              		.p2align 4,,15
 178              		.global	pwm_lld_start
 179              		.thumb
 180              		.thumb_func
 181              		.type	pwm_lld_start, %function
 182              	pwm_lld_start:
 183              	.LFB121:
 184              		.loc 1 399 0
 185              		.cfi_startproc
 186              		@ args = 0, pretend = 0, frame = 0
 187              		@ frame_needed = 0, uses_anonymous_args = 0
 188              	.LVL12:
 189              		.loc 1 403 0
 190 0000 0378     		ldrb	r3, [r0]	@ zero_extendqisi2
 191 0002 012B     		cmp	r3, #1
 192              		.loc 1 399 0
 193 0004 70B5     		push	{r4, r5, r6, lr}
 194              		.cfi_def_cfa_offset 16
 195              		.cfi_offset 4, -16
 196              		.cfi_offset 5, -12
 197              		.cfi_offset 6, -8
 198              		.cfi_offset 14, -4
 199              		.loc 1 399 0
 200 0006 0446     		mov	r4, r0
 201              		.loc 1 403 0
 202 0008 62D0     		beq	.L61
 203              		.loc 1 492 0
 204 000a 4268     		ldr	r2, [r0, #4]
 205              		.loc 1 491 0
 206 000c 0369     		ldr	r3, [r0, #16]
 207              		.loc 1 492 0
 208 000e 106B     		ldr	r0, [r2, #48]
 209              	.LVL13:
 210              		.loc 1 491 0
 211 0010 0021     		movs	r1, #0
 212              		.loc 1 492 0
 213 0012 20F0FF00 		bic	r0, r0, #255
 214              		.loc 1 491 0
 215 0016 1960     		str	r1, [r3]
 216              		.loc 1 492 0
 217 0018 D860     		str	r0, [r3, #12]
 218              		.loc 1 494 0
 219 001a 1961     		str	r1, [r3, #16]
 220              		.loc 1 495 0
 221 001c 5963     		str	r1, [r3, #52]
 222              		.loc 1 496 0
 223 001e 9963     		str	r1, [r3, #56]
 224              		.loc 1 497 0
 225 0020 D963     		str	r1, [r3, #60]
 226              		.loc 1 498 0
 227 0022 1964     		str	r1, [r3, #64]
ARM GAS  /tmp/ccTVLo7g.s 			page 5


 228              		.loc 1 499 0
 229 0024 5962     		str	r1, [r3, #36]
 230              	.L35:
 231              		.loc 1 503 0
 232 0026 E168     		ldr	r1, [r4, #12]
 233 0028 1668     		ldr	r6, [r2]
 234 002a B1FBF6F0 		udiv	r0, r1, r6
 235 002e 451E     		subs	r5, r0, #1
 236              	.LVL14:
 237              		.loc 1 504 0
 238 0030 B5F5803F 		cmp	r5, #65536
 239 0034 03D2     		bcs	.L36
 240              		.loc 1 504 0 is_stmt 0 discriminator 2
 241 0036 06FB00F0 		mul	r0, r6, r0
 242 003a 8142     		cmp	r1, r0
 243 003c 04D0     		beq	.L37
 244              	.L36:
 245              		.loc 1 504 0 discriminator 1
 246 003e 3248     		ldr	r0, .L65
 247 0040 FFF7FEFF 		bl	chDbgPanic
 248              	.LVL15:
 249 0044 6268     		ldr	r2, [r4, #4]
 250 0046 2369     		ldr	r3, [r4, #16]
 251              	.L37:
 252              		.loc 1 508 0 is_stmt 1
 253 0048 2489     		ldrh	r4, [r4, #8]
 254              	.LVL16:
 255              		.loc 1 513 0
 256 004a D168     		ldr	r1, [r2, #12]
 257              		.loc 1 509 0
 258 004c D06A     		ldr	r0, [r2, #44]
 259              		.loc 1 508 0
 260 004e 013C     		subs	r4, r4, #1
 261              		.loc 1 513 0
 262 0050 01F00F01 		and	r1, r1, #15
 263              		.loc 1 508 0
 264 0054 A4B2     		uxth	r4, r4
 265              		.loc 1 507 0
 266 0056 ADB2     		uxth	r5, r5
 267              	.LVL17:
 268              		.loc 1 513 0
 269 0058 0129     		cmp	r1, #1
 270              		.loc 1 507 0
 271 005a 9D62     		str	r5, [r3, #40]
 272              		.loc 1 508 0
 273 005c DC62     		str	r4, [r3, #44]
 274              		.loc 1 509 0
 275 005e 5860     		str	r0, [r3, #4]
 276              	.LVL18:
 277              		.loc 1 513 0
 278 0060 03D0     		beq	.L38
 279              		.loc 1 512 0
 280 0062 0229     		cmp	r1, #2
 281 0064 0CBF     		ite	eq
 282 0066 0321     		moveq	r1, #3
 283 0068 0021     		movne	r1, #0
 284              	.L38:
ARM GAS  /tmp/ccTVLo7g.s 			page 6


 285              	.LVL19:
 286              		.loc 1 521 0
 287 006a 5069     		ldr	r0, [r2, #20]
 288 006c 00F00F00 		and	r0, r0, #15
 289 0070 0128     		cmp	r0, #1
 290 0072 2AD0     		beq	.L42
 291 0074 0228     		cmp	r0, #2
 292 0076 26D0     		beq	.L62
 293              	.LVL20:
 294              	.L41:
 295              		.loc 1 529 0
 296 0078 D069     		ldr	r0, [r2, #28]
 297 007a 00F00F00 		and	r0, r0, #15
 298 007e 0128     		cmp	r0, #1
 299 0080 1ED0     		beq	.L45
 300 0082 0228     		cmp	r0, #2
 301 0084 1AD0     		beq	.L63
 302              	.LVL21:
 303              	.L44:
 304              		.loc 1 537 0
 305 0086 506A     		ldr	r0, [r2, #36]
 306 0088 00F00F00 		and	r0, r0, #15
 307 008c 0128     		cmp	r0, #1
 308 008e 03D0     		beq	.L48
 309 0090 0228     		cmp	r0, #2
 310 0092 03D1     		bne	.L47
 311              		.loc 1 539 0
 312 0094 41F40051 		orr	r1, r1, #8192
 313              	.LVL22:
 314              	.L48:
 315              		.loc 1 541 0
 316 0098 41F48051 		orr	r1, r1, #4096
 317              	.LVL23:
 318              	.L47:
 319              		.loc 1 583 0
 320 009c 0120     		movs	r0, #1
 321              		.loc 1 582 0
 322 009e 1962     		str	r1, [r3, #32]
 323              		.loc 1 583 0
 324 00a0 5861     		str	r0, [r3, #20]
 325              		.loc 1 584 0
 326 00a2 9068     		ldr	r0, [r2, #8]
 327 00a4 DA68     		ldr	r2, [r3, #12]
 328              		.loc 1 585 0
 329 00a6 0021     		movs	r1, #0
 330              	.LVL24:
 331              		.loc 1 584 0
 332 00a8 8842     		cmp	r0, r1
 333 00aa 0CBF     		ite	eq
 334 00ac 1046     		moveq	r0, r2
 335 00ae 42F00100 		orrne	r0, r2, #1
 336              		.loc 1 594 0
 337 00b2 8522     		movs	r2, #133
 338              		.loc 1 584 0
 339 00b4 D860     		str	r0, [r3, #12]
 340              		.loc 1 585 0
 341 00b6 1961     		str	r1, [r3, #16]
ARM GAS  /tmp/ccTVLo7g.s 			page 7


 342              		.loc 1 594 0
 343 00b8 1A60     		str	r2, [r3]
 344 00ba 70BD     		pop	{r4, r5, r6, pc}
 345              	.LVL25:
 346              	.L63:
 347              		.loc 1 531 0
 348 00bc 41F40071 		orr	r1, r1, #512
 349              	.LVL26:
 350              	.L45:
 351              		.loc 1 533 0
 352 00c0 41F48071 		orr	r1, r1, #256
 353              	.LVL27:
 354 00c4 DFE7     		b	.L44
 355              	.L62:
 356              		.loc 1 523 0
 357 00c6 41F02001 		orr	r1, r1, #32
 358              	.LVL28:
 359              	.L42:
 360              		.loc 1 525 0
 361 00ca 41F01001 		orr	r1, r1, #16
 362              	.LVL29:
 363 00ce D3E7     		b	.L41
 364              	.LVL30:
 365              	.L61:
 366              		.loc 1 421 0
 367 00d0 0E4B     		ldr	r3, .L65+4
 368 00d2 9842     		cmp	r0, r3
 369 00d4 06D0     		beq	.L64
 370              	.LVL31:
 371              	.L34:
 372              		.loc 1 484 0
 373 00d6 2369     		ldr	r3, [r4, #16]
 374 00d8 6268     		ldr	r2, [r4, #4]
 375 00da 46F66801 		movw	r1, #26728
 376 00de 9961     		str	r1, [r3, #24]
 377              		.loc 1 486 0
 378 00e0 D961     		str	r1, [r3, #28]
 379 00e2 A0E7     		b	.L35
 380              	.LVL32:
 381              	.L64:
 382              		.loc 1 422 0
 383 00e4 0A4B     		ldr	r3, .L65+8
 384 00e6 1A6C     		ldr	r2, [r3, #64]
 385 00e8 42F00102 		orr	r2, r2, #1
 386 00ec 1A64     		str	r2, [r3, #64]
 387              		.loc 1 423 0
 388 00ee 196A     		ldr	r1, [r3, #32]
 389 00f0 0022     		movs	r2, #0
 390 00f2 41F00101 		orr	r1, r1, #1
 391 00f6 1962     		str	r1, [r3, #32]
 392              		.loc 1 424 0
 393 00f8 1C20     		movs	r0, #28
 394              	.LVL33:
 395              		.loc 1 423 0
 396 00fa 1A62     		str	r2, [r3, #32]
 397              		.loc 1 424 0
 398 00fc 7021     		movs	r1, #112
ARM GAS  /tmp/ccTVLo7g.s 			page 8


 399 00fe FFF7FEFF 		bl	nvicEnableVector
 400              	.LVL34:
 401              		.loc 1 426 0
 402 0102 044B     		ldr	r3, .L65+12
 403 0104 E360     		str	r3, [r4, #12]
 404 0106 E6E7     		b	.L34
 405              	.L66:
 406              		.align	2
 407              	.L65:
 408 0108 00000000 		.word	.LC0
 409 010c 00000000 		.word	.LANCHOR0
 410 0110 00380240 		.word	1073887232
 411 0114 00BD0105 		.word	84000000
 412              		.cfi_endproc
 413              	.LFE121:
 414              		.size	pwm_lld_start, .-pwm_lld_start
 415 0118 AFF30080 		.section	.text.pwm_lld_stop,"ax",%progbits
 415      AFF30080 
 416              		.align	2
 417              		.p2align 4,,15
 418              		.global	pwm_lld_stop
 419              		.thumb
 420              		.thumb_func
 421              		.type	pwm_lld_stop, %function
 422              	pwm_lld_stop:
 423              	.LFB122:
 424              		.loc 1 605 0
 425              		.cfi_startproc
 426              		@ args = 0, pretend = 0, frame = 0
 427              		@ frame_needed = 0, uses_anonymous_args = 0
 428              	.LVL35:
 429 0000 08B5     		push	{r3, lr}
 430              		.cfi_def_cfa_offset 8
 431              		.cfi_offset 3, -8
 432              		.cfi_offset 14, -4
 433              		.loc 1 608 0
 434 0002 0378     		ldrb	r3, [r0]	@ zero_extendqisi2
 435 0004 022B     		cmp	r3, #2
 436 0006 00D0     		beq	.L71
 437              	.LVL36:
 438              	.L67:
 439 0008 08BD     		pop	{r3, pc}
 440              	.LVL37:
 441              	.L71:
 442              		.loc 1 624 0
 443 000a 0849     		ldr	r1, .L72
 444              		.loc 1 609 0
 445 000c 0369     		ldr	r3, [r0, #16]
 446 000e 0022     		movs	r2, #0
 447              		.loc 1 624 0
 448 0010 8842     		cmp	r0, r1
 449              		.loc 1 609 0
 450 0012 1A60     		str	r2, [r3]
 451              		.loc 1 610 0
 452 0014 DA60     		str	r2, [r3, #12]
 453              		.loc 1 611 0
 454 0016 1A61     		str	r2, [r3, #16]
ARM GAS  /tmp/ccTVLo7g.s 			page 9


 455              		.loc 1 624 0
 456 0018 F6D1     		bne	.L67
 457              		.loc 1 625 0
 458 001a 1C20     		movs	r0, #28
 459              	.LVL38:
 460 001c FFF7FEFF 		bl	nvicDisableVector
 461              	.LVL39:
 462              		.loc 1 626 0
 463 0020 034B     		ldr	r3, .L72+4
 464 0022 1A6C     		ldr	r2, [r3, #64]
 465 0024 22F00102 		bic	r2, r2, #1
 466 0028 1A64     		str	r2, [r3, #64]
 467 002a EDE7     		b	.L67
 468              	.L73:
 469              		.align	2
 470              	.L72:
 471 002c 00000000 		.word	.LANCHOR0
 472 0030 00380240 		.word	1073887232
 473              		.cfi_endproc
 474              	.LFE122:
 475              		.size	pwm_lld_stop, .-pwm_lld_stop
 476 0034 AFF30080 		.section	.text.pwm_lld_enable_channel,"ax",%progbits
 476      AFF30080 
 476      AFF30080 
 477              		.align	2
 478              		.p2align 4,,15
 479              		.global	pwm_lld_enable_channel
 480              		.thumb
 481              		.thumb_func
 482              		.type	pwm_lld_enable_channel, %function
 483              	pwm_lld_enable_channel:
 484              	.LFB123:
 485              		.loc 1 677 0
 486              		.cfi_startproc
 487              		@ args = 0, pretend = 0, frame = 0
 488              		@ frame_needed = 0, uses_anonymous_args = 0
 489              		@ link register save eliminated.
 490              	.LVL40:
 491 0000 10B4     		push	{r4}
 492              		.cfi_def_cfa_offset 4
 493              		.cfi_offset 4, -4
 494              		.loc 1 682 0
 495 0002 4468     		ldr	r4, [r0, #4]
 496              		.loc 1 679 0
 497 0004 0369     		ldr	r3, [r0, #16]
 498              		.loc 1 682 0
 499 0006 04EBC100 		add	r0, r4, r1, lsl #3
 500              	.LVL41:
 501              		.loc 1 679 0
 502 000a 01F10C04 		add	r4, r1, #12
 503              		.loc 1 682 0
 504 000e 0069     		ldr	r0, [r0, #16]
 505              		.loc 1 679 0
 506 0010 03EB8404 		add	r4, r3, r4, lsl #2
 507 0014 6260     		str	r2, [r4, #4]
 508              		.loc 1 682 0
 509 0016 48B1     		cbz	r0, .L74
ARM GAS  /tmp/ccTVLo7g.s 			page 10


 510              	.LBB10:
 511              		.loc 1 686 0
 512 0018 0220     		movs	r0, #2
 513              		.loc 1 683 0
 514 001a DA68     		ldr	r2, [r3, #12]
 515              	.LVL42:
 516              		.loc 1 686 0
 517 001c 00FA01F1 		lsl	r1, r0, r1
 518              	.LVL43:
 519 0020 1142     		tst	r1, r2
 520 0022 03D1     		bne	.L74
 521              		.loc 1 687 0
 522 0024 0A43     		orrs	r2, r2, r1
 523              	.LVL44:
 524              		.loc 1 688 0
 525 0026 C943     		mvns	r1, r1
 526              		.loc 1 687 0
 527 0028 DA60     		str	r2, [r3, #12]
 528              		.loc 1 688 0
 529 002a 1961     		str	r1, [r3, #16]
 530              	.L74:
 531              	.LBE10:
 532              		.loc 1 691 0
 533 002c 5DF8044B 		ldr	r4, [sp], #4
 534 0030 7047     		bx	lr
 535              		.cfi_endproc
 536              	.LFE123:
 537              		.size	pwm_lld_enable_channel, .-pwm_lld_enable_channel
 538 0032 00BFAFF3 		.section	.text.pwm_lld_disable_channel,"ax",%progbits
 538      0080AFF3 
 538      0080AFF3 
 538      0080
 539              		.align	2
 540              		.p2align 4,,15
 541              		.global	pwm_lld_disable_channel
 542              		.thumb
 543              		.thumb_func
 544              		.type	pwm_lld_disable_channel, %function
 545              	pwm_lld_disable_channel:
 546              	.LFB124:
 547              		.loc 1 705 0
 548              		.cfi_startproc
 549              		@ args = 0, pretend = 0, frame = 0
 550              		@ frame_needed = 0, uses_anonymous_args = 0
 551              		@ link register save eliminated.
 552              	.LVL45:
 553              		.loc 1 707 0
 554 0000 0369     		ldr	r3, [r0, #16]
 555 0002 01F10C02 		add	r2, r1, #12
 556 0006 03EB8202 		add	r2, r3, r2, lsl #2
 557 000a 0020     		movs	r0, #0
 558              	.LVL46:
 559 000c 5060     		str	r0, [r2, #4]
 560              		.loc 1 708 0
 561 000e DA68     		ldr	r2, [r3, #12]
 562 0010 0220     		movs	r0, #2
 563 0012 00FA01F1 		lsl	r1, r0, r1
ARM GAS  /tmp/ccTVLo7g.s 			page 11


 564              	.LVL47:
 565 0016 22EA0101 		bic	r1, r2, r1
 566 001a D960     		str	r1, [r3, #12]
 567 001c 7047     		bx	lr
 568              		.cfi_endproc
 569              	.LFE124:
 570              		.size	pwm_lld_disable_channel, .-pwm_lld_disable_channel
 571              		.global	PWMD2
 572 001e 00BF     		.section	.bss.PWMD2,"aw",%nobits
 573              		.align	2
 574              		.set	.LANCHOR0,. + 0
 575              		.type	PWMD2, %object
 576              		.size	PWMD2, 20
 577              	PWMD2:
 578 0000 00000000 		.space	20
 578      00000000 
 578      00000000 
 578      00000000 
 578      00000000 
 579              		.section	.rodata.str1.4,"aMS",%progbits,1
 580              		.align	2
 581              	.LC0:
 582 0000 70776D5F 		.ascii	"pwm_lld_start(), #1\000"
 582      6C6C645F 
 582      73746172 
 582      7428292C 
 582      20233100 
 583              		.text
 584              	.Letext0:
 585              		.file 2 "/opt/ARM/arm-none-eabi/include/machine/_default_types.h"
 586              		.file 3 "/opt/ARM/arm-none-eabi/include/stdint.h"
 587              		.file 4 "../../../os/hal/platforms/STM32F4xx/stm32f4xx.h"
 588              		.file 5 "../../../os/hal/platforms/STM32/TIMv1/stm32_tim.h"
 589              		.file 6 "../../../os/hal/include/pwm.h"
 590              		.file 7 "../../../os/hal/platforms/STM32/TIMv1/pwm_lld.h"
 591              		.file 8 "../../../os/ports/common/ARMCMx/CMSIS/include/core_cm4.h"
 592              		.file 9 "../../../os/kernel/include/chdebug.h"
 593              		.file 10 "../../../os/ports/GCC/ARMCMx/chcore_v7m.h"
 594              		.file 11 "../../../os/ports/common/ARMCMx/nvic.h"
 595              		.section	.debug_info,"",%progbits
 596              	.Ldebug_info0:
 597 0000 14080000 		.4byte	0x814
 598 0004 0400     		.2byte	0x4
 599 0006 00000000 		.4byte	.Ldebug_abbrev0
 600 000a 04       		.byte	0x4
 601 000b 01       		.uleb128 0x1
 602 000c 51000000 		.4byte	.LASF99
 603 0010 01       		.byte	0x1
 604 0011 23050000 		.4byte	.LASF100
 605 0015 BF010000 		.4byte	.LASF101
 606 0019 20000000 		.4byte	.Ldebug_ranges0+0x20
 607 001d 00000000 		.4byte	0
 608 0021 00000000 		.4byte	.Ldebug_line0
 609 0025 02       		.uleb128 0x2
 610 0026 04       		.byte	0x4
 611 0027 05       		.byte	0x5
 612 0028 696E7400 		.ascii	"int\000"
ARM GAS  /tmp/ccTVLo7g.s 			page 12


 613 002c 03       		.uleb128 0x3
 614 002d 04       		.byte	0x4
 615 002e 07       		.byte	0x7
 616 002f 6A030000 		.4byte	.LASF0
 617 0033 03       		.uleb128 0x3
 618 0034 01       		.byte	0x1
 619 0035 06       		.byte	0x6
 620 0036 47030000 		.4byte	.LASF1
 621 003a 04       		.uleb128 0x4
 622 003b B2020000 		.4byte	.LASF4
 623 003f 02       		.byte	0x2
 624 0040 1C       		.byte	0x1c
 625 0041 45000000 		.4byte	0x45
 626 0045 03       		.uleb128 0x3
 627 0046 01       		.byte	0x1
 628 0047 08       		.byte	0x8
 629 0048 09030000 		.4byte	.LASF2
 630 004c 03       		.uleb128 0x3
 631 004d 02       		.byte	0x2
 632 004e 05       		.byte	0x5
 633 004f 3E000000 		.4byte	.LASF3
 634 0053 04       		.uleb128 0x4
 635 0054 79010000 		.4byte	.LASF5
 636 0058 02       		.byte	0x2
 637 0059 26       		.byte	0x26
 638 005a 5E000000 		.4byte	0x5e
 639 005e 03       		.uleb128 0x3
 640 005f 02       		.byte	0x2
 641 0060 07       		.byte	0x7
 642 0061 9B030000 		.4byte	.LASF6
 643 0065 04       		.uleb128 0x4
 644 0066 89040000 		.4byte	.LASF7
 645 006a 02       		.byte	0x2
 646 006b 37       		.byte	0x37
 647 006c 70000000 		.4byte	0x70
 648 0070 03       		.uleb128 0x3
 649 0071 04       		.byte	0x4
 650 0072 05       		.byte	0x5
 651 0073 6B020000 		.4byte	.LASF8
 652 0077 04       		.uleb128 0x4
 653 0078 69010000 		.4byte	.LASF9
 654 007c 02       		.byte	0x2
 655 007d 38       		.byte	0x38
 656 007e 82000000 		.4byte	0x82
 657 0082 03       		.uleb128 0x3
 658 0083 04       		.byte	0x4
 659 0084 07       		.byte	0x7
 660 0085 90020000 		.4byte	.LASF10
 661 0089 03       		.uleb128 0x3
 662 008a 08       		.byte	0x8
 663 008b 05       		.byte	0x5
 664 008c 5D020000 		.4byte	.LASF11
 665 0090 03       		.uleb128 0x3
 666 0091 08       		.byte	0x8
 667 0092 07       		.byte	0x7
 668 0093 53030000 		.4byte	.LASF12
 669 0097 04       		.uleb128 0x4
ARM GAS  /tmp/ccTVLo7g.s 			page 13


 670 0098 B7010000 		.4byte	.LASF13
 671 009c 03       		.byte	0x3
 672 009d 2A       		.byte	0x2a
 673 009e 3A000000 		.4byte	0x3a
 674 00a2 04       		.uleb128 0x4
 675 00a3 80030000 		.4byte	.LASF14
 676 00a7 03       		.byte	0x3
 677 00a8 36       		.byte	0x36
 678 00a9 53000000 		.4byte	0x53
 679 00ad 04       		.uleb128 0x4
 680 00ae E0030000 		.4byte	.LASF15
 681 00b2 03       		.byte	0x3
 682 00b3 41       		.byte	0x41
 683 00b4 65000000 		.4byte	0x65
 684 00b8 04       		.uleb128 0x4
 685 00b9 06020000 		.4byte	.LASF16
 686 00bd 03       		.byte	0x3
 687 00be 42       		.byte	0x42
 688 00bf 77000000 		.4byte	0x77
 689 00c3 03       		.uleb128 0x3
 690 00c4 01       		.byte	0x1
 691 00c5 02       		.byte	0x2
 692 00c6 E8030000 		.4byte	.LASF17
 693 00ca 05       		.uleb128 0x5
 694 00cb B8000000 		.4byte	0xb8
 695 00cf 03       		.uleb128 0x3
 696 00d0 04       		.byte	0x4
 697 00d1 07       		.byte	0x7
 698 00d2 2B010000 		.4byte	.LASF18
 699 00d6 06       		.uleb128 0x6
 700 00d7 04       		.byte	0x4
 701 00d8 DC000000 		.4byte	0xdc
 702 00dc 07       		.uleb128 0x7
 703 00dd E1000000 		.4byte	0xe1
 704 00e1 03       		.uleb128 0x3
 705 00e2 01       		.byte	0x1
 706 00e3 08       		.byte	0x8
 707 00e4 C5030000 		.4byte	.LASF19
 708 00e8 08       		.uleb128 0x8
 709 00e9 B8000000 		.4byte	0xb8
 710 00ed F8000000 		.4byte	0xf8
 711 00f1 09       		.uleb128 0x9
 712 00f2 CF000000 		.4byte	0xcf
 713 00f6 01       		.byte	0x1
 714 00f7 00       		.byte	0
 715 00f8 08       		.uleb128 0x8
 716 00f9 B8000000 		.4byte	0xb8
 717 00fd 08010000 		.4byte	0x108
 718 0101 09       		.uleb128 0x9
 719 0102 CF000000 		.4byte	0xcf
 720 0106 03       		.byte	0x3
 721 0107 00       		.byte	0
 722 0108 05       		.uleb128 0x5
 723 0109 AD000000 		.4byte	0xad
 724 010d 0A       		.uleb128 0xa
 725 010e 90       		.byte	0x90
 726 010f 04       		.byte	0x4
ARM GAS  /tmp/ccTVLo7g.s 			page 14


 727 0110 5804     		.2byte	0x458
 728 0112 B6020000 		.4byte	0x2b6
 729 0116 0B       		.uleb128 0xb
 730 0117 435200   		.ascii	"CR\000"
 731 011a 04       		.byte	0x4
 732 011b 5A04     		.2byte	0x45a
 733 011d CA000000 		.4byte	0xca
 734 0121 00       		.byte	0
 735 0122 0C       		.uleb128 0xc
 736 0123 93030000 		.4byte	.LASF20
 737 0127 04       		.byte	0x4
 738 0128 5B04     		.2byte	0x45b
 739 012a CA000000 		.4byte	0xca
 740 012e 04       		.byte	0x4
 741 012f 0C       		.uleb128 0xc
 742 0130 9A010000 		.4byte	.LASF21
 743 0134 04       		.byte	0x4
 744 0135 5C04     		.2byte	0x45c
 745 0137 CA000000 		.4byte	0xca
 746 013b 08       		.byte	0x8
 747 013c 0B       		.uleb128 0xb
 748 013d 43495200 		.ascii	"CIR\000"
 749 0141 04       		.byte	0x4
 750 0142 5D04     		.2byte	0x45d
 751 0144 CA000000 		.4byte	0xca
 752 0148 0C       		.byte	0xc
 753 0149 0C       		.uleb128 0xc
 754 014a 8A010000 		.4byte	.LASF22
 755 014e 04       		.byte	0x4
 756 014f 5E04     		.2byte	0x45e
 757 0151 CA000000 		.4byte	0xca
 758 0155 10       		.byte	0x10
 759 0156 0C       		.uleb128 0xc
 760 0157 77030000 		.4byte	.LASF23
 761 015b 04       		.byte	0x4
 762 015c 5F04     		.2byte	0x45f
 763 015e CA000000 		.4byte	0xca
 764 0162 14       		.byte	0x14
 765 0163 0C       		.uleb128 0xc
 766 0164 CC040000 		.4byte	.LASF24
 767 0168 04       		.byte	0x4
 768 0169 6004     		.2byte	0x460
 769 016b CA000000 		.4byte	0xca
 770 016f 18       		.byte	0x18
 771 0170 0C       		.uleb128 0xc
 772 0171 00040000 		.4byte	.LASF25
 773 0175 04       		.byte	0x4
 774 0176 6104     		.2byte	0x461
 775 0178 B8000000 		.4byte	0xb8
 776 017c 1C       		.byte	0x1c
 777 017d 0C       		.uleb128 0xc
 778 017e 1C000000 		.4byte	.LASF26
 779 0182 04       		.byte	0x4
 780 0183 6204     		.2byte	0x462
 781 0185 CA000000 		.4byte	0xca
 782 0189 20       		.byte	0x20
 783 018a 0C       		.uleb128 0xc
ARM GAS  /tmp/ccTVLo7g.s 			page 15


 784 018b A9020000 		.4byte	.LASF27
 785 018f 04       		.byte	0x4
 786 0190 6304     		.2byte	0x463
 787 0192 CA000000 		.4byte	0xca
 788 0196 24       		.byte	0x24
 789 0197 0C       		.uleb128 0xc
 790 0198 0A040000 		.4byte	.LASF28
 791 019c 04       		.byte	0x4
 792 019d 6404     		.2byte	0x464
 793 019f E8000000 		.4byte	0xe8
 794 01a3 28       		.byte	0x28
 795 01a4 0C       		.uleb128 0xc
 796 01a5 60040000 		.4byte	.LASF29
 797 01a9 04       		.byte	0x4
 798 01aa 6504     		.2byte	0x465
 799 01ac CA000000 		.4byte	0xca
 800 01b0 30       		.byte	0x30
 801 01b1 0C       		.uleb128 0xc
 802 01b2 25000000 		.4byte	.LASF30
 803 01b6 04       		.byte	0x4
 804 01b7 6604     		.2byte	0x466
 805 01b9 CA000000 		.4byte	0xca
 806 01bd 34       		.byte	0x34
 807 01be 0C       		.uleb128 0xc
 808 01bf 36020000 		.4byte	.LASF31
 809 01c3 04       		.byte	0x4
 810 01c4 6704     		.2byte	0x467
 811 01c6 CA000000 		.4byte	0xca
 812 01ca 38       		.byte	0x38
 813 01cb 0C       		.uleb128 0xc
 814 01cc 14040000 		.4byte	.LASF32
 815 01d0 04       		.byte	0x4
 816 01d1 6804     		.2byte	0x468
 817 01d3 B8000000 		.4byte	0xb8
 818 01d7 3C       		.byte	0x3c
 819 01d8 0C       		.uleb128 0xc
 820 01d9 FE010000 		.4byte	.LASF33
 821 01dd 04       		.byte	0x4
 822 01de 6904     		.2byte	0x469
 823 01e0 CA000000 		.4byte	0xca
 824 01e4 40       		.byte	0x40
 825 01e5 0C       		.uleb128 0xc
 826 01e6 2E030000 		.4byte	.LASF34
 827 01ea 04       		.byte	0x4
 828 01eb 6A04     		.2byte	0x46a
 829 01ed CA000000 		.4byte	0xca
 830 01f1 44       		.byte	0x44
 831 01f2 0C       		.uleb128 0xc
 832 01f3 1E040000 		.4byte	.LASF35
 833 01f7 04       		.byte	0x4
 834 01f8 6B04     		.2byte	0x46b
 835 01fa E8000000 		.4byte	0xe8
 836 01fe 48       		.byte	0x48
 837 01ff 0C       		.uleb128 0xc
 838 0200 00000000 		.4byte	.LASF36
 839 0204 04       		.byte	0x4
 840 0205 6C04     		.2byte	0x46c
ARM GAS  /tmp/ccTVLo7g.s 			page 16


 841 0207 CA000000 		.4byte	0xca
 842 020b 50       		.byte	0x50
 843 020c 0C       		.uleb128 0xc
 844 020d F6030000 		.4byte	.LASF37
 845 0211 04       		.byte	0x4
 846 0212 6D04     		.2byte	0x46d
 847 0214 CA000000 		.4byte	0xca
 848 0218 54       		.byte	0x54
 849 0219 0C       		.uleb128 0xc
 850 021a 9F010000 		.4byte	.LASF38
 851 021e 04       		.byte	0x4
 852 021f 6E04     		.2byte	0x46e
 853 0221 CA000000 		.4byte	0xca
 854 0225 58       		.byte	0x58
 855 0226 0C       		.uleb128 0xc
 856 0227 28040000 		.4byte	.LASF39
 857 022b 04       		.byte	0x4
 858 022c 6F04     		.2byte	0x46f
 859 022e B8000000 		.4byte	0xb8
 860 0232 5C       		.byte	0x5c
 861 0233 0C       		.uleb128 0xc
 862 0234 AE030000 		.4byte	.LASF40
 863 0238 04       		.byte	0x4
 864 0239 7004     		.2byte	0x470
 865 023b CA000000 		.4byte	0xca
 866 023f 60       		.byte	0x60
 867 0240 0C       		.uleb128 0xc
 868 0241 10050000 		.4byte	.LASF41
 869 0245 04       		.byte	0x4
 870 0246 7104     		.2byte	0x471
 871 0248 CA000000 		.4byte	0xca
 872 024c 64       		.byte	0x64
 873 024d 0C       		.uleb128 0xc
 874 024e 32040000 		.4byte	.LASF42
 875 0252 04       		.byte	0x4
 876 0253 7204     		.2byte	0x472
 877 0255 E8000000 		.4byte	0xe8
 878 0259 68       		.byte	0x68
 879 025a 0C       		.uleb128 0xc
 880 025b 34010000 		.4byte	.LASF43
 881 025f 04       		.byte	0x4
 882 0260 7304     		.2byte	0x473
 883 0262 CA000000 		.4byte	0xca
 884 0266 70       		.byte	0x70
 885 0267 0B       		.uleb128 0xb
 886 0268 43535200 		.ascii	"CSR\000"
 887 026c 04       		.byte	0x4
 888 026d 7404     		.2byte	0x474
 889 026f CA000000 		.4byte	0xca
 890 0273 74       		.byte	0x74
 891 0274 0C       		.uleb128 0xc
 892 0275 3C040000 		.4byte	.LASF44
 893 0279 04       		.byte	0x4
 894 027a 7504     		.2byte	0x475
 895 027c E8000000 		.4byte	0xe8
 896 0280 78       		.byte	0x78
 897 0281 0C       		.uleb128 0xc
ARM GAS  /tmp/ccTVLo7g.s 			page 17


 898 0282 84010000 		.4byte	.LASF45
 899 0286 04       		.byte	0x4
 900 0287 7604     		.2byte	0x476
 901 0289 CA000000 		.4byte	0xca
 902 028d 80       		.byte	0x80
 903 028e 0C       		.uleb128 0xc
 904 028f 39010000 		.4byte	.LASF46
 905 0293 04       		.byte	0x4
 906 0294 7704     		.2byte	0x477
 907 0296 CA000000 		.4byte	0xca
 908 029a 84       		.byte	0x84
 909 029b 0C       		.uleb128 0xc
 910 029c EC040000 		.4byte	.LASF47
 911 02a0 04       		.byte	0x4
 912 02a1 7804     		.2byte	0x478
 913 02a3 CA000000 		.4byte	0xca
 914 02a7 88       		.byte	0x88
 915 02a8 0C       		.uleb128 0xc
 916 02a9 14020000 		.4byte	.LASF48
 917 02ad 04       		.byte	0x4
 918 02ae 7904     		.2byte	0x479
 919 02b0 CA000000 		.4byte	0xca
 920 02b4 8C       		.byte	0x8c
 921 02b5 00       		.byte	0
 922 02b6 0D       		.uleb128 0xd
 923 02b7 3E020000 		.4byte	.LASF49
 924 02bb 04       		.byte	0x4
 925 02bc 7B04     		.2byte	0x47b
 926 02be 0D010000 		.4byte	0x10d
 927 02c2 0A       		.uleb128 0xa
 928 02c3 60       		.byte	0x60
 929 02c4 05       		.byte	0x5
 930 02c5 9E01     		.2byte	0x19e
 931 02c7 DB030000 		.4byte	0x3db
 932 02cb 0B       		.uleb128 0xb
 933 02cc 43523100 		.ascii	"CR1\000"
 934 02d0 05       		.byte	0x5
 935 02d1 9F01     		.2byte	0x19f
 936 02d3 CA000000 		.4byte	0xca
 937 02d7 00       		.byte	0
 938 02d8 0B       		.uleb128 0xb
 939 02d9 43523200 		.ascii	"CR2\000"
 940 02dd 05       		.byte	0x5
 941 02de A001     		.2byte	0x1a0
 942 02e0 CA000000 		.4byte	0xca
 943 02e4 04       		.byte	0x4
 944 02e5 0C       		.uleb128 0xc
 945 02e6 F9020000 		.4byte	.LASF50
 946 02ea 05       		.byte	0x5
 947 02eb A101     		.2byte	0x1a1
 948 02ed CA000000 		.4byte	0xca
 949 02f1 08       		.byte	0x8
 950 02f2 0C       		.uleb128 0xc
 951 02f3 8E030000 		.4byte	.LASF51
 952 02f7 05       		.byte	0x5
 953 02f8 A201     		.2byte	0x1a2
 954 02fa CA000000 		.4byte	0xca
ARM GAS  /tmp/ccTVLo7g.s 			page 18


 955 02fe 0C       		.byte	0xc
 956 02ff 0B       		.uleb128 0xb
 957 0300 535200   		.ascii	"SR\000"
 958 0303 05       		.byte	0x5
 959 0304 A301     		.2byte	0x1a3
 960 0306 CA000000 		.4byte	0xca
 961 030a 10       		.byte	0x10
 962 030b 0B       		.uleb128 0xb
 963 030c 45475200 		.ascii	"EGR\000"
 964 0310 05       		.byte	0x5
 965 0311 A401     		.2byte	0x1a4
 966 0313 CA000000 		.4byte	0xca
 967 0317 14       		.byte	0x14
 968 0318 0C       		.uleb128 0xc
 969 0319 C5020000 		.4byte	.LASF52
 970 031d 05       		.byte	0x5
 971 031e A501     		.2byte	0x1a5
 972 0320 CA000000 		.4byte	0xca
 973 0324 18       		.byte	0x18
 974 0325 0C       		.uleb128 0xc
 975 0326 38000000 		.4byte	.LASF53
 976 032a 05       		.byte	0x5
 977 032b A601     		.2byte	0x1a6
 978 032d CA000000 		.4byte	0xca
 979 0331 1C       		.byte	0x1c
 980 0332 0C       		.uleb128 0xc
 981 0333 0A000000 		.4byte	.LASF54
 982 0337 05       		.byte	0x5
 983 0338 A701     		.2byte	0x1a7
 984 033a CA000000 		.4byte	0xca
 985 033e 20       		.byte	0x20
 986 033f 0B       		.uleb128 0xb
 987 0340 434E5400 		.ascii	"CNT\000"
 988 0344 05       		.byte	0x5
 989 0345 A801     		.2byte	0x1a8
 990 0347 CA000000 		.4byte	0xca
 991 034b 24       		.byte	0x24
 992 034c 0B       		.uleb128 0xb
 993 034d 50534300 		.ascii	"PSC\000"
 994 0351 05       		.byte	0x5
 995 0352 A901     		.2byte	0x1a9
 996 0354 CA000000 		.4byte	0xca
 997 0358 28       		.byte	0x28
 998 0359 0B       		.uleb128 0xb
 999 035a 41525200 		.ascii	"ARR\000"
 1000 035e 05       		.byte	0x5
 1001 035f AA01     		.2byte	0x1aa
 1002 0361 CA000000 		.4byte	0xca
 1003 0365 2C       		.byte	0x2c
 1004 0366 0B       		.uleb128 0xb
 1005 0367 52435200 		.ascii	"RCR\000"
 1006 036b 05       		.byte	0x5
 1007 036c AB01     		.2byte	0x1ab
 1008 036e CA000000 		.4byte	0xca
 1009 0372 30       		.byte	0x30
 1010 0373 0B       		.uleb128 0xb
 1011 0374 43435200 		.ascii	"CCR\000"
ARM GAS  /tmp/ccTVLo7g.s 			page 19


 1012 0378 05       		.byte	0x5
 1013 0379 AC01     		.2byte	0x1ac
 1014 037b DB030000 		.4byte	0x3db
 1015 037f 34       		.byte	0x34
 1016 0380 0C       		.uleb128 0xc
 1017 0381 89030000 		.4byte	.LASF55
 1018 0385 05       		.byte	0x5
 1019 0386 AD01     		.2byte	0x1ad
 1020 0388 CA000000 		.4byte	0xca
 1021 038c 44       		.byte	0x44
 1022 038d 0B       		.uleb128 0xb
 1023 038e 44435200 		.ascii	"DCR\000"
 1024 0392 05       		.byte	0x5
 1025 0393 AE01     		.2byte	0x1ae
 1026 0395 CA000000 		.4byte	0xca
 1027 0399 48       		.byte	0x48
 1028 039a 0C       		.uleb128 0xc
 1029 039b 2D000000 		.4byte	.LASF56
 1030 039f 05       		.byte	0x5
 1031 03a0 AF01     		.2byte	0x1af
 1032 03a2 CA000000 		.4byte	0xca
 1033 03a6 4C       		.byte	0x4c
 1034 03a7 0B       		.uleb128 0xb
 1035 03a8 4F5200   		.ascii	"OR\000"
 1036 03ab 05       		.byte	0x5
 1037 03ac B001     		.2byte	0x1b0
 1038 03ae CA000000 		.4byte	0xca
 1039 03b2 50       		.byte	0x50
 1040 03b3 0C       		.uleb128 0xc
 1041 03b4 E3020000 		.4byte	.LASF57
 1042 03b8 05       		.byte	0x5
 1043 03b9 B101     		.2byte	0x1b1
 1044 03bb CA000000 		.4byte	0xca
 1045 03bf 54       		.byte	0x54
 1046 03c0 0C       		.uleb128 0xc
 1047 03c1 86020000 		.4byte	.LASF58
 1048 03c5 05       		.byte	0x5
 1049 03c6 B201     		.2byte	0x1b2
 1050 03c8 CA000000 		.4byte	0xca
 1051 03cc 58       		.byte	0x58
 1052 03cd 0C       		.uleb128 0xc
 1053 03ce 8B020000 		.4byte	.LASF59
 1054 03d2 05       		.byte	0x5
 1055 03d3 B301     		.2byte	0x1b3
 1056 03d5 CA000000 		.4byte	0xca
 1057 03d9 5C       		.byte	0x5c
 1058 03da 00       		.byte	0
 1059 03db 05       		.uleb128 0x5
 1060 03dc F8000000 		.4byte	0xf8
 1061 03e0 0D       		.uleb128 0xd
 1062 03e1 CA030000 		.4byte	.LASF60
 1063 03e5 05       		.byte	0x5
 1064 03e6 B401     		.2byte	0x1b4
 1065 03e8 C2020000 		.4byte	0x2c2
 1066 03ec 06       		.uleb128 0x6
 1067 03ed 04       		.byte	0x4
 1068 03ee E0030000 		.4byte	0x3e0
ARM GAS  /tmp/ccTVLo7g.s 			page 20


 1069 03f2 0E       		.uleb128 0xe
 1070 03f3 01       		.byte	0x1
 1071 03f4 06       		.byte	0x6
 1072 03f5 55       		.byte	0x55
 1073 03f6 0D040000 		.4byte	0x40d
 1074 03fa 0F       		.uleb128 0xf
 1075 03fb FE020000 		.4byte	.LASF61
 1076 03ff 00       		.sleb128 0
 1077 0400 0F       		.uleb128 0xf
 1078 0401 9D040000 		.4byte	.LASF62
 1079 0405 01       		.sleb128 1
 1080 0406 0F       		.uleb128 0xf
 1081 0407 93040000 		.4byte	.LASF63
 1082 040b 02       		.sleb128 2
 1083 040c 00       		.byte	0
 1084 040d 04       		.uleb128 0x4
 1085 040e F7040000 		.4byte	.LASF64
 1086 0412 06       		.byte	0x6
 1087 0413 59       		.byte	0x59
 1088 0414 F2030000 		.4byte	0x3f2
 1089 0418 04       		.uleb128 0x4
 1090 0419 D6030000 		.4byte	.LASF65
 1091 041d 06       		.byte	0x6
 1092 041e 5E       		.byte	0x5e
 1093 041f 23040000 		.4byte	0x423
 1094 0423 10       		.uleb128 0x10
 1095 0424 D6030000 		.4byte	.LASF65
 1096 0428 14       		.byte	0x14
 1097 0429 07       		.byte	0x7
 1098 042a 6F01     		.2byte	0x16f
 1099 042c 72040000 		.4byte	0x472
 1100 0430 0C       		.uleb128 0xc
 1101 0431 32000000 		.4byte	.LASF66
 1102 0435 07       		.byte	0x7
 1103 0436 7301     		.2byte	0x173
 1104 0438 0D040000 		.4byte	0x40d
 1105 043c 00       		.byte	0
 1106 043d 0C       		.uleb128 0xc
 1107 043e 93010000 		.4byte	.LASF67
 1108 0442 07       		.byte	0x7
 1109 0443 7701     		.2byte	0x177
 1110 0445 5C050000 		.4byte	0x55c
 1111 0449 04       		.byte	0x4
 1112 044a 0C       		.uleb128 0xc
 1113 044b A2020000 		.4byte	.LASF68
 1114 044f 07       		.byte	0x7
 1115 0450 7B01     		.2byte	0x17b
 1116 0452 AC040000 		.4byte	0x4ac
 1117 0456 08       		.byte	0x8
 1118 0457 0C       		.uleb128 0xc
 1119 0458 46040000 		.4byte	.LASF69
 1120 045c 07       		.byte	0x7
 1121 045d 8301     		.2byte	0x183
 1122 045f B8000000 		.4byte	0xb8
 1123 0463 0C       		.byte	0xc
 1124 0464 0B       		.uleb128 0xb
 1125 0465 74696D00 		.ascii	"tim\000"
ARM GAS  /tmp/ccTVLo7g.s 			page 21


 1126 0469 07       		.byte	0x7
 1127 046a 8701     		.2byte	0x187
 1128 046c EC030000 		.4byte	0x3ec
 1129 0470 10       		.byte	0x10
 1130 0471 00       		.byte	0
 1131 0472 04       		.uleb128 0x4
 1132 0473 02050000 		.4byte	.LASF70
 1133 0477 06       		.byte	0x6
 1134 0478 65       		.byte	0x65
 1135 0479 7D040000 		.4byte	0x47d
 1136 047d 06       		.uleb128 0x6
 1137 047e 04       		.byte	0x4
 1138 047f 83040000 		.4byte	0x483
 1139 0483 11       		.uleb128 0x11
 1140 0484 8E040000 		.4byte	0x48e
 1141 0488 12       		.uleb128 0x12
 1142 0489 8E040000 		.4byte	0x48e
 1143 048d 00       		.byte	0
 1144 048e 06       		.uleb128 0x6
 1145 048f 04       		.byte	0x4
 1146 0490 18040000 		.4byte	0x418
 1147 0494 0D       		.uleb128 0xd
 1148 0495 D5040000 		.4byte	.LASF71
 1149 0499 07       		.byte	0x7
 1150 049a 2001     		.2byte	0x120
 1151 049c B8000000 		.4byte	0xb8
 1152 04a0 0D       		.uleb128 0xd
 1153 04a1 5C010000 		.4byte	.LASF72
 1154 04a5 07       		.byte	0x7
 1155 04a6 2501     		.2byte	0x125
 1156 04a8 97000000 		.4byte	0x97
 1157 04ac 0D       		.uleb128 0xd
 1158 04ad 48000000 		.4byte	.LASF73
 1159 04b1 07       		.byte	0x7
 1160 04b2 2A01     		.2byte	0x12a
 1161 04b4 A2000000 		.4byte	0xa2
 1162 04b8 0A       		.uleb128 0xa
 1163 04b9 08       		.byte	0x8
 1164 04ba 07       		.byte	0x7
 1165 04bb 2F01     		.2byte	0x12f
 1166 04bd DC040000 		.4byte	0x4dc
 1167 04c1 0C       		.uleb128 0xc
 1168 04c2 74010000 		.4byte	.LASF74
 1169 04c6 07       		.byte	0x7
 1170 04c7 3301     		.2byte	0x133
 1171 04c9 94040000 		.4byte	0x494
 1172 04cd 00       		.byte	0
 1173 04ce 0C       		.uleb128 0xc
 1174 04cf 1A050000 		.4byte	.LASF75
 1175 04d3 07       		.byte	0x7
 1176 04d4 3901     		.2byte	0x139
 1177 04d6 72040000 		.4byte	0x472
 1178 04da 04       		.byte	0x4
 1179 04db 00       		.byte	0
 1180 04dc 0D       		.uleb128 0xd
 1181 04dd BB040000 		.4byte	.LASF76
 1182 04e1 07       		.byte	0x7
ARM GAS  /tmp/ccTVLo7g.s 			page 22


 1183 04e2 3B01     		.2byte	0x13b
 1184 04e4 B8040000 		.4byte	0x4b8
 1185 04e8 0A       		.uleb128 0xa
 1186 04e9 34       		.byte	0x34
 1187 04ea 07       		.byte	0x7
 1188 04eb 4001     		.2byte	0x140
 1189 04ed 40050000 		.4byte	0x540
 1190 04f1 0C       		.uleb128 0xc
 1191 04f2 AB040000 		.4byte	.LASF77
 1192 04f6 07       		.byte	0x7
 1193 04f7 4601     		.2byte	0x146
 1194 04f9 B8000000 		.4byte	0xb8
 1195 04fd 00       		.byte	0
 1196 04fe 0C       		.uleb128 0xc
 1197 04ff A2020000 		.4byte	.LASF68
 1198 0503 07       		.byte	0x7
 1199 0504 4C01     		.2byte	0x14c
 1200 0506 AC040000 		.4byte	0x4ac
 1201 050a 04       		.byte	0x4
 1202 050b 0C       		.uleb128 0xc
 1203 050c 1A050000 		.4byte	.LASF75
 1204 0510 07       		.byte	0x7
 1205 0511 5201     		.2byte	0x152
 1206 0513 72040000 		.4byte	0x472
 1207 0517 08       		.byte	0x8
 1208 0518 0C       		.uleb128 0xc
 1209 0519 80040000 		.4byte	.LASF78
 1210 051d 07       		.byte	0x7
 1211 051e 5601     		.2byte	0x156
 1212 0520 40050000 		.4byte	0x540
 1213 0524 0C       		.byte	0xc
 1214 0525 0B       		.uleb128 0xb
 1215 0526 63723200 		.ascii	"cr2\000"
 1216 052a 07       		.byte	0x7
 1217 052b 5C01     		.2byte	0x15c
 1218 052d B8000000 		.4byte	0xb8
 1219 0531 2C       		.byte	0x2c
 1220 0532 0C       		.uleb128 0xc
 1221 0533 A6040000 		.4byte	.LASF79
 1222 0537 07       		.byte	0x7
 1223 0538 6901     		.2byte	0x169
 1224 053a B8000000 		.4byte	0xb8
 1225 053e 30       		.byte	0x30
 1226 053f 00       		.byte	0
 1227 0540 08       		.uleb128 0x8
 1228 0541 DC040000 		.4byte	0x4dc
 1229 0545 50050000 		.4byte	0x550
 1230 0549 09       		.uleb128 0x9
 1231 054a CF000000 		.4byte	0xcf
 1232 054e 03       		.byte	0x3
 1233 054f 00       		.byte	0
 1234 0550 0D       		.uleb128 0xd
 1235 0551 D9020000 		.4byte	.LASF80
 1236 0555 07       		.byte	0x7
 1237 0556 6A01     		.2byte	0x16a
 1238 0558 E8040000 		.4byte	0x4e8
 1239 055c 06       		.uleb128 0x6
ARM GAS  /tmp/ccTVLo7g.s 			page 23


 1240 055d 04       		.byte	0x4
 1241 055e 62050000 		.4byte	0x562
 1242 0562 07       		.uleb128 0x7
 1243 0563 50050000 		.4byte	0x550
 1244 0567 13       		.uleb128 0x13
 1245 0568 44010000 		.4byte	.LASF102
 1246 056c 01       		.byte	0x1
 1247 056d 70       		.byte	0x70
 1248 056e 01       		.byte	0x1
 1249 056f 89050000 		.4byte	0x589
 1250 0573 14       		.uleb128 0x14
 1251 0574 F4020000 		.4byte	.LASF86
 1252 0578 01       		.byte	0x1
 1253 0579 70       		.byte	0x70
 1254 057a 8E040000 		.4byte	0x48e
 1255 057e 15       		.uleb128 0x15
 1256 057f 737200   		.ascii	"sr\000"
 1257 0582 01       		.byte	0x1
 1258 0583 71       		.byte	0x71
 1259 0584 A2000000 		.4byte	0xa2
 1260 0588 00       		.byte	0
 1261 0589 16       		.uleb128 0x16
 1262 058a BC020000 		.4byte	.LASF81
 1263 058e 01       		.byte	0x1
 1264 058f C5       		.byte	0xc5
 1265 0590 00000000 		.4byte	.LFB119
 1266 0594 6C000000 		.4byte	.LFE119-.LFB119
 1267 0598 01       		.uleb128 0x1
 1268 0599 9C       		.byte	0x9c
 1269 059a 35060000 		.4byte	0x635
 1270 059e 17       		.uleb128 0x17
 1271 059f 67050000 		.4byte	0x567
 1272 05a3 02000000 		.4byte	.LBB4
 1273 05a7 00000000 		.4byte	.Ldebug_ranges0+0
 1274 05ab 01       		.byte	0x1
 1275 05ac C9       		.byte	0xc9
 1276 05ad 19060000 		.4byte	0x619
 1277 05b1 18       		.uleb128 0x18
 1278 05b2 73050000 		.4byte	0x573
 1279 05b6 06       		.uleb128 0x6
 1280 05b7 03       		.byte	0x3
 1281 05b8 00000000 		.4byte	PWMD2
 1282 05bc 9F       		.byte	0x9f
 1283 05bd 19       		.uleb128 0x19
 1284 05be 00000000 		.4byte	.Ldebug_ranges0+0
 1285 05c2 1A       		.uleb128 0x1a
 1286 05c3 7E050000 		.4byte	0x57e
 1287 05c7 00000000 		.4byte	.LLST0
 1288 05cb 1B       		.uleb128 0x1b
 1289 05cc 34000000 		.4byte	.LVL3
 1290 05d0 DB050000 		.4byte	0x5db
 1291 05d4 1C       		.uleb128 0x1c
 1292 05d5 01       		.uleb128 0x1
 1293 05d6 50       		.byte	0x50
 1294 05d7 02       		.uleb128 0x2
 1295 05d8 75       		.byte	0x75
 1296 05d9 00       		.sleb128 0
ARM GAS  /tmp/ccTVLo7g.s 			page 24


 1297 05da 00       		.byte	0
 1298 05db 1B       		.uleb128 0x1b
 1299 05dc 48000000 		.4byte	.LVL7
 1300 05e0 EB050000 		.4byte	0x5eb
 1301 05e4 1C       		.uleb128 0x1c
 1302 05e5 01       		.uleb128 0x1
 1303 05e6 50       		.byte	0x50
 1304 05e7 02       		.uleb128 0x2
 1305 05e8 75       		.byte	0x75
 1306 05e9 00       		.sleb128 0
 1307 05ea 00       		.byte	0
 1308 05eb 1B       		.uleb128 0x1b
 1309 05ec 52000000 		.4byte	.LVL8
 1310 05f0 FB050000 		.4byte	0x5fb
 1311 05f4 1C       		.uleb128 0x1c
 1312 05f5 01       		.uleb128 0x1
 1313 05f6 50       		.byte	0x50
 1314 05f7 02       		.uleb128 0x2
 1315 05f8 75       		.byte	0x75
 1316 05f9 00       		.sleb128 0
 1317 05fa 00       		.byte	0
 1318 05fb 1B       		.uleb128 0x1b
 1319 05fc 5C000000 		.4byte	.LVL9
 1320 0600 0B060000 		.4byte	0x60b
 1321 0604 1C       		.uleb128 0x1c
 1322 0605 01       		.uleb128 0x1
 1323 0606 50       		.byte	0x50
 1324 0607 02       		.uleb128 0x2
 1325 0608 75       		.byte	0x75
 1326 0609 00       		.sleb128 0
 1327 060a 00       		.byte	0
 1328 060b 1D       		.uleb128 0x1d
 1329 060c 66000000 		.4byte	.LVL10
 1330 0610 1C       		.uleb128 0x1c
 1331 0611 01       		.uleb128 0x1
 1332 0612 50       		.byte	0x50
 1333 0613 02       		.uleb128 0x2
 1334 0614 75       		.byte	0x75
 1335 0615 00       		.sleb128 0
 1336 0616 00       		.byte	0
 1337 0617 00       		.byte	0
 1338 0618 00       		.byte	0
 1339 0619 1E       		.uleb128 0x1e
 1340 061a 08000000 		.4byte	.LVL0
 1341 061e BA070000 		.4byte	0x7ba
 1342 0622 1E       		.uleb128 0x1e
 1343 0623 38000000 		.4byte	.LVL4
 1344 0627 C1070000 		.4byte	0x7c1
 1345 062b 1F       		.uleb128 0x1f
 1346 062c 40000000 		.4byte	.LVL6
 1347 0630 C8070000 		.4byte	0x7c8
 1348 0634 00       		.byte	0
 1349 0635 20       		.uleb128 0x20
 1350 0636 B8030000 		.4byte	.LASF82
 1351 063a 01       		.byte	0x1
 1352 063b 5901     		.2byte	0x159
 1353 063d 00000000 		.4byte	.LFB120
ARM GAS  /tmp/ccTVLo7g.s 			page 25


 1354 0641 18000000 		.4byte	.LFE120-.LFB120
 1355 0645 01       		.uleb128 0x1
 1356 0646 9C       		.byte	0x9c
 1357 0647 5C060000 		.4byte	0x65c
 1358 064b 21       		.uleb128 0x21
 1359 064c 0A000000 		.4byte	.LVL11
 1360 0650 D0070000 		.4byte	0x7d0
 1361 0654 1C       		.uleb128 0x1c
 1362 0655 01       		.uleb128 0x1
 1363 0656 50       		.byte	0x50
 1364 0657 02       		.uleb128 0x2
 1365 0658 74       		.byte	0x74
 1366 0659 00       		.sleb128 0
 1367 065a 00       		.byte	0
 1368 065b 00       		.byte	0
 1369 065c 20       		.uleb128 0x20
 1370 065d CB020000 		.4byte	.LASF83
 1371 0661 01       		.byte	0x1
 1372 0662 8F01     		.2byte	0x18f
 1373 0664 00000000 		.4byte	.LFB121
 1374 0668 18010000 		.4byte	.LFE121-.LFB121
 1375 066c 01       		.uleb128 0x1
 1376 066d 9C       		.byte	0x9c
 1377 066e CF060000 		.4byte	0x6cf
 1378 0672 22       		.uleb128 0x22
 1379 0673 F4020000 		.4byte	.LASF86
 1380 0677 01       		.byte	0x1
 1381 0678 8F01     		.2byte	0x18f
 1382 067a 8E040000 		.4byte	0x48e
 1383 067e 33000000 		.4byte	.LLST1
 1384 0682 23       		.uleb128 0x23
 1385 0683 70736300 		.ascii	"psc\000"
 1386 0687 01       		.byte	0x1
 1387 0688 9001     		.2byte	0x190
 1388 068a B8000000 		.4byte	0xb8
 1389 068e 8B000000 		.4byte	.LLST2
 1390 0692 24       		.uleb128 0x24
 1391 0693 0F020000 		.4byte	.LASF84
 1392 0697 01       		.byte	0x1
 1393 0698 9101     		.2byte	0x191
 1394 069a A2000000 		.4byte	0xa2
 1395 069e 9E000000 		.4byte	.LLST3
 1396 06a2 25       		.uleb128 0x25
 1397 06a3 44000000 		.4byte	.LVL15
 1398 06a7 E1070000 		.4byte	0x7e1
 1399 06ab B9060000 		.4byte	0x6b9
 1400 06af 1C       		.uleb128 0x1c
 1401 06b0 01       		.uleb128 0x1
 1402 06b1 50       		.byte	0x50
 1403 06b2 05       		.uleb128 0x5
 1404 06b3 03       		.byte	0x3
 1405 06b4 00000000 		.4byte	.LC0
 1406 06b8 00       		.byte	0
 1407 06b9 21       		.uleb128 0x21
 1408 06ba 02010000 		.4byte	.LVL34
 1409 06be F2070000 		.4byte	0x7f2
 1410 06c2 1C       		.uleb128 0x1c
ARM GAS  /tmp/ccTVLo7g.s 			page 26


 1411 06c3 01       		.uleb128 0x1
 1412 06c4 51       		.byte	0x51
 1413 06c5 02       		.uleb128 0x2
 1414 06c6 08       		.byte	0x8
 1415 06c7 70       		.byte	0x70
 1416 06c8 1C       		.uleb128 0x1c
 1417 06c9 01       		.uleb128 0x1
 1418 06ca 50       		.byte	0x50
 1419 06cb 01       		.uleb128 0x1
 1420 06cc 4C       		.byte	0x4c
 1421 06cd 00       		.byte	0
 1422 06ce 00       		.byte	0
 1423 06cf 20       		.uleb128 0x20
 1424 06d0 0F000000 		.4byte	.LASF85
 1425 06d4 01       		.byte	0x1
 1426 06d5 5D02     		.2byte	0x25d
 1427 06d7 00000000 		.4byte	.LFB122
 1428 06db 34000000 		.4byte	.LFE122-.LFB122
 1429 06df 01       		.uleb128 0x1
 1430 06e0 9C       		.byte	0x9c
 1431 06e1 05070000 		.4byte	0x705
 1432 06e5 22       		.uleb128 0x22
 1433 06e6 F4020000 		.4byte	.LASF86
 1434 06ea 01       		.byte	0x1
 1435 06eb 5D02     		.2byte	0x25d
 1436 06ed 8E040000 		.4byte	0x48e
 1437 06f1 C8000000 		.4byte	.LLST4
 1438 06f5 21       		.uleb128 0x21
 1439 06f6 20000000 		.4byte	.LVL39
 1440 06fa 09080000 		.4byte	0x809
 1441 06fe 1C       		.uleb128 0x1c
 1442 06ff 01       		.uleb128 0x1
 1443 0700 50       		.byte	0x50
 1444 0701 01       		.uleb128 0x1
 1445 0702 4C       		.byte	0x4c
 1446 0703 00       		.byte	0
 1447 0704 00       		.byte	0
 1448 0705 20       		.uleb128 0x20
 1449 0706 17030000 		.4byte	.LASF87
 1450 070a 01       		.byte	0x1
 1451 070b A302     		.2byte	0x2a3
 1452 070d 00000000 		.4byte	.LFB123
 1453 0711 32000000 		.4byte	.LFE123-.LFB123
 1454 0715 01       		.uleb128 0x1
 1455 0716 9C       		.byte	0x9c
 1456 0717 66070000 		.4byte	0x766
 1457 071b 22       		.uleb128 0x22
 1458 071c F4020000 		.4byte	.LASF86
 1459 0720 01       		.byte	0x1
 1460 0721 A302     		.2byte	0x2a3
 1461 0723 8E040000 		.4byte	0x48e
 1462 0727 02010000 		.4byte	.LLST5
 1463 072b 22       		.uleb128 0x22
 1464 072c EE030000 		.4byte	.LASF88
 1465 0730 01       		.byte	0x1
 1466 0731 A402     		.2byte	0x2a4
 1467 0733 A0040000 		.4byte	0x4a0
ARM GAS  /tmp/ccTVLo7g.s 			page 27


 1468 0737 23010000 		.4byte	.LLST6
 1469 073b 22       		.uleb128 0x22
 1470 073c 1C020000 		.4byte	.LASF89
 1471 0740 01       		.byte	0x1
 1472 0741 A502     		.2byte	0x2a5
 1473 0743 AC040000 		.4byte	0x4ac
 1474 0747 44010000 		.4byte	.LLST7
 1475 074b 26       		.uleb128 0x26
 1476 074c 18000000 		.4byte	.LBB10
 1477 0750 14000000 		.4byte	.LBE10-.LBB10
 1478 0754 24       		.uleb128 0x24
 1479 0755 A6040000 		.4byte	.LASF79
 1480 0759 01       		.byte	0x1
 1481 075a AB02     		.2byte	0x2ab
 1482 075c B8000000 		.4byte	0xb8
 1483 0760 65010000 		.4byte	.LLST8
 1484 0764 00       		.byte	0
 1485 0765 00       		.byte	0
 1486 0766 20       		.uleb128 0x20
 1487 0767 68040000 		.4byte	.LASF90
 1488 076b 01       		.byte	0x1
 1489 076c C102     		.2byte	0x2c1
 1490 076e 00000000 		.4byte	.LFB124
 1491 0772 1E000000 		.4byte	.LFE124-.LFB124
 1492 0776 01       		.uleb128 0x1
 1493 0777 9C       		.byte	0x9c
 1494 0778 9D070000 		.4byte	0x79d
 1495 077c 22       		.uleb128 0x22
 1496 077d F4020000 		.4byte	.LASF86
 1497 0781 01       		.byte	0x1
 1498 0782 C102     		.2byte	0x2c1
 1499 0784 8E040000 		.4byte	0x48e
 1500 0788 78010000 		.4byte	.LLST9
 1501 078c 22       		.uleb128 0x22
 1502 078d EE030000 		.4byte	.LASF88
 1503 0791 01       		.byte	0x1
 1504 0792 C102     		.2byte	0x2c1
 1505 0794 A0040000 		.4byte	0x4a0
 1506 0798 99010000 		.4byte	.LLST10
 1507 079c 00       		.byte	0
 1508 079d 27       		.uleb128 0x27
 1509 079e DF040000 		.4byte	.LASF91
 1510 07a2 08       		.byte	0x8
 1511 07a3 9806     		.2byte	0x698
 1512 07a5 08010000 		.4byte	0x108
 1513 07a9 28       		.uleb128 0x28
 1514 07aa B5040000 		.4byte	.LASF92
 1515 07ae 01       		.byte	0x1
 1516 07af 33       		.byte	0x33
 1517 07b0 18040000 		.4byte	0x418
 1518 07b4 05       		.uleb128 0x5
 1519 07b5 03       		.byte	0x3
 1520 07b6 00000000 		.4byte	PWMD2
 1521 07ba 29       		.uleb128 0x29
 1522 07bb 4C040000 		.4byte	.LASF93
 1523 07bf 09       		.byte	0x9
 1524 07c0 EB       		.byte	0xeb
ARM GAS  /tmp/ccTVLo7g.s 			page 28


 1525 07c1 29       		.uleb128 0x29
 1526 07c2 22020000 		.4byte	.LASF94
 1527 07c6 09       		.byte	0x9
 1528 07c7 EC       		.byte	0xec
 1529 07c8 2A       		.uleb128 0x2a
 1530 07c9 4A020000 		.4byte	.LASF95
 1531 07cd 0A       		.byte	0xa
 1532 07ce 0302     		.2byte	0x203
 1533 07d0 2B       		.uleb128 0x2b
 1534 07d1 A9010000 		.4byte	.LASF96
 1535 07d5 06       		.byte	0x6
 1536 07d6 F3       		.byte	0xf3
 1537 07d7 E1070000 		.4byte	0x7e1
 1538 07db 12       		.uleb128 0x12
 1539 07dc 8E040000 		.4byte	0x48e
 1540 07e0 00       		.byte	0
 1541 07e1 2B       		.uleb128 0x2b
 1542 07e2 E9020000 		.4byte	.LASF97
 1543 07e6 09       		.byte	0x9
 1544 07e7 F6       		.byte	0xf6
 1545 07e8 F2070000 		.4byte	0x7f2
 1546 07ec 12       		.uleb128 0x12
 1547 07ed D6000000 		.4byte	0xd6
 1548 07f1 00       		.byte	0
 1549 07f2 2C       		.uleb128 0x2c
 1550 07f3 36030000 		.4byte	.LASF98
 1551 07f7 0B       		.byte	0xb
 1552 07f8 2301     		.2byte	0x123
 1553 07fa 09080000 		.4byte	0x809
 1554 07fe 12       		.uleb128 0x12
 1555 07ff B8000000 		.4byte	0xb8
 1556 0803 12       		.uleb128 0x12
 1557 0804 B8000000 		.4byte	0xb8
 1558 0808 00       		.byte	0
 1559 0809 2D       		.uleb128 0x2d
 1560 080a 74020000 		.4byte	.LASF103
 1561 080e 0B       		.byte	0xb
 1562 080f 2401     		.2byte	0x124
 1563 0811 12       		.uleb128 0x12
 1564 0812 B8000000 		.4byte	0xb8
 1565 0816 00       		.byte	0
 1566 0817 00       		.byte	0
 1567              		.section	.debug_abbrev,"",%progbits
 1568              	.Ldebug_abbrev0:
 1569 0000 01       		.uleb128 0x1
 1570 0001 11       		.uleb128 0x11
 1571 0002 01       		.byte	0x1
 1572 0003 25       		.uleb128 0x25
 1573 0004 0E       		.uleb128 0xe
 1574 0005 13       		.uleb128 0x13
 1575 0006 0B       		.uleb128 0xb
 1576 0007 03       		.uleb128 0x3
 1577 0008 0E       		.uleb128 0xe
 1578 0009 1B       		.uleb128 0x1b
 1579 000a 0E       		.uleb128 0xe
 1580 000b 55       		.uleb128 0x55
 1581 000c 17       		.uleb128 0x17
ARM GAS  /tmp/ccTVLo7g.s 			page 29


 1582 000d 11       		.uleb128 0x11
 1583 000e 01       		.uleb128 0x1
 1584 000f 10       		.uleb128 0x10
 1585 0010 17       		.uleb128 0x17
 1586 0011 00       		.byte	0
 1587 0012 00       		.byte	0
 1588 0013 02       		.uleb128 0x2
 1589 0014 24       		.uleb128 0x24
 1590 0015 00       		.byte	0
 1591 0016 0B       		.uleb128 0xb
 1592 0017 0B       		.uleb128 0xb
 1593 0018 3E       		.uleb128 0x3e
 1594 0019 0B       		.uleb128 0xb
 1595 001a 03       		.uleb128 0x3
 1596 001b 08       		.uleb128 0x8
 1597 001c 00       		.byte	0
 1598 001d 00       		.byte	0
 1599 001e 03       		.uleb128 0x3
 1600 001f 24       		.uleb128 0x24
 1601 0020 00       		.byte	0
 1602 0021 0B       		.uleb128 0xb
 1603 0022 0B       		.uleb128 0xb
 1604 0023 3E       		.uleb128 0x3e
 1605 0024 0B       		.uleb128 0xb
 1606 0025 03       		.uleb128 0x3
 1607 0026 0E       		.uleb128 0xe
 1608 0027 00       		.byte	0
 1609 0028 00       		.byte	0
 1610 0029 04       		.uleb128 0x4
 1611 002a 16       		.uleb128 0x16
 1612 002b 00       		.byte	0
 1613 002c 03       		.uleb128 0x3
 1614 002d 0E       		.uleb128 0xe
 1615 002e 3A       		.uleb128 0x3a
 1616 002f 0B       		.uleb128 0xb
 1617 0030 3B       		.uleb128 0x3b
 1618 0031 0B       		.uleb128 0xb
 1619 0032 49       		.uleb128 0x49
 1620 0033 13       		.uleb128 0x13
 1621 0034 00       		.byte	0
 1622 0035 00       		.byte	0
 1623 0036 05       		.uleb128 0x5
 1624 0037 35       		.uleb128 0x35
 1625 0038 00       		.byte	0
 1626 0039 49       		.uleb128 0x49
 1627 003a 13       		.uleb128 0x13
 1628 003b 00       		.byte	0
 1629 003c 00       		.byte	0
 1630 003d 06       		.uleb128 0x6
 1631 003e 0F       		.uleb128 0xf
 1632 003f 00       		.byte	0
 1633 0040 0B       		.uleb128 0xb
 1634 0041 0B       		.uleb128 0xb
 1635 0042 49       		.uleb128 0x49
 1636 0043 13       		.uleb128 0x13
 1637 0044 00       		.byte	0
 1638 0045 00       		.byte	0
ARM GAS  /tmp/ccTVLo7g.s 			page 30


 1639 0046 07       		.uleb128 0x7
 1640 0047 26       		.uleb128 0x26
 1641 0048 00       		.byte	0
 1642 0049 49       		.uleb128 0x49
 1643 004a 13       		.uleb128 0x13
 1644 004b 00       		.byte	0
 1645 004c 00       		.byte	0
 1646 004d 08       		.uleb128 0x8
 1647 004e 01       		.uleb128 0x1
 1648 004f 01       		.byte	0x1
 1649 0050 49       		.uleb128 0x49
 1650 0051 13       		.uleb128 0x13
 1651 0052 01       		.uleb128 0x1
 1652 0053 13       		.uleb128 0x13
 1653 0054 00       		.byte	0
 1654 0055 00       		.byte	0
 1655 0056 09       		.uleb128 0x9
 1656 0057 21       		.uleb128 0x21
 1657 0058 00       		.byte	0
 1658 0059 49       		.uleb128 0x49
 1659 005a 13       		.uleb128 0x13
 1660 005b 2F       		.uleb128 0x2f
 1661 005c 0B       		.uleb128 0xb
 1662 005d 00       		.byte	0
 1663 005e 00       		.byte	0
 1664 005f 0A       		.uleb128 0xa
 1665 0060 13       		.uleb128 0x13
 1666 0061 01       		.byte	0x1
 1667 0062 0B       		.uleb128 0xb
 1668 0063 0B       		.uleb128 0xb
 1669 0064 3A       		.uleb128 0x3a
 1670 0065 0B       		.uleb128 0xb
 1671 0066 3B       		.uleb128 0x3b
 1672 0067 05       		.uleb128 0x5
 1673 0068 01       		.uleb128 0x1
 1674 0069 13       		.uleb128 0x13
 1675 006a 00       		.byte	0
 1676 006b 00       		.byte	0
 1677 006c 0B       		.uleb128 0xb
 1678 006d 0D       		.uleb128 0xd
 1679 006e 00       		.byte	0
 1680 006f 03       		.uleb128 0x3
 1681 0070 08       		.uleb128 0x8
 1682 0071 3A       		.uleb128 0x3a
 1683 0072 0B       		.uleb128 0xb
 1684 0073 3B       		.uleb128 0x3b
 1685 0074 05       		.uleb128 0x5
 1686 0075 49       		.uleb128 0x49
 1687 0076 13       		.uleb128 0x13
 1688 0077 38       		.uleb128 0x38
 1689 0078 0B       		.uleb128 0xb
 1690 0079 00       		.byte	0
 1691 007a 00       		.byte	0
 1692 007b 0C       		.uleb128 0xc
 1693 007c 0D       		.uleb128 0xd
 1694 007d 00       		.byte	0
 1695 007e 03       		.uleb128 0x3
ARM GAS  /tmp/ccTVLo7g.s 			page 31


 1696 007f 0E       		.uleb128 0xe
 1697 0080 3A       		.uleb128 0x3a
 1698 0081 0B       		.uleb128 0xb
 1699 0082 3B       		.uleb128 0x3b
 1700 0083 05       		.uleb128 0x5
 1701 0084 49       		.uleb128 0x49
 1702 0085 13       		.uleb128 0x13
 1703 0086 38       		.uleb128 0x38
 1704 0087 0B       		.uleb128 0xb
 1705 0088 00       		.byte	0
 1706 0089 00       		.byte	0
 1707 008a 0D       		.uleb128 0xd
 1708 008b 16       		.uleb128 0x16
 1709 008c 00       		.byte	0
 1710 008d 03       		.uleb128 0x3
 1711 008e 0E       		.uleb128 0xe
 1712 008f 3A       		.uleb128 0x3a
 1713 0090 0B       		.uleb128 0xb
 1714 0091 3B       		.uleb128 0x3b
 1715 0092 05       		.uleb128 0x5
 1716 0093 49       		.uleb128 0x49
 1717 0094 13       		.uleb128 0x13
 1718 0095 00       		.byte	0
 1719 0096 00       		.byte	0
 1720 0097 0E       		.uleb128 0xe
 1721 0098 04       		.uleb128 0x4
 1722 0099 01       		.byte	0x1
 1723 009a 0B       		.uleb128 0xb
 1724 009b 0B       		.uleb128 0xb
 1725 009c 3A       		.uleb128 0x3a
 1726 009d 0B       		.uleb128 0xb
 1727 009e 3B       		.uleb128 0x3b
 1728 009f 0B       		.uleb128 0xb
 1729 00a0 01       		.uleb128 0x1
 1730 00a1 13       		.uleb128 0x13
 1731 00a2 00       		.byte	0
 1732 00a3 00       		.byte	0
 1733 00a4 0F       		.uleb128 0xf
 1734 00a5 28       		.uleb128 0x28
 1735 00a6 00       		.byte	0
 1736 00a7 03       		.uleb128 0x3
 1737 00a8 0E       		.uleb128 0xe
 1738 00a9 1C       		.uleb128 0x1c
 1739 00aa 0D       		.uleb128 0xd
 1740 00ab 00       		.byte	0
 1741 00ac 00       		.byte	0
 1742 00ad 10       		.uleb128 0x10
 1743 00ae 13       		.uleb128 0x13
 1744 00af 01       		.byte	0x1
 1745 00b0 03       		.uleb128 0x3
 1746 00b1 0E       		.uleb128 0xe
 1747 00b2 0B       		.uleb128 0xb
 1748 00b3 0B       		.uleb128 0xb
 1749 00b4 3A       		.uleb128 0x3a
 1750 00b5 0B       		.uleb128 0xb
 1751 00b6 3B       		.uleb128 0x3b
 1752 00b7 05       		.uleb128 0x5
ARM GAS  /tmp/ccTVLo7g.s 			page 32


 1753 00b8 01       		.uleb128 0x1
 1754 00b9 13       		.uleb128 0x13
 1755 00ba 00       		.byte	0
 1756 00bb 00       		.byte	0
 1757 00bc 11       		.uleb128 0x11
 1758 00bd 15       		.uleb128 0x15
 1759 00be 01       		.byte	0x1
 1760 00bf 27       		.uleb128 0x27
 1761 00c0 19       		.uleb128 0x19
 1762 00c1 01       		.uleb128 0x1
 1763 00c2 13       		.uleb128 0x13
 1764 00c3 00       		.byte	0
 1765 00c4 00       		.byte	0
 1766 00c5 12       		.uleb128 0x12
 1767 00c6 05       		.uleb128 0x5
 1768 00c7 00       		.byte	0
 1769 00c8 49       		.uleb128 0x49
 1770 00c9 13       		.uleb128 0x13
 1771 00ca 00       		.byte	0
 1772 00cb 00       		.byte	0
 1773 00cc 13       		.uleb128 0x13
 1774 00cd 2E       		.uleb128 0x2e
 1775 00ce 01       		.byte	0x1
 1776 00cf 03       		.uleb128 0x3
 1777 00d0 0E       		.uleb128 0xe
 1778 00d1 3A       		.uleb128 0x3a
 1779 00d2 0B       		.uleb128 0xb
 1780 00d3 3B       		.uleb128 0x3b
 1781 00d4 0B       		.uleb128 0xb
 1782 00d5 27       		.uleb128 0x27
 1783 00d6 19       		.uleb128 0x19
 1784 00d7 20       		.uleb128 0x20
 1785 00d8 0B       		.uleb128 0xb
 1786 00d9 01       		.uleb128 0x1
 1787 00da 13       		.uleb128 0x13
 1788 00db 00       		.byte	0
 1789 00dc 00       		.byte	0
 1790 00dd 14       		.uleb128 0x14
 1791 00de 05       		.uleb128 0x5
 1792 00df 00       		.byte	0
 1793 00e0 03       		.uleb128 0x3
 1794 00e1 0E       		.uleb128 0xe
 1795 00e2 3A       		.uleb128 0x3a
 1796 00e3 0B       		.uleb128 0xb
 1797 00e4 3B       		.uleb128 0x3b
 1798 00e5 0B       		.uleb128 0xb
 1799 00e6 49       		.uleb128 0x49
 1800 00e7 13       		.uleb128 0x13
 1801 00e8 00       		.byte	0
 1802 00e9 00       		.byte	0
 1803 00ea 15       		.uleb128 0x15
 1804 00eb 34       		.uleb128 0x34
 1805 00ec 00       		.byte	0
 1806 00ed 03       		.uleb128 0x3
 1807 00ee 08       		.uleb128 0x8
 1808 00ef 3A       		.uleb128 0x3a
 1809 00f0 0B       		.uleb128 0xb
ARM GAS  /tmp/ccTVLo7g.s 			page 33


 1810 00f1 3B       		.uleb128 0x3b
 1811 00f2 0B       		.uleb128 0xb
 1812 00f3 49       		.uleb128 0x49
 1813 00f4 13       		.uleb128 0x13
 1814 00f5 00       		.byte	0
 1815 00f6 00       		.byte	0
 1816 00f7 16       		.uleb128 0x16
 1817 00f8 2E       		.uleb128 0x2e
 1818 00f9 01       		.byte	0x1
 1819 00fa 3F       		.uleb128 0x3f
 1820 00fb 19       		.uleb128 0x19
 1821 00fc 03       		.uleb128 0x3
 1822 00fd 0E       		.uleb128 0xe
 1823 00fe 3A       		.uleb128 0x3a
 1824 00ff 0B       		.uleb128 0xb
 1825 0100 3B       		.uleb128 0x3b
 1826 0101 0B       		.uleb128 0xb
 1827 0102 27       		.uleb128 0x27
 1828 0103 19       		.uleb128 0x19
 1829 0104 11       		.uleb128 0x11
 1830 0105 01       		.uleb128 0x1
 1831 0106 12       		.uleb128 0x12
 1832 0107 06       		.uleb128 0x6
 1833 0108 40       		.uleb128 0x40
 1834 0109 18       		.uleb128 0x18
 1835 010a 9742     		.uleb128 0x2117
 1836 010c 19       		.uleb128 0x19
 1837 010d 01       		.uleb128 0x1
 1838 010e 13       		.uleb128 0x13
 1839 010f 00       		.byte	0
 1840 0110 00       		.byte	0
 1841 0111 17       		.uleb128 0x17
 1842 0112 1D       		.uleb128 0x1d
 1843 0113 01       		.byte	0x1
 1844 0114 31       		.uleb128 0x31
 1845 0115 13       		.uleb128 0x13
 1846 0116 52       		.uleb128 0x52
 1847 0117 01       		.uleb128 0x1
 1848 0118 55       		.uleb128 0x55
 1849 0119 17       		.uleb128 0x17
 1850 011a 58       		.uleb128 0x58
 1851 011b 0B       		.uleb128 0xb
 1852 011c 59       		.uleb128 0x59
 1853 011d 0B       		.uleb128 0xb
 1854 011e 01       		.uleb128 0x1
 1855 011f 13       		.uleb128 0x13
 1856 0120 00       		.byte	0
 1857 0121 00       		.byte	0
 1858 0122 18       		.uleb128 0x18
 1859 0123 05       		.uleb128 0x5
 1860 0124 00       		.byte	0
 1861 0125 31       		.uleb128 0x31
 1862 0126 13       		.uleb128 0x13
 1863 0127 02       		.uleb128 0x2
 1864 0128 18       		.uleb128 0x18
 1865 0129 00       		.byte	0
 1866 012a 00       		.byte	0
ARM GAS  /tmp/ccTVLo7g.s 			page 34


 1867 012b 19       		.uleb128 0x19
 1868 012c 0B       		.uleb128 0xb
 1869 012d 01       		.byte	0x1
 1870 012e 55       		.uleb128 0x55
 1871 012f 17       		.uleb128 0x17
 1872 0130 00       		.byte	0
 1873 0131 00       		.byte	0
 1874 0132 1A       		.uleb128 0x1a
 1875 0133 34       		.uleb128 0x34
 1876 0134 00       		.byte	0
 1877 0135 31       		.uleb128 0x31
 1878 0136 13       		.uleb128 0x13
 1879 0137 02       		.uleb128 0x2
 1880 0138 17       		.uleb128 0x17
 1881 0139 00       		.byte	0
 1882 013a 00       		.byte	0
 1883 013b 1B       		.uleb128 0x1b
 1884 013c 898201   		.uleb128 0x4109
 1885 013f 01       		.byte	0x1
 1886 0140 11       		.uleb128 0x11
 1887 0141 01       		.uleb128 0x1
 1888 0142 01       		.uleb128 0x1
 1889 0143 13       		.uleb128 0x13
 1890 0144 00       		.byte	0
 1891 0145 00       		.byte	0
 1892 0146 1C       		.uleb128 0x1c
 1893 0147 8A8201   		.uleb128 0x410a
 1894 014a 00       		.byte	0
 1895 014b 02       		.uleb128 0x2
 1896 014c 18       		.uleb128 0x18
 1897 014d 9142     		.uleb128 0x2111
 1898 014f 18       		.uleb128 0x18
 1899 0150 00       		.byte	0
 1900 0151 00       		.byte	0
 1901 0152 1D       		.uleb128 0x1d
 1902 0153 898201   		.uleb128 0x4109
 1903 0156 01       		.byte	0x1
 1904 0157 11       		.uleb128 0x11
 1905 0158 01       		.uleb128 0x1
 1906 0159 00       		.byte	0
 1907 015a 00       		.byte	0
 1908 015b 1E       		.uleb128 0x1e
 1909 015c 898201   		.uleb128 0x4109
 1910 015f 00       		.byte	0
 1911 0160 11       		.uleb128 0x11
 1912 0161 01       		.uleb128 0x1
 1913 0162 31       		.uleb128 0x31
 1914 0163 13       		.uleb128 0x13
 1915 0164 00       		.byte	0
 1916 0165 00       		.byte	0
 1917 0166 1F       		.uleb128 0x1f
 1918 0167 898201   		.uleb128 0x4109
 1919 016a 00       		.byte	0
 1920 016b 11       		.uleb128 0x11
 1921 016c 01       		.uleb128 0x1
 1922 016d 9542     		.uleb128 0x2115
 1923 016f 19       		.uleb128 0x19
ARM GAS  /tmp/ccTVLo7g.s 			page 35


 1924 0170 31       		.uleb128 0x31
 1925 0171 13       		.uleb128 0x13
 1926 0172 00       		.byte	0
 1927 0173 00       		.byte	0
 1928 0174 20       		.uleb128 0x20
 1929 0175 2E       		.uleb128 0x2e
 1930 0176 01       		.byte	0x1
 1931 0177 3F       		.uleb128 0x3f
 1932 0178 19       		.uleb128 0x19
 1933 0179 03       		.uleb128 0x3
 1934 017a 0E       		.uleb128 0xe
 1935 017b 3A       		.uleb128 0x3a
 1936 017c 0B       		.uleb128 0xb
 1937 017d 3B       		.uleb128 0x3b
 1938 017e 05       		.uleb128 0x5
 1939 017f 27       		.uleb128 0x27
 1940 0180 19       		.uleb128 0x19
 1941 0181 11       		.uleb128 0x11
 1942 0182 01       		.uleb128 0x1
 1943 0183 12       		.uleb128 0x12
 1944 0184 06       		.uleb128 0x6
 1945 0185 40       		.uleb128 0x40
 1946 0186 18       		.uleb128 0x18
 1947 0187 9742     		.uleb128 0x2117
 1948 0189 19       		.uleb128 0x19
 1949 018a 01       		.uleb128 0x1
 1950 018b 13       		.uleb128 0x13
 1951 018c 00       		.byte	0
 1952 018d 00       		.byte	0
 1953 018e 21       		.uleb128 0x21
 1954 018f 898201   		.uleb128 0x4109
 1955 0192 01       		.byte	0x1
 1956 0193 11       		.uleb128 0x11
 1957 0194 01       		.uleb128 0x1
 1958 0195 31       		.uleb128 0x31
 1959 0196 13       		.uleb128 0x13
 1960 0197 00       		.byte	0
 1961 0198 00       		.byte	0
 1962 0199 22       		.uleb128 0x22
 1963 019a 05       		.uleb128 0x5
 1964 019b 00       		.byte	0
 1965 019c 03       		.uleb128 0x3
 1966 019d 0E       		.uleb128 0xe
 1967 019e 3A       		.uleb128 0x3a
 1968 019f 0B       		.uleb128 0xb
 1969 01a0 3B       		.uleb128 0x3b
 1970 01a1 05       		.uleb128 0x5
 1971 01a2 49       		.uleb128 0x49
 1972 01a3 13       		.uleb128 0x13
 1973 01a4 02       		.uleb128 0x2
 1974 01a5 17       		.uleb128 0x17
 1975 01a6 00       		.byte	0
 1976 01a7 00       		.byte	0
 1977 01a8 23       		.uleb128 0x23
 1978 01a9 34       		.uleb128 0x34
 1979 01aa 00       		.byte	0
 1980 01ab 03       		.uleb128 0x3
ARM GAS  /tmp/ccTVLo7g.s 			page 36


 1981 01ac 08       		.uleb128 0x8
 1982 01ad 3A       		.uleb128 0x3a
 1983 01ae 0B       		.uleb128 0xb
 1984 01af 3B       		.uleb128 0x3b
 1985 01b0 05       		.uleb128 0x5
 1986 01b1 49       		.uleb128 0x49
 1987 01b2 13       		.uleb128 0x13
 1988 01b3 02       		.uleb128 0x2
 1989 01b4 17       		.uleb128 0x17
 1990 01b5 00       		.byte	0
 1991 01b6 00       		.byte	0
 1992 01b7 24       		.uleb128 0x24
 1993 01b8 34       		.uleb128 0x34
 1994 01b9 00       		.byte	0
 1995 01ba 03       		.uleb128 0x3
 1996 01bb 0E       		.uleb128 0xe
 1997 01bc 3A       		.uleb128 0x3a
 1998 01bd 0B       		.uleb128 0xb
 1999 01be 3B       		.uleb128 0x3b
 2000 01bf 05       		.uleb128 0x5
 2001 01c0 49       		.uleb128 0x49
 2002 01c1 13       		.uleb128 0x13
 2003 01c2 02       		.uleb128 0x2
 2004 01c3 17       		.uleb128 0x17
 2005 01c4 00       		.byte	0
 2006 01c5 00       		.byte	0
 2007 01c6 25       		.uleb128 0x25
 2008 01c7 898201   		.uleb128 0x4109
 2009 01ca 01       		.byte	0x1
 2010 01cb 11       		.uleb128 0x11
 2011 01cc 01       		.uleb128 0x1
 2012 01cd 31       		.uleb128 0x31
 2013 01ce 13       		.uleb128 0x13
 2014 01cf 01       		.uleb128 0x1
 2015 01d0 13       		.uleb128 0x13
 2016 01d1 00       		.byte	0
 2017 01d2 00       		.byte	0
 2018 01d3 26       		.uleb128 0x26
 2019 01d4 0B       		.uleb128 0xb
 2020 01d5 01       		.byte	0x1
 2021 01d6 11       		.uleb128 0x11
 2022 01d7 01       		.uleb128 0x1
 2023 01d8 12       		.uleb128 0x12
 2024 01d9 06       		.uleb128 0x6
 2025 01da 00       		.byte	0
 2026 01db 00       		.byte	0
 2027 01dc 27       		.uleb128 0x27
 2028 01dd 34       		.uleb128 0x34
 2029 01de 00       		.byte	0
 2030 01df 03       		.uleb128 0x3
 2031 01e0 0E       		.uleb128 0xe
 2032 01e1 3A       		.uleb128 0x3a
 2033 01e2 0B       		.uleb128 0xb
 2034 01e3 3B       		.uleb128 0x3b
 2035 01e4 05       		.uleb128 0x5
 2036 01e5 49       		.uleb128 0x49
 2037 01e6 13       		.uleb128 0x13
ARM GAS  /tmp/ccTVLo7g.s 			page 37


 2038 01e7 3F       		.uleb128 0x3f
 2039 01e8 19       		.uleb128 0x19
 2040 01e9 3C       		.uleb128 0x3c
 2041 01ea 19       		.uleb128 0x19
 2042 01eb 00       		.byte	0
 2043 01ec 00       		.byte	0
 2044 01ed 28       		.uleb128 0x28
 2045 01ee 34       		.uleb128 0x34
 2046 01ef 00       		.byte	0
 2047 01f0 03       		.uleb128 0x3
 2048 01f1 0E       		.uleb128 0xe
 2049 01f2 3A       		.uleb128 0x3a
 2050 01f3 0B       		.uleb128 0xb
 2051 01f4 3B       		.uleb128 0x3b
 2052 01f5 0B       		.uleb128 0xb
 2053 01f6 49       		.uleb128 0x49
 2054 01f7 13       		.uleb128 0x13
 2055 01f8 3F       		.uleb128 0x3f
 2056 01f9 19       		.uleb128 0x19
 2057 01fa 02       		.uleb128 0x2
 2058 01fb 18       		.uleb128 0x18
 2059 01fc 00       		.byte	0
 2060 01fd 00       		.byte	0
 2061 01fe 29       		.uleb128 0x29
 2062 01ff 2E       		.uleb128 0x2e
 2063 0200 00       		.byte	0
 2064 0201 3F       		.uleb128 0x3f
 2065 0202 19       		.uleb128 0x19
 2066 0203 03       		.uleb128 0x3
 2067 0204 0E       		.uleb128 0xe
 2068 0205 3A       		.uleb128 0x3a
 2069 0206 0B       		.uleb128 0xb
 2070 0207 3B       		.uleb128 0x3b
 2071 0208 0B       		.uleb128 0xb
 2072 0209 27       		.uleb128 0x27
 2073 020a 19       		.uleb128 0x19
 2074 020b 3C       		.uleb128 0x3c
 2075 020c 19       		.uleb128 0x19
 2076 020d 00       		.byte	0
 2077 020e 00       		.byte	0
 2078 020f 2A       		.uleb128 0x2a
 2079 0210 2E       		.uleb128 0x2e
 2080 0211 00       		.byte	0
 2081 0212 3F       		.uleb128 0x3f
 2082 0213 19       		.uleb128 0x19
 2083 0214 03       		.uleb128 0x3
 2084 0215 0E       		.uleb128 0xe
 2085 0216 3A       		.uleb128 0x3a
 2086 0217 0B       		.uleb128 0xb
 2087 0218 3B       		.uleb128 0x3b
 2088 0219 05       		.uleb128 0x5
 2089 021a 27       		.uleb128 0x27
 2090 021b 19       		.uleb128 0x19
 2091 021c 3C       		.uleb128 0x3c
 2092 021d 19       		.uleb128 0x19
 2093 021e 00       		.byte	0
 2094 021f 00       		.byte	0
ARM GAS  /tmp/ccTVLo7g.s 			page 38


 2095 0220 2B       		.uleb128 0x2b
 2096 0221 2E       		.uleb128 0x2e
 2097 0222 01       		.byte	0x1
 2098 0223 3F       		.uleb128 0x3f
 2099 0224 19       		.uleb128 0x19
 2100 0225 03       		.uleb128 0x3
 2101 0226 0E       		.uleb128 0xe
 2102 0227 3A       		.uleb128 0x3a
 2103 0228 0B       		.uleb128 0xb
 2104 0229 3B       		.uleb128 0x3b
 2105 022a 0B       		.uleb128 0xb
 2106 022b 27       		.uleb128 0x27
 2107 022c 19       		.uleb128 0x19
 2108 022d 3C       		.uleb128 0x3c
 2109 022e 19       		.uleb128 0x19
 2110 022f 01       		.uleb128 0x1
 2111 0230 13       		.uleb128 0x13
 2112 0231 00       		.byte	0
 2113 0232 00       		.byte	0
 2114 0233 2C       		.uleb128 0x2c
 2115 0234 2E       		.uleb128 0x2e
 2116 0235 01       		.byte	0x1
 2117 0236 3F       		.uleb128 0x3f
 2118 0237 19       		.uleb128 0x19
 2119 0238 03       		.uleb128 0x3
 2120 0239 0E       		.uleb128 0xe
 2121 023a 3A       		.uleb128 0x3a
 2122 023b 0B       		.uleb128 0xb
 2123 023c 3B       		.uleb128 0x3b
 2124 023d 05       		.uleb128 0x5
 2125 023e 27       		.uleb128 0x27
 2126 023f 19       		.uleb128 0x19
 2127 0240 3C       		.uleb128 0x3c
 2128 0241 19       		.uleb128 0x19
 2129 0242 01       		.uleb128 0x1
 2130 0243 13       		.uleb128 0x13
 2131 0244 00       		.byte	0
 2132 0245 00       		.byte	0
 2133 0246 2D       		.uleb128 0x2d
 2134 0247 2E       		.uleb128 0x2e
 2135 0248 01       		.byte	0x1
 2136 0249 3F       		.uleb128 0x3f
 2137 024a 19       		.uleb128 0x19
 2138 024b 03       		.uleb128 0x3
 2139 024c 0E       		.uleb128 0xe
 2140 024d 3A       		.uleb128 0x3a
 2141 024e 0B       		.uleb128 0xb
 2142 024f 3B       		.uleb128 0x3b
 2143 0250 05       		.uleb128 0x5
 2144 0251 27       		.uleb128 0x27
 2145 0252 19       		.uleb128 0x19
 2146 0253 3C       		.uleb128 0x3c
 2147 0254 19       		.uleb128 0x19
 2148 0255 00       		.byte	0
 2149 0256 00       		.byte	0
 2150 0257 00       		.byte	0
 2151              		.section	.debug_loc,"",%progbits
ARM GAS  /tmp/ccTVLo7g.s 			page 39


 2152              	.Ldebug_loc0:
 2153              	.LLST0:
 2154 0000 0C000000 		.4byte	.LVL1
 2155 0004 12000000 		.4byte	.LVL2
 2156 0008 0100     		.2byte	0x1
 2157 000a 52       		.byte	0x52
 2158 000b 12000000 		.4byte	.LVL2
 2159 000f 3C000000 		.4byte	.LVL5
 2160 0013 0600     		.2byte	0x6
 2161 0015 74       		.byte	0x74
 2162 0016 00       		.sleb128 0
 2163 0017 08       		.byte	0x8
 2164 0018 FF       		.byte	0xff
 2165 0019 1A       		.byte	0x1a
 2166 001a 9F       		.byte	0x9f
 2167 001b 40000000 		.4byte	.LVL6
 2168 001f 6C000000 		.4byte	.LFE119
 2169 0023 0600     		.2byte	0x6
 2170 0025 74       		.byte	0x74
 2171 0026 00       		.sleb128 0
 2172 0027 08       		.byte	0x8
 2173 0028 FF       		.byte	0xff
 2174 0029 1A       		.byte	0x1a
 2175 002a 9F       		.byte	0x9f
 2176 002b 00000000 		.4byte	0
 2177 002f 00000000 		.4byte	0
 2178              	.LLST1:
 2179 0033 00000000 		.4byte	.LVL12
 2180 0037 10000000 		.4byte	.LVL13
 2181 003b 0100     		.2byte	0x1
 2182 003d 50       		.byte	0x50
 2183 003e 10000000 		.4byte	.LVL13
 2184 0042 4A000000 		.4byte	.LVL16
 2185 0046 0100     		.2byte	0x1
 2186 0048 54       		.byte	0x54
 2187 0049 4A000000 		.4byte	.LVL16
 2188 004d D0000000 		.4byte	.LVL30
 2189 0051 0400     		.2byte	0x4
 2190 0053 F3       		.byte	0xf3
 2191 0054 01       		.uleb128 0x1
 2192 0055 50       		.byte	0x50
 2193 0056 9F       		.byte	0x9f
 2194 0057 D0000000 		.4byte	.LVL30
 2195 005b D6000000 		.4byte	.LVL31
 2196 005f 0100     		.2byte	0x1
 2197 0061 50       		.byte	0x50
 2198 0062 D6000000 		.4byte	.LVL31
 2199 0066 E4000000 		.4byte	.LVL32
 2200 006a 0100     		.2byte	0x1
 2201 006c 54       		.byte	0x54
 2202 006d E4000000 		.4byte	.LVL32
 2203 0071 FA000000 		.4byte	.LVL33
 2204 0075 0100     		.2byte	0x1
 2205 0077 50       		.byte	0x50
 2206 0078 FA000000 		.4byte	.LVL33
 2207 007c 18010000 		.4byte	.LFE121
 2208 0080 0100     		.2byte	0x1
ARM GAS  /tmp/ccTVLo7g.s 			page 40


 2209 0082 54       		.byte	0x54
 2210 0083 00000000 		.4byte	0
 2211 0087 00000000 		.4byte	0
 2212              	.LLST2:
 2213 008b 30000000 		.4byte	.LVL14
 2214 008f 58000000 		.4byte	.LVL17
 2215 0093 0100     		.2byte	0x1
 2216 0095 55       		.byte	0x55
 2217 0096 00000000 		.4byte	0
 2218 009a 00000000 		.4byte	0
 2219              	.LLST3:
 2220 009e 60000000 		.4byte	.LVL18
 2221 00a2 6A000000 		.4byte	.LVL19
 2222 00a6 0200     		.2byte	0x2
 2223 00a8 30       		.byte	0x30
 2224 00a9 9F       		.byte	0x9f
 2225 00aa 6A000000 		.4byte	.LVL19
 2226 00ae A8000000 		.4byte	.LVL24
 2227 00b2 0100     		.2byte	0x1
 2228 00b4 51       		.byte	0x51
 2229 00b5 BC000000 		.4byte	.LVL25
 2230 00b9 D0000000 		.4byte	.LVL30
 2231 00bd 0100     		.2byte	0x1
 2232 00bf 51       		.byte	0x51
 2233 00c0 00000000 		.4byte	0
 2234 00c4 00000000 		.4byte	0
 2235              	.LLST4:
 2236 00c8 00000000 		.4byte	.LVL35
 2237 00cc 08000000 		.4byte	.LVL36
 2238 00d0 0100     		.2byte	0x1
 2239 00d2 50       		.byte	0x50
 2240 00d3 08000000 		.4byte	.LVL36
 2241 00d7 0A000000 		.4byte	.LVL37
 2242 00db 0400     		.2byte	0x4
 2243 00dd F3       		.byte	0xf3
 2244 00de 01       		.uleb128 0x1
 2245 00df 50       		.byte	0x50
 2246 00e0 9F       		.byte	0x9f
 2247 00e1 0A000000 		.4byte	.LVL37
 2248 00e5 1C000000 		.4byte	.LVL38
 2249 00e9 0100     		.2byte	0x1
 2250 00eb 50       		.byte	0x50
 2251 00ec 1C000000 		.4byte	.LVL38
 2252 00f0 34000000 		.4byte	.LFE122
 2253 00f4 0400     		.2byte	0x4
 2254 00f6 F3       		.byte	0xf3
 2255 00f7 01       		.uleb128 0x1
 2256 00f8 50       		.byte	0x50
 2257 00f9 9F       		.byte	0x9f
 2258 00fa 00000000 		.4byte	0
 2259 00fe 00000000 		.4byte	0
 2260              	.LLST5:
 2261 0102 00000000 		.4byte	.LVL40
 2262 0106 0A000000 		.4byte	.LVL41
 2263 010a 0100     		.2byte	0x1
 2264 010c 50       		.byte	0x50
 2265 010d 0A000000 		.4byte	.LVL41
ARM GAS  /tmp/ccTVLo7g.s 			page 41


 2266 0111 32000000 		.4byte	.LFE123
 2267 0115 0400     		.2byte	0x4
 2268 0117 F3       		.byte	0xf3
 2269 0118 01       		.uleb128 0x1
 2270 0119 50       		.byte	0x50
 2271 011a 9F       		.byte	0x9f
 2272 011b 00000000 		.4byte	0
 2273 011f 00000000 		.4byte	0
 2274              	.LLST6:
 2275 0123 00000000 		.4byte	.LVL40
 2276 0127 20000000 		.4byte	.LVL43
 2277 012b 0100     		.2byte	0x1
 2278 012d 51       		.byte	0x51
 2279 012e 20000000 		.4byte	.LVL43
 2280 0132 32000000 		.4byte	.LFE123
 2281 0136 0400     		.2byte	0x4
 2282 0138 F3       		.byte	0xf3
 2283 0139 01       		.uleb128 0x1
 2284 013a 51       		.byte	0x51
 2285 013b 9F       		.byte	0x9f
 2286 013c 00000000 		.4byte	0
 2287 0140 00000000 		.4byte	0
 2288              	.LLST7:
 2289 0144 00000000 		.4byte	.LVL40
 2290 0148 1C000000 		.4byte	.LVL42
 2291 014c 0100     		.2byte	0x1
 2292 014e 52       		.byte	0x52
 2293 014f 1C000000 		.4byte	.LVL42
 2294 0153 32000000 		.4byte	.LFE123
 2295 0157 0400     		.2byte	0x4
 2296 0159 F3       		.byte	0xf3
 2297 015a 01       		.uleb128 0x1
 2298 015b 52       		.byte	0x52
 2299 015c 9F       		.byte	0x9f
 2300 015d 00000000 		.4byte	0
 2301 0161 00000000 		.4byte	0
 2302              	.LLST8:
 2303 0165 1C000000 		.4byte	.LVL42
 2304 0169 26000000 		.4byte	.LVL44
 2305 016d 0100     		.2byte	0x1
 2306 016f 52       		.byte	0x52
 2307 0170 00000000 		.4byte	0
 2308 0174 00000000 		.4byte	0
 2309              	.LLST9:
 2310 0178 00000000 		.4byte	.LVL45
 2311 017c 0C000000 		.4byte	.LVL46
 2312 0180 0100     		.2byte	0x1
 2313 0182 50       		.byte	0x50
 2314 0183 0C000000 		.4byte	.LVL46
 2315 0187 1E000000 		.4byte	.LFE124
 2316 018b 0400     		.2byte	0x4
 2317 018d F3       		.byte	0xf3
 2318 018e 01       		.uleb128 0x1
 2319 018f 50       		.byte	0x50
 2320 0190 9F       		.byte	0x9f
 2321 0191 00000000 		.4byte	0
 2322 0195 00000000 		.4byte	0
ARM GAS  /tmp/ccTVLo7g.s 			page 42


 2323              	.LLST10:
 2324 0199 00000000 		.4byte	.LVL45
 2325 019d 16000000 		.4byte	.LVL47
 2326 01a1 0100     		.2byte	0x1
 2327 01a3 51       		.byte	0x51
 2328 01a4 16000000 		.4byte	.LVL47
 2329 01a8 1E000000 		.4byte	.LFE124
 2330 01ac 0400     		.2byte	0x4
 2331 01ae F3       		.byte	0xf3
 2332 01af 01       		.uleb128 0x1
 2333 01b0 51       		.byte	0x51
 2334 01b1 9F       		.byte	0x9f
 2335 01b2 00000000 		.4byte	0
 2336 01b6 00000000 		.4byte	0
 2337              		.section	.debug_aranges,"",%progbits
 2338 0000 44000000 		.4byte	0x44
 2339 0004 0200     		.2byte	0x2
 2340 0006 00000000 		.4byte	.Ldebug_info0
 2341 000a 04       		.byte	0x4
 2342 000b 00       		.byte	0
 2343 000c 0000     		.2byte	0
 2344 000e 0000     		.2byte	0
 2345 0010 00000000 		.4byte	.LFB119
 2346 0014 6C000000 		.4byte	.LFE119-.LFB119
 2347 0018 00000000 		.4byte	.LFB120
 2348 001c 18000000 		.4byte	.LFE120-.LFB120
 2349 0020 00000000 		.4byte	.LFB121
 2350 0024 18010000 		.4byte	.LFE121-.LFB121
 2351 0028 00000000 		.4byte	.LFB122
 2352 002c 34000000 		.4byte	.LFE122-.LFB122
 2353 0030 00000000 		.4byte	.LFB123
 2354 0034 32000000 		.4byte	.LFE123-.LFB123
 2355 0038 00000000 		.4byte	.LFB124
 2356 003c 1E000000 		.4byte	.LFE124-.LFB124
 2357 0040 00000000 		.4byte	0
 2358 0044 00000000 		.4byte	0
 2359              		.section	.debug_ranges,"",%progbits
 2360              	.Ldebug_ranges0:
 2361 0000 02000000 		.4byte	.LBB4
 2362 0004 04000000 		.4byte	.LBE4
 2363 0008 08000000 		.4byte	.LBB8
 2364 000c 34000000 		.4byte	.LBE8
 2365 0010 40000000 		.4byte	.LBB9
 2366 0014 6C000000 		.4byte	.LBE9
 2367 0018 00000000 		.4byte	0
 2368 001c 00000000 		.4byte	0
 2369 0020 00000000 		.4byte	.LFB119
 2370 0024 6C000000 		.4byte	.LFE119
 2371 0028 00000000 		.4byte	.LFB120
 2372 002c 18000000 		.4byte	.LFE120
 2373 0030 00000000 		.4byte	.LFB121
 2374 0034 18010000 		.4byte	.LFE121
 2375 0038 00000000 		.4byte	.LFB122
 2376 003c 34000000 		.4byte	.LFE122
 2377 0040 00000000 		.4byte	.LFB123
 2378 0044 32000000 		.4byte	.LFE123
 2379 0048 00000000 		.4byte	.LFB124
ARM GAS  /tmp/ccTVLo7g.s 			page 43


 2380 004c 1E000000 		.4byte	.LFE124
 2381 0050 00000000 		.4byte	0
 2382 0054 00000000 		.4byte	0
 2383              		.section	.debug_line,"",%progbits
 2384              	.Ldebug_line0:
 2385 0000 E9020000 		.section	.debug_str,"MS",%progbits,1
 2385      0200D701 
 2385      00000201 
 2385      FB0E0D00 
 2385      01010101 
 2386              	.LASF36:
 2387 0000 41484231 		.ascii	"AHB1LPENR\000"
 2387      4C50454E 
 2387      5200
 2388              	.LASF54:
 2389 000a 43434552 		.ascii	"CCER\000"
 2389      00
 2390              	.LASF85:
 2391 000f 70776D5F 		.ascii	"pwm_lld_stop\000"
 2391      6C6C645F 
 2391      73746F70 
 2391      00
 2392              	.LASF26:
 2393 001c 41504231 		.ascii	"APB1RSTR\000"
 2393      52535452 
 2393      00
 2394              	.LASF30:
 2395 0025 41484232 		.ascii	"AHB2ENR\000"
 2395      454E5200 
 2396              	.LASF56:
 2397 002d 444D4152 		.ascii	"DMAR\000"
 2397      00
 2398              	.LASF66:
 2399 0032 73746174 		.ascii	"state\000"
 2399      6500
 2400              	.LASF53:
 2401 0038 43434D52 		.ascii	"CCMR2\000"
 2401      3200
 2402              	.LASF3:
 2403 003e 73686F72 		.ascii	"short int\000"
 2403      7420696E 
 2403      7400
 2404              	.LASF73:
 2405 0048 70776D63 		.ascii	"pwmcnt_t\000"
 2405      6E745F74 
 2405      00
 2406              	.LASF99:
 2407 0051 474E5520 		.ascii	"GNU C 4.8.4 20140526 (release) [ARM/embedded-4_8-br"
 2407      4320342E 
 2407      382E3420 
 2407      32303134 
 2407      30353236 
 2408 0084 616E6368 		.ascii	"anch revision 211358] -mcpu=cortex-m4 -mno-thumb-in"
 2408      20726576 
 2408      6973696F 
 2408      6E203231 
 2408      31333538 
ARM GAS  /tmp/ccTVLo7g.s 			page 44


 2409 00b7 74657277 		.ascii	"terwork -mthumb -ggdb -O2 -fomit-frame-pointer -fal"
 2409      6F726B20 
 2409      2D6D7468 
 2409      756D6220 
 2409      2D676764 
 2410 00ea 69676E2D 		.ascii	"ign-functions=16 -ffunction-sections -fdata-section"
 2410      66756E63 
 2410      74696F6E 
 2410      733D3136 
 2410      202D6666 
 2411 011d 73202D66 		.ascii	"s -fno-common\000"
 2411      6E6F2D63 
 2411      6F6D6D6F 
 2411      6E00
 2412              	.LASF18:
 2413 012b 73697A65 		.ascii	"sizetype\000"
 2413      74797065 
 2413      00
 2414              	.LASF43:
 2415 0134 42444352 		.ascii	"BDCR\000"
 2415      00
 2416              	.LASF46:
 2417 0139 504C4C49 		.ascii	"PLLI2SCFGR\000"
 2417      32534346 
 2417      475200
 2418              	.LASF102:
 2419 0144 70776D5F 		.ascii	"pwm_lld_serve_interrupt\000"
 2419      6C6C645F 
 2419      73657276 
 2419      655F696E 
 2419      74657272 
 2420              	.LASF72:
 2421 015c 70776D63 		.ascii	"pwmchannel_t\000"
 2421      68616E6E 
 2421      656C5F74 
 2421      00
 2422              	.LASF9:
 2423 0169 5F5F7569 		.ascii	"__uint32_t\000"
 2423      6E743332 
 2423      5F7400
 2424              	.LASF74:
 2425 0174 6D6F6465 		.ascii	"mode\000"
 2425      00
 2426              	.LASF5:
 2427 0179 5F5F7569 		.ascii	"__uint16_t\000"
 2427      6E743136 
 2427      5F7400
 2428              	.LASF45:
 2429 0184 53534347 		.ascii	"SSCGR\000"
 2429      5200
 2430              	.LASF22:
 2431 018a 41484231 		.ascii	"AHB1RSTR\000"
 2431      52535452 
 2431      00
 2432              	.LASF67:
 2433 0193 636F6E66 		.ascii	"config\000"
 2433      696700
ARM GAS  /tmp/ccTVLo7g.s 			page 45


 2434              	.LASF21:
 2435 019a 43464752 		.ascii	"CFGR\000"
 2435      00
 2436              	.LASF38:
 2437 019f 41484233 		.ascii	"AHB3LPENR\000"
 2437      4C50454E 
 2437      5200
 2438              	.LASF96:
 2439 01a9 70776D4F 		.ascii	"pwmObjectInit\000"
 2439      626A6563 
 2439      74496E69 
 2439      7400
 2440              	.LASF13:
 2441 01b7 75696E74 		.ascii	"uint8_t\000"
 2441      385F7400 
 2442              	.LASF101:
 2443 01bf 2F686F6D 		.ascii	"/home/makkmarci/devel/ChibiOS_2.6.5/testhal/STM32F4"
 2443      652F6D61 
 2443      6B6B6D61 
 2443      7263692F 
 2443      64657665 
 2444 01f2 78782F50 		.ascii	"xx/PWM-ICU/\000"
 2444      574D2D49 
 2444      43552F00 
 2445              	.LASF33:
 2446 01fe 41504231 		.ascii	"APB1ENR\000"
 2446      454E5200 
 2447              	.LASF16:
 2448 0206 75696E74 		.ascii	"uint32_t\000"
 2448      33325F74 
 2448      00
 2449              	.LASF84:
 2450 020f 63636572 		.ascii	"ccer\000"
 2450      00
 2451              	.LASF48:
 2452 0214 44434B43 		.ascii	"DCKCFGR\000"
 2452      46475200 
 2453              	.LASF89:
 2454 021c 77696474 		.ascii	"width\000"
 2454      6800
 2455              	.LASF94:
 2456 0222 6462675F 		.ascii	"dbg_check_leave_isr\000"
 2456      63686563 
 2456      6B5F6C65 
 2456      6176655F 
 2456      69737200 
 2457              	.LASF31:
 2458 0236 41484233 		.ascii	"AHB3ENR\000"
 2458      454E5200 
 2459              	.LASF49:
 2460 023e 5243435F 		.ascii	"RCC_TypeDef\000"
 2460      54797065 
 2460      44656600 
 2461              	.LASF95:
 2462 024a 5F706F72 		.ascii	"_port_irq_epilogue\000"
 2462      745F6972 
 2462      715F6570 
ARM GAS  /tmp/ccTVLo7g.s 			page 46


 2462      696C6F67 
 2462      756500
 2463              	.LASF11:
 2464 025d 6C6F6E67 		.ascii	"long long int\000"
 2464      206C6F6E 
 2464      6720696E 
 2464      7400
 2465              	.LASF8:
 2466 026b 6C6F6E67 		.ascii	"long int\000"
 2466      20696E74 
 2466      00
 2467              	.LASF103:
 2468 0274 6E766963 		.ascii	"nvicDisableVector\000"
 2468      44697361 
 2468      626C6556 
 2468      6563746F 
 2468      7200
 2469              	.LASF58:
 2470 0286 43435235 		.ascii	"CCR5\000"
 2470      00
 2471              	.LASF59:
 2472 028b 43435236 		.ascii	"CCR6\000"
 2472      00
 2473              	.LASF10:
 2474 0290 6C6F6E67 		.ascii	"long unsigned int\000"
 2474      20756E73 
 2474      69676E65 
 2474      6420696E 
 2474      7400
 2475              	.LASF68:
 2476 02a2 70657269 		.ascii	"period\000"
 2476      6F6400
 2477              	.LASF27:
 2478 02a9 41504232 		.ascii	"APB2RSTR\000"
 2478      52535452 
 2478      00
 2479              	.LASF4:
 2480 02b2 5F5F7569 		.ascii	"__uint8_t\000"
 2480      6E74385F 
 2480      7400
 2481              	.LASF81:
 2482 02bc 56656374 		.ascii	"VectorB0\000"
 2482      6F724230 
 2482      00
 2483              	.LASF52:
 2484 02c5 43434D52 		.ascii	"CCMR1\000"
 2484      3100
 2485              	.LASF83:
 2486 02cb 70776D5F 		.ascii	"pwm_lld_start\000"
 2486      6C6C645F 
 2486      73746172 
 2486      7400
 2487              	.LASF80:
 2488 02d9 50574D43 		.ascii	"PWMConfig\000"
 2488      6F6E6669 
 2488      6700
 2489              	.LASF57:
ARM GAS  /tmp/ccTVLo7g.s 			page 47


 2490 02e3 43434D52 		.ascii	"CCMR3\000"
 2490      3300
 2491              	.LASF97:
 2492 02e9 63684462 		.ascii	"chDbgPanic\000"
 2492      6750616E 
 2492      696300
 2493              	.LASF86:
 2494 02f4 70776D70 		.ascii	"pwmp\000"
 2494      00
 2495              	.LASF50:
 2496 02f9 534D4352 		.ascii	"SMCR\000"
 2496      00
 2497              	.LASF61:
 2498 02fe 50574D5F 		.ascii	"PWM_UNINIT\000"
 2498      554E494E 
 2498      495400
 2499              	.LASF2:
 2500 0309 756E7369 		.ascii	"unsigned char\000"
 2500      676E6564 
 2500      20636861 
 2500      7200
 2501              	.LASF87:
 2502 0317 70776D5F 		.ascii	"pwm_lld_enable_channel\000"
 2502      6C6C645F 
 2502      656E6162 
 2502      6C655F63 
 2502      68616E6E 
 2503              	.LASF34:
 2504 032e 41504232 		.ascii	"APB2ENR\000"
 2504      454E5200 
 2505              	.LASF98:
 2506 0336 6E766963 		.ascii	"nvicEnableVector\000"
 2506      456E6162 
 2506      6C655665 
 2506      63746F72 
 2506      00
 2507              	.LASF1:
 2508 0347 7369676E 		.ascii	"signed char\000"
 2508      65642063 
 2508      68617200 
 2509              	.LASF12:
 2510 0353 6C6F6E67 		.ascii	"long long unsigned int\000"
 2510      206C6F6E 
 2510      6720756E 
 2510      7369676E 
 2510      65642069 
 2511              	.LASF0:
 2512 036a 756E7369 		.ascii	"unsigned int\000"
 2512      676E6564 
 2512      20696E74 
 2512      00
 2513              	.LASF23:
 2514 0377 41484232 		.ascii	"AHB2RSTR\000"
 2514      52535452 
 2514      00
 2515              	.LASF14:
 2516 0380 75696E74 		.ascii	"uint16_t\000"
ARM GAS  /tmp/ccTVLo7g.s 			page 48


 2516      31365F74 
 2516      00
 2517              	.LASF55:
 2518 0389 42445452 		.ascii	"BDTR\000"
 2518      00
 2519              	.LASF51:
 2520 038e 44494552 		.ascii	"DIER\000"
 2520      00
 2521              	.LASF20:
 2522 0393 504C4C43 		.ascii	"PLLCFGR\000"
 2522      46475200 
 2523              	.LASF6:
 2524 039b 73686F72 		.ascii	"short unsigned int\000"
 2524      7420756E 
 2524      7369676E 
 2524      65642069 
 2524      6E7400
 2525              	.LASF40:
 2526 03ae 41504231 		.ascii	"APB1LPENR\000"
 2526      4C50454E 
 2526      5200
 2527              	.LASF82:
 2528 03b8 70776D5F 		.ascii	"pwm_lld_init\000"
 2528      6C6C645F 
 2528      696E6974 
 2528      00
 2529              	.LASF19:
 2530 03c5 63686172 		.ascii	"char\000"
 2530      00
 2531              	.LASF60:
 2532 03ca 73746D33 		.ascii	"stm32_tim_t\000"
 2532      325F7469 
 2532      6D5F7400 
 2533              	.LASF65:
 2534 03d6 50574D44 		.ascii	"PWMDriver\000"
 2534      72697665 
 2534      7200
 2535              	.LASF15:
 2536 03e0 696E7433 		.ascii	"int32_t\000"
 2536      325F7400 
 2537              	.LASF17:
 2538 03e8 5F426F6F 		.ascii	"_Bool\000"
 2538      6C00
 2539              	.LASF88:
 2540 03ee 6368616E 		.ascii	"channel\000"
 2540      6E656C00 
 2541              	.LASF37:
 2542 03f6 41484232 		.ascii	"AHB2LPENR\000"
 2542      4C50454E 
 2542      5200
 2543              	.LASF25:
 2544 0400 52455345 		.ascii	"RESERVED0\000"
 2544      52564544 
 2544      3000
 2545              	.LASF28:
 2546 040a 52455345 		.ascii	"RESERVED1\000"
 2546      52564544 
ARM GAS  /tmp/ccTVLo7g.s 			page 49


 2546      3100
 2547              	.LASF32:
 2548 0414 52455345 		.ascii	"RESERVED2\000"
 2548      52564544 
 2548      3200
 2549              	.LASF35:
 2550 041e 52455345 		.ascii	"RESERVED3\000"
 2550      52564544 
 2550      3300
 2551              	.LASF39:
 2552 0428 52455345 		.ascii	"RESERVED4\000"
 2552      52564544 
 2552      3400
 2553              	.LASF42:
 2554 0432 52455345 		.ascii	"RESERVED5\000"
 2554      52564544 
 2554      3500
 2555              	.LASF44:
 2556 043c 52455345 		.ascii	"RESERVED6\000"
 2556      52564544 
 2556      3600
 2557              	.LASF69:
 2558 0446 636C6F63 		.ascii	"clock\000"
 2558      6B00
 2559              	.LASF93:
 2560 044c 6462675F 		.ascii	"dbg_check_enter_isr\000"
 2560      63686563 
 2560      6B5F656E 
 2560      7465725F 
 2560      69737200 
 2561              	.LASF29:
 2562 0460 41484231 		.ascii	"AHB1ENR\000"
 2562      454E5200 
 2563              	.LASF90:
 2564 0468 70776D5F 		.ascii	"pwm_lld_disable_channel\000"
 2564      6C6C645F 
 2564      64697361 
 2564      626C655F 
 2564      6368616E 
 2565              	.LASF78:
 2566 0480 6368616E 		.ascii	"channels\000"
 2566      6E656C73 
 2566      00
 2567              	.LASF7:
 2568 0489 5F5F696E 		.ascii	"__int32_t\000"
 2568      7433325F 
 2568      7400
 2569              	.LASF63:
 2570 0493 50574D5F 		.ascii	"PWM_READY\000"
 2570      52454144 
 2570      5900
 2571              	.LASF62:
 2572 049d 50574D5F 		.ascii	"PWM_STOP\000"
 2572      53544F50 
 2572      00
 2573              	.LASF79:
 2574 04a6 64696572 		.ascii	"dier\000"
ARM GAS  /tmp/ccTVLo7g.s 			page 50


 2574      00
 2575              	.LASF77:
 2576 04ab 66726571 		.ascii	"frequency\000"
 2576      75656E63 
 2576      7900
 2577              	.LASF92:
 2578 04b5 50574D44 		.ascii	"PWMD2\000"
 2578      3200
 2579              	.LASF76:
 2580 04bb 50574D43 		.ascii	"PWMChannelConfig\000"
 2580      68616E6E 
 2580      656C436F 
 2580      6E666967 
 2580      00
 2581              	.LASF24:
 2582 04cc 41484233 		.ascii	"AHB3RSTR\000"
 2582      52535452 
 2582      00
 2583              	.LASF71:
 2584 04d5 70776D6D 		.ascii	"pwmmode_t\000"
 2584      6F64655F 
 2584      7400
 2585              	.LASF91:
 2586 04df 49544D5F 		.ascii	"ITM_RxBuffer\000"
 2586      52784275 
 2586      66666572 
 2586      00
 2587              	.LASF47:
 2588 04ec 504C4C53 		.ascii	"PLLSAICFGR\000"
 2588      41494346 
 2588      475200
 2589              	.LASF64:
 2590 04f7 70776D73 		.ascii	"pwmstate_t\000"
 2590      74617465 
 2590      5F7400
 2591              	.LASF70:
 2592 0502 70776D63 		.ascii	"pwmcallback_t\000"
 2592      616C6C62 
 2592      61636B5F 
 2592      7400
 2593              	.LASF41:
 2594 0510 41504232 		.ascii	"APB2LPENR\000"
 2594      4C50454E 
 2594      5200
 2595              	.LASF75:
 2596 051a 63616C6C 		.ascii	"callback\000"
 2596      6261636B 
 2596      00
 2597              	.LASF100:
 2598 0523 2E2E2F2E 		.ascii	"../../../os/hal/platforms/STM32/TIMv1/pwm_lld.c\000"
 2598      2E2F2E2E 
 2598      2F6F732F 
 2598      68616C2F 
 2598      706C6174 
 2599              		.ident	"GCC: (GNU Tools for ARM Embedded Processors) 4.8.4 20140526 (release) [ARM/embedded-4_8-br
ARM GAS  /tmp/ccTVLo7g.s 			page 51


DEFINED SYMBOLS
                            *ABS*:00000000 pwm_lld.c
     /tmp/ccTVLo7g.s:19     .text.VectorB0:00000000 $t
     /tmp/ccTVLo7g.s:25     .text.VectorB0:00000000 VectorB0
     /tmp/ccTVLo7g.s:136    .text.VectorB0:00000068 $d
     /tmp/ccTVLo7g.s:143    .text.pwm_lld_init:00000000 $t
     /tmp/ccTVLo7g.s:149    .text.pwm_lld_init:00000000 pwm_lld_init
     /tmp/ccTVLo7g.s:171    .text.pwm_lld_init:00000014 $d
     /tmp/ccTVLo7g.s:176    .text.pwm_lld_start:00000000 $t
     /tmp/ccTVLo7g.s:182    .text.pwm_lld_start:00000000 pwm_lld_start
     /tmp/ccTVLo7g.s:408    .text.pwm_lld_start:00000108 $d
     /tmp/ccTVLo7g.s:416    .text.pwm_lld_stop:00000000 $t
     /tmp/ccTVLo7g.s:422    .text.pwm_lld_stop:00000000 pwm_lld_stop
     /tmp/ccTVLo7g.s:471    .text.pwm_lld_stop:0000002c $d
     /tmp/ccTVLo7g.s:477    .text.pwm_lld_enable_channel:00000000 $t
     /tmp/ccTVLo7g.s:483    .text.pwm_lld_enable_channel:00000000 pwm_lld_enable_channel
     /tmp/ccTVLo7g.s:539    .text.pwm_lld_disable_channel:00000000 $t
     /tmp/ccTVLo7g.s:545    .text.pwm_lld_disable_channel:00000000 pwm_lld_disable_channel
     /tmp/ccTVLo7g.s:577    .bss.PWMD2:00000000 PWMD2
     /tmp/ccTVLo7g.s:573    .bss.PWMD2:00000000 $d
     /tmp/ccTVLo7g.s:580    .rodata.str1.4:00000000 $d
                     .debug_frame:00000010 $d
     /tmp/ccTVLo7g.s:142    .text.VectorB0:0000006c $t
     /tmp/ccTVLo7g.s:175    .text.pwm_lld_init:00000018 $t
     /tmp/ccTVLo7g.s:415    .text.pwm_lld_start:00000118 $t
     /tmp/ccTVLo7g.s:476    .text.pwm_lld_stop:00000034 $t

UNDEFINED SYMBOLS
dbg_check_enter_isr
dbg_check_leave_isr
_port_irq_epilogue
pwmObjectInit
chDbgPanic
nvicEnableVector
nvicDisableVector
