ARM GAS  /tmp/ccEepdba.s 			page 1


   1              		.syntax unified
   2              		.cpu cortex-m4
   3              		.fpu softvfp
   4              		.eabi_attribute 20, 1
   5              		.eabi_attribute 21, 1
   6              		.eabi_attribute 23, 3
   7              		.eabi_attribute 24, 1
   8              		.eabi_attribute 25, 1
   9              		.eabi_attribute 26, 1
  10              		.eabi_attribute 30, 2
  11              		.eabi_attribute 34, 1
  12              		.eabi_attribute 18, 4
  13              		.thumb
  14              		.file	"testmsg.c"
  15              		.text
  16              	.Ltext0:
  17              		.cfi_sections	.debug_frame
  18              		.section	.text.msg1_execute,"ax",%progbits
  19              		.align	2
  20              		.p2align 4,,15
  21              		.thumb
  22              		.thumb_func
  23              		.type	msg1_execute, %function
  24              	msg1_execute:
  25              	.LFB8:
  26              		.file 1 "../../../test/testmsg.c"
  27              		.loc 1 67 0
  28              		.cfi_startproc
  29              		@ args = 0, pretend = 0, frame = 0
  30              		@ frame_needed = 0, uses_anonymous_args = 0
  31 0000 10B5     		push	{r4, lr}
  32              		.cfi_def_cfa_offset 8
  33              		.cfi_offset 4, -8
  34              		.cfi_offset 14, -4
  35              		.loc 1 74 0
  36 0002 184A     		ldr	r2, .L2
  37 0004 184B     		ldr	r3, .L2+4
  38 0006 9169     		ldr	r1, [r2, #24]
  39 0008 1868     		ldr	r0, [r3]
  40 000a 8A68     		ldr	r2, [r1, #8]
  41 000c 174B     		ldr	r3, .L2+8
  42              		.loc 1 67 0
  43 000e 82B0     		sub	sp, sp, #8
  44              		.cfi_def_cfa_offset 16
  45              		.loc 1 74 0
  46 0010 0132     		adds	r2, r2, #1
  47 0012 0091     		str	r1, [sp]
  48 0014 4FF4A871 		mov	r1, #336
  49 0018 FFF7FEFF 		bl	chThdCreateStatic
  50              	.LVL0:
  51 001c 144B     		ldr	r3, .L2+12
  52 001e 1860     		str	r0, [r3]
  53              		.loc 1 76 0
  54 0020 FFF7FEFF 		bl	chMsgWait
  55              	.LVL1:
  56              		.loc 1 77 0
  57 0024 846B     		ldr	r4, [r0, #56]
ARM GAS  /tmp/ccEepdba.s 			page 2


  58              	.LVL2:
  59              		.loc 1 78 0
  60 0026 2146     		mov	r1, r4
  61 0028 FFF7FEFF 		bl	chMsgRelease
  62              	.LVL3:
  63              		.loc 1 79 0
  64 002c E0B2     		uxtb	r0, r4
  65 002e FFF7FEFF 		bl	test_emit_token
  66              	.LVL4:
  67              		.loc 1 80 0
  68 0032 FFF7FEFF 		bl	chMsgWait
  69              	.LVL5:
  70              		.loc 1 81 0
  71 0036 846B     		ldr	r4, [r0, #56]
  72              	.LVL6:
  73              		.loc 1 82 0
  74 0038 2146     		mov	r1, r4
  75 003a FFF7FEFF 		bl	chMsgRelease
  76              	.LVL7:
  77              		.loc 1 83 0
  78 003e E0B2     		uxtb	r0, r4
  79 0040 FFF7FEFF 		bl	test_emit_token
  80              	.LVL8:
  81              		.loc 1 84 0
  82 0044 FFF7FEFF 		bl	chMsgWait
  83              	.LVL9:
  84              		.loc 1 85 0
  85 0048 846B     		ldr	r4, [r0, #56]
  86              	.LVL10:
  87              		.loc 1 86 0
  88 004a 2146     		mov	r1, r4
  89 004c FFF7FEFF 		bl	chMsgRelease
  90              	.LVL11:
  91              		.loc 1 87 0
  92 0050 E0B2     		uxtb	r0, r4
  93 0052 FFF7FEFF 		bl	test_emit_token
  94              	.LVL12:
  95              		.loc 1 88 0
  96 0056 0749     		ldr	r1, .L2+16
  97 0058 0120     		movs	r0, #1
  98              		.loc 1 89 0
  99 005a 02B0     		add	sp, sp, #8
 100              		@ sp needed
 101 005c BDE81040 		pop	{r4, lr}
 102              	.LVL13:
 103              		.loc 1 88 0
 104 0060 FFF7FEBF 		b	_test_assert_sequence
 105              	.LVL14:
 106              	.L3:
 107              		.align	2
 108              	.L2:
 109 0064 00000000 		.word	rlist
 110 0068 00000000 		.word	wa
 111 006c 00000000 		.word	thread
 112 0070 00000000 		.word	threads
 113 0074 00000000 		.word	.LC0
 114              		.cfi_endproc
ARM GAS  /tmp/ccEepdba.s 			page 3


 115              	.LFE8:
 116              		.size	msg1_execute, .-msg1_execute
 117 0078 AFF30080 		.section	.text.thread,"ax",%progbits
 117      AFF30080 
 118              		.align	2
 119              		.p2align 4,,15
 120              		.thumb
 121              		.thumb_func
 122              		.type	thread, %function
 123              	thread:
 124              	.LFB7:
 125              		.loc 1 59 0
 126              		.cfi_startproc
 127              		@ args = 0, pretend = 0, frame = 0
 128              		@ frame_needed = 0, uses_anonymous_args = 0
 129              	.LVL15:
 130 0000 10B5     		push	{r4, lr}
 131              		.cfi_def_cfa_offset 8
 132              		.cfi_offset 4, -8
 133              		.cfi_offset 14, -4
 134              		.loc 1 61 0
 135 0002 4121     		movs	r1, #65
 136              		.loc 1 59 0
 137 0004 0446     		mov	r4, r0
 138              		.loc 1 61 0
 139 0006 FFF7FEFF 		bl	chMsgSend
 140              	.LVL16:
 141              		.loc 1 62 0
 142 000a 2046     		mov	r0, r4
 143 000c 4221     		movs	r1, #66
 144 000e FFF7FEFF 		bl	chMsgSend
 145              	.LVL17:
 146              		.loc 1 63 0
 147 0012 2046     		mov	r0, r4
 148 0014 4321     		movs	r1, #67
 149 0016 FFF7FEFF 		bl	chMsgSend
 150              	.LVL18:
 151              		.loc 1 65 0
 152 001a 0020     		movs	r0, #0
 153 001c 10BD     		pop	{r4, pc}
 154              		.cfi_endproc
 155              	.LFE7:
 156              		.size	thread, .-thread
 157              		.global	patternmsg
 158              		.global	testmsg1
 159 001e 00BF     		.section	.rodata.testmsg1,"a",%progbits
 160              		.align	2
 161              		.type	testmsg1, %object
 162              		.size	testmsg1, 16
 163              	testmsg1:
 164 0000 04000000 		.word	.LC1
 165 0004 00000000 		.word	0
 166 0008 00000000 		.word	0
 167 000c 00000000 		.word	msg1_execute
 168              		.section	.rodata.str1.4,"aMS",%progbits,1
 169              		.align	2
 170              	.LC0:
ARM GAS  /tmp/ccEepdba.s 			page 4


 171 0000 41424300 		.ascii	"ABC\000"
 172              	.LC1:
 173 0004 4D657373 		.ascii	"Messages, loop\000"
 173      61676573 
 173      2C206C6F 
 173      6F7000
 174 0013 00       		.section	.rodata.patternmsg,"a",%progbits
 175              		.align	2
 176              		.type	patternmsg, %object
 177              		.size	patternmsg, 8
 178              	patternmsg:
 179 0000 00000000 		.word	testmsg1
 180 0004 00000000 		.word	0
 181              		.text
 182              	.Letext0:
 183              		.file 2 "/opt/ARM/lib/gcc/arm-none-eabi/4.8.4/include/stddef.h"
 184              		.file 3 "/opt/ARM/arm-none-eabi/include/machine/_default_types.h"
 185              		.file 4 "/opt/ARM/arm-none-eabi/include/stdint.h"
 186              		.file 5 "../../../os/ports/GCC/ARMCMx/chtypes.h"
 187              		.file 6 "../../../os/kernel/include/chlists.h"
 188              		.file 7 "../../../os/kernel/include/chthreads.h"
 189              		.file 8 "../../../os/ports/GCC/ARMCMx/chcore_v7m.h"
 190              		.file 9 "../../../os/kernel/include/chschd.h"
 191              		.file 10 "../../../os/kernel/include/chmtx.h"
 192              		.file 11 "../../../test/test.h"
 193              		.file 12 "../../../os/kernel/include/chmsg.h"
 194              		.section	.debug_info,"",%progbits
 195              	.Ldebug_info0:
 196 0000 32070000 		.4byte	0x732
 197 0004 0400     		.2byte	0x4
 198 0006 00000000 		.4byte	.Ldebug_abbrev0
 199 000a 04       		.byte	0x4
 200 000b 01       		.uleb128 0x1
 201 000c 10030000 		.4byte	.LASF87
 202 0010 01       		.byte	0x1
 203 0011 DA010000 		.4byte	.LASF88
 204 0015 CC020000 		.4byte	.LASF89
 205 0019 00000000 		.4byte	.Ldebug_ranges0+0
 206 001d 00000000 		.4byte	0
 207 0021 00000000 		.4byte	.Ldebug_line0
 208 0025 02       		.uleb128 0x2
 209 0026 04       		.byte	0x4
 210 0027 05       		.byte	0x5
 211 0028 696E7400 		.ascii	"int\000"
 212 002c 03       		.uleb128 0x3
 213 002d 0E000000 		.4byte	.LASF2
 214 0031 02       		.byte	0x2
 215 0032 D4       		.byte	0xd4
 216 0033 37000000 		.4byte	0x37
 217 0037 04       		.uleb128 0x4
 218 0038 04       		.byte	0x4
 219 0039 07       		.byte	0x7
 220 003a E4000000 		.4byte	.LASF0
 221 003e 04       		.uleb128 0x4
 222 003f 01       		.byte	0x1
 223 0040 06       		.byte	0x6
 224 0041 64000000 		.4byte	.LASF1
ARM GAS  /tmp/ccEepdba.s 			page 5


 225 0045 03       		.uleb128 0x3
 226 0046 25000000 		.4byte	.LASF3
 227 004a 03       		.byte	0x3
 228 004b 1C       		.byte	0x1c
 229 004c 50000000 		.4byte	0x50
 230 0050 04       		.uleb128 0x4
 231 0051 01       		.byte	0x1
 232 0052 08       		.byte	0x8
 233 0053 31020000 		.4byte	.LASF4
 234 0057 04       		.uleb128 0x4
 235 0058 02       		.byte	0x2
 236 0059 05       		.byte	0x5
 237 005a 49020000 		.4byte	.LASF5
 238 005e 04       		.uleb128 0x4
 239 005f 02       		.byte	0x2
 240 0060 07       		.byte	0x7
 241 0061 19010000 		.4byte	.LASF6
 242 0065 03       		.uleb128 0x3
 243 0066 06040000 		.4byte	.LASF7
 244 006a 03       		.byte	0x3
 245 006b 37       		.byte	0x37
 246 006c 70000000 		.4byte	0x70
 247 0070 04       		.uleb128 0x4
 248 0071 04       		.byte	0x4
 249 0072 05       		.byte	0x5
 250 0073 A1000000 		.4byte	.LASF8
 251 0077 03       		.uleb128 0x3
 252 0078 C5000000 		.4byte	.LASF9
 253 007c 03       		.byte	0x3
 254 007d 38       		.byte	0x38
 255 007e 82000000 		.4byte	0x82
 256 0082 04       		.uleb128 0x4
 257 0083 04       		.byte	0x4
 258 0084 07       		.byte	0x7
 259 0085 F1000000 		.4byte	.LASF10
 260 0089 04       		.uleb128 0x4
 261 008a 08       		.byte	0x8
 262 008b 05       		.byte	0x5
 263 008c 56000000 		.4byte	.LASF11
 264 0090 03       		.uleb128 0x3
 265 0091 F2010000 		.4byte	.LASF12
 266 0095 03       		.byte	0x3
 267 0096 4E       		.byte	0x4e
 268 0097 9B000000 		.4byte	0x9b
 269 009b 04       		.uleb128 0x4
 270 009c 08       		.byte	0x8
 271 009d 07       		.byte	0x7
 272 009e 2F000000 		.4byte	.LASF13
 273 00a2 03       		.uleb128 0x3
 274 00a3 4A040000 		.4byte	.LASF14
 275 00a7 04       		.byte	0x4
 276 00a8 2A       		.byte	0x2a
 277 00a9 45000000 		.4byte	0x45
 278 00ad 03       		.uleb128 0x3
 279 00ae 29020000 		.4byte	.LASF15
 280 00b2 04       		.byte	0x4
 281 00b3 41       		.byte	0x41
ARM GAS  /tmp/ccEepdba.s 			page 6


 282 00b4 65000000 		.4byte	0x65
 283 00b8 03       		.uleb128 0x3
 284 00b9 BB020000 		.4byte	.LASF16
 285 00bd 04       		.byte	0x4
 286 00be 42       		.byte	0x42
 287 00bf 77000000 		.4byte	0x77
 288 00c3 03       		.uleb128 0x3
 289 00c4 1C000000 		.4byte	.LASF17
 290 00c8 04       		.byte	0x4
 291 00c9 4E       		.byte	0x4e
 292 00ca 90000000 		.4byte	0x90
 293 00ce 03       		.uleb128 0x3
 294 00cf 78000000 		.4byte	.LASF18
 295 00d3 05       		.byte	0x5
 296 00d4 2B       		.byte	0x2b
 297 00d5 D9000000 		.4byte	0xd9
 298 00d9 04       		.uleb128 0x4
 299 00da 01       		.byte	0x1
 300 00db 02       		.byte	0x2
 301 00dc 23020000 		.4byte	.LASF19
 302 00e0 03       		.uleb128 0x3
 303 00e1 3A010000 		.4byte	.LASF20
 304 00e5 05       		.byte	0x5
 305 00e6 2C       		.byte	0x2c
 306 00e7 A2000000 		.4byte	0xa2
 307 00eb 03       		.uleb128 0x3
 308 00ec B4000000 		.4byte	.LASF21
 309 00f0 05       		.byte	0x5
 310 00f1 2D       		.byte	0x2d
 311 00f2 A2000000 		.4byte	0xa2
 312 00f6 03       		.uleb128 0x3
 313 00f7 FD010000 		.4byte	.LASF22
 314 00fb 05       		.byte	0x5
 315 00fc 2E       		.byte	0x2e
 316 00fd A2000000 		.4byte	0xa2
 317 0101 03       		.uleb128 0x3
 318 0102 97000000 		.4byte	.LASF23
 319 0106 05       		.byte	0x5
 320 0107 2F       		.byte	0x2f
 321 0108 A2000000 		.4byte	0xa2
 322 010c 03       		.uleb128 0x3
 323 010d 14020000 		.4byte	.LASF24
 324 0111 05       		.byte	0x5
 325 0112 30       		.byte	0x30
 326 0113 B8000000 		.4byte	0xb8
 327 0117 03       		.uleb128 0x3
 328 0118 2C010000 		.4byte	.LASF25
 329 011c 05       		.byte	0x5
 330 011d 31       		.byte	0x31
 331 011e AD000000 		.4byte	0xad
 332 0122 03       		.uleb128 0x3
 333 0123 4E010000 		.4byte	.LASF26
 334 0127 05       		.byte	0x5
 335 0128 33       		.byte	0x33
 336 0129 B8000000 		.4byte	0xb8
 337 012d 03       		.uleb128 0x3
 338 012e F1030000 		.4byte	.LASF27
ARM GAS  /tmp/ccEepdba.s 			page 7


 339 0132 05       		.byte	0x5
 340 0133 35       		.byte	0x35
 341 0134 B8000000 		.4byte	0xb8
 342 0138 03       		.uleb128 0x3
 343 0139 93020000 		.4byte	.LASF28
 344 013d 06       		.byte	0x6
 345 013e 2A       		.byte	0x2a
 346 013f 43010000 		.4byte	0x143
 347 0143 05       		.uleb128 0x5
 348 0144 93020000 		.4byte	.LASF28
 349 0148 4C       		.byte	0x4c
 350 0149 07       		.byte	0x7
 351 014a 5E       		.byte	0x5e
 352 014b 4C020000 		.4byte	0x24c
 353 014f 06       		.uleb128 0x6
 354 0150 84020000 		.4byte	.LASF29
 355 0154 07       		.byte	0x7
 356 0155 5F       		.byte	0x5f
 357 0156 6D020000 		.4byte	0x26d
 358 015a 00       		.byte	0
 359 015b 06       		.uleb128 0x6
 360 015c 05020000 		.4byte	.LASF30
 361 0160 07       		.byte	0x7
 362 0161 61       		.byte	0x61
 363 0162 6D020000 		.4byte	0x26d
 364 0166 04       		.byte	0x4
 365 0167 06       		.uleb128 0x6
 366 0168 4F000000 		.4byte	.LASF31
 367 016c 07       		.byte	0x7
 368 016d 63       		.byte	0x63
 369 016e 0C010000 		.4byte	0x10c
 370 0172 08       		.byte	0x8
 371 0173 06       		.uleb128 0x6
 372 0174 75040000 		.4byte	.LASF32
 373 0178 07       		.byte	0x7
 374 0179 64       		.byte	0x64
 375 017a 32030000 		.4byte	0x332
 376 017e 0C       		.byte	0xc
 377 017f 06       		.uleb128 0x6
 378 0180 BD000000 		.4byte	.LASF33
 379 0184 07       		.byte	0x7
 380 0185 66       		.byte	0x66
 381 0186 6D020000 		.4byte	0x26d
 382 018a 10       		.byte	0x10
 383 018b 06       		.uleb128 0x6
 384 018c 91010000 		.4byte	.LASF34
 385 0190 07       		.byte	0x7
 386 0191 67       		.byte	0x67
 387 0192 6D020000 		.4byte	0x26d
 388 0196 14       		.byte	0x14
 389 0197 06       		.uleb128 0x6
 390 0198 66040000 		.4byte	.LASF35
 391 019c 07       		.byte	0x7
 392 019d 6E       		.byte	0x6e
 393 019e 32040000 		.4byte	0x432
 394 01a2 18       		.byte	0x18
 395 01a3 06       		.uleb128 0x6
ARM GAS  /tmp/ccEepdba.s 			page 8


 396 01a4 D9000000 		.4byte	.LASF36
 397 01a8 07       		.byte	0x7
 398 01a9 74       		.byte	0x74
 399 01aa 44040000 		.4byte	0x444
 400 01ae 1C       		.byte	0x1c
 401 01af 06       		.uleb128 0x6
 402 01b0 53020000 		.4byte	.LASF37
 403 01b4 07       		.byte	0x7
 404 01b5 79       		.byte	0x79
 405 01b6 EB000000 		.4byte	0xeb
 406 01ba 20       		.byte	0x20
 407 01bb 06       		.uleb128 0x6
 408 01bc 8B020000 		.4byte	.LASF38
 409 01c0 07       		.byte	0x7
 410 01c1 7D       		.byte	0x7d
 411 01c2 E0000000 		.4byte	0xe0
 412 01c6 21       		.byte	0x21
 413 01c7 06       		.uleb128 0x6
 414 01c8 33040000 		.4byte	.LASF39
 415 01cc 07       		.byte	0x7
 416 01cd 82       		.byte	0x82
 417 01ce F6000000 		.4byte	0xf6
 418 01d2 22       		.byte	0x22
 419 01d3 06       		.uleb128 0x6
 420 01d4 5B020000 		.4byte	.LASF40
 421 01d8 07       		.byte	0x7
 422 01d9 88       		.byte	0x88
 423 01da 01010000 		.4byte	0x101
 424 01de 23       		.byte	0x23
 425 01df 06       		.uleb128 0x6
 426 01e0 10040000 		.4byte	.LASF41
 427 01e4 07       		.byte	0x7
 428 01e5 8F       		.byte	0x8f
 429 01e6 5A030000 		.4byte	0x35a
 430 01ea 24       		.byte	0x24
 431 01eb 07       		.uleb128 0x7
 432 01ec 705F7500 		.ascii	"p_u\000"
 433 01f0 07       		.byte	0x7
 434 01f1 B4       		.byte	0xb4
 435 01f2 FD030000 		.4byte	0x3fd
 436 01f6 28       		.byte	0x28
 437 01f7 06       		.uleb128 0x6
 438 01f8 7B040000 		.4byte	.LASF42
 439 01fc 07       		.byte	0x7
 440 01fd B9       		.byte	0xb9
 441 01fe 93020000 		.4byte	0x293
 442 0202 2C       		.byte	0x2c
 443 0203 06       		.uleb128 0x6
 444 0204 1E040000 		.4byte	.LASF43
 445 0208 07       		.byte	0x7
 446 0209 BF       		.byte	0xbf
 447 020a 73020000 		.4byte	0x273
 448 020e 30       		.byte	0x30
 449 020f 06       		.uleb128 0x6
 450 0210 08000000 		.4byte	.LASF44
 451 0214 07       		.byte	0x7
 452 0215 C3       		.byte	0xc3
ARM GAS  /tmp/ccEepdba.s 			page 9


 453 0216 17010000 		.4byte	0x117
 454 021a 38       		.byte	0x38
 455 021b 06       		.uleb128 0x6
 456 021c B0020000 		.4byte	.LASF45
 457 0220 07       		.byte	0x7
 458 0221 C9       		.byte	0xc9
 459 0222 22010000 		.4byte	0x122
 460 0226 3C       		.byte	0x3c
 461 0227 06       		.uleb128 0x6
 462 0228 3F020000 		.4byte	.LASF46
 463 022c 07       		.byte	0x7
 464 022d D0       		.byte	0xd0
 465 022e 4A040000 		.4byte	0x44a
 466 0232 40       		.byte	0x40
 467 0233 06       		.uleb128 0x6
 468 0234 FB030000 		.4byte	.LASF47
 469 0238 07       		.byte	0x7
 470 0239 D4       		.byte	0xd4
 471 023a 0C010000 		.4byte	0x10c
 472 023e 44       		.byte	0x44
 473 023f 06       		.uleb128 0x6
 474 0240 70000000 		.4byte	.LASF48
 475 0244 07       		.byte	0x7
 476 0245 DA       		.byte	0xda
 477 0246 A9020000 		.4byte	0x2a9
 478 024a 48       		.byte	0x48
 479 024b 00       		.byte	0
 480 024c 08       		.uleb128 0x8
 481 024d 08       		.byte	0x8
 482 024e 06       		.byte	0x6
 483 024f 61       		.byte	0x61
 484 0250 6D020000 		.4byte	0x26d
 485 0254 06       		.uleb128 0x6
 486 0255 84020000 		.4byte	.LASF29
 487 0259 06       		.byte	0x6
 488 025a 62       		.byte	0x62
 489 025b 6D020000 		.4byte	0x26d
 490 025f 00       		.byte	0
 491 0260 06       		.uleb128 0x6
 492 0261 05020000 		.4byte	.LASF30
 493 0265 06       		.byte	0x6
 494 0266 64       		.byte	0x64
 495 0267 6D020000 		.4byte	0x26d
 496 026b 04       		.byte	0x4
 497 026c 00       		.byte	0
 498 026d 09       		.uleb128 0x9
 499 026e 04       		.byte	0x4
 500 026f 38010000 		.4byte	0x138
 501 0273 03       		.uleb128 0x3
 502 0274 9F010000 		.4byte	.LASF49
 503 0278 06       		.byte	0x6
 504 0279 66       		.byte	0x66
 505 027a 4C020000 		.4byte	0x24c
 506 027e 08       		.uleb128 0x8
 507 027f 04       		.byte	0x4
 508 0280 06       		.byte	0x6
 509 0281 6B       		.byte	0x6b
ARM GAS  /tmp/ccEepdba.s 			page 10


 510 0282 93020000 		.4byte	0x293
 511 0286 06       		.uleb128 0x6
 512 0287 84020000 		.4byte	.LASF29
 513 028b 06       		.byte	0x6
 514 028c 6D       		.byte	0x6d
 515 028d 6D020000 		.4byte	0x26d
 516 0291 00       		.byte	0
 517 0292 00       		.byte	0
 518 0293 03       		.uleb128 0x3
 519 0294 42010000 		.4byte	.LASF50
 520 0298 06       		.byte	0x6
 521 0299 70       		.byte	0x70
 522 029a 7E020000 		.4byte	0x27e
 523 029e 03       		.uleb128 0x3
 524 029f D0000000 		.4byte	.LASF51
 525 02a3 08       		.byte	0x8
 526 02a4 E5       		.byte	0xe5
 527 02a5 A9020000 		.4byte	0x2a9
 528 02a9 0A       		.uleb128 0xa
 529 02aa 04       		.byte	0x4
 530 02ab 03       		.uleb128 0x3
 531 02ac 60010000 		.4byte	.LASF52
 532 02b0 08       		.byte	0x8
 533 02b1 EB       		.byte	0xeb
 534 02b2 C3000000 		.4byte	0xc3
 535 02b6 0B       		.uleb128 0xb
 536 02b7 17040000 		.4byte	.LASF53
 537 02bb 24       		.byte	0x24
 538 02bc 08       		.byte	0x8
 539 02bd 0C01     		.2byte	0x10c
 540 02bf 32030000 		.4byte	0x332
 541 02c3 0C       		.uleb128 0xc
 542 02c4 723400   		.ascii	"r4\000"
 543 02c7 08       		.byte	0x8
 544 02c8 1F01     		.2byte	0x11f
 545 02ca 9E020000 		.4byte	0x29e
 546 02ce 00       		.byte	0
 547 02cf 0C       		.uleb128 0xc
 548 02d0 723500   		.ascii	"r5\000"
 549 02d3 08       		.byte	0x8
 550 02d4 2001     		.2byte	0x120
 551 02d6 9E020000 		.4byte	0x29e
 552 02da 04       		.byte	0x4
 553 02db 0C       		.uleb128 0xc
 554 02dc 723600   		.ascii	"r6\000"
 555 02df 08       		.byte	0x8
 556 02e0 2101     		.2byte	0x121
 557 02e2 9E020000 		.4byte	0x29e
 558 02e6 08       		.byte	0x8
 559 02e7 0C       		.uleb128 0xc
 560 02e8 723700   		.ascii	"r7\000"
 561 02eb 08       		.byte	0x8
 562 02ec 2201     		.2byte	0x122
 563 02ee 9E020000 		.4byte	0x29e
 564 02f2 0C       		.byte	0xc
 565 02f3 0C       		.uleb128 0xc
 566 02f4 723800   		.ascii	"r8\000"
ARM GAS  /tmp/ccEepdba.s 			page 11


 567 02f7 08       		.byte	0x8
 568 02f8 2301     		.2byte	0x123
 569 02fa 9E020000 		.4byte	0x29e
 570 02fe 10       		.byte	0x10
 571 02ff 0C       		.uleb128 0xc
 572 0300 723900   		.ascii	"r9\000"
 573 0303 08       		.byte	0x8
 574 0304 2401     		.2byte	0x124
 575 0306 9E020000 		.4byte	0x29e
 576 030a 14       		.byte	0x14
 577 030b 0C       		.uleb128 0xc
 578 030c 72313000 		.ascii	"r10\000"
 579 0310 08       		.byte	0x8
 580 0311 2501     		.2byte	0x125
 581 0313 9E020000 		.4byte	0x29e
 582 0317 18       		.byte	0x18
 583 0318 0C       		.uleb128 0xc
 584 0319 72313100 		.ascii	"r11\000"
 585 031d 08       		.byte	0x8
 586 031e 2601     		.2byte	0x126
 587 0320 9E020000 		.4byte	0x29e
 588 0324 1C       		.byte	0x1c
 589 0325 0C       		.uleb128 0xc
 590 0326 6C7200   		.ascii	"lr\000"
 591 0329 08       		.byte	0x8
 592 032a 2701     		.2byte	0x127
 593 032c 9E020000 		.4byte	0x29e
 594 0330 20       		.byte	0x20
 595 0331 00       		.byte	0
 596 0332 0B       		.uleb128 0xb
 597 0333 11010000 		.4byte	.LASF54
 598 0337 04       		.byte	0x4
 599 0338 08       		.byte	0x8
 600 0339 3101     		.2byte	0x131
 601 033b 4D030000 		.4byte	0x34d
 602 033f 0C       		.uleb128 0xc
 603 0340 72313300 		.ascii	"r13\000"
 604 0344 08       		.byte	0x8
 605 0345 3201     		.2byte	0x132
 606 0347 4D030000 		.4byte	0x34d
 607 034b 00       		.byte	0
 608 034c 00       		.byte	0
 609 034d 09       		.uleb128 0x9
 610 034e 04       		.byte	0x4
 611 034f B6020000 		.4byte	0x2b6
 612 0353 04       		.uleb128 0x4
 613 0354 04       		.byte	0x4
 614 0355 07       		.byte	0x7
 615 0356 88010000 		.4byte	.LASF55
 616 035a 0D       		.uleb128 0xd
 617 035b 2D010000 		.4byte	0x12d
 618 035f 08       		.uleb128 0x8
 619 0360 1C       		.byte	0x1c
 620 0361 09       		.byte	0x9
 621 0362 5E       		.byte	0x5e
 622 0363 B0030000 		.4byte	0x3b0
 623 0367 06       		.uleb128 0x6
ARM GAS  /tmp/ccEepdba.s 			page 12


 624 0368 C4020000 		.4byte	.LASF56
 625 036c 09       		.byte	0x9
 626 036d 5F       		.byte	0x5f
 627 036e 73020000 		.4byte	0x273
 628 0372 00       		.byte	0
 629 0373 06       		.uleb128 0x6
 630 0374 6D020000 		.4byte	.LASF57
 631 0378 09       		.byte	0x9
 632 0379 60       		.byte	0x60
 633 037a 0C010000 		.4byte	0x10c
 634 037e 08       		.byte	0x8
 635 037f 06       		.uleb128 0x6
 636 0380 99010000 		.4byte	.LASF58
 637 0384 09       		.byte	0x9
 638 0385 62       		.byte	0x62
 639 0386 32030000 		.4byte	0x332
 640 038a 0C       		.byte	0xc
 641 038b 06       		.uleb128 0x6
 642 038c 32010000 		.4byte	.LASF59
 643 0390 09       		.byte	0x9
 644 0391 65       		.byte	0x65
 645 0392 6D020000 		.4byte	0x26d
 646 0396 10       		.byte	0x10
 647 0397 06       		.uleb128 0x6
 648 0398 D2010000 		.4byte	.LASF60
 649 039c 09       		.byte	0x9
 650 039d 66       		.byte	0x66
 651 039e 6D020000 		.4byte	0x26d
 652 03a2 14       		.byte	0x14
 653 03a3 06       		.uleb128 0x6
 654 03a4 C8010000 		.4byte	.LASF61
 655 03a8 09       		.byte	0x9
 656 03a9 69       		.byte	0x69
 657 03aa 6D020000 		.4byte	0x26d
 658 03ae 18       		.byte	0x18
 659 03af 00       		.byte	0
 660 03b0 03       		.uleb128 0x3
 661 03b1 3A040000 		.4byte	.LASF62
 662 03b5 09       		.byte	0x9
 663 03b6 6B       		.byte	0x6b
 664 03b7 5F030000 		.4byte	0x35f
 665 03bb 05       		.uleb128 0x5
 666 03bc 5A010000 		.4byte	.LASF63
 667 03c0 10       		.byte	0x10
 668 03c1 0A       		.byte	0xa
 669 03c2 2C       		.byte	0x2c
 670 03c3 EC030000 		.4byte	0x3ec
 671 03c7 06       		.uleb128 0x6
 672 03c8 7F000000 		.4byte	.LASF64
 673 03cc 0A       		.byte	0xa
 674 03cd 2D       		.byte	0x2d
 675 03ce 73020000 		.4byte	0x273
 676 03d2 00       		.byte	0
 677 03d3 06       		.uleb128 0x6
 678 03d4 6D040000 		.4byte	.LASF65
 679 03d8 0A       		.byte	0xa
 680 03d9 2F       		.byte	0x2f
ARM GAS  /tmp/ccEepdba.s 			page 13


 681 03da 6D020000 		.4byte	0x26d
 682 03de 08       		.byte	0x8
 683 03df 06       		.uleb128 0x6
 684 03e0 EA030000 		.4byte	.LASF66
 685 03e4 0A       		.byte	0xa
 686 03e5 31       		.byte	0x31
 687 03e6 EC030000 		.4byte	0x3ec
 688 03ea 0C       		.byte	0xc
 689 03eb 00       		.byte	0
 690 03ec 09       		.uleb128 0x9
 691 03ed 04       		.byte	0x4
 692 03ee BB030000 		.4byte	0x3bb
 693 03f2 03       		.uleb128 0x3
 694 03f3 5A010000 		.4byte	.LASF63
 695 03f7 0A       		.byte	0xa
 696 03f8 33       		.byte	0x33
 697 03f9 BB030000 		.4byte	0x3bb
 698 03fd 0E       		.uleb128 0xe
 699 03fe 04       		.byte	0x4
 700 03ff 07       		.byte	0x7
 701 0400 96       		.byte	0x96
 702 0401 32040000 		.4byte	0x432
 703 0405 0F       		.uleb128 0xf
 704 0406 15000000 		.4byte	.LASF67
 705 040a 07       		.byte	0x7
 706 040b 9D       		.byte	0x9d
 707 040c 17010000 		.4byte	0x117
 708 0410 0F       		.uleb128 0xf
 709 0411 46000000 		.4byte	.LASF68
 710 0415 07       		.byte	0x7
 711 0416 A4       		.byte	0xa4
 712 0417 17010000 		.4byte	0x117
 713 041b 0F       		.uleb128 0xf
 714 041c 5F040000 		.4byte	.LASF69
 715 0420 07       		.byte	0x7
 716 0421 AB       		.byte	0xab
 717 0422 A9020000 		.4byte	0x2a9
 718 0426 0F       		.uleb128 0xf
 719 0427 7D020000 		.4byte	.LASF70
 720 042b 07       		.byte	0x7
 721 042c B2       		.byte	0xb2
 722 042d 22010000 		.4byte	0x122
 723 0431 00       		.byte	0
 724 0432 09       		.uleb128 0x9
 725 0433 04       		.byte	0x4
 726 0434 38040000 		.4byte	0x438
 727 0438 10       		.uleb128 0x10
 728 0439 3D040000 		.4byte	0x43d
 729 043d 04       		.uleb128 0x4
 730 043e 01       		.byte	0x1
 731 043f 08       		.byte	0x8
 732 0440 0B030000 		.4byte	.LASF71
 733 0444 09       		.uleb128 0x9
 734 0445 04       		.byte	0x4
 735 0446 AB020000 		.4byte	0x2ab
 736 044a 09       		.uleb128 0x9
 737 044b 04       		.byte	0x4
ARM GAS  /tmp/ccEepdba.s 			page 14


 738 044c F2030000 		.4byte	0x3f2
 739 0450 03       		.uleb128 0x3
 740 0451 00000000 		.4byte	.LASF72
 741 0455 07       		.byte	0x7
 742 0456 E5       		.byte	0xe5
 743 0457 5B040000 		.4byte	0x45b
 744 045b 09       		.uleb128 0x9
 745 045c 04       		.byte	0x4
 746 045d 61040000 		.4byte	0x461
 747 0461 11       		.uleb128 0x11
 748 0462 17010000 		.4byte	0x117
 749 0466 70040000 		.4byte	0x470
 750 046a 12       		.uleb128 0x12
 751 046b A9020000 		.4byte	0x2a9
 752 046f 00       		.byte	0
 753 0470 05       		.uleb128 0x5
 754 0471 A7020000 		.4byte	.LASF73
 755 0475 10       		.byte	0x10
 756 0476 0B       		.byte	0xb
 757 0477 3B       		.byte	0x3b
 758 0478 AD040000 		.4byte	0x4ad
 759 047c 06       		.uleb128 0x6
 760 047d 0C010000 		.4byte	.LASF74
 761 0481 0B       		.byte	0xb
 762 0482 3C       		.byte	0x3c
 763 0483 32040000 		.4byte	0x432
 764 0487 00       		.byte	0
 765 0488 06       		.uleb128 0x6
 766 0489 AC010000 		.4byte	.LASF75
 767 048d 0B       		.byte	0xb
 768 048e 3D       		.byte	0x3d
 769 048f AE040000 		.4byte	0x4ae
 770 0493 04       		.byte	0x4
 771 0494 06       		.uleb128 0x6
 772 0495 03010000 		.4byte	.LASF76
 773 0499 0B       		.byte	0xb
 774 049a 3E       		.byte	0x3e
 775 049b AE040000 		.4byte	0x4ae
 776 049f 08       		.byte	0x8
 777 04a0 06       		.uleb128 0x6
 778 04a1 0C020000 		.4byte	.LASF77
 779 04a5 0B       		.byte	0xb
 780 04a6 3F       		.byte	0x3f
 781 04a7 AE040000 		.4byte	0x4ae
 782 04ab 0C       		.byte	0xc
 783 04ac 00       		.byte	0
 784 04ad 13       		.uleb128 0x13
 785 04ae 09       		.uleb128 0x9
 786 04af 04       		.byte	0x4
 787 04b0 AD040000 		.4byte	0x4ad
 788 04b4 14       		.uleb128 0x14
 789 04b5 52040000 		.4byte	.LASF90
 790 04b9 01       		.byte	0x1
 791 04ba 43       		.byte	0x43
 792 04bb 00000000 		.4byte	.LFB8
 793 04bf 78000000 		.4byte	.LFE8-.LFB8
 794 04c3 01       		.uleb128 0x1
ARM GAS  /tmp/ccEepdba.s 			page 15


 795 04c4 9C       		.byte	0x9c
 796 04c5 B0050000 		.4byte	0x5b0
 797 04c9 15       		.uleb128 0x15
 798 04ca 747000   		.ascii	"tp\000"
 799 04cd 01       		.byte	0x1
 800 04ce 44       		.byte	0x44
 801 04cf 6D020000 		.4byte	0x26d
 802 04d3 00000000 		.4byte	.LLST0
 803 04d7 15       		.uleb128 0x15
 804 04d8 6D736700 		.ascii	"msg\000"
 805 04dc 01       		.byte	0x1
 806 04dd 45       		.byte	0x45
 807 04de 17010000 		.4byte	0x117
 808 04e2 29000000 		.4byte	.LLST1
 809 04e6 16       		.uleb128 0x16
 810 04e7 1C000000 		.4byte	.LVL0
 811 04eb A3060000 		.4byte	0x6a3
 812 04ef 04050000 		.4byte	0x504
 813 04f3 17       		.uleb128 0x17
 814 04f4 01       		.uleb128 0x1
 815 04f5 53       		.byte	0x53
 816 04f6 05       		.uleb128 0x5
 817 04f7 03       		.byte	0x3
 818 04f8 00000000 		.4byte	thread
 819 04fc 17       		.uleb128 0x17
 820 04fd 01       		.uleb128 0x1
 821 04fe 51       		.byte	0x51
 822 04ff 03       		.uleb128 0x3
 823 0500 0A       		.byte	0xa
 824 0501 5001     		.2byte	0x150
 825 0503 00       		.byte	0
 826 0504 18       		.uleb128 0x18
 827 0505 24000000 		.4byte	.LVL1
 828 0509 CD060000 		.4byte	0x6cd
 829 050d 16       		.uleb128 0x16
 830 050e 2C000000 		.4byte	.LVL3
 831 0512 D8060000 		.4byte	0x6d8
 832 0516 21050000 		.4byte	0x521
 833 051a 17       		.uleb128 0x17
 834 051b 01       		.uleb128 0x1
 835 051c 51       		.byte	0x51
 836 051d 02       		.uleb128 0x2
 837 051e 74       		.byte	0x74
 838 051f 00       		.sleb128 0
 839 0520 00       		.byte	0
 840 0521 16       		.uleb128 0x16
 841 0522 32000000 		.4byte	.LVL4
 842 0526 EE060000 		.4byte	0x6ee
 843 052a 35050000 		.4byte	0x535
 844 052e 17       		.uleb128 0x17
 845 052f 01       		.uleb128 0x1
 846 0530 50       		.byte	0x50
 847 0531 02       		.uleb128 0x2
 848 0532 74       		.byte	0x74
 849 0533 00       		.sleb128 0
 850 0534 00       		.byte	0
 851 0535 18       		.uleb128 0x18
ARM GAS  /tmp/ccEepdba.s 			page 16


 852 0536 36000000 		.4byte	.LVL5
 853 053a CD060000 		.4byte	0x6cd
 854 053e 16       		.uleb128 0x16
 855 053f 3E000000 		.4byte	.LVL7
 856 0543 D8060000 		.4byte	0x6d8
 857 0547 52050000 		.4byte	0x552
 858 054b 17       		.uleb128 0x17
 859 054c 01       		.uleb128 0x1
 860 054d 51       		.byte	0x51
 861 054e 02       		.uleb128 0x2
 862 054f 74       		.byte	0x74
 863 0550 00       		.sleb128 0
 864 0551 00       		.byte	0
 865 0552 16       		.uleb128 0x16
 866 0553 44000000 		.4byte	.LVL8
 867 0557 EE060000 		.4byte	0x6ee
 868 055b 66050000 		.4byte	0x566
 869 055f 17       		.uleb128 0x17
 870 0560 01       		.uleb128 0x1
 871 0561 50       		.byte	0x50
 872 0562 02       		.uleb128 0x2
 873 0563 74       		.byte	0x74
 874 0564 00       		.sleb128 0
 875 0565 00       		.byte	0
 876 0566 18       		.uleb128 0x18
 877 0567 48000000 		.4byte	.LVL9
 878 056b CD060000 		.4byte	0x6cd
 879 056f 16       		.uleb128 0x16
 880 0570 50000000 		.4byte	.LVL11
 881 0574 D8060000 		.4byte	0x6d8
 882 0578 83050000 		.4byte	0x583
 883 057c 17       		.uleb128 0x17
 884 057d 01       		.uleb128 0x1
 885 057e 51       		.byte	0x51
 886 057f 02       		.uleb128 0x2
 887 0580 74       		.byte	0x74
 888 0581 00       		.sleb128 0
 889 0582 00       		.byte	0
 890 0583 16       		.uleb128 0x16
 891 0584 56000000 		.4byte	.LVL12
 892 0588 EE060000 		.4byte	0x6ee
 893 058c 97050000 		.4byte	0x597
 894 0590 17       		.uleb128 0x17
 895 0591 01       		.uleb128 0x1
 896 0592 50       		.byte	0x50
 897 0593 02       		.uleb128 0x2
 898 0594 74       		.byte	0x74
 899 0595 00       		.sleb128 0
 900 0596 00       		.byte	0
 901 0597 19       		.uleb128 0x19
 902 0598 64000000 		.4byte	.LVL14
 903 059c FF060000 		.4byte	0x6ff
 904 05a0 17       		.uleb128 0x17
 905 05a1 01       		.uleb128 0x1
 906 05a2 51       		.byte	0x51
 907 05a3 05       		.uleb128 0x5
 908 05a4 03       		.byte	0x3
ARM GAS  /tmp/ccEepdba.s 			page 17


 909 05a5 00000000 		.4byte	.LC0
 910 05a9 17       		.uleb128 0x17
 911 05aa 01       		.uleb128 0x1
 912 05ab 50       		.byte	0x50
 913 05ac 01       		.uleb128 0x1
 914 05ad 31       		.byte	0x31
 915 05ae 00       		.byte	0
 916 05af 00       		.byte	0
 917 05b0 1A       		.uleb128 0x1a
 918 05b1 1C020000 		.4byte	.LASF91
 919 05b5 01       		.byte	0x1
 920 05b6 3B       		.byte	0x3b
 921 05b7 17010000 		.4byte	0x117
 922 05bb 00000000 		.4byte	.LFB7
 923 05bf 1E000000 		.4byte	.LFE7-.LFB7
 924 05c3 01       		.uleb128 0x1
 925 05c4 9C       		.byte	0x9c
 926 05c5 21060000 		.4byte	0x621
 927 05c9 1B       		.uleb128 0x1b
 928 05ca 7000     		.ascii	"p\000"
 929 05cc 01       		.byte	0x1
 930 05cd 3B       		.byte	0x3b
 931 05ce A9020000 		.4byte	0x2a9
 932 05d2 3C000000 		.4byte	.LLST2
 933 05d6 16       		.uleb128 0x16
 934 05d7 0A000000 		.4byte	.LVL16
 935 05db 1F070000 		.4byte	0x71f
 936 05df F0050000 		.4byte	0x5f0
 937 05e3 17       		.uleb128 0x17
 938 05e4 01       		.uleb128 0x1
 939 05e5 51       		.byte	0x51
 940 05e6 02       		.uleb128 0x2
 941 05e7 08       		.byte	0x8
 942 05e8 41       		.byte	0x41
 943 05e9 17       		.uleb128 0x17
 944 05ea 01       		.uleb128 0x1
 945 05eb 50       		.byte	0x50
 946 05ec 02       		.uleb128 0x2
 947 05ed 74       		.byte	0x74
 948 05ee 00       		.sleb128 0
 949 05ef 00       		.byte	0
 950 05f0 16       		.uleb128 0x16
 951 05f1 12000000 		.4byte	.LVL17
 952 05f5 1F070000 		.4byte	0x71f
 953 05f9 0A060000 		.4byte	0x60a
 954 05fd 17       		.uleb128 0x17
 955 05fe 01       		.uleb128 0x1
 956 05ff 51       		.byte	0x51
 957 0600 02       		.uleb128 0x2
 958 0601 08       		.byte	0x8
 959 0602 42       		.byte	0x42
 960 0603 17       		.uleb128 0x17
 961 0604 01       		.uleb128 0x1
 962 0605 50       		.byte	0x50
 963 0606 02       		.uleb128 0x2
 964 0607 74       		.byte	0x74
 965 0608 00       		.sleb128 0
ARM GAS  /tmp/ccEepdba.s 			page 18


 966 0609 00       		.byte	0
 967 060a 1C       		.uleb128 0x1c
 968 060b 1A000000 		.4byte	.LVL18
 969 060f 1F070000 		.4byte	0x71f
 970 0613 17       		.uleb128 0x17
 971 0614 01       		.uleb128 0x1
 972 0615 51       		.byte	0x51
 973 0616 02       		.uleb128 0x2
 974 0617 08       		.byte	0x8
 975 0618 43       		.byte	0x43
 976 0619 17       		.uleb128 0x17
 977 061a 01       		.uleb128 0x1
 978 061b 50       		.byte	0x50
 979 061c 02       		.uleb128 0x2
 980 061d 74       		.byte	0x74
 981 061e 00       		.sleb128 0
 982 061f 00       		.byte	0
 983 0620 00       		.byte	0
 984 0621 1D       		.uleb128 0x1d
 985 0622 44040000 		.4byte	.LASF78
 986 0626 09       		.byte	0x9
 987 0627 6F       		.byte	0x6f
 988 0628 B0030000 		.4byte	0x3b0
 989 062c 1E       		.uleb128 0x1e
 990 062d 6D020000 		.4byte	0x26d
 991 0631 3C060000 		.4byte	0x63c
 992 0635 1F       		.uleb128 0x1f
 993 0636 53030000 		.4byte	0x353
 994 063a 04       		.byte	0x4
 995 063b 00       		.byte	0
 996 063c 1D       		.uleb128 0x1d
 997 063d 65020000 		.4byte	.LASF79
 998 0641 0B       		.byte	0xb
 999 0642 A5       		.byte	0xa5
 1000 0643 2C060000 		.4byte	0x62c
 1001 0647 1E       		.uleb128 0x1e
 1002 0648 A9020000 		.4byte	0x2a9
 1003 064c 52060000 		.4byte	0x652
 1004 0650 20       		.uleb128 0x20
 1005 0651 00       		.byte	0
 1006 0652 21       		.uleb128 0x21
 1007 0653 776100   		.ascii	"wa\000"
 1008 0656 0B       		.byte	0xb
 1009 0657 A7       		.byte	0xa7
 1010 0658 5C060000 		.4byte	0x65c
 1011 065c 10       		.uleb128 0x10
 1012 065d 47060000 		.4byte	0x647
 1013 0661 22       		.uleb128 0x22
 1014 0662 74020000 		.4byte	.LASF80
 1015 0666 01       		.byte	0x1
 1016 0667 5B       		.byte	0x5b
 1017 0668 72060000 		.4byte	0x672
 1018 066c 05       		.uleb128 0x5
 1019 066d 03       		.byte	0x3
 1020 066e 00000000 		.4byte	testmsg1
 1021 0672 10       		.uleb128 0x10
 1022 0673 70040000 		.4byte	0x470
ARM GAS  /tmp/ccEepdba.s 			page 19


 1023 0677 1E       		.uleb128 0x1e
 1024 0678 87060000 		.4byte	0x687
 1025 067c 87060000 		.4byte	0x687
 1026 0680 1F       		.uleb128 0x1f
 1027 0681 53030000 		.4byte	0x353
 1028 0685 01       		.byte	0x1
 1029 0686 00       		.byte	0
 1030 0687 09       		.uleb128 0x9
 1031 0688 04       		.byte	0x4
 1032 0689 72060000 		.4byte	0x672
 1033 068d 22       		.uleb128 0x22
 1034 068e 7D010000 		.4byte	.LASF81
 1035 0692 01       		.byte	0x1
 1036 0693 67       		.byte	0x67
 1037 0694 9E060000 		.4byte	0x69e
 1038 0698 05       		.uleb128 0x5
 1039 0699 03       		.byte	0x3
 1040 069a 00000000 		.4byte	patternmsg
 1041 069e 10       		.uleb128 0x10
 1042 069f 77060000 		.4byte	0x677
 1043 06a3 23       		.uleb128 0x23
 1044 06a4 6B010000 		.4byte	.LASF84
 1045 06a8 07       		.byte	0x7
 1046 06a9 7001     		.2byte	0x170
 1047 06ab 6D020000 		.4byte	0x26d
 1048 06af CD060000 		.4byte	0x6cd
 1049 06b3 12       		.uleb128 0x12
 1050 06b4 A9020000 		.4byte	0x2a9
 1051 06b8 12       		.uleb128 0x12
 1052 06b9 2C000000 		.4byte	0x2c
 1053 06bd 12       		.uleb128 0x12
 1054 06be 0C010000 		.4byte	0x10c
 1055 06c2 12       		.uleb128 0x12
 1056 06c3 50040000 		.4byte	0x450
 1057 06c7 12       		.uleb128 0x12
 1058 06c8 A9020000 		.4byte	0x2a9
 1059 06cc 00       		.byte	0
 1060 06cd 24       		.uleb128 0x24
 1061 06ce 29040000 		.4byte	.LASF92
 1062 06d2 0C       		.byte	0xc
 1063 06d3 52       		.byte	0x52
 1064 06d4 6D020000 		.4byte	0x26d
 1065 06d8 25       		.uleb128 0x25
 1066 06d9 9A020000 		.4byte	.LASF82
 1067 06dd 0C       		.byte	0xc
 1068 06de 53       		.byte	0x53
 1069 06df EE060000 		.4byte	0x6ee
 1070 06e3 12       		.uleb128 0x12
 1071 06e4 6D020000 		.4byte	0x26d
 1072 06e8 12       		.uleb128 0x12
 1073 06e9 17010000 		.4byte	0x117
 1074 06ed 00       		.byte	0
 1075 06ee 25       		.uleb128 0x25
 1076 06ef 87000000 		.4byte	.LASF83
 1077 06f3 0B       		.byte	0xb
 1078 06f4 56       		.byte	0x56
 1079 06f5 FF060000 		.4byte	0x6ff
ARM GAS  /tmp/ccEepdba.s 			page 20


 1080 06f9 12       		.uleb128 0x12
 1081 06fa 3D040000 		.4byte	0x43d
 1082 06fe 00       		.byte	0
 1083 06ff 26       		.uleb128 0x26
 1084 0700 B2010000 		.4byte	.LASF85
 1085 0704 0B       		.byte	0xb
 1086 0705 59       		.byte	0x59
 1087 0706 CE000000 		.4byte	0xce
 1088 070a 19070000 		.4byte	0x719
 1089 070e 12       		.uleb128 0x12
 1090 070f 37000000 		.4byte	0x37
 1091 0713 12       		.uleb128 0x12
 1092 0714 19070000 		.4byte	0x719
 1093 0718 00       		.byte	0
 1094 0719 09       		.uleb128 0x9
 1095 071a 04       		.byte	0x4
 1096 071b 3D040000 		.4byte	0x43d
 1097 071f 27       		.uleb128 0x27
 1098 0720 AA000000 		.4byte	.LASF86
 1099 0724 0C       		.byte	0xc
 1100 0725 51       		.byte	0x51
 1101 0726 17010000 		.4byte	0x117
 1102 072a 12       		.uleb128 0x12
 1103 072b 6D020000 		.4byte	0x26d
 1104 072f 12       		.uleb128 0x12
 1105 0730 17010000 		.4byte	0x117
 1106 0734 00       		.byte	0
 1107 0735 00       		.byte	0
 1108              		.section	.debug_abbrev,"",%progbits
 1109              	.Ldebug_abbrev0:
 1110 0000 01       		.uleb128 0x1
 1111 0001 11       		.uleb128 0x11
 1112 0002 01       		.byte	0x1
 1113 0003 25       		.uleb128 0x25
 1114 0004 0E       		.uleb128 0xe
 1115 0005 13       		.uleb128 0x13
 1116 0006 0B       		.uleb128 0xb
 1117 0007 03       		.uleb128 0x3
 1118 0008 0E       		.uleb128 0xe
 1119 0009 1B       		.uleb128 0x1b
 1120 000a 0E       		.uleb128 0xe
 1121 000b 55       		.uleb128 0x55
 1122 000c 17       		.uleb128 0x17
 1123 000d 11       		.uleb128 0x11
 1124 000e 01       		.uleb128 0x1
 1125 000f 10       		.uleb128 0x10
 1126 0010 17       		.uleb128 0x17
 1127 0011 00       		.byte	0
 1128 0012 00       		.byte	0
 1129 0013 02       		.uleb128 0x2
 1130 0014 24       		.uleb128 0x24
 1131 0015 00       		.byte	0
 1132 0016 0B       		.uleb128 0xb
 1133 0017 0B       		.uleb128 0xb
 1134 0018 3E       		.uleb128 0x3e
 1135 0019 0B       		.uleb128 0xb
 1136 001a 03       		.uleb128 0x3
ARM GAS  /tmp/ccEepdba.s 			page 21


 1137 001b 08       		.uleb128 0x8
 1138 001c 00       		.byte	0
 1139 001d 00       		.byte	0
 1140 001e 03       		.uleb128 0x3
 1141 001f 16       		.uleb128 0x16
 1142 0020 00       		.byte	0
 1143 0021 03       		.uleb128 0x3
 1144 0022 0E       		.uleb128 0xe
 1145 0023 3A       		.uleb128 0x3a
 1146 0024 0B       		.uleb128 0xb
 1147 0025 3B       		.uleb128 0x3b
 1148 0026 0B       		.uleb128 0xb
 1149 0027 49       		.uleb128 0x49
 1150 0028 13       		.uleb128 0x13
 1151 0029 00       		.byte	0
 1152 002a 00       		.byte	0
 1153 002b 04       		.uleb128 0x4
 1154 002c 24       		.uleb128 0x24
 1155 002d 00       		.byte	0
 1156 002e 0B       		.uleb128 0xb
 1157 002f 0B       		.uleb128 0xb
 1158 0030 3E       		.uleb128 0x3e
 1159 0031 0B       		.uleb128 0xb
 1160 0032 03       		.uleb128 0x3
 1161 0033 0E       		.uleb128 0xe
 1162 0034 00       		.byte	0
 1163 0035 00       		.byte	0
 1164 0036 05       		.uleb128 0x5
 1165 0037 13       		.uleb128 0x13
 1166 0038 01       		.byte	0x1
 1167 0039 03       		.uleb128 0x3
 1168 003a 0E       		.uleb128 0xe
 1169 003b 0B       		.uleb128 0xb
 1170 003c 0B       		.uleb128 0xb
 1171 003d 3A       		.uleb128 0x3a
 1172 003e 0B       		.uleb128 0xb
 1173 003f 3B       		.uleb128 0x3b
 1174 0040 0B       		.uleb128 0xb
 1175 0041 01       		.uleb128 0x1
 1176 0042 13       		.uleb128 0x13
 1177 0043 00       		.byte	0
 1178 0044 00       		.byte	0
 1179 0045 06       		.uleb128 0x6
 1180 0046 0D       		.uleb128 0xd
 1181 0047 00       		.byte	0
 1182 0048 03       		.uleb128 0x3
 1183 0049 0E       		.uleb128 0xe
 1184 004a 3A       		.uleb128 0x3a
 1185 004b 0B       		.uleb128 0xb
 1186 004c 3B       		.uleb128 0x3b
 1187 004d 0B       		.uleb128 0xb
 1188 004e 49       		.uleb128 0x49
 1189 004f 13       		.uleb128 0x13
 1190 0050 38       		.uleb128 0x38
 1191 0051 0B       		.uleb128 0xb
 1192 0052 00       		.byte	0
 1193 0053 00       		.byte	0
ARM GAS  /tmp/ccEepdba.s 			page 22


 1194 0054 07       		.uleb128 0x7
 1195 0055 0D       		.uleb128 0xd
 1196 0056 00       		.byte	0
 1197 0057 03       		.uleb128 0x3
 1198 0058 08       		.uleb128 0x8
 1199 0059 3A       		.uleb128 0x3a
 1200 005a 0B       		.uleb128 0xb
 1201 005b 3B       		.uleb128 0x3b
 1202 005c 0B       		.uleb128 0xb
 1203 005d 49       		.uleb128 0x49
 1204 005e 13       		.uleb128 0x13
 1205 005f 38       		.uleb128 0x38
 1206 0060 0B       		.uleb128 0xb
 1207 0061 00       		.byte	0
 1208 0062 00       		.byte	0
 1209 0063 08       		.uleb128 0x8
 1210 0064 13       		.uleb128 0x13
 1211 0065 01       		.byte	0x1
 1212 0066 0B       		.uleb128 0xb
 1213 0067 0B       		.uleb128 0xb
 1214 0068 3A       		.uleb128 0x3a
 1215 0069 0B       		.uleb128 0xb
 1216 006a 3B       		.uleb128 0x3b
 1217 006b 0B       		.uleb128 0xb
 1218 006c 01       		.uleb128 0x1
 1219 006d 13       		.uleb128 0x13
 1220 006e 00       		.byte	0
 1221 006f 00       		.byte	0
 1222 0070 09       		.uleb128 0x9
 1223 0071 0F       		.uleb128 0xf
 1224 0072 00       		.byte	0
 1225 0073 0B       		.uleb128 0xb
 1226 0074 0B       		.uleb128 0xb
 1227 0075 49       		.uleb128 0x49
 1228 0076 13       		.uleb128 0x13
 1229 0077 00       		.byte	0
 1230 0078 00       		.byte	0
 1231 0079 0A       		.uleb128 0xa
 1232 007a 0F       		.uleb128 0xf
 1233 007b 00       		.byte	0
 1234 007c 0B       		.uleb128 0xb
 1235 007d 0B       		.uleb128 0xb
 1236 007e 00       		.byte	0
 1237 007f 00       		.byte	0
 1238 0080 0B       		.uleb128 0xb
 1239 0081 13       		.uleb128 0x13
 1240 0082 01       		.byte	0x1
 1241 0083 03       		.uleb128 0x3
 1242 0084 0E       		.uleb128 0xe
 1243 0085 0B       		.uleb128 0xb
 1244 0086 0B       		.uleb128 0xb
 1245 0087 3A       		.uleb128 0x3a
 1246 0088 0B       		.uleb128 0xb
 1247 0089 3B       		.uleb128 0x3b
 1248 008a 05       		.uleb128 0x5
 1249 008b 01       		.uleb128 0x1
 1250 008c 13       		.uleb128 0x13
ARM GAS  /tmp/ccEepdba.s 			page 23


 1251 008d 00       		.byte	0
 1252 008e 00       		.byte	0
 1253 008f 0C       		.uleb128 0xc
 1254 0090 0D       		.uleb128 0xd
 1255 0091 00       		.byte	0
 1256 0092 03       		.uleb128 0x3
 1257 0093 08       		.uleb128 0x8
 1258 0094 3A       		.uleb128 0x3a
 1259 0095 0B       		.uleb128 0xb
 1260 0096 3B       		.uleb128 0x3b
 1261 0097 05       		.uleb128 0x5
 1262 0098 49       		.uleb128 0x49
 1263 0099 13       		.uleb128 0x13
 1264 009a 38       		.uleb128 0x38
 1265 009b 0B       		.uleb128 0xb
 1266 009c 00       		.byte	0
 1267 009d 00       		.byte	0
 1268 009e 0D       		.uleb128 0xd
 1269 009f 35       		.uleb128 0x35
 1270 00a0 00       		.byte	0
 1271 00a1 49       		.uleb128 0x49
 1272 00a2 13       		.uleb128 0x13
 1273 00a3 00       		.byte	0
 1274 00a4 00       		.byte	0
 1275 00a5 0E       		.uleb128 0xe
 1276 00a6 17       		.uleb128 0x17
 1277 00a7 01       		.byte	0x1
 1278 00a8 0B       		.uleb128 0xb
 1279 00a9 0B       		.uleb128 0xb
 1280 00aa 3A       		.uleb128 0x3a
 1281 00ab 0B       		.uleb128 0xb
 1282 00ac 3B       		.uleb128 0x3b
 1283 00ad 0B       		.uleb128 0xb
 1284 00ae 01       		.uleb128 0x1
 1285 00af 13       		.uleb128 0x13
 1286 00b0 00       		.byte	0
 1287 00b1 00       		.byte	0
 1288 00b2 0F       		.uleb128 0xf
 1289 00b3 0D       		.uleb128 0xd
 1290 00b4 00       		.byte	0
 1291 00b5 03       		.uleb128 0x3
 1292 00b6 0E       		.uleb128 0xe
 1293 00b7 3A       		.uleb128 0x3a
 1294 00b8 0B       		.uleb128 0xb
 1295 00b9 3B       		.uleb128 0x3b
 1296 00ba 0B       		.uleb128 0xb
 1297 00bb 49       		.uleb128 0x49
 1298 00bc 13       		.uleb128 0x13
 1299 00bd 00       		.byte	0
 1300 00be 00       		.byte	0
 1301 00bf 10       		.uleb128 0x10
 1302 00c0 26       		.uleb128 0x26
 1303 00c1 00       		.byte	0
 1304 00c2 49       		.uleb128 0x49
 1305 00c3 13       		.uleb128 0x13
 1306 00c4 00       		.byte	0
 1307 00c5 00       		.byte	0
ARM GAS  /tmp/ccEepdba.s 			page 24


 1308 00c6 11       		.uleb128 0x11
 1309 00c7 15       		.uleb128 0x15
 1310 00c8 01       		.byte	0x1
 1311 00c9 27       		.uleb128 0x27
 1312 00ca 19       		.uleb128 0x19
 1313 00cb 49       		.uleb128 0x49
 1314 00cc 13       		.uleb128 0x13
 1315 00cd 01       		.uleb128 0x1
 1316 00ce 13       		.uleb128 0x13
 1317 00cf 00       		.byte	0
 1318 00d0 00       		.byte	0
 1319 00d1 12       		.uleb128 0x12
 1320 00d2 05       		.uleb128 0x5
 1321 00d3 00       		.byte	0
 1322 00d4 49       		.uleb128 0x49
 1323 00d5 13       		.uleb128 0x13
 1324 00d6 00       		.byte	0
 1325 00d7 00       		.byte	0
 1326 00d8 13       		.uleb128 0x13
 1327 00d9 15       		.uleb128 0x15
 1328 00da 00       		.byte	0
 1329 00db 27       		.uleb128 0x27
 1330 00dc 19       		.uleb128 0x19
 1331 00dd 00       		.byte	0
 1332 00de 00       		.byte	0
 1333 00df 14       		.uleb128 0x14
 1334 00e0 2E       		.uleb128 0x2e
 1335 00e1 01       		.byte	0x1
 1336 00e2 03       		.uleb128 0x3
 1337 00e3 0E       		.uleb128 0xe
 1338 00e4 3A       		.uleb128 0x3a
 1339 00e5 0B       		.uleb128 0xb
 1340 00e6 3B       		.uleb128 0x3b
 1341 00e7 0B       		.uleb128 0xb
 1342 00e8 27       		.uleb128 0x27
 1343 00e9 19       		.uleb128 0x19
 1344 00ea 11       		.uleb128 0x11
 1345 00eb 01       		.uleb128 0x1
 1346 00ec 12       		.uleb128 0x12
 1347 00ed 06       		.uleb128 0x6
 1348 00ee 40       		.uleb128 0x40
 1349 00ef 18       		.uleb128 0x18
 1350 00f0 9742     		.uleb128 0x2117
 1351 00f2 19       		.uleb128 0x19
 1352 00f3 01       		.uleb128 0x1
 1353 00f4 13       		.uleb128 0x13
 1354 00f5 00       		.byte	0
 1355 00f6 00       		.byte	0
 1356 00f7 15       		.uleb128 0x15
 1357 00f8 34       		.uleb128 0x34
 1358 00f9 00       		.byte	0
 1359 00fa 03       		.uleb128 0x3
 1360 00fb 08       		.uleb128 0x8
 1361 00fc 3A       		.uleb128 0x3a
 1362 00fd 0B       		.uleb128 0xb
 1363 00fe 3B       		.uleb128 0x3b
 1364 00ff 0B       		.uleb128 0xb
ARM GAS  /tmp/ccEepdba.s 			page 25


 1365 0100 49       		.uleb128 0x49
 1366 0101 13       		.uleb128 0x13
 1367 0102 02       		.uleb128 0x2
 1368 0103 17       		.uleb128 0x17
 1369 0104 00       		.byte	0
 1370 0105 00       		.byte	0
 1371 0106 16       		.uleb128 0x16
 1372 0107 898201   		.uleb128 0x4109
 1373 010a 01       		.byte	0x1
 1374 010b 11       		.uleb128 0x11
 1375 010c 01       		.uleb128 0x1
 1376 010d 31       		.uleb128 0x31
 1377 010e 13       		.uleb128 0x13
 1378 010f 01       		.uleb128 0x1
 1379 0110 13       		.uleb128 0x13
 1380 0111 00       		.byte	0
 1381 0112 00       		.byte	0
 1382 0113 17       		.uleb128 0x17
 1383 0114 8A8201   		.uleb128 0x410a
 1384 0117 00       		.byte	0
 1385 0118 02       		.uleb128 0x2
 1386 0119 18       		.uleb128 0x18
 1387 011a 9142     		.uleb128 0x2111
 1388 011c 18       		.uleb128 0x18
 1389 011d 00       		.byte	0
 1390 011e 00       		.byte	0
 1391 011f 18       		.uleb128 0x18
 1392 0120 898201   		.uleb128 0x4109
 1393 0123 00       		.byte	0
 1394 0124 11       		.uleb128 0x11
 1395 0125 01       		.uleb128 0x1
 1396 0126 31       		.uleb128 0x31
 1397 0127 13       		.uleb128 0x13
 1398 0128 00       		.byte	0
 1399 0129 00       		.byte	0
 1400 012a 19       		.uleb128 0x19
 1401 012b 898201   		.uleb128 0x4109
 1402 012e 01       		.byte	0x1
 1403 012f 11       		.uleb128 0x11
 1404 0130 01       		.uleb128 0x1
 1405 0131 9542     		.uleb128 0x2115
 1406 0133 19       		.uleb128 0x19
 1407 0134 31       		.uleb128 0x31
 1408 0135 13       		.uleb128 0x13
 1409 0136 00       		.byte	0
 1410 0137 00       		.byte	0
 1411 0138 1A       		.uleb128 0x1a
 1412 0139 2E       		.uleb128 0x2e
 1413 013a 01       		.byte	0x1
 1414 013b 03       		.uleb128 0x3
 1415 013c 0E       		.uleb128 0xe
 1416 013d 3A       		.uleb128 0x3a
 1417 013e 0B       		.uleb128 0xb
 1418 013f 3B       		.uleb128 0x3b
 1419 0140 0B       		.uleb128 0xb
 1420 0141 27       		.uleb128 0x27
 1421 0142 19       		.uleb128 0x19
ARM GAS  /tmp/ccEepdba.s 			page 26


 1422 0143 49       		.uleb128 0x49
 1423 0144 13       		.uleb128 0x13
 1424 0145 11       		.uleb128 0x11
 1425 0146 01       		.uleb128 0x1
 1426 0147 12       		.uleb128 0x12
 1427 0148 06       		.uleb128 0x6
 1428 0149 40       		.uleb128 0x40
 1429 014a 18       		.uleb128 0x18
 1430 014b 9742     		.uleb128 0x2117
 1431 014d 19       		.uleb128 0x19
 1432 014e 01       		.uleb128 0x1
 1433 014f 13       		.uleb128 0x13
 1434 0150 00       		.byte	0
 1435 0151 00       		.byte	0
 1436 0152 1B       		.uleb128 0x1b
 1437 0153 05       		.uleb128 0x5
 1438 0154 00       		.byte	0
 1439 0155 03       		.uleb128 0x3
 1440 0156 08       		.uleb128 0x8
 1441 0157 3A       		.uleb128 0x3a
 1442 0158 0B       		.uleb128 0xb
 1443 0159 3B       		.uleb128 0x3b
 1444 015a 0B       		.uleb128 0xb
 1445 015b 49       		.uleb128 0x49
 1446 015c 13       		.uleb128 0x13
 1447 015d 02       		.uleb128 0x2
 1448 015e 17       		.uleb128 0x17
 1449 015f 00       		.byte	0
 1450 0160 00       		.byte	0
 1451 0161 1C       		.uleb128 0x1c
 1452 0162 898201   		.uleb128 0x4109
 1453 0165 01       		.byte	0x1
 1454 0166 11       		.uleb128 0x11
 1455 0167 01       		.uleb128 0x1
 1456 0168 31       		.uleb128 0x31
 1457 0169 13       		.uleb128 0x13
 1458 016a 00       		.byte	0
 1459 016b 00       		.byte	0
 1460 016c 1D       		.uleb128 0x1d
 1461 016d 34       		.uleb128 0x34
 1462 016e 00       		.byte	0
 1463 016f 03       		.uleb128 0x3
 1464 0170 0E       		.uleb128 0xe
 1465 0171 3A       		.uleb128 0x3a
 1466 0172 0B       		.uleb128 0xb
 1467 0173 3B       		.uleb128 0x3b
 1468 0174 0B       		.uleb128 0xb
 1469 0175 49       		.uleb128 0x49
 1470 0176 13       		.uleb128 0x13
 1471 0177 3F       		.uleb128 0x3f
 1472 0178 19       		.uleb128 0x19
 1473 0179 3C       		.uleb128 0x3c
 1474 017a 19       		.uleb128 0x19
 1475 017b 00       		.byte	0
 1476 017c 00       		.byte	0
 1477 017d 1E       		.uleb128 0x1e
 1478 017e 01       		.uleb128 0x1
ARM GAS  /tmp/ccEepdba.s 			page 27


 1479 017f 01       		.byte	0x1
 1480 0180 49       		.uleb128 0x49
 1481 0181 13       		.uleb128 0x13
 1482 0182 01       		.uleb128 0x1
 1483 0183 13       		.uleb128 0x13
 1484 0184 00       		.byte	0
 1485 0185 00       		.byte	0
 1486 0186 1F       		.uleb128 0x1f
 1487 0187 21       		.uleb128 0x21
 1488 0188 00       		.byte	0
 1489 0189 49       		.uleb128 0x49
 1490 018a 13       		.uleb128 0x13
 1491 018b 2F       		.uleb128 0x2f
 1492 018c 0B       		.uleb128 0xb
 1493 018d 00       		.byte	0
 1494 018e 00       		.byte	0
 1495 018f 20       		.uleb128 0x20
 1496 0190 21       		.uleb128 0x21
 1497 0191 00       		.byte	0
 1498 0192 00       		.byte	0
 1499 0193 00       		.byte	0
 1500 0194 21       		.uleb128 0x21
 1501 0195 34       		.uleb128 0x34
 1502 0196 00       		.byte	0
 1503 0197 03       		.uleb128 0x3
 1504 0198 08       		.uleb128 0x8
 1505 0199 3A       		.uleb128 0x3a
 1506 019a 0B       		.uleb128 0xb
 1507 019b 3B       		.uleb128 0x3b
 1508 019c 0B       		.uleb128 0xb
 1509 019d 49       		.uleb128 0x49
 1510 019e 13       		.uleb128 0x13
 1511 019f 3F       		.uleb128 0x3f
 1512 01a0 19       		.uleb128 0x19
 1513 01a1 3C       		.uleb128 0x3c
 1514 01a2 19       		.uleb128 0x19
 1515 01a3 00       		.byte	0
 1516 01a4 00       		.byte	0
 1517 01a5 22       		.uleb128 0x22
 1518 01a6 34       		.uleb128 0x34
 1519 01a7 00       		.byte	0
 1520 01a8 03       		.uleb128 0x3
 1521 01a9 0E       		.uleb128 0xe
 1522 01aa 3A       		.uleb128 0x3a
 1523 01ab 0B       		.uleb128 0xb
 1524 01ac 3B       		.uleb128 0x3b
 1525 01ad 0B       		.uleb128 0xb
 1526 01ae 49       		.uleb128 0x49
 1527 01af 13       		.uleb128 0x13
 1528 01b0 3F       		.uleb128 0x3f
 1529 01b1 19       		.uleb128 0x19
 1530 01b2 02       		.uleb128 0x2
 1531 01b3 18       		.uleb128 0x18
 1532 01b4 00       		.byte	0
 1533 01b5 00       		.byte	0
 1534 01b6 23       		.uleb128 0x23
 1535 01b7 2E       		.uleb128 0x2e
ARM GAS  /tmp/ccEepdba.s 			page 28


 1536 01b8 01       		.byte	0x1
 1537 01b9 3F       		.uleb128 0x3f
 1538 01ba 19       		.uleb128 0x19
 1539 01bb 03       		.uleb128 0x3
 1540 01bc 0E       		.uleb128 0xe
 1541 01bd 3A       		.uleb128 0x3a
 1542 01be 0B       		.uleb128 0xb
 1543 01bf 3B       		.uleb128 0x3b
 1544 01c0 05       		.uleb128 0x5
 1545 01c1 27       		.uleb128 0x27
 1546 01c2 19       		.uleb128 0x19
 1547 01c3 49       		.uleb128 0x49
 1548 01c4 13       		.uleb128 0x13
 1549 01c5 3C       		.uleb128 0x3c
 1550 01c6 19       		.uleb128 0x19
 1551 01c7 01       		.uleb128 0x1
 1552 01c8 13       		.uleb128 0x13
 1553 01c9 00       		.byte	0
 1554 01ca 00       		.byte	0
 1555 01cb 24       		.uleb128 0x24
 1556 01cc 2E       		.uleb128 0x2e
 1557 01cd 00       		.byte	0
 1558 01ce 3F       		.uleb128 0x3f
 1559 01cf 19       		.uleb128 0x19
 1560 01d0 03       		.uleb128 0x3
 1561 01d1 0E       		.uleb128 0xe
 1562 01d2 3A       		.uleb128 0x3a
 1563 01d3 0B       		.uleb128 0xb
 1564 01d4 3B       		.uleb128 0x3b
 1565 01d5 0B       		.uleb128 0xb
 1566 01d6 27       		.uleb128 0x27
 1567 01d7 19       		.uleb128 0x19
 1568 01d8 49       		.uleb128 0x49
 1569 01d9 13       		.uleb128 0x13
 1570 01da 3C       		.uleb128 0x3c
 1571 01db 19       		.uleb128 0x19
 1572 01dc 00       		.byte	0
 1573 01dd 00       		.byte	0
 1574 01de 25       		.uleb128 0x25
 1575 01df 2E       		.uleb128 0x2e
 1576 01e0 01       		.byte	0x1
 1577 01e1 3F       		.uleb128 0x3f
 1578 01e2 19       		.uleb128 0x19
 1579 01e3 03       		.uleb128 0x3
 1580 01e4 0E       		.uleb128 0xe
 1581 01e5 3A       		.uleb128 0x3a
 1582 01e6 0B       		.uleb128 0xb
 1583 01e7 3B       		.uleb128 0x3b
 1584 01e8 0B       		.uleb128 0xb
 1585 01e9 27       		.uleb128 0x27
 1586 01ea 19       		.uleb128 0x19
 1587 01eb 3C       		.uleb128 0x3c
 1588 01ec 19       		.uleb128 0x19
 1589 01ed 01       		.uleb128 0x1
 1590 01ee 13       		.uleb128 0x13
 1591 01ef 00       		.byte	0
 1592 01f0 00       		.byte	0
ARM GAS  /tmp/ccEepdba.s 			page 29


 1593 01f1 26       		.uleb128 0x26
 1594 01f2 2E       		.uleb128 0x2e
 1595 01f3 01       		.byte	0x1
 1596 01f4 3F       		.uleb128 0x3f
 1597 01f5 19       		.uleb128 0x19
 1598 01f6 03       		.uleb128 0x3
 1599 01f7 0E       		.uleb128 0xe
 1600 01f8 3A       		.uleb128 0x3a
 1601 01f9 0B       		.uleb128 0xb
 1602 01fa 3B       		.uleb128 0x3b
 1603 01fb 0B       		.uleb128 0xb
 1604 01fc 27       		.uleb128 0x27
 1605 01fd 19       		.uleb128 0x19
 1606 01fe 49       		.uleb128 0x49
 1607 01ff 13       		.uleb128 0x13
 1608 0200 3C       		.uleb128 0x3c
 1609 0201 19       		.uleb128 0x19
 1610 0202 01       		.uleb128 0x1
 1611 0203 13       		.uleb128 0x13
 1612 0204 00       		.byte	0
 1613 0205 00       		.byte	0
 1614 0206 27       		.uleb128 0x27
 1615 0207 2E       		.uleb128 0x2e
 1616 0208 01       		.byte	0x1
 1617 0209 3F       		.uleb128 0x3f
 1618 020a 19       		.uleb128 0x19
 1619 020b 03       		.uleb128 0x3
 1620 020c 0E       		.uleb128 0xe
 1621 020d 3A       		.uleb128 0x3a
 1622 020e 0B       		.uleb128 0xb
 1623 020f 3B       		.uleb128 0x3b
 1624 0210 0B       		.uleb128 0xb
 1625 0211 27       		.uleb128 0x27
 1626 0212 19       		.uleb128 0x19
 1627 0213 49       		.uleb128 0x49
 1628 0214 13       		.uleb128 0x13
 1629 0215 3C       		.uleb128 0x3c
 1630 0216 19       		.uleb128 0x19
 1631 0217 00       		.byte	0
 1632 0218 00       		.byte	0
 1633 0219 00       		.byte	0
 1634              		.section	.debug_loc,"",%progbits
 1635              	.Ldebug_loc0:
 1636              	.LLST0:
 1637 0000 24000000 		.4byte	.LVL1
 1638 0004 2B000000 		.4byte	.LVL3-1
 1639 0008 0100     		.2byte	0x1
 1640 000a 50       		.byte	0x50
 1641 000b 36000000 		.4byte	.LVL5
 1642 000f 3D000000 		.4byte	.LVL7-1
 1643 0013 0100     		.2byte	0x1
 1644 0015 50       		.byte	0x50
 1645 0016 48000000 		.4byte	.LVL9
 1646 001a 4F000000 		.4byte	.LVL11-1
 1647 001e 0100     		.2byte	0x1
 1648 0020 50       		.byte	0x50
 1649 0021 00000000 		.4byte	0
ARM GAS  /tmp/ccEepdba.s 			page 30


 1650 0025 00000000 		.4byte	0
 1651              	.LLST1:
 1652 0029 26000000 		.4byte	.LVL2
 1653 002d 60000000 		.4byte	.LVL13
 1654 0031 0100     		.2byte	0x1
 1655 0033 54       		.byte	0x54
 1656 0034 00000000 		.4byte	0
 1657 0038 00000000 		.4byte	0
 1658              	.LLST2:
 1659 003c 00000000 		.4byte	.LVL15
 1660 0040 09000000 		.4byte	.LVL16-1
 1661 0044 0100     		.2byte	0x1
 1662 0046 50       		.byte	0x50
 1663 0047 09000000 		.4byte	.LVL16-1
 1664 004b 1E000000 		.4byte	.LFE7
 1665 004f 0100     		.2byte	0x1
 1666 0051 54       		.byte	0x54
 1667 0052 00000000 		.4byte	0
 1668 0056 00000000 		.4byte	0
 1669              		.section	.debug_aranges,"",%progbits
 1670 0000 24000000 		.4byte	0x24
 1671 0004 0200     		.2byte	0x2
 1672 0006 00000000 		.4byte	.Ldebug_info0
 1673 000a 04       		.byte	0x4
 1674 000b 00       		.byte	0
 1675 000c 0000     		.2byte	0
 1676 000e 0000     		.2byte	0
 1677 0010 00000000 		.4byte	.LFB8
 1678 0014 78000000 		.4byte	.LFE8-.LFB8
 1679 0018 00000000 		.4byte	.LFB7
 1680 001c 1E000000 		.4byte	.LFE7-.LFB7
 1681 0020 00000000 		.4byte	0
 1682 0024 00000000 		.4byte	0
 1683              		.section	.debug_ranges,"",%progbits
 1684              	.Ldebug_ranges0:
 1685 0000 00000000 		.4byte	.LFB8
 1686 0004 78000000 		.4byte	.LFE8
 1687 0008 00000000 		.4byte	.LFB7
 1688 000c 1E000000 		.4byte	.LFE7
 1689 0010 00000000 		.4byte	0
 1690 0014 00000000 		.4byte	0
 1691              		.section	.debug_line,"",%progbits
 1692              	.Ldebug_line0:
 1693 0000 A9010000 		.section	.debug_str,"MS",%progbits,1
 1693      02006A01 
 1693      00000201 
 1693      FB0E0D00 
 1693      01010101 
 1694              	.LASF72:
 1695 0000 7466756E 		.ascii	"tfunc_t\000"
 1695      635F7400 
 1696              	.LASF44:
 1697 0008 705F6D73 		.ascii	"p_msg\000"
 1697      6700
 1698              	.LASF2:
 1699 000e 73697A65 		.ascii	"size_t\000"
 1699      5F7400
ARM GAS  /tmp/ccEepdba.s 			page 31


 1700              	.LASF67:
 1701 0015 7264796D 		.ascii	"rdymsg\000"
 1701      736700
 1702              	.LASF17:
 1703 001c 75696E74 		.ascii	"uint64_t\000"
 1703      36345F74 
 1703      00
 1704              	.LASF3:
 1705 0025 5F5F7569 		.ascii	"__uint8_t\000"
 1705      6E74385F 
 1705      7400
 1706              	.LASF13:
 1707 002f 6C6F6E67 		.ascii	"long long unsigned int\000"
 1707      206C6F6E 
 1707      6720756E 
 1707      7369676E 
 1707      65642069 
 1708              	.LASF68:
 1709 0046 65786974 		.ascii	"exitcode\000"
 1709      636F6465 
 1709      00
 1710              	.LASF31:
 1711 004f 705F7072 		.ascii	"p_prio\000"
 1711      696F00
 1712              	.LASF11:
 1713 0056 6C6F6E67 		.ascii	"long long int\000"
 1713      206C6F6E 
 1713      6720696E 
 1713      7400
 1714              	.LASF1:
 1715 0064 7369676E 		.ascii	"signed char\000"
 1715      65642063 
 1715      68617200 
 1716              	.LASF48:
 1717 0070 705F6D70 		.ascii	"p_mpool\000"
 1717      6F6F6C00 
 1718              	.LASF18:
 1719 0078 626F6F6C 		.ascii	"bool_t\000"
 1719      5F7400
 1720              	.LASF64:
 1721 007f 6D5F7175 		.ascii	"m_queue\000"
 1721      65756500 
 1722              	.LASF83:
 1723 0087 74657374 		.ascii	"test_emit_token\000"
 1723      5F656D69 
 1723      745F746F 
 1723      6B656E00 
 1724              	.LASF23:
 1725 0097 74736C69 		.ascii	"tslices_t\000"
 1725      6365735F 
 1725      7400
 1726              	.LASF8:
 1727 00a1 6C6F6E67 		.ascii	"long int\000"
 1727      20696E74 
 1727      00
 1728              	.LASF86:
 1729 00aa 63684D73 		.ascii	"chMsgSend\000"
ARM GAS  /tmp/ccEepdba.s 			page 32


 1729      6753656E 
 1729      6400
 1730              	.LASF21:
 1731 00b4 74737461 		.ascii	"tstate_t\000"
 1731      74655F74 
 1731      00
 1732              	.LASF33:
 1733 00bd 705F6E65 		.ascii	"p_newer\000"
 1733      77657200 
 1734              	.LASF9:
 1735 00c5 5F5F7569 		.ascii	"__uint32_t\000"
 1735      6E743332 
 1735      5F7400
 1736              	.LASF51:
 1737 00d0 72656761 		.ascii	"regarm_t\000"
 1737      726D5F74 
 1737      00
 1738              	.LASF36:
 1739 00d9 705F7374 		.ascii	"p_stklimit\000"
 1739      6B6C696D 
 1739      697400
 1740              	.LASF0:
 1741 00e4 756E7369 		.ascii	"unsigned int\000"
 1741      676E6564 
 1741      20696E74 
 1741      00
 1742              	.LASF10:
 1743 00f1 6C6F6E67 		.ascii	"long unsigned int\000"
 1743      20756E73 
 1743      69676E65 
 1743      6420696E 
 1743      7400
 1744              	.LASF76:
 1745 0103 74656172 		.ascii	"teardown\000"
 1745      646F776E 
 1745      00
 1746              	.LASF74:
 1747 010c 6E616D65 		.ascii	"name\000"
 1747      00
 1748              	.LASF54:
 1749 0111 636F6E74 		.ascii	"context\000"
 1749      65787400 
 1750              	.LASF6:
 1751 0119 73686F72 		.ascii	"short unsigned int\000"
 1751      7420756E 
 1751      7369676E 
 1751      65642069 
 1751      6E7400
 1752              	.LASF25:
 1753 012c 6D73675F 		.ascii	"msg_t\000"
 1753      7400
 1754              	.LASF59:
 1755 0132 725F6E65 		.ascii	"r_newer\000"
 1755      77657200 
 1756              	.LASF20:
 1757 013a 746D6F64 		.ascii	"tmode_t\000"
 1757      655F7400 
ARM GAS  /tmp/ccEepdba.s 			page 33


 1758              	.LASF50:
 1759 0142 54687265 		.ascii	"ThreadsList\000"
 1759      6164734C 
 1759      69737400 
 1760              	.LASF26:
 1761 014e 6576656E 		.ascii	"eventmask_t\000"
 1761      746D6173 
 1761      6B5F7400 
 1762              	.LASF63:
 1763 015a 4D757465 		.ascii	"Mutex\000"
 1763      7800
 1764              	.LASF52:
 1765 0160 73746B61 		.ascii	"stkalign_t\000"
 1765      6C69676E 
 1765      5F7400
 1766              	.LASF84:
 1767 016b 63685468 		.ascii	"chThdCreateStatic\000"
 1767      64437265 
 1767      61746553 
 1767      74617469 
 1767      6300
 1768              	.LASF81:
 1769 017d 70617474 		.ascii	"patternmsg\000"
 1769      65726E6D 
 1769      736700
 1770              	.LASF55:
 1771 0188 73697A65 		.ascii	"sizetype\000"
 1771      74797065 
 1771      00
 1772              	.LASF34:
 1773 0191 705F6F6C 		.ascii	"p_older\000"
 1773      64657200 
 1774              	.LASF58:
 1775 0199 725F6374 		.ascii	"r_ctx\000"
 1775      7800
 1776              	.LASF49:
 1777 019f 54687265 		.ascii	"ThreadsQueue\000"
 1777      61647351 
 1777      75657565 
 1777      00
 1778              	.LASF75:
 1779 01ac 73657475 		.ascii	"setup\000"
 1779      7000
 1780              	.LASF85:
 1781 01b2 5F746573 		.ascii	"_test_assert_sequence\000"
 1781      745F6173 
 1781      73657274 
 1781      5F736571 
 1781      75656E63 
 1782              	.LASF61:
 1783 01c8 725F6375 		.ascii	"r_current\000"
 1783      7272656E 
 1783      7400
 1784              	.LASF60:
 1785 01d2 725F6F6C 		.ascii	"r_older\000"
 1785      64657200 
 1786              	.LASF88:
ARM GAS  /tmp/ccEepdba.s 			page 34


 1787 01da 2E2E2F2E 		.ascii	"../../../test/testmsg.c\000"
 1787      2E2F2E2E 
 1787      2F746573 
 1787      742F7465 
 1787      73746D73 
 1788              	.LASF12:
 1789 01f2 5F5F7569 		.ascii	"__uint64_t\000"
 1789      6E743634 
 1789      5F7400
 1790              	.LASF22:
 1791 01fd 74726566 		.ascii	"trefs_t\000"
 1791      735F7400 
 1792              	.LASF30:
 1793 0205 705F7072 		.ascii	"p_prev\000"
 1793      657600
 1794              	.LASF77:
 1795 020c 65786563 		.ascii	"execute\000"
 1795      75746500 
 1796              	.LASF24:
 1797 0214 74707269 		.ascii	"tprio_t\000"
 1797      6F5F7400 
 1798              	.LASF91:
 1799 021c 74687265 		.ascii	"thread\000"
 1799      616400
 1800              	.LASF19:
 1801 0223 5F426F6F 		.ascii	"_Bool\000"
 1801      6C00
 1802              	.LASF15:
 1803 0229 696E7433 		.ascii	"int32_t\000"
 1803      325F7400 
 1804              	.LASF4:
 1805 0231 756E7369 		.ascii	"unsigned char\000"
 1805      676E6564 
 1805      20636861 
 1805      7200
 1806              	.LASF46:
 1807 023f 705F6D74 		.ascii	"p_mtxlist\000"
 1807      786C6973 
 1807      7400
 1808              	.LASF5:
 1809 0249 73686F72 		.ascii	"short int\000"
 1809      7420696E 
 1809      7400
 1810              	.LASF37:
 1811 0253 705F7374 		.ascii	"p_state\000"
 1811      61746500 
 1812              	.LASF40:
 1813 025b 705F7072 		.ascii	"p_preempt\000"
 1813      65656D70 
 1813      7400
 1814              	.LASF79:
 1815 0265 74687265 		.ascii	"threads\000"
 1815      61647300 
 1816              	.LASF57:
 1817 026d 725F7072 		.ascii	"r_prio\000"
 1817      696F00
 1818              	.LASF80:
ARM GAS  /tmp/ccEepdba.s 			page 35


 1819 0274 74657374 		.ascii	"testmsg1\000"
 1819      6D736731 
 1819      00
 1820              	.LASF70:
 1821 027d 65776D61 		.ascii	"ewmask\000"
 1821      736B00
 1822              	.LASF29:
 1823 0284 705F6E65 		.ascii	"p_next\000"
 1823      787400
 1824              	.LASF38:
 1825 028b 705F666C 		.ascii	"p_flags\000"
 1825      61677300 
 1826              	.LASF28:
 1827 0293 54687265 		.ascii	"Thread\000"
 1827      616400
 1828              	.LASF82:
 1829 029a 63684D73 		.ascii	"chMsgRelease\000"
 1829      6752656C 
 1829      65617365 
 1829      00
 1830              	.LASF73:
 1831 02a7 74657374 		.ascii	"testcase\000"
 1831      63617365 
 1831      00
 1832              	.LASF45:
 1833 02b0 705F6570 		.ascii	"p_epending\000"
 1833      656E6469 
 1833      6E6700
 1834              	.LASF16:
 1835 02bb 75696E74 		.ascii	"uint32_t\000"
 1835      33325F74 
 1835      00
 1836              	.LASF56:
 1837 02c4 725F7175 		.ascii	"r_queue\000"
 1837      65756500 
 1838              	.LASF89:
 1839 02cc 2F686F6D 		.ascii	"/home/makkmarci/devel/ChibiOS_2.6.5/testhal/STM32F4"
 1839      652F6D61 
 1839      6B6B6D61 
 1839      7263692F 
 1839      64657665 
 1840 02ff 78782F50 		.ascii	"xx/PWM-ICU/\000"
 1840      574D2D49 
 1840      43552F00 
 1841              	.LASF71:
 1842 030b 63686172 		.ascii	"char\000"
 1842      00
 1843              	.LASF87:
 1844 0310 474E5520 		.ascii	"GNU C 4.8.4 20140526 (release) [ARM/embedded-4_8-br"
 1844      4320342E 
 1844      382E3420 
 1844      32303134 
 1844      30353236 
 1845 0343 616E6368 		.ascii	"anch revision 211358] -mcpu=cortex-m4 -mno-thumb-in"
 1845      20726576 
 1845      6973696F 
 1845      6E203231 
ARM GAS  /tmp/ccEepdba.s 			page 36


 1845      31333538 
 1846 0376 74657277 		.ascii	"terwork -mthumb -ggdb -O2 -fomit-frame-pointer -fal"
 1846      6F726B20 
 1846      2D6D7468 
 1846      756D6220 
 1846      2D676764 
 1847 03a9 69676E2D 		.ascii	"ign-functions=16 -ffunction-sections -fdata-section"
 1847      66756E63 
 1847      74696F6E 
 1847      733D3136 
 1847      202D6666 
 1848 03dc 73202D66 		.ascii	"s -fno-common\000"
 1848      6E6F2D63 
 1848      6F6D6D6F 
 1848      6E00
 1849              	.LASF66:
 1850 03ea 6D5F6E65 		.ascii	"m_next\000"
 1850      787400
 1851              	.LASF27:
 1852 03f1 73797374 		.ascii	"systime_t\000"
 1852      696D655F 
 1852      7400
 1853              	.LASF47:
 1854 03fb 705F7265 		.ascii	"p_realprio\000"
 1854      616C7072 
 1854      696F00
 1855              	.LASF7:
 1856 0406 5F5F696E 		.ascii	"__int32_t\000"
 1856      7433325F 
 1856      7400
 1857              	.LASF41:
 1858 0410 705F7469 		.ascii	"p_time\000"
 1858      6D6500
 1859              	.LASF53:
 1860 0417 696E7463 		.ascii	"intctx\000"
 1860      747800
 1861              	.LASF43:
 1862 041e 705F6D73 		.ascii	"p_msgqueue\000"
 1862      67717565 
 1862      756500
 1863              	.LASF92:
 1864 0429 63684D73 		.ascii	"chMsgWait\000"
 1864      67576169 
 1864      7400
 1865              	.LASF39:
 1866 0433 705F7265 		.ascii	"p_refs\000"
 1866      667300
 1867              	.LASF62:
 1868 043a 52656164 		.ascii	"ReadyList\000"
 1868      794C6973 
 1868      7400
 1869              	.LASF78:
 1870 0444 726C6973 		.ascii	"rlist\000"
 1870      7400
 1871              	.LASF14:
 1872 044a 75696E74 		.ascii	"uint8_t\000"
 1872      385F7400 
ARM GAS  /tmp/ccEepdba.s 			page 37


 1873              	.LASF90:
 1874 0452 6D736731 		.ascii	"msg1_execute\000"
 1874      5F657865 
 1874      63757465 
 1874      00
 1875              	.LASF69:
 1876 045f 77746F62 		.ascii	"wtobjp\000"
 1876      6A7000
 1877              	.LASF35:
 1878 0466 705F6E61 		.ascii	"p_name\000"
 1878      6D6500
 1879              	.LASF65:
 1880 046d 6D5F6F77 		.ascii	"m_owner\000"
 1880      6E657200 
 1881              	.LASF32:
 1882 0475 705F6374 		.ascii	"p_ctx\000"
 1882      7800
 1883              	.LASF42:
 1884 047b 705F7761 		.ascii	"p_waiting\000"
 1884      6974696E 
 1884      6700
 1885              		.ident	"GCC: (GNU Tools for ARM Embedded Processors) 4.8.4 20140526 (release) [ARM/embedded-4_8-br
ARM GAS  /tmp/ccEepdba.s 			page 38


DEFINED SYMBOLS
                            *ABS*:00000000 testmsg.c
     /tmp/ccEepdba.s:19     .text.msg1_execute:00000000 $t
     /tmp/ccEepdba.s:24     .text.msg1_execute:00000000 msg1_execute
     /tmp/ccEepdba.s:109    .text.msg1_execute:00000064 $d
     /tmp/ccEepdba.s:123    .text.thread:00000000 thread
     /tmp/ccEepdba.s:118    .text.thread:00000000 $t
     /tmp/ccEepdba.s:178    .rodata.patternmsg:00000000 patternmsg
     /tmp/ccEepdba.s:163    .rodata.testmsg1:00000000 testmsg1
     /tmp/ccEepdba.s:160    .rodata.testmsg1:00000000 $d
     /tmp/ccEepdba.s:169    .rodata.str1.4:00000000 $d
     /tmp/ccEepdba.s:175    .rodata.patternmsg:00000000 $d
                     .debug_frame:00000010 $d
     /tmp/ccEepdba.s:117    .text.msg1_execute:00000078 $t

UNDEFINED SYMBOLS
chThdCreateStatic
chMsgWait
chMsgRelease
test_emit_token
_test_assert_sequence
rlist
wa
threads
chMsgSend
