ARM GAS  /tmp/ccolcQFN.s 			page 1


   1              		.syntax unified
   2              		.cpu cortex-m4
   3              		.fpu softvfp
   4              		.eabi_attribute 20, 1
   5              		.eabi_attribute 21, 1
   6              		.eabi_attribute 23, 3
   7              		.eabi_attribute 24, 1
   8              		.eabi_attribute 25, 1
   9              		.eabi_attribute 26, 1
  10              		.eabi_attribute 30, 2
  11              		.eabi_attribute 34, 1
  12              		.eabi_attribute 18, 4
  13              		.thumb
  14              		.file	"chmemcore.c"
  15              		.text
  16              	.Ltext0:
  17              		.cfi_sections	.debug_frame
  18              		.section	.text._core_init,"ax",%progbits
  19              		.align	2
  20              		.p2align 4,,15
  21              		.global	_core_init
  22              		.thumb
  23              		.thumb_func
  24              		.type	_core_init, %function
  25              	_core_init:
  26              	.LFB7:
  27              		.file 1 "../../../os/kernel/src/chmemcore.c"
  28              		.loc 1 66 0
  29              		.cfi_startproc
  30              		@ args = 0, pretend = 0, frame = 0
  31              		@ frame_needed = 0, uses_anonymous_args = 0
  32              		@ link register save eliminated.
  33              		.loc 1 70 0
  34 0000 0548     		ldr	r0, .L2
  35              		.loc 1 71 0
  36 0002 064A     		ldr	r2, .L2+4
  37              		.loc 1 70 0
  38 0004 0649     		ldr	r1, .L2+8
  39              		.loc 1 71 0
  40 0006 074B     		ldr	r3, .L2+12
  41              		.loc 1 70 0
  42 0008 20F00700 		bic	r0, r0, #7
  43              		.loc 1 71 0
  44 000c 22F00702 		bic	r2, r2, #7
  45              		.loc 1 70 0
  46 0010 0860     		str	r0, [r1]
  47              		.loc 1 71 0
  48 0012 1A60     		str	r2, [r3]
  49 0014 7047     		bx	lr
  50              	.L3:
  51 0016 00BF     		.align	2
  52              	.L2:
  53 0018 07000000 		.word	__heap_base__+7
  54 001c 00000000 		.word	__heap_end__
  55 0020 00000000 		.word	.LANCHOR0
  56 0024 00000000 		.word	.LANCHOR1
  57              		.cfi_endproc
ARM GAS  /tmp/ccolcQFN.s 			page 2


  58              	.LFE7:
  59              		.size	_core_init, .-_core_init
  60 0028 AFF30080 		.section	.text.chCoreAllocI,"ax",%progbits
  60      AFF30080 
  61              		.align	2
  62              		.p2align 4,,15
  63              		.global	chCoreAllocI
  64              		.thumb
  65              		.thumb_func
  66              		.type	chCoreAllocI, %function
  67              	chCoreAllocI:
  68              	.LFB9:
  69              		.loc 1 112 0
  70              		.cfi_startproc
  71              		@ args = 0, pretend = 0, frame = 0
  72              		@ frame_needed = 0, uses_anonymous_args = 0
  73              	.LVL0:
  74 0000 10B5     		push	{r4, lr}
  75              		.cfi_def_cfa_offset 8
  76              		.cfi_offset 4, -8
  77              		.cfi_offset 14, -4
  78              		.loc 1 112 0
  79 0002 0446     		mov	r4, r0
  80              		.loc 1 115 0
  81 0004 FFF7FEFF 		bl	chDbgCheckClassI
  82              	.LVL1:
  83              		.loc 1 118 0
  84 0008 074A     		ldr	r2, .L7
  85 000a 0849     		ldr	r1, .L7+4
  86 000c 1368     		ldr	r3, [r2]
  87 000e 0968     		ldr	r1, [r1]
  88              		.loc 1 117 0
  89 0010 E01D     		adds	r0, r4, #7
  90 0012 20F00700 		bic	r0, r0, #7
  91              	.LVL2:
  92              		.loc 1 118 0
  93 0016 C91A     		subs	r1, r1, r3
  94 0018 8842     		cmp	r0, r1
  95              	.LVL3:
  96              		.loc 1 121 0
  97 001a 9DBF     		ittte	ls
  98 001c C018     		addls	r0, r0, r3
  99              	.LVL4:
 100 001e 1060     		strls	r0, [r2]
 101              		.loc 1 122 0
 102 0020 1846     		movls	r0, r3
 103              		.loc 1 119 0
 104 0022 0020     		movhi	r0, #0
 105              		.loc 1 123 0
 106 0024 10BD     		pop	{r4, pc}
 107              	.LVL5:
 108              	.L8:
 109 0026 00BF     		.align	2
 110              	.L7:
 111 0028 00000000 		.word	.LANCHOR0
 112 002c 00000000 		.word	.LANCHOR1
 113              		.cfi_endproc
ARM GAS  /tmp/ccolcQFN.s 			page 3


 114              	.LFE9:
 115              		.size	chCoreAllocI, .-chCoreAllocI
 116              		.section	.text.chCoreAlloc,"ax",%progbits
 117              		.align	2
 118              		.p2align 4,,15
 119              		.global	chCoreAlloc
 120              		.thumb
 121              		.thumb_func
 122              		.type	chCoreAlloc, %function
 123              	chCoreAlloc:
 124              	.LFB8:
 125              		.loc 1 91 0
 126              		.cfi_startproc
 127              		@ args = 0, pretend = 0, frame = 0
 128              		@ frame_needed = 0, uses_anonymous_args = 0
 129              	.LVL6:
 130 0000 10B5     		push	{r4, lr}
 131              		.cfi_def_cfa_offset 8
 132              		.cfi_offset 4, -8
 133              		.cfi_offset 14, -4
 134              	.LBB2:
 135              		.loc 1 94 0
 136 0002 2023     		movs	r3, #32
 137              	.LBE2:
 138              		.loc 1 91 0
 139 0004 0446     		mov	r4, r0
 140              	.LBB3:
 141              		.loc 1 94 0
 142              	@ 94 "../../../os/kernel/src/chmemcore.c" 1
 143 0006 83F31188 		msr     BASEPRI, r3
 144              	@ 0 "" 2
 145              		.thumb
 146              	.LBE3:
 147 000a FFF7FEFF 		bl	dbg_check_lock
 148              	.LVL7:
 149              		.loc 1 95 0
 150 000e 2046     		mov	r0, r4
 151 0010 FFF7FEFF 		bl	chCoreAllocI
 152              	.LVL8:
 153 0014 0446     		mov	r4, r0
 154              	.LVL9:
 155              		.loc 1 96 0
 156 0016 FFF7FEFF 		bl	dbg_check_unlock
 157              	.LVL10:
 158              	.LBB4:
 159 001a 0023     		movs	r3, #0
 160              	@ 96 "../../../os/kernel/src/chmemcore.c" 1
 161 001c 83F31188 		msr     BASEPRI, r3
 162              	@ 0 "" 2
 163              		.thumb
 164              	.LBE4:
 165              		.loc 1 98 0
 166 0020 2046     		mov	r0, r4
 167 0022 10BD     		pop	{r4, pc}
 168              		.cfi_endproc
 169              	.LFE8:
 170              		.size	chCoreAlloc, .-chCoreAlloc
ARM GAS  /tmp/ccolcQFN.s 			page 4


 171 0024 AFF30080 		.section	.text.chCoreStatus,"ax",%progbits
 171      AFF30080 
 171      AFF30080 
 172              		.align	2
 173              		.p2align 4,,15
 174              		.global	chCoreStatus
 175              		.thumb
 176              		.thumb_func
 177              		.type	chCoreStatus, %function
 178              	chCoreStatus:
 179              	.LFB10:
 180              		.loc 1 132 0
 181              		.cfi_startproc
 182              		@ args = 0, pretend = 0, frame = 0
 183              		@ frame_needed = 0, uses_anonymous_args = 0
 184              		@ link register save eliminated.
 185              		.loc 1 134 0
 186 0000 024A     		ldr	r2, .L11
 187 0002 034B     		ldr	r3, .L11+4
 188 0004 1068     		ldr	r0, [r2]
 189 0006 1B68     		ldr	r3, [r3]
 190              		.loc 1 135 0
 191 0008 C01A     		subs	r0, r0, r3
 192 000a 7047     		bx	lr
 193              	.L12:
 194              		.align	2
 195              	.L11:
 196 000c 00000000 		.word	.LANCHOR1
 197 0010 00000000 		.word	.LANCHOR0
 198              		.cfi_endproc
 199              	.LFE10:
 200              		.size	chCoreStatus, .-chCoreStatus
 201 0014 AFF30080 		.section	.bss.endmem,"aw",%nobits
 201      AFF30080 
 201      AFF30080 
 202              		.align	2
 203              		.set	.LANCHOR1,. + 0
 204              		.type	endmem, %object
 205              		.size	endmem, 4
 206              	endmem:
 207 0000 00000000 		.space	4
 208              		.section	.bss.nextmem,"aw",%nobits
 209              		.align	2
 210              		.set	.LANCHOR0,. + 0
 211              		.type	nextmem, %object
 212              		.size	nextmem, 4
 213              	nextmem:
 214 0000 00000000 		.space	4
 215              		.text
 216              	.Letext0:
 217              		.file 2 "/opt/yagarto/lib/gcc/arm-none-eabi/4.8.4/include/stddef.h"
 218              		.file 3 "/opt/yagarto/arm-none-eabi/include/machine/_default_types.h"
 219              		.file 4 "/opt/yagarto/arm-none-eabi/include/stdint.h"
 220              		.file 5 "../../../os/kernel/include/chdebug.h"
 221              		.section	.debug_info,"",%progbits
 222              	.Ldebug_info0:
 223 0000 20020000 		.4byte	0x220
ARM GAS  /tmp/ccolcQFN.s 			page 5


 224 0004 0400     		.2byte	0x4
 225 0006 00000000 		.4byte	.Ldebug_abbrev0
 226 000a 04       		.byte	0x4
 227 000b 01       		.uleb128 0x1
 228 000c 38010000 		.4byte	.LASF27
 229 0010 01       		.byte	0x1
 230 0011 45020000 		.4byte	.LASF28
 231 0015 5E000000 		.4byte	.LASF29
 232 0019 18000000 		.4byte	.Ldebug_ranges0+0x18
 233 001d 00000000 		.4byte	0
 234 0021 00000000 		.4byte	.Ldebug_line0
 235 0025 02       		.uleb128 0x2
 236 0026 04       		.byte	0x4
 237 0027 05       		.byte	0x5
 238 0028 696E7400 		.ascii	"int\000"
 239 002c 03       		.uleb128 0x3
 240 002d 11000000 		.4byte	.LASF2
 241 0031 02       		.byte	0x2
 242 0032 D4       		.byte	0xd4
 243 0033 37000000 		.4byte	0x37
 244 0037 04       		.uleb128 0x4
 245 0038 04       		.byte	0x4
 246 0039 07       		.byte	0x7
 247 003a FE000000 		.4byte	.LASF0
 248 003e 04       		.uleb128 0x4
 249 003f 01       		.byte	0x1
 250 0040 06       		.byte	0x6
 251 0041 7D020000 		.4byte	.LASF1
 252 0045 03       		.uleb128 0x3
 253 0046 07000000 		.4byte	.LASF3
 254 004a 03       		.byte	0x3
 255 004b 1C       		.byte	0x1c
 256 004c 50000000 		.4byte	0x50
 257 0050 04       		.uleb128 0x4
 258 0051 01       		.byte	0x1
 259 0052 08       		.byte	0x8
 260 0053 DA000000 		.4byte	.LASF4
 261 0057 04       		.uleb128 0x4
 262 0058 02       		.byte	0x2
 263 0059 05       		.byte	0x5
 264 005a 3B020000 		.4byte	.LASF5
 265 005e 04       		.uleb128 0x4
 266 005f 02       		.byte	0x2
 267 0060 07       		.byte	0x7
 268 0061 BE000000 		.4byte	.LASF6
 269 0065 04       		.uleb128 0x4
 270 0066 04       		.byte	0x4
 271 0067 05       		.byte	0x5
 272 0068 74020000 		.4byte	.LASF7
 273 006c 03       		.uleb128 0x3
 274 006d E8000000 		.4byte	.LASF8
 275 0071 03       		.byte	0x3
 276 0072 38       		.byte	0x38
 277 0073 77000000 		.4byte	0x77
 278 0077 04       		.uleb128 0x4
 279 0078 04       		.byte	0x4
 280 0079 07       		.byte	0x7
ARM GAS  /tmp/ccolcQFN.s 			page 6


 281 007a 9F000000 		.4byte	.LASF9
 282 007e 04       		.uleb128 0x4
 283 007f 08       		.byte	0x8
 284 0080 05       		.byte	0x5
 285 0081 1B020000 		.4byte	.LASF10
 286 0085 04       		.uleb128 0x4
 287 0086 08       		.byte	0x8
 288 0087 07       		.byte	0x7
 289 0088 0B010000 		.4byte	.LASF11
 290 008c 03       		.uleb128 0x3
 291 008d 22010000 		.4byte	.LASF12
 292 0091 04       		.byte	0x4
 293 0092 2A       		.byte	0x2a
 294 0093 45000000 		.4byte	0x45
 295 0097 03       		.uleb128 0x3
 296 0098 D1000000 		.4byte	.LASF13
 297 009c 04       		.byte	0x4
 298 009d 42       		.byte	0x42
 299 009e 6C000000 		.4byte	0x6c
 300 00a2 04       		.uleb128 0x4
 301 00a3 01       		.byte	0x1
 302 00a4 02       		.byte	0x2
 303 00a5 89020000 		.4byte	.LASF14
 304 00a9 05       		.uleb128 0x5
 305 00aa 04       		.byte	0x4
 306 00ab 04       		.uleb128 0x4
 307 00ac 04       		.byte	0x4
 308 00ad 07       		.byte	0x7
 309 00ae 12020000 		.4byte	.LASF15
 310 00b2 04       		.uleb128 0x4
 311 00b3 01       		.byte	0x1
 312 00b4 08       		.byte	0x8
 313 00b5 29020000 		.4byte	.LASF16
 314 00b9 06       		.uleb128 0x6
 315 00ba 04       		.byte	0x4
 316 00bb 8C000000 		.4byte	0x8c
 317 00bf 07       		.uleb128 0x7
 318 00c0 F3000000 		.4byte	.LASF30
 319 00c4 01       		.byte	0x1
 320 00c5 42       		.byte	0x42
 321 00c6 00000000 		.4byte	.LFB7
 322 00ca 28000000 		.4byte	.LFE7-.LFB7
 323 00ce 01       		.uleb128 0x1
 324 00cf 9C       		.byte	0x9c
 325 00d0 EB000000 		.4byte	0xeb
 326 00d4 08       		.uleb128 0x8
 327 00d5 2A010000 		.4byte	.LASF17
 328 00d9 01       		.byte	0x1
 329 00da 44       		.byte	0x44
 330 00db EB000000 		.4byte	0xeb
 331 00df 08       		.uleb128 0x8
 332 00e0 2E020000 		.4byte	.LASF18
 333 00e4 01       		.byte	0x1
 334 00e5 45       		.byte	0x45
 335 00e6 EB000000 		.4byte	0xeb
 336 00ea 00       		.byte	0
 337 00eb 09       		.uleb128 0x9
ARM GAS  /tmp/ccolcQFN.s 			page 7


 338 00ec 8C000000 		.4byte	0x8c
 339 00f0 F6000000 		.4byte	0xf6
 340 00f4 0A       		.uleb128 0xa
 341 00f5 00       		.byte	0
 342 00f6 0B       		.uleb128 0xb
 343 00f7 51000000 		.4byte	.LASF19
 344 00fb 01       		.byte	0x1
 345 00fc 70       		.byte	0x70
 346 00fd A9000000 		.4byte	0xa9
 347 0101 00000000 		.4byte	.LFB9
 348 0105 30000000 		.4byte	.LFE9-.LFB9
 349 0109 01       		.uleb128 0x1
 350 010a 9C       		.byte	0x9c
 351 010b 33010000 		.4byte	0x133
 352 010f 0C       		.uleb128 0xc
 353 0110 9A000000 		.4byte	.LASF21
 354 0114 01       		.byte	0x1
 355 0115 70       		.byte	0x70
 356 0116 2C000000 		.4byte	0x2c
 357 011a 00000000 		.4byte	.LLST0
 358 011e 0D       		.uleb128 0xd
 359 011f 7000     		.ascii	"p\000"
 360 0121 01       		.byte	0x1
 361 0122 71       		.byte	0x71
 362 0123 A9000000 		.4byte	0xa9
 363 0127 01       		.uleb128 0x1
 364 0128 53       		.byte	0x53
 365 0129 0E       		.uleb128 0xe
 366 012a 08000000 		.4byte	.LVL1
 367 012e 0E020000 		.4byte	0x20e
 368 0132 00       		.byte	0
 369 0133 0B       		.uleb128 0xb
 370 0134 68020000 		.4byte	.LASF20
 371 0138 01       		.byte	0x1
 372 0139 5B       		.byte	0x5b
 373 013a A9000000 		.4byte	0xa9
 374 013e 00000000 		.4byte	.LFB8
 375 0142 24000000 		.4byte	.LFE8-.LFB8
 376 0146 01       		.uleb128 0x1
 377 0147 9C       		.byte	0x9c
 378 0148 C1010000 		.4byte	0x1c1
 379 014c 0C       		.uleb128 0xc
 380 014d 9A000000 		.4byte	.LASF21
 381 0151 01       		.byte	0x1
 382 0152 5B       		.byte	0x5b
 383 0153 2C000000 		.4byte	0x2c
 384 0157 4C000000 		.4byte	.LLST1
 385 015b 0F       		.uleb128 0xf
 386 015c 7000     		.ascii	"p\000"
 387 015e 01       		.byte	0x1
 388 015f 5C       		.byte	0x5c
 389 0160 A9000000 		.4byte	0xa9
 390 0164 78000000 		.4byte	.LLST2
 391 0168 10       		.uleb128 0x10
 392 0169 00000000 		.4byte	.Ldebug_ranges0+0
 393 016d 7F010000 		.4byte	0x17f
 394 0171 0D       		.uleb128 0xd
ARM GAS  /tmp/ccolcQFN.s 			page 8


 395 0172 746D7000 		.ascii	"tmp\000"
 396 0176 01       		.byte	0x1
 397 0177 5E       		.byte	0x5e
 398 0178 97000000 		.4byte	0x97
 399 017c 01       		.uleb128 0x1
 400 017d 53       		.byte	0x53
 401 017e 00       		.byte	0
 402 017f 11       		.uleb128 0x11
 403 0180 1A000000 		.4byte	.LBB4
 404 0184 06000000 		.4byte	.LBE4-.LBB4
 405 0188 9A010000 		.4byte	0x19a
 406 018c 0D       		.uleb128 0xd
 407 018d 746D7000 		.ascii	"tmp\000"
 408 0191 01       		.byte	0x1
 409 0192 60       		.byte	0x60
 410 0193 97000000 		.4byte	0x97
 411 0197 01       		.uleb128 0x1
 412 0198 53       		.byte	0x53
 413 0199 00       		.byte	0
 414 019a 0E       		.uleb128 0xe
 415 019b 0E000000 		.4byte	.LVL7
 416 019f 15020000 		.4byte	0x215
 417 01a3 12       		.uleb128 0x12
 418 01a4 14000000 		.4byte	.LVL8
 419 01a8 F6000000 		.4byte	0xf6
 420 01ac B7010000 		.4byte	0x1b7
 421 01b0 13       		.uleb128 0x13
 422 01b1 01       		.uleb128 0x1
 423 01b2 50       		.byte	0x50
 424 01b3 02       		.uleb128 0x2
 425 01b4 74       		.byte	0x74
 426 01b5 00       		.sleb128 0
 427 01b6 00       		.byte	0
 428 01b7 0E       		.uleb128 0xe
 429 01b8 1A000000 		.4byte	.LVL10
 430 01bc 1C020000 		.4byte	0x21c
 431 01c0 00       		.byte	0
 432 01c1 14       		.uleb128 0x14
 433 01c2 B1000000 		.4byte	.LASF31
 434 01c6 01       		.byte	0x1
 435 01c7 84       		.byte	0x84
 436 01c8 2C000000 		.4byte	0x2c
 437 01cc 00000000 		.4byte	.LFB10
 438 01d0 14000000 		.4byte	.LFE10-.LFB10
 439 01d4 01       		.uleb128 0x1
 440 01d5 9C       		.byte	0x9c
 441 01d6 15       		.uleb128 0x15
 442 01d7 49000000 		.4byte	.LASF22
 443 01db 01       		.byte	0x1
 444 01dc 3A       		.byte	0x3a
 445 01dd B9000000 		.4byte	0xb9
 446 01e1 05       		.uleb128 0x5
 447 01e2 03       		.byte	0x3
 448 01e3 00000000 		.4byte	nextmem
 449 01e7 15       		.uleb128 0x15
 450 01e8 00000000 		.4byte	.LASF23
 451 01ec 01       		.byte	0x1
ARM GAS  /tmp/ccolcQFN.s 			page 9


 452 01ed 3B       		.byte	0x3b
 453 01ee B9000000 		.4byte	0xb9
 454 01f2 05       		.uleb128 0x5
 455 01f3 03       		.byte	0x3
 456 01f4 00000000 		.4byte	endmem
 457 01f8 08       		.uleb128 0x8
 458 01f9 2A010000 		.4byte	.LASF17
 459 01fd 01       		.byte	0x1
 460 01fe 44       		.byte	0x44
 461 01ff EB000000 		.4byte	0xeb
 462 0203 08       		.uleb128 0x8
 463 0204 2E020000 		.4byte	.LASF18
 464 0208 01       		.byte	0x1
 465 0209 45       		.byte	0x45
 466 020a EB000000 		.4byte	0xeb
 467 020e 16       		.uleb128 0x16
 468 020f 38000000 		.4byte	.LASF24
 469 0213 05       		.byte	0x5
 470 0214 ED       		.byte	0xed
 471 0215 16       		.uleb128 0x16
 472 0216 18000000 		.4byte	.LASF25
 473 021a 05       		.byte	0x5
 474 021b E7       		.byte	0xe7
 475 021c 16       		.uleb128 0x16
 476 021d 27000000 		.4byte	.LASF26
 477 0221 05       		.byte	0x5
 478 0222 E8       		.byte	0xe8
 479 0223 00       		.byte	0
 480              		.section	.debug_abbrev,"",%progbits
 481              	.Ldebug_abbrev0:
 482 0000 01       		.uleb128 0x1
 483 0001 11       		.uleb128 0x11
 484 0002 01       		.byte	0x1
 485 0003 25       		.uleb128 0x25
 486 0004 0E       		.uleb128 0xe
 487 0005 13       		.uleb128 0x13
 488 0006 0B       		.uleb128 0xb
 489 0007 03       		.uleb128 0x3
 490 0008 0E       		.uleb128 0xe
 491 0009 1B       		.uleb128 0x1b
 492 000a 0E       		.uleb128 0xe
 493 000b 55       		.uleb128 0x55
 494 000c 17       		.uleb128 0x17
 495 000d 11       		.uleb128 0x11
 496 000e 01       		.uleb128 0x1
 497 000f 10       		.uleb128 0x10
 498 0010 17       		.uleb128 0x17
 499 0011 00       		.byte	0
 500 0012 00       		.byte	0
 501 0013 02       		.uleb128 0x2
 502 0014 24       		.uleb128 0x24
 503 0015 00       		.byte	0
 504 0016 0B       		.uleb128 0xb
 505 0017 0B       		.uleb128 0xb
 506 0018 3E       		.uleb128 0x3e
 507 0019 0B       		.uleb128 0xb
 508 001a 03       		.uleb128 0x3
ARM GAS  /tmp/ccolcQFN.s 			page 10


 509 001b 08       		.uleb128 0x8
 510 001c 00       		.byte	0
 511 001d 00       		.byte	0
 512 001e 03       		.uleb128 0x3
 513 001f 16       		.uleb128 0x16
 514 0020 00       		.byte	0
 515 0021 03       		.uleb128 0x3
 516 0022 0E       		.uleb128 0xe
 517 0023 3A       		.uleb128 0x3a
 518 0024 0B       		.uleb128 0xb
 519 0025 3B       		.uleb128 0x3b
 520 0026 0B       		.uleb128 0xb
 521 0027 49       		.uleb128 0x49
 522 0028 13       		.uleb128 0x13
 523 0029 00       		.byte	0
 524 002a 00       		.byte	0
 525 002b 04       		.uleb128 0x4
 526 002c 24       		.uleb128 0x24
 527 002d 00       		.byte	0
 528 002e 0B       		.uleb128 0xb
 529 002f 0B       		.uleb128 0xb
 530 0030 3E       		.uleb128 0x3e
 531 0031 0B       		.uleb128 0xb
 532 0032 03       		.uleb128 0x3
 533 0033 0E       		.uleb128 0xe
 534 0034 00       		.byte	0
 535 0035 00       		.byte	0
 536 0036 05       		.uleb128 0x5
 537 0037 0F       		.uleb128 0xf
 538 0038 00       		.byte	0
 539 0039 0B       		.uleb128 0xb
 540 003a 0B       		.uleb128 0xb
 541 003b 00       		.byte	0
 542 003c 00       		.byte	0
 543 003d 06       		.uleb128 0x6
 544 003e 0F       		.uleb128 0xf
 545 003f 00       		.byte	0
 546 0040 0B       		.uleb128 0xb
 547 0041 0B       		.uleb128 0xb
 548 0042 49       		.uleb128 0x49
 549 0043 13       		.uleb128 0x13
 550 0044 00       		.byte	0
 551 0045 00       		.byte	0
 552 0046 07       		.uleb128 0x7
 553 0047 2E       		.uleb128 0x2e
 554 0048 01       		.byte	0x1
 555 0049 3F       		.uleb128 0x3f
 556 004a 19       		.uleb128 0x19
 557 004b 03       		.uleb128 0x3
 558 004c 0E       		.uleb128 0xe
 559 004d 3A       		.uleb128 0x3a
 560 004e 0B       		.uleb128 0xb
 561 004f 3B       		.uleb128 0x3b
 562 0050 0B       		.uleb128 0xb
 563 0051 27       		.uleb128 0x27
 564 0052 19       		.uleb128 0x19
 565 0053 11       		.uleb128 0x11
ARM GAS  /tmp/ccolcQFN.s 			page 11


 566 0054 01       		.uleb128 0x1
 567 0055 12       		.uleb128 0x12
 568 0056 06       		.uleb128 0x6
 569 0057 40       		.uleb128 0x40
 570 0058 18       		.uleb128 0x18
 571 0059 9742     		.uleb128 0x2117
 572 005b 19       		.uleb128 0x19
 573 005c 01       		.uleb128 0x1
 574 005d 13       		.uleb128 0x13
 575 005e 00       		.byte	0
 576 005f 00       		.byte	0
 577 0060 08       		.uleb128 0x8
 578 0061 34       		.uleb128 0x34
 579 0062 00       		.byte	0
 580 0063 03       		.uleb128 0x3
 581 0064 0E       		.uleb128 0xe
 582 0065 3A       		.uleb128 0x3a
 583 0066 0B       		.uleb128 0xb
 584 0067 3B       		.uleb128 0x3b
 585 0068 0B       		.uleb128 0xb
 586 0069 49       		.uleb128 0x49
 587 006a 13       		.uleb128 0x13
 588 006b 3F       		.uleb128 0x3f
 589 006c 19       		.uleb128 0x19
 590 006d 3C       		.uleb128 0x3c
 591 006e 19       		.uleb128 0x19
 592 006f 00       		.byte	0
 593 0070 00       		.byte	0
 594 0071 09       		.uleb128 0x9
 595 0072 01       		.uleb128 0x1
 596 0073 01       		.byte	0x1
 597 0074 49       		.uleb128 0x49
 598 0075 13       		.uleb128 0x13
 599 0076 01       		.uleb128 0x1
 600 0077 13       		.uleb128 0x13
 601 0078 00       		.byte	0
 602 0079 00       		.byte	0
 603 007a 0A       		.uleb128 0xa
 604 007b 21       		.uleb128 0x21
 605 007c 00       		.byte	0
 606 007d 00       		.byte	0
 607 007e 00       		.byte	0
 608 007f 0B       		.uleb128 0xb
 609 0080 2E       		.uleb128 0x2e
 610 0081 01       		.byte	0x1
 611 0082 3F       		.uleb128 0x3f
 612 0083 19       		.uleb128 0x19
 613 0084 03       		.uleb128 0x3
 614 0085 0E       		.uleb128 0xe
 615 0086 3A       		.uleb128 0x3a
 616 0087 0B       		.uleb128 0xb
 617 0088 3B       		.uleb128 0x3b
 618 0089 0B       		.uleb128 0xb
 619 008a 27       		.uleb128 0x27
 620 008b 19       		.uleb128 0x19
 621 008c 49       		.uleb128 0x49
 622 008d 13       		.uleb128 0x13
ARM GAS  /tmp/ccolcQFN.s 			page 12


 623 008e 11       		.uleb128 0x11
 624 008f 01       		.uleb128 0x1
 625 0090 12       		.uleb128 0x12
 626 0091 06       		.uleb128 0x6
 627 0092 40       		.uleb128 0x40
 628 0093 18       		.uleb128 0x18
 629 0094 9742     		.uleb128 0x2117
 630 0096 19       		.uleb128 0x19
 631 0097 01       		.uleb128 0x1
 632 0098 13       		.uleb128 0x13
 633 0099 00       		.byte	0
 634 009a 00       		.byte	0
 635 009b 0C       		.uleb128 0xc
 636 009c 05       		.uleb128 0x5
 637 009d 00       		.byte	0
 638 009e 03       		.uleb128 0x3
 639 009f 0E       		.uleb128 0xe
 640 00a0 3A       		.uleb128 0x3a
 641 00a1 0B       		.uleb128 0xb
 642 00a2 3B       		.uleb128 0x3b
 643 00a3 0B       		.uleb128 0xb
 644 00a4 49       		.uleb128 0x49
 645 00a5 13       		.uleb128 0x13
 646 00a6 02       		.uleb128 0x2
 647 00a7 17       		.uleb128 0x17
 648 00a8 00       		.byte	0
 649 00a9 00       		.byte	0
 650 00aa 0D       		.uleb128 0xd
 651 00ab 34       		.uleb128 0x34
 652 00ac 00       		.byte	0
 653 00ad 03       		.uleb128 0x3
 654 00ae 08       		.uleb128 0x8
 655 00af 3A       		.uleb128 0x3a
 656 00b0 0B       		.uleb128 0xb
 657 00b1 3B       		.uleb128 0x3b
 658 00b2 0B       		.uleb128 0xb
 659 00b3 49       		.uleb128 0x49
 660 00b4 13       		.uleb128 0x13
 661 00b5 02       		.uleb128 0x2
 662 00b6 18       		.uleb128 0x18
 663 00b7 00       		.byte	0
 664 00b8 00       		.byte	0
 665 00b9 0E       		.uleb128 0xe
 666 00ba 898201   		.uleb128 0x4109
 667 00bd 00       		.byte	0
 668 00be 11       		.uleb128 0x11
 669 00bf 01       		.uleb128 0x1
 670 00c0 31       		.uleb128 0x31
 671 00c1 13       		.uleb128 0x13
 672 00c2 00       		.byte	0
 673 00c3 00       		.byte	0
 674 00c4 0F       		.uleb128 0xf
 675 00c5 34       		.uleb128 0x34
 676 00c6 00       		.byte	0
 677 00c7 03       		.uleb128 0x3
 678 00c8 08       		.uleb128 0x8
 679 00c9 3A       		.uleb128 0x3a
ARM GAS  /tmp/ccolcQFN.s 			page 13


 680 00ca 0B       		.uleb128 0xb
 681 00cb 3B       		.uleb128 0x3b
 682 00cc 0B       		.uleb128 0xb
 683 00cd 49       		.uleb128 0x49
 684 00ce 13       		.uleb128 0x13
 685 00cf 02       		.uleb128 0x2
 686 00d0 17       		.uleb128 0x17
 687 00d1 00       		.byte	0
 688 00d2 00       		.byte	0
 689 00d3 10       		.uleb128 0x10
 690 00d4 0B       		.uleb128 0xb
 691 00d5 01       		.byte	0x1
 692 00d6 55       		.uleb128 0x55
 693 00d7 17       		.uleb128 0x17
 694 00d8 01       		.uleb128 0x1
 695 00d9 13       		.uleb128 0x13
 696 00da 00       		.byte	0
 697 00db 00       		.byte	0
 698 00dc 11       		.uleb128 0x11
 699 00dd 0B       		.uleb128 0xb
 700 00de 01       		.byte	0x1
 701 00df 11       		.uleb128 0x11
 702 00e0 01       		.uleb128 0x1
 703 00e1 12       		.uleb128 0x12
 704 00e2 06       		.uleb128 0x6
 705 00e3 01       		.uleb128 0x1
 706 00e4 13       		.uleb128 0x13
 707 00e5 00       		.byte	0
 708 00e6 00       		.byte	0
 709 00e7 12       		.uleb128 0x12
 710 00e8 898201   		.uleb128 0x4109
 711 00eb 01       		.byte	0x1
 712 00ec 11       		.uleb128 0x11
 713 00ed 01       		.uleb128 0x1
 714 00ee 31       		.uleb128 0x31
 715 00ef 13       		.uleb128 0x13
 716 00f0 01       		.uleb128 0x1
 717 00f1 13       		.uleb128 0x13
 718 00f2 00       		.byte	0
 719 00f3 00       		.byte	0
 720 00f4 13       		.uleb128 0x13
 721 00f5 8A8201   		.uleb128 0x410a
 722 00f8 00       		.byte	0
 723 00f9 02       		.uleb128 0x2
 724 00fa 18       		.uleb128 0x18
 725 00fb 9142     		.uleb128 0x2111
 726 00fd 18       		.uleb128 0x18
 727 00fe 00       		.byte	0
 728 00ff 00       		.byte	0
 729 0100 14       		.uleb128 0x14
 730 0101 2E       		.uleb128 0x2e
 731 0102 00       		.byte	0
 732 0103 3F       		.uleb128 0x3f
 733 0104 19       		.uleb128 0x19
 734 0105 03       		.uleb128 0x3
 735 0106 0E       		.uleb128 0xe
 736 0107 3A       		.uleb128 0x3a
ARM GAS  /tmp/ccolcQFN.s 			page 14


 737 0108 0B       		.uleb128 0xb
 738 0109 3B       		.uleb128 0x3b
 739 010a 0B       		.uleb128 0xb
 740 010b 27       		.uleb128 0x27
 741 010c 19       		.uleb128 0x19
 742 010d 49       		.uleb128 0x49
 743 010e 13       		.uleb128 0x13
 744 010f 11       		.uleb128 0x11
 745 0110 01       		.uleb128 0x1
 746 0111 12       		.uleb128 0x12
 747 0112 06       		.uleb128 0x6
 748 0113 40       		.uleb128 0x40
 749 0114 18       		.uleb128 0x18
 750 0115 9742     		.uleb128 0x2117
 751 0117 19       		.uleb128 0x19
 752 0118 00       		.byte	0
 753 0119 00       		.byte	0
 754 011a 15       		.uleb128 0x15
 755 011b 34       		.uleb128 0x34
 756 011c 00       		.byte	0
 757 011d 03       		.uleb128 0x3
 758 011e 0E       		.uleb128 0xe
 759 011f 3A       		.uleb128 0x3a
 760 0120 0B       		.uleb128 0xb
 761 0121 3B       		.uleb128 0x3b
 762 0122 0B       		.uleb128 0xb
 763 0123 49       		.uleb128 0x49
 764 0124 13       		.uleb128 0x13
 765 0125 02       		.uleb128 0x2
 766 0126 18       		.uleb128 0x18
 767 0127 00       		.byte	0
 768 0128 00       		.byte	0
 769 0129 16       		.uleb128 0x16
 770 012a 2E       		.uleb128 0x2e
 771 012b 00       		.byte	0
 772 012c 3F       		.uleb128 0x3f
 773 012d 19       		.uleb128 0x19
 774 012e 03       		.uleb128 0x3
 775 012f 0E       		.uleb128 0xe
 776 0130 3A       		.uleb128 0x3a
 777 0131 0B       		.uleb128 0xb
 778 0132 3B       		.uleb128 0x3b
 779 0133 0B       		.uleb128 0xb
 780 0134 27       		.uleb128 0x27
 781 0135 19       		.uleb128 0x19
 782 0136 3C       		.uleb128 0x3c
 783 0137 19       		.uleb128 0x19
 784 0138 00       		.byte	0
 785 0139 00       		.byte	0
 786 013a 00       		.byte	0
 787              		.section	.debug_loc,"",%progbits
 788              	.Ldebug_loc0:
 789              	.LLST0:
 790 0000 00000000 		.4byte	.LVL0
 791 0004 07000000 		.4byte	.LVL1-1
 792 0008 0100     		.2byte	0x1
 793 000a 50       		.byte	0x50
ARM GAS  /tmp/ccolcQFN.s 			page 15


 794 000b 07000000 		.4byte	.LVL1-1
 795 000f 16000000 		.4byte	.LVL2
 796 0013 0100     		.2byte	0x1
 797 0015 54       		.byte	0x54
 798 0016 16000000 		.4byte	.LVL2
 799 001a 1E000000 		.4byte	.LVL4
 800 001e 0100     		.2byte	0x1
 801 0020 50       		.byte	0x50
 802 0021 1E000000 		.4byte	.LVL4
 803 0025 26000000 		.4byte	.LVL5
 804 0029 0600     		.2byte	0x6
 805 002b 74       		.byte	0x74
 806 002c 07       		.sleb128 7
 807 002d 09       		.byte	0x9
 808 002e F8       		.byte	0xf8
 809 002f 1A       		.byte	0x1a
 810 0030 9F       		.byte	0x9f
 811 0031 26000000 		.4byte	.LVL5
 812 0035 30000000 		.4byte	.LFE9
 813 0039 0900     		.2byte	0x9
 814 003b F3       		.byte	0xf3
 815 003c 01       		.uleb128 0x1
 816 003d 50       		.byte	0x50
 817 003e 23       		.byte	0x23
 818 003f 07       		.uleb128 0x7
 819 0040 09       		.byte	0x9
 820 0041 F8       		.byte	0xf8
 821 0042 1A       		.byte	0x1a
 822 0043 9F       		.byte	0x9f
 823 0044 00000000 		.4byte	0
 824 0048 00000000 		.4byte	0
 825              	.LLST1:
 826 004c 00000000 		.4byte	.LVL6
 827 0050 0D000000 		.4byte	.LVL7-1
 828 0054 0100     		.2byte	0x1
 829 0056 50       		.byte	0x50
 830 0057 0D000000 		.4byte	.LVL7-1
 831 005b 16000000 		.4byte	.LVL9
 832 005f 0100     		.2byte	0x1
 833 0061 54       		.byte	0x54
 834 0062 16000000 		.4byte	.LVL9
 835 0066 24000000 		.4byte	.LFE8
 836 006a 0400     		.2byte	0x4
 837 006c F3       		.byte	0xf3
 838 006d 01       		.uleb128 0x1
 839 006e 50       		.byte	0x50
 840 006f 9F       		.byte	0x9f
 841 0070 00000000 		.4byte	0
 842 0074 00000000 		.4byte	0
 843              	.LLST2:
 844 0078 16000000 		.4byte	.LVL9
 845 007c 19000000 		.4byte	.LVL10-1
 846 0080 0100     		.2byte	0x1
 847 0082 50       		.byte	0x50
 848 0083 19000000 		.4byte	.LVL10-1
 849 0087 24000000 		.4byte	.LFE8
 850 008b 0100     		.2byte	0x1
ARM GAS  /tmp/ccolcQFN.s 			page 16


 851 008d 54       		.byte	0x54
 852 008e 00000000 		.4byte	0
 853 0092 00000000 		.4byte	0
 854              		.section	.debug_aranges,"",%progbits
 855 0000 34000000 		.4byte	0x34
 856 0004 0200     		.2byte	0x2
 857 0006 00000000 		.4byte	.Ldebug_info0
 858 000a 04       		.byte	0x4
 859 000b 00       		.byte	0
 860 000c 0000     		.2byte	0
 861 000e 0000     		.2byte	0
 862 0010 00000000 		.4byte	.LFB7
 863 0014 28000000 		.4byte	.LFE7-.LFB7
 864 0018 00000000 		.4byte	.LFB9
 865 001c 30000000 		.4byte	.LFE9-.LFB9
 866 0020 00000000 		.4byte	.LFB8
 867 0024 24000000 		.4byte	.LFE8-.LFB8
 868 0028 00000000 		.4byte	.LFB10
 869 002c 14000000 		.4byte	.LFE10-.LFB10
 870 0030 00000000 		.4byte	0
 871 0034 00000000 		.4byte	0
 872              		.section	.debug_ranges,"",%progbits
 873              	.Ldebug_ranges0:
 874 0000 02000000 		.4byte	.LBB2
 875 0004 04000000 		.4byte	.LBE2
 876 0008 06000000 		.4byte	.LBB3
 877 000c 0A000000 		.4byte	.LBE3
 878 0010 00000000 		.4byte	0
 879 0014 00000000 		.4byte	0
 880 0018 00000000 		.4byte	.LFB7
 881 001c 28000000 		.4byte	.LFE7
 882 0020 00000000 		.4byte	.LFB9
 883 0024 30000000 		.4byte	.LFE9
 884 0028 00000000 		.4byte	.LFB8
 885 002c 24000000 		.4byte	.LFE8
 886 0030 00000000 		.4byte	.LFB10
 887 0034 14000000 		.4byte	.LFE10
 888 0038 00000000 		.4byte	0
 889 003c 00000000 		.4byte	0
 890              		.section	.debug_line,"",%progbits
 891              	.Ldebug_line0:
 892 0000 6B010000 		.section	.debug_str,"MS",%progbits,1
 892      02000C01 
 892      00000201 
 892      FB0E0D00 
 892      01010101 
 893              	.LASF23:
 894 0000 656E646D 		.ascii	"endmem\000"
 894      656D00
 895              	.LASF3:
 896 0007 5F5F7569 		.ascii	"__uint8_t\000"
 896      6E74385F 
 896      7400
 897              	.LASF2:
 898 0011 73697A65 		.ascii	"size_t\000"
 898      5F7400
 899              	.LASF25:
ARM GAS  /tmp/ccolcQFN.s 			page 17


 900 0018 6462675F 		.ascii	"dbg_check_lock\000"
 900      63686563 
 900      6B5F6C6F 
 900      636B00
 901              	.LASF26:
 902 0027 6462675F 		.ascii	"dbg_check_unlock\000"
 902      63686563 
 902      6B5F756E 
 902      6C6F636B 
 902      00
 903              	.LASF24:
 904 0038 63684462 		.ascii	"chDbgCheckClassI\000"
 904      67436865 
 904      636B436C 
 904      61737349 
 904      00
 905              	.LASF22:
 906 0049 6E657874 		.ascii	"nextmem\000"
 906      6D656D00 
 907              	.LASF19:
 908 0051 6368436F 		.ascii	"chCoreAllocI\000"
 908      7265416C 
 908      6C6F6349 
 908      00
 909              	.LASF29:
 910 005e 2F686F6D 		.ascii	"/home/makkmarci/devel/ChibiOS_2.6.5/testhal/STM32F4"
 910      652F6D61 
 910      6B6B6D61 
 910      7263692F 
 910      64657665 
 911 0091 78782F55 		.ascii	"xx/UART/\000"
 911      4152542F 
 911      00
 912              	.LASF21:
 913 009a 73697A65 		.ascii	"size\000"
 913      00
 914              	.LASF9:
 915 009f 6C6F6E67 		.ascii	"long unsigned int\000"
 915      20756E73 
 915      69676E65 
 915      6420696E 
 915      7400
 916              	.LASF31:
 917 00b1 6368436F 		.ascii	"chCoreStatus\000"
 917      72655374 
 917      61747573 
 917      00
 918              	.LASF6:
 919 00be 73686F72 		.ascii	"short unsigned int\000"
 919      7420756E 
 919      7369676E 
 919      65642069 
 919      6E7400
 920              	.LASF13:
 921 00d1 75696E74 		.ascii	"uint32_t\000"
 921      33325F74 
 921      00
ARM GAS  /tmp/ccolcQFN.s 			page 18


 922              	.LASF4:
 923 00da 756E7369 		.ascii	"unsigned char\000"
 923      676E6564 
 923      20636861 
 923      7200
 924              	.LASF8:
 925 00e8 5F5F7569 		.ascii	"__uint32_t\000"
 925      6E743332 
 925      5F7400
 926              	.LASF30:
 927 00f3 5F636F72 		.ascii	"_core_init\000"
 927      655F696E 
 927      697400
 928              	.LASF0:
 929 00fe 756E7369 		.ascii	"unsigned int\000"
 929      676E6564 
 929      20696E74 
 929      00
 930              	.LASF11:
 931 010b 6C6F6E67 		.ascii	"long long unsigned int\000"
 931      206C6F6E 
 931      6720756E 
 931      7369676E 
 931      65642069 
 932              	.LASF12:
 933 0122 75696E74 		.ascii	"uint8_t\000"
 933      385F7400 
 934              	.LASF17:
 935 012a 5F5F6865 		.ascii	"__heap_base__\000"
 935      61705F62 
 935      6173655F 
 935      5F00
 936              	.LASF27:
 937 0138 474E5520 		.ascii	"GNU C 4.8.4 20140526 (release) [ARM/embedded-4_8-br"
 937      4320342E 
 937      382E3420 
 937      32303134 
 937      30353236 
 938 016b 616E6368 		.ascii	"anch revision 211358] -mcpu=cortex-m4 -mno-thumb-in"
 938      20726576 
 938      6973696F 
 938      6E203231 
 938      31333538 
 939 019e 74657277 		.ascii	"terwork -mthumb -ggdb -O2 -fomit-frame-pointer -fal"
 939      6F726B20 
 939      2D6D7468 
 939      756D6220 
 939      2D676764 
 940 01d1 69676E2D 		.ascii	"ign-functions=16 -ffunction-sections -fdata-section"
 940      66756E63 
 940      74696F6E 
 940      733D3136 
 940      202D6666 
 941 0204 73202D66 		.ascii	"s -fno-common\000"
 941      6E6F2D63 
 941      6F6D6D6F 
 941      6E00
ARM GAS  /tmp/ccolcQFN.s 			page 19


 942              	.LASF15:
 943 0212 73697A65 		.ascii	"sizetype\000"
 943      74797065 
 943      00
 944              	.LASF10:
 945 021b 6C6F6E67 		.ascii	"long long int\000"
 945      206C6F6E 
 945      6720696E 
 945      7400
 946              	.LASF16:
 947 0229 63686172 		.ascii	"char\000"
 947      00
 948              	.LASF18:
 949 022e 5F5F6865 		.ascii	"__heap_end__\000"
 949      61705F65 
 949      6E645F5F 
 949      00
 950              	.LASF5:
 951 023b 73686F72 		.ascii	"short int\000"
 951      7420696E 
 951      7400
 952              	.LASF28:
 953 0245 2E2E2F2E 		.ascii	"../../../os/kernel/src/chmemcore.c\000"
 953      2E2F2E2E 
 953      2F6F732F 
 953      6B65726E 
 953      656C2F73 
 954              	.LASF20:
 955 0268 6368436F 		.ascii	"chCoreAlloc\000"
 955      7265416C 
 955      6C6F6300 
 956              	.LASF7:
 957 0274 6C6F6E67 		.ascii	"long int\000"
 957      20696E74 
 957      00
 958              	.LASF1:
 959 027d 7369676E 		.ascii	"signed char\000"
 959      65642063 
 959      68617200 
 960              	.LASF14:
 961 0289 5F426F6F 		.ascii	"_Bool\000"
 961      6C00
 962              		.ident	"GCC: (GNU Tools for ARM Embedded Processors) 4.8.4 20140526 (release) [ARM/embedded-4_8-br
ARM GAS  /tmp/ccolcQFN.s 			page 20


DEFINED SYMBOLS
                            *ABS*:00000000 chmemcore.c
     /tmp/ccolcQFN.s:19     .text._core_init:00000000 $t
     /tmp/ccolcQFN.s:25     .text._core_init:00000000 _core_init
     /tmp/ccolcQFN.s:53     .text._core_init:00000018 $d
     /tmp/ccolcQFN.s:61     .text.chCoreAllocI:00000000 $t
     /tmp/ccolcQFN.s:67     .text.chCoreAllocI:00000000 chCoreAllocI
     /tmp/ccolcQFN.s:111    .text.chCoreAllocI:00000028 $d
     /tmp/ccolcQFN.s:117    .text.chCoreAlloc:00000000 $t
     /tmp/ccolcQFN.s:123    .text.chCoreAlloc:00000000 chCoreAlloc
     /tmp/ccolcQFN.s:172    .text.chCoreStatus:00000000 $t
     /tmp/ccolcQFN.s:178    .text.chCoreStatus:00000000 chCoreStatus
     /tmp/ccolcQFN.s:196    .text.chCoreStatus:0000000c $d
     /tmp/ccolcQFN.s:202    .bss.endmem:00000000 $d
     /tmp/ccolcQFN.s:206    .bss.endmem:00000000 endmem
     /tmp/ccolcQFN.s:209    .bss.nextmem:00000000 $d
     /tmp/ccolcQFN.s:213    .bss.nextmem:00000000 nextmem
                     .debug_frame:00000010 $d
     /tmp/ccolcQFN.s:60     .text._core_init:00000028 $t
     /tmp/ccolcQFN.s:201    .text.chCoreStatus:00000014 $t

UNDEFINED SYMBOLS
__heap_base__
__heap_end__
chDbgCheckClassI
dbg_check_lock
dbg_check_unlock
