ARM GAS  /tmp/cc0Pu7ii.s 			page 1


   1              		.syntax unified
   2              		.cpu cortex-m4
   3              		.fpu softvfp
   4              		.eabi_attribute 20, 1
   5              		.eabi_attribute 21, 1
   6              		.eabi_attribute 23, 3
   7              		.eabi_attribute 24, 1
   8              		.eabi_attribute 25, 1
   9              		.eabi_attribute 26, 1
  10              		.eabi_attribute 30, 2
  11              		.eabi_attribute 34, 1
  12              		.eabi_attribute 18, 4
  13              		.thumb
  14              		.file	"chheap.c"
  15              		.text
  16              	.Ltext0:
  17              		.cfi_sections	.debug_frame
  18              		.section	.text._heap_init,"ax",%progbits
  19              		.align	2
  20              		.p2align 4,,15
  21              		.global	_heap_init
  22              		.thumb
  23              		.thumb_func
  24              		.type	_heap_init, %function
  25              	_heap_init:
  26              	.LFB7:
  27              		.file 1 "../../../os/kernel/src/chheap.c"
  28              		.loc 1 75 0
  29              		.cfi_startproc
  30              		@ args = 0, pretend = 0, frame = 0
  31              		@ frame_needed = 0, uses_anonymous_args = 0
  32              		@ link register save eliminated.
  33              		.loc 1 76 0
  34 0000 40F20003 		movw	r3, #:lower16:.LANCHOR0
  35 0004 C0F20003 		movt	r3, #:upper16:.LANCHOR0
  36 0008 40F20002 		movw	r2, #:lower16:chCoreAlloc
  37              		.loc 1 77 0
  38 000c 0021     		movs	r1, #0
  39              		.loc 1 76 0
  40 000e C0F20002 		movt	r2, #:upper16:chCoreAlloc
  41              		.loc 1 80 0
  42 0012 03F11000 		add	r0, r3, #16
  43              		.loc 1 76 0
  44 0016 1A60     		str	r2, [r3]
  45              		.loc 1 77 0
  46 0018 9960     		str	r1, [r3, #8]
  47              		.loc 1 78 0
  48 001a D960     		str	r1, [r3, #12]
  49              		.loc 1 80 0
  50 001c FFF7FEBF 		b	chMtxInit
  51              	.LVL0:
  52              		.cfi_endproc
  53              	.LFE7:
  54              		.size	_heap_init, .-_heap_init
  55              		.section	.text.chHeapInit,"ax",%progbits
  56              		.align	2
  57              		.p2align 4,,15
ARM GAS  /tmp/cc0Pu7ii.s 			page 2


  58              		.global	chHeapInit
  59              		.thumb
  60              		.thumb_func
  61              		.type	chHeapInit, %function
  62              	chHeapInit:
  63              	.LFB8:
  64              		.loc 1 99 0
  65              		.cfi_startproc
  66              		@ args = 0, pretend = 0, frame = 0
  67              		@ frame_needed = 0, uses_anonymous_args = 0
  68              	.LVL1:
  69 0000 70B5     		push	{r4, r5, r6, lr}
  70              		.cfi_def_cfa_offset 16
  71              		.cfi_offset 4, -16
  72              		.cfi_offset 5, -12
  73              		.cfi_offset 6, -8
  74              		.cfi_offset 14, -4
  75              		.loc 1 99 0
  76 0002 1646     		mov	r6, r2
  77              		.loc 1 102 0
  78 0004 4A07     		lsls	r2, r1, #29
  79              	.LVL2:
  80              		.loc 1 99 0
  81 0006 0C46     		mov	r4, r1
  82 0008 0546     		mov	r5, r0
  83              		.loc 1 102 0
  84 000a 01D1     		bne	.L3
  85              		.loc 1 102 0 is_stmt 0 discriminator 2
  86 000c 7307     		lsls	r3, r6, #29
  87 000e 05D0     		beq	.L4
  88              	.L3:
  89              		.loc 1 102 0 discriminator 1
  90 0010 40F20000 		movw	r0, #:lower16:.LC0
  91              	.LVL3:
  92 0014 C0F20000 		movt	r0, #:upper16:.LC0
  93 0018 FFF7FEFF 		bl	chDbgPanic
  94              	.LVL4:
  95              	.L4:
  96              		.loc 1 104 0 is_stmt 1
  97 001c 0023     		movs	r3, #0
  98              		.loc 1 108 0
  99 001e 083E     		subs	r6, r6, #8
 100              	.LVL5:
 101              		.loc 1 105 0
 102 0020 AC60     		str	r4, [r5, #8]
 103              		.loc 1 104 0
 104 0022 2B60     		str	r3, [r5]
 105              	.LVL6:
 106              		.loc 1 106 0
 107 0024 EB60     		str	r3, [r5, #12]
 108              		.loc 1 107 0
 109 0026 84E84800 		stmia	r4, {r3, r6}
 110              	.LVL7:
 111              		.loc 1 110 0
 112 002a 05F11000 		add	r0, r5, #16
 113              		.loc 1 114 0
 114 002e BDE87040 		pop	{r4, r5, r6, lr}
ARM GAS  /tmp/cc0Pu7ii.s 			page 3


 115              	.LVL8:
 116              		.loc 1 110 0
 117 0032 FFF7FEBF 		b	chMtxInit
 118              	.LVL9:
 119              		.cfi_endproc
 120              	.LFE8:
 121              		.size	chHeapInit, .-chHeapInit
 122 0036 00BFAFF3 		.section	.text.chHeapAlloc,"ax",%progbits
 122      0080AFF3 
 122      0080
 123              		.align	2
 124              		.p2align 4,,15
 125              		.global	chHeapAlloc
 126              		.thumb
 127              		.thumb_func
 128              		.type	chHeapAlloc, %function
 129              	chHeapAlloc:
 130              	.LFB9:
 131              		.loc 1 132 0
 132              		.cfi_startproc
 133              		@ args = 0, pretend = 0, frame = 0
 134              		@ frame_needed = 0, uses_anonymous_args = 0
 135              	.LVL10:
 136 0000 F8B5     		push	{r3, r4, r5, r6, r7, lr}
 137              		.cfi_def_cfa_offset 24
 138              		.cfi_offset 3, -24
 139              		.cfi_offset 4, -20
 140              		.cfi_offset 5, -16
 141              		.cfi_offset 6, -12
 142              		.cfi_offset 7, -8
 143              		.cfi_offset 14, -4
 144              		.loc 1 136 0
 145 0002 40F20006 		movw	r6, #:lower16:.LANCHOR0
 146 0006 C0F20006 		movt	r6, #:upper16:.LANCHOR0
 147 000a 0028     		cmp	r0, #0
 148 000c 18BF     		it	ne
 149 000e 0646     		movne	r6, r0
 150              	.LVL11:
 151              		.loc 1 138 0
 152 0010 0731     		adds	r1, r1, #7
 153              	.LVL12:
 154              		.loc 1 140 0
 155 0012 06F11000 		add	r0, r6, #16
 156              		.loc 1 138 0
 157 0016 21F00705 		bic	r5, r1, #7
 158              	.LVL13:
 159              		.loc 1 139 0
 160 001a 06F10804 		add	r4, r6, #8
 161              	.LVL14:
 162              		.loc 1 140 0
 163 001e FFF7FEFF 		bl	chMtxLock
 164              	.LVL15:
 165              		.loc 1 142 0
 166 0022 03E0     		b	.L11
 167              	.LVL16:
 168              	.L16:
 169              		.loc 1 144 0
ARM GAS  /tmp/cc0Pu7ii.s 			page 4


 170 0024 5A68     		ldr	r2, [r3, #4]
 171 0026 9542     		cmp	r5, r2
 172 0028 11D9     		bls	.L23
 173 002a 1C46     		mov	r4, r3
 174              	.LVL17:
 175              	.L11:
 176              		.loc 1 142 0 discriminator 1
 177 002c 2368     		ldr	r3, [r4]
 178              	.LVL18:
 179 002e 002B     		cmp	r3, #0
 180 0030 F8D1     		bne	.L16
 181              		.loc 1 167 0
 182 0032 FFF7FEFF 		bl	chMtxUnlock
 183              	.LVL19:
 184              		.loc 1 171 0
 185 0036 3368     		ldr	r3, [r6]
 186 0038 1BB3     		cbz	r3, .L18
 187              		.loc 1 172 0
 188 003a 05F10800 		add	r0, r5, #8
 189 003e 9847     		blx	r3
 190              	.LVL20:
 191              		.loc 1 173 0
 192 0040 F8B1     		cbz	r0, .L18
 193              		.loc 1 174 0
 194 0042 0660     		str	r6, [r0]
 195              		.loc 1 175 0
 196 0044 4560     		str	r5, [r0, #4]
 197              	.LVL21:
 198              		.loc 1 177 0
 199 0046 00F10804 		add	r4, r0, #8
 200              	.LVL22:
 201              	.L15:
 202              		.loc 1 181 0
 203 004a 2046     		mov	r0, r4
 204 004c F8BD     		pop	{r3, r4, r5, r6, r7, pc}
 205              	.LVL23:
 206              	.L23:
 207              		.loc 1 145 0
 208 004e 05F10801 		add	r1, r5, #8
 209 0052 9142     		cmp	r1, r2
 210 0054 08D9     		bls	.L13
 211              		.loc 1 149 0
 212 0056 1A68     		ldr	r2, [r3]
 213 0058 2260     		str	r2, [r4]
 214              	.L14:
 215              		.loc 1 159 0
 216 005a 1C46     		mov	r4, r3
 217              	.LVL24:
 218 005c 44F8086B 		str	r6, [r4], #8
 219              		.loc 1 161 0
 220 0060 FFF7FEFF 		bl	chMtxUnlock
 221              	.LVL25:
 222              		.loc 1 181 0
 223 0064 2046     		mov	r0, r4
 224 0066 F8BD     		pop	{r3, r4, r5, r6, r7, pc}
 225              	.LVL26:
 226              	.L13:
ARM GAS  /tmp/cc0Pu7ii.s 			page 5


 227              		.loc 1 155 0
 228 0068 4FF6F870 		movw	r0, #65528
 229 006c CFF6FF70 		movt	r0, 65535
 230 0070 401B     		subs	r0, r0, r5
 231              		.loc 1 153 0
 232 0072 5F18     		adds	r7, r3, r1
 233              	.LVL27:
 234              		.loc 1 155 0
 235 0074 0244     		add	r2, r2, r0
 236              		.loc 1 154 0
 237 0076 1868     		ldr	r0, [r3]
 238 0078 5850     		str	r0, [r3, r1]
 239              		.loc 1 155 0
 240 007a 7A60     		str	r2, [r7, #4]
 241              		.loc 1 156 0
 242 007c 2760     		str	r7, [r4]
 243              		.loc 1 157 0
 244 007e 5D60     		str	r5, [r3, #4]
 245 0080 EBE7     		b	.L14
 246              	.LVL28:
 247              	.L18:
 248              		.loc 1 180 0
 249 0082 0024     		movs	r4, #0
 250              	.LVL29:
 251 0084 E1E7     		b	.L15
 252              		.cfi_endproc
 253              	.LFE9:
 254              		.size	chHeapAlloc, .-chHeapAlloc
 255 0086 00BFAFF3 		.section	.text.chHeapFree,"ax",%progbits
 255      0080AFF3 
 255      0080
 256              		.align	2
 257              		.p2align 4,,15
 258              		.global	chHeapFree
 259              		.thumb
 260              		.thumb_func
 261              		.type	chHeapFree, %function
 262              	chHeapFree:
 263              	.LFB10:
 264              		.loc 1 194 0
 265              		.cfi_startproc
 266              		@ args = 0, pretend = 0, frame = 0
 267              		@ frame_needed = 0, uses_anonymous_args = 0
 268              	.LVL30:
 269 0000 F8B5     		push	{r3, r4, r5, r6, r7, lr}
 270              		.cfi_def_cfa_offset 24
 271              		.cfi_offset 3, -24
 272              		.cfi_offset 4, -20
 273              		.cfi_offset 5, -16
 274              		.cfi_offset 6, -12
 275              		.cfi_offset 7, -8
 276              		.cfi_offset 14, -4
 277              		.loc 1 198 0
 278 0002 0746     		mov	r7, r0
 279 0004 0028     		cmp	r0, #0
 280 0006 5AD0     		beq	.L38
 281              	.LVL31:
ARM GAS  /tmp/cc0Pu7ii.s 			page 6


 282              	.L25:
 283              		.loc 1 201 0
 284 0008 57F8086C 		ldr	r6, [r7, #-8]
 285              		.loc 1 203 0
 286 000c 06F11000 		add	r0, r6, #16
 287 0010 FFF7FEFF 		bl	chMtxLock
 288              	.LVL32:
 289              		.loc 1 202 0
 290 0014 0836     		adds	r6, r6, #8
 291 0016 3446     		mov	r4, r6
 292              		.loc 1 200 0
 293 0018 A7F10805 		sub	r5, r7, #8
 294              	.LVL33:
 295              	.L33:
 296              		.loc 1 206 0
 297 001c AC42     		cmp	r4, r5
 298 001e 04D8     		bhi	.L26
 299              		.loc 1 206 0 is_stmt 0 discriminator 1
 300 0020 6368     		ldr	r3, [r4, #4]
 301 0022 0833     		adds	r3, r3, #8
 302 0024 2344     		add	r3, r3, r4
 303 0026 9D42     		cmp	r5, r3
 304 0028 0BD3     		bcc	.L39
 305              	.L26:
 306              		.loc 1 210 0 is_stmt 1
 307 002a B442     		cmp	r4, r6
 308 002c 11D0     		beq	.L27
 309              	.L40:
 310              		.loc 1 210 0 is_stmt 0 discriminator 2
 311 002e AC42     		cmp	r4, r5
 312 0030 0FD3     		bcc	.L27
 313 0032 2468     		ldr	r4, [r4]
 314              	.LVL34:
 315              		.loc 1 206 0 is_stmt 1
 316 0034 AC42     		cmp	r4, r5
 317 0036 F8D8     		bhi	.L26
 318 0038 6368     		ldr	r3, [r4, #4]
 319 003a 0833     		adds	r3, r3, #8
 320 003c 2344     		add	r3, r3, r4
 321 003e 9D42     		cmp	r5, r3
 322 0040 F3D2     		bcs	.L26
 323              	.L39:
 324              		.loc 1 206 0 is_stmt 0 discriminator 1
 325 0042 40F20000 		movw	r0, #:lower16:.LC2
 326 0046 C0F20000 		movt	r0, #:upper16:.LC2
 327 004a FFF7FEFF 		bl	chDbgPanic
 328              	.LVL35:
 329              		.loc 1 210 0 is_stmt 1 discriminator 1
 330 004e B442     		cmp	r4, r6
 331 0050 EDD1     		bne	.L40
 332              	.L27:
 333              		.loc 1 211 0 discriminator 1
 334 0052 2368     		ldr	r3, [r4]
 335              		.loc 1 210 0 discriminator 1
 336 0054 1BB1     		cbz	r3, .L29
 337              		.loc 1 211 0
 338 0056 9D42     		cmp	r5, r3
ARM GAS  /tmp/cc0Pu7ii.s 			page 7


 339 0058 01D3     		bcc	.L29
 340 005a 1C46     		mov	r4, r3
 341              	.LVL36:
 342              		.loc 1 229 0
 343 005c DEE7     		b	.L33
 344              	.LVL37:
 345              	.L29:
 346              		.loc 1 216 0
 347 005e 57F8042C 		ldr	r2, [r7, #-4]
 348              		.loc 1 213 0
 349 0062 47F8083C 		str	r3, [r7, #-8]
 350              		.loc 1 214 0
 351 0066 2560     		str	r5, [r4]
 352              		.loc 1 216 0
 353 0068 02F10803 		add	r3, r2, #8
 354 006c 57F8080C 		ldr	r0, [r7, #-8]
 355 0070 E918     		adds	r1, r5, r3
 356 0072 8142     		cmp	r1, r0
 357 0074 09D0     		beq	.L41
 358              		.loc 1 221 0
 359 0076 6368     		ldr	r3, [r4, #4]
 360 0078 03F10802 		add	r2, r3, #8
 361 007c 2244     		add	r2, r2, r4
 362 007e 9542     		cmp	r5, r2
 363 0080 11D0     		beq	.L42
 364              	.L32:
 365              		.loc 1 233 0
 366 0082 BDE8F840 		pop	{r3, r4, r5, r6, r7, lr}
 367              	.LVL38:
 368              		.loc 1 231 0
 369 0086 FFF7FEBF 		b	chMtxUnlock
 370              	.LVL39:
 371              	.L41:
 372              		.loc 1 218 0
 373 008a 4968     		ldr	r1, [r1, #4]
 374              		.loc 1 219 0
 375 008c EB58     		ldr	r3, [r5, r3]
 376              		.loc 1 218 0
 377 008e 0A44     		add	r2, r2, r1
 378 0090 0832     		adds	r2, r2, #8
 379 0092 47F8042C 		str	r2, [r7, #-4]
 380              		.loc 1 219 0
 381 0096 47F8083C 		str	r3, [r7, #-8]
 382              		.loc 1 221 0
 383 009a 6368     		ldr	r3, [r4, #4]
 384 009c 03F10802 		add	r2, r3, #8
 385 00a0 2244     		add	r2, r2, r4
 386 00a2 9542     		cmp	r5, r2
 387 00a4 EDD1     		bne	.L32
 388              	.L42:
 389              		.loc 1 223 0
 390 00a6 57F8041C 		ldr	r1, [r7, #-4]
 391              		.loc 1 224 0
 392 00aa 57F8082C 		ldr	r2, [r7, #-8]
 393              		.loc 1 223 0
 394 00ae 0B44     		add	r3, r3, r1
 395 00b0 0833     		adds	r3, r3, #8
ARM GAS  /tmp/cc0Pu7ii.s 			page 8


 396              		.loc 1 224 0
 397 00b2 84E80C00 		stmia	r4, {r2, r3}
 398              		.loc 1 233 0
 399 00b6 BDE8F840 		pop	{r3, r4, r5, r6, r7, lr}
 400              	.LVL40:
 401              		.loc 1 231 0
 402 00ba FFF7FEBF 		b	chMtxUnlock
 403              	.LVL41:
 404              	.L38:
 405              		.loc 1 198 0 discriminator 1
 406 00be 40F20000 		movw	r0, #:lower16:.LC1
 407              	.LVL42:
 408 00c2 C0F20000 		movt	r0, #:upper16:.LC1
 409 00c6 FFF7FEFF 		bl	chDbgPanic
 410              	.LVL43:
 411 00ca 9DE7     		b	.L25
 412              		.cfi_endproc
 413              	.LFE10:
 414              		.size	chHeapFree, .-chHeapFree
 415 00cc AFF30080 		.section	.text.chHeapStatus,"ax",%progbits
 416              		.align	2
 417              		.p2align 4,,15
 418              		.global	chHeapStatus
 419              		.thumb
 420              		.thumb_func
 421              		.type	chHeapStatus, %function
 422              	chHeapStatus:
 423              	.LFB11:
 424              		.loc 1 250 0
 425              		.cfi_startproc
 426              		@ args = 0, pretend = 0, frame = 0
 427              		@ frame_needed = 0, uses_anonymous_args = 0
 428              	.LVL44:
 429 0000 38B5     		push	{r3, r4, r5, lr}
 430              		.cfi_def_cfa_offset 16
 431              		.cfi_offset 3, -16
 432              		.cfi_offset 4, -12
 433              		.cfi_offset 5, -8
 434              		.cfi_offset 14, -4
 435              		.loc 1 255 0
 436 0002 40F20003 		movw	r3, #:lower16:.LANCHOR0
 437 0006 C0F20003 		movt	r3, #:upper16:.LANCHOR0
 438 000a 0028     		cmp	r0, #0
 439 000c 14BF     		ite	ne
 440 000e 0446     		movne	r4, r0
 441 0010 1C46     		moveq	r4, r3
 442              	.LVL45:
 443              		.loc 1 257 0
 444 0012 04F11000 		add	r0, r4, #16
 445              		.loc 1 250 0
 446 0016 0D46     		mov	r5, r1
 447              		.loc 1 257 0
 448 0018 FFF7FEFF 		bl	chMtxLock
 449              	.LVL46:
 450              		.loc 1 260 0
 451 001c A368     		ldr	r3, [r4, #8]
 452 001e 6BB1     		cbz	r3, .L49
ARM GAS  /tmp/cc0Pu7ii.s 			page 9


 453              		.loc 1 259 0
 454 0020 0022     		movs	r2, #0
 455              		.loc 1 260 0
 456 0022 1446     		mov	r4, r2
 457              	.LVL47:
 458              	.L46:
 459              		.loc 1 261 0 discriminator 2
 460 0024 5868     		ldr	r0, [r3, #4]
 461              		.loc 1 260 0 discriminator 2
 462 0026 1B68     		ldr	r3, [r3]
 463 0028 0134     		adds	r4, r4, #1
 464              	.LVL48:
 465              		.loc 1 261 0 discriminator 2
 466 002a 0244     		add	r2, r2, r0
 467              	.LVL49:
 468              		.loc 1 260 0 discriminator 2
 469 002c 002B     		cmp	r3, #0
 470 002e F9D1     		bne	.L46
 471              	.LVL50:
 472              	.L45:
 473              		.loc 1 262 0
 474 0030 05B1     		cbz	r5, .L47
 475              		.loc 1 263 0
 476 0032 2A60     		str	r2, [r5]
 477              	.L47:
 478              		.loc 1 265 0
 479 0034 FFF7FEFF 		bl	chMtxUnlock
 480              	.LVL51:
 481              		.loc 1 267 0
 482 0038 2046     		mov	r0, r4
 483 003a 38BD     		pop	{r3, r4, r5, pc}
 484              	.LVL52:
 485              	.L49:
 486              		.loc 1 259 0
 487 003c 1A46     		mov	r2, r3
 488              		.loc 1 260 0
 489 003e 1C46     		mov	r4, r3
 490              	.LVL53:
 491 0040 F6E7     		b	.L45
 492              		.cfi_endproc
 493              	.LFE11:
 494              		.size	chHeapStatus, .-chHeapStatus
 495 0042 00BFAFF3 		.section	.rodata.str1.4,"aMS",%progbits,1
 495      0080AFF3 
 495      0080AFF3 
 495      0080
 496              		.align	2
 497              	.LC0:
 498 0000 22636848 		.ascii	"\"chHeapInit\"()\000"
 498      65617049 
 498      6E697422 
 498      282900
 499 000f 00       		.space	1
 500              	.LC1:
 501 0010 22636848 		.ascii	"\"chHeapFree\"()\000"
 501      65617046 
 501      72656522 
ARM GAS  /tmp/cc0Pu7ii.s 			page 10


 501      282900
 502 001f 00       		.space	1
 503              	.LC2:
 504 0020 63684865 		.ascii	"chHeapFree(), #1\000"
 504      61704672 
 504      65652829 
 504      2C202331 
 504      00
 505 0031 000000   		.section	.bss.default_heap,"aw",%nobits
 506              		.align	3
 507              		.set	.LANCHOR0,. + 0
 508              		.type	default_heap, %object
 509              		.size	default_heap, 32
 510              	default_heap:
 511 0000 00000000 		.space	32
 511      00000000 
 511      00000000 
 511      00000000 
 511      00000000 
 512              		.text
 513              	.Letext0:
 514              		.file 2 "/usr/lib/gcc/arm-none-eabi/4.8.2/include/stddef.h"
 515              		.file 3 "/usr/include/newlib/machine/_default_types.h"
 516              		.file 4 "/usr/include/newlib/stdint.h"
 517              		.file 5 "../../../os/ports/GCC/ARMCMx/chtypes.h"
 518              		.file 6 "../../../os/kernel/include/chlists.h"
 519              		.file 7 "../../../os/kernel/include/chthreads.h"
 520              		.file 8 "../../../os/ports/GCC/ARMCMx/chcore_v7m.h"
 521              		.file 9 "../../../os/kernel/include/chmtx.h"
 522              		.file 10 "../../../os/kernel/include/chmemcore.h"
 523              		.file 11 "../../../os/kernel/include/chheap.h"
 524              		.file 12 "../../../os/kernel/include/chdebug.h"
 525              		.section	.debug_info,"",%progbits
 526              	.Ldebug_info0:
 527 0000 5A070000 		.4byte	0x75a
 528 0004 0400     		.2byte	0x4
 529 0006 00000000 		.4byte	.Ldebug_abbrev0
 530 000a 04       		.byte	0x4
 531 000b 01       		.uleb128 0x1
 532 000c 34000000 		.4byte	.LASF85
 533 0010 01       		.byte	0x1
 534 0011 26020000 		.4byte	.LASF86
 535 0015 AD030000 		.4byte	.LASF87
 536 0019 00000000 		.4byte	.Ldebug_ranges0+0
 537 001d 00000000 		.4byte	0
 538 0021 00000000 		.4byte	.Ldebug_line0
 539 0025 02       		.uleb128 0x2
 540 0026 04       		.byte	0x4
 541 0027 05       		.byte	0x5
 542 0028 696E7400 		.ascii	"int\000"
 543 002c 03       		.uleb128 0x3
 544 002d 06000000 		.4byte	.LASF2
 545 0031 02       		.byte	0x2
 546 0032 D4       		.byte	0xd4
 547 0033 37000000 		.4byte	0x37
 548 0037 04       		.uleb128 0x4
 549 0038 04       		.byte	0x4
ARM GAS  /tmp/cc0Pu7ii.s 			page 11


 550 0039 07       		.byte	0x7
 551 003a B0010000 		.4byte	.LASF0
 552 003e 04       		.uleb128 0x4
 553 003f 01       		.byte	0x1
 554 0040 06       		.byte	0x6
 555 0041 3A010000 		.4byte	.LASF1
 556 0045 03       		.uleb128 0x3
 557 0046 1D000000 		.4byte	.LASF3
 558 004a 03       		.byte	0x3
 559 004b 1C       		.byte	0x1c
 560 004c 50000000 		.4byte	0x50
 561 0050 04       		.uleb128 0x4
 562 0051 01       		.byte	0x1
 563 0052 08       		.byte	0x8
 564 0053 A9020000 		.4byte	.LASF4
 565 0057 04       		.uleb128 0x4
 566 0058 02       		.byte	0x2
 567 0059 05       		.byte	0x5
 568 005a CC020000 		.4byte	.LASF5
 569 005e 04       		.uleb128 0x4
 570 005f 02       		.byte	0x2
 571 0060 07       		.byte	0x7
 572 0061 DC010000 		.4byte	.LASF6
 573 0065 03       		.uleb128 0x3
 574 0066 71030000 		.4byte	.LASF7
 575 006a 03       		.byte	0x3
 576 006b 37       		.byte	0x37
 577 006c 70000000 		.4byte	0x70
 578 0070 04       		.uleb128 0x4
 579 0071 04       		.byte	0x4
 580 0072 05       		.byte	0x5
 581 0073 71010000 		.4byte	.LASF8
 582 0077 03       		.uleb128 0x3
 583 0078 8B010000 		.4byte	.LASF9
 584 007c 03       		.byte	0x3
 585 007d 38       		.byte	0x38
 586 007e 82000000 		.4byte	0x82
 587 0082 04       		.uleb128 0x4
 588 0083 04       		.byte	0x4
 589 0084 07       		.byte	0x7
 590 0085 BD010000 		.4byte	.LASF10
 591 0089 04       		.uleb128 0x4
 592 008a 08       		.byte	0x8
 593 008b 05       		.byte	0x5
 594 008c 2C010000 		.4byte	.LASF11
 595 0090 03       		.uleb128 0x3
 596 0091 79020000 		.4byte	.LASF12
 597 0095 03       		.byte	0x3
 598 0096 4E       		.byte	0x4e
 599 0097 9B000000 		.4byte	0x9b
 600 009b 04       		.uleb128 0x4
 601 009c 08       		.byte	0x8
 602 009d 07       		.byte	0x7
 603 009e D1000000 		.4byte	.LASF13
 604 00a2 03       		.uleb128 0x3
 605 00a3 A5030000 		.4byte	.LASF14
 606 00a7 04       		.byte	0x4
ARM GAS  /tmp/cc0Pu7ii.s 			page 12


 607 00a8 2A       		.byte	0x2a
 608 00a9 45000000 		.4byte	0x45
 609 00ad 03       		.uleb128 0x3
 610 00ae A1020000 		.4byte	.LASF15
 611 00b2 04       		.byte	0x4
 612 00b3 41       		.byte	0x41
 613 00b4 65000000 		.4byte	0x65
 614 00b8 03       		.uleb128 0x3
 615 00b9 28030000 		.4byte	.LASF16
 616 00bd 04       		.byte	0x4
 617 00be 42       		.byte	0x42
 618 00bf 77000000 		.4byte	0x77
 619 00c3 03       		.uleb128 0x3
 620 00c4 14000000 		.4byte	.LASF17
 621 00c8 04       		.byte	0x4
 622 00c9 4E       		.byte	0x4e
 623 00ca 90000000 		.4byte	0x90
 624 00ce 04       		.uleb128 0x4
 625 00cf 01       		.byte	0x1
 626 00d0 02       		.byte	0x2
 627 00d1 9B020000 		.4byte	.LASF18
 628 00d5 03       		.uleb128 0x3
 629 00d6 F5010000 		.4byte	.LASF19
 630 00da 05       		.byte	0x5
 631 00db 2C       		.byte	0x2c
 632 00dc A2000000 		.4byte	0xa2
 633 00e0 03       		.uleb128 0x3
 634 00e1 7A010000 		.4byte	.LASF20
 635 00e5 05       		.byte	0x5
 636 00e6 2D       		.byte	0x2d
 637 00e7 A2000000 		.4byte	0xa2
 638 00eb 03       		.uleb128 0x3
 639 00ec 84020000 		.4byte	.LASF21
 640 00f0 05       		.byte	0x5
 641 00f1 2E       		.byte	0x2e
 642 00f2 A2000000 		.4byte	0xa2
 643 00f6 03       		.uleb128 0x3
 644 00f7 67010000 		.4byte	.LASF22
 645 00fb 05       		.byte	0x5
 646 00fc 2F       		.byte	0x2f
 647 00fd A2000000 		.4byte	0xa2
 648 0101 03       		.uleb128 0x3
 649 0102 93020000 		.4byte	.LASF23
 650 0106 05       		.byte	0x5
 651 0107 30       		.byte	0x30
 652 0108 B8000000 		.4byte	0xb8
 653 010c 03       		.uleb128 0x3
 654 010d EF010000 		.4byte	.LASF24
 655 0111 05       		.byte	0x5
 656 0112 31       		.byte	0x31
 657 0113 AD000000 		.4byte	0xad
 658 0117 03       		.uleb128 0x3
 659 0118 09020000 		.4byte	.LASF25
 660 011c 05       		.byte	0x5
 661 011d 33       		.byte	0x33
 662 011e B8000000 		.4byte	0xb8
 663 0122 03       		.uleb128 0x3
ARM GAS  /tmp/cc0Pu7ii.s 			page 13


 664 0123 5C030000 		.4byte	.LASF26
 665 0127 05       		.byte	0x5
 666 0128 35       		.byte	0x35
 667 0129 B8000000 		.4byte	0xb8
 668 012d 03       		.uleb128 0x3
 669 012e 0A030000 		.4byte	.LASF27
 670 0132 06       		.byte	0x6
 671 0133 2A       		.byte	0x2a
 672 0134 38010000 		.4byte	0x138
 673 0138 05       		.uleb128 0x5
 674 0139 0A030000 		.4byte	.LASF27
 675 013d 4C       		.byte	0x4c
 676 013e 07       		.byte	0x7
 677 013f 5E       		.byte	0x5e
 678 0140 41020000 		.4byte	0x241
 679 0144 06       		.uleb128 0x6
 680 0145 FB020000 		.4byte	.LASF28
 681 0149 07       		.byte	0x7
 682 014a 5F       		.byte	0x5f
 683 014b 62020000 		.4byte	0x262
 684 014f 00       		.byte	0
 685 0150 06       		.uleb128 0x6
 686 0151 8C020000 		.4byte	.LASF29
 687 0155 07       		.byte	0x7
 688 0156 61       		.byte	0x61
 689 0157 62020000 		.4byte	0x262
 690 015b 04       		.byte	0x4
 691 015c 06       		.uleb128 0x6
 692 015d 25010000 		.4byte	.LASF30
 693 0161 07       		.byte	0x7
 694 0162 63       		.byte	0x63
 695 0163 01010000 		.4byte	0x101
 696 0167 08       		.byte	0x8
 697 0168 06       		.uleb128 0x6
 698 0169 0F040000 		.4byte	.LASF31
 699 016d 07       		.byte	0x7
 700 016e 64       		.byte	0x64
 701 016f 27030000 		.4byte	0x327
 702 0173 0C       		.byte	0xc
 703 0174 06       		.uleb128 0x6
 704 0175 83010000 		.4byte	.LASF32
 705 0179 07       		.byte	0x7
 706 017a 66       		.byte	0x66
 707 017b 62020000 		.4byte	0x262
 708 017f 10       		.byte	0x10
 709 0180 06       		.uleb128 0x6
 710 0181 59020000 		.4byte	.LASF33
 711 0185 07       		.byte	0x7
 712 0186 67       		.byte	0x67
 713 0187 62020000 		.4byte	0x262
 714 018b 14       		.byte	0x14
 715 018c 06       		.uleb128 0x6
 716 018d F5030000 		.4byte	.LASF34
 717 0191 07       		.byte	0x7
 718 0192 6E       		.byte	0x6e
 719 0193 92040000 		.4byte	0x492
 720 0197 18       		.byte	0x18
ARM GAS  /tmp/cc0Pu7ii.s 			page 14


 721 0198 06       		.uleb128 0x6
 722 0199 A5010000 		.4byte	.LASF35
 723 019d 07       		.byte	0x7
 724 019e 74       		.byte	0x74
 725 019f A4040000 		.4byte	0x4a4
 726 01a3 1C       		.byte	0x1c
 727 01a4 06       		.uleb128 0x6
 728 01a5 D6020000 		.4byte	.LASF36
 729 01a9 07       		.byte	0x7
 730 01aa 79       		.byte	0x79
 731 01ab E0000000 		.4byte	0xe0
 732 01af 20       		.byte	0x20
 733 01b0 06       		.uleb128 0x6
 734 01b1 02030000 		.4byte	.LASF37
 735 01b5 07       		.byte	0x7
 736 01b6 7D       		.byte	0x7d
 737 01b7 D5000000 		.4byte	0xd5
 738 01bb 21       		.byte	0x21
 739 01bc 06       		.uleb128 0x6
 740 01bd 9E030000 		.4byte	.LASF38
 741 01c1 07       		.byte	0x7
 742 01c2 82       		.byte	0x82
 743 01c3 EB000000 		.4byte	0xeb
 744 01c7 22       		.byte	0x22
 745 01c8 06       		.uleb128 0x6
 746 01c9 DE020000 		.4byte	.LASF39
 747 01cd 07       		.byte	0x7
 748 01ce 88       		.byte	0x88
 749 01cf F6000000 		.4byte	0xf6
 750 01d3 23       		.byte	0x23
 751 01d4 06       		.uleb128 0x6
 752 01d5 7B030000 		.4byte	.LASF40
 753 01d9 07       		.byte	0x7
 754 01da 8F       		.byte	0x8f
 755 01db 4F030000 		.4byte	0x34f
 756 01df 24       		.byte	0x24
 757 01e0 07       		.uleb128 0x7
 758 01e1 705F7500 		.ascii	"p_u\000"
 759 01e5 07       		.byte	0x7
 760 01e6 B4       		.byte	0xb4
 761 01e7 5D040000 		.4byte	0x45d
 762 01eb 28       		.byte	0x28
 763 01ec 06       		.uleb128 0x6
 764 01ed 15040000 		.4byte	.LASF41
 765 01f1 07       		.byte	0x7
 766 01f2 B9       		.byte	0xb9
 767 01f3 88020000 		.4byte	0x288
 768 01f7 2C       		.byte	0x2c
 769 01f8 06       		.uleb128 0x6
 770 01f9 89030000 		.4byte	.LASF42
 771 01fd 07       		.byte	0x7
 772 01fe BF       		.byte	0xbf
 773 01ff 68020000 		.4byte	0x268
 774 0203 30       		.byte	0x30
 775 0204 06       		.uleb128 0x6
 776 0205 00000000 		.4byte	.LASF43
 777 0209 07       		.byte	0x7
ARM GAS  /tmp/cc0Pu7ii.s 			page 15


 778 020a C3       		.byte	0xc3
 779 020b 0C010000 		.4byte	0x10c
 780 020f 38       		.byte	0x38
 781 0210 06       		.uleb128 0x6
 782 0211 1D030000 		.4byte	.LASF44
 783 0215 07       		.byte	0x7
 784 0216 C9       		.byte	0xc9
 785 0217 17010000 		.4byte	0x117
 786 021b 3C       		.byte	0x3c
 787 021c 06       		.uleb128 0x6
 788 021d C2020000 		.4byte	.LASF45
 789 0221 07       		.byte	0x7
 790 0222 D0       		.byte	0xd0
 791 0223 AA040000 		.4byte	0x4aa
 792 0227 40       		.byte	0x40
 793 0228 06       		.uleb128 0x6
 794 0229 66030000 		.4byte	.LASF46
 795 022d 07       		.byte	0x7
 796 022e D4       		.byte	0xd4
 797 022f 01010000 		.4byte	0x101
 798 0233 44       		.byte	0x44
 799 0234 06       		.uleb128 0x6
 800 0235 4C010000 		.4byte	.LASF47
 801 0239 07       		.byte	0x7
 802 023a DA       		.byte	0xda
 803 023b 9E020000 		.4byte	0x29e
 804 023f 48       		.byte	0x48
 805 0240 00       		.byte	0
 806 0241 08       		.uleb128 0x8
 807 0242 08       		.byte	0x8
 808 0243 06       		.byte	0x6
 809 0244 61       		.byte	0x61
 810 0245 62020000 		.4byte	0x262
 811 0249 06       		.uleb128 0x6
 812 024a FB020000 		.4byte	.LASF28
 813 024e 06       		.byte	0x6
 814 024f 62       		.byte	0x62
 815 0250 62020000 		.4byte	0x262
 816 0254 00       		.byte	0
 817 0255 06       		.uleb128 0x6
 818 0256 8C020000 		.4byte	.LASF29
 819 025a 06       		.byte	0x6
 820 025b 64       		.byte	0x64
 821 025c 62020000 		.4byte	0x262
 822 0260 04       		.byte	0x4
 823 0261 00       		.byte	0
 824 0262 09       		.uleb128 0x9
 825 0263 04       		.byte	0x4
 826 0264 2D010000 		.4byte	0x12d
 827 0268 03       		.uleb128 0x3
 828 0269 61020000 		.4byte	.LASF48
 829 026d 06       		.byte	0x6
 830 026e 66       		.byte	0x66
 831 026f 41020000 		.4byte	0x241
 832 0273 08       		.uleb128 0x8
 833 0274 04       		.byte	0x4
 834 0275 06       		.byte	0x6
ARM GAS  /tmp/cc0Pu7ii.s 			page 16


 835 0276 6B       		.byte	0x6b
 836 0277 88020000 		.4byte	0x288
 837 027b 06       		.uleb128 0x6
 838 027c FB020000 		.4byte	.LASF28
 839 0280 06       		.byte	0x6
 840 0281 6D       		.byte	0x6d
 841 0282 62020000 		.4byte	0x262
 842 0286 00       		.byte	0
 843 0287 00       		.byte	0
 844 0288 03       		.uleb128 0x3
 845 0289 FD010000 		.4byte	.LASF49
 846 028d 06       		.byte	0x6
 847 028e 70       		.byte	0x70
 848 028f 73020000 		.4byte	0x273
 849 0293 03       		.uleb128 0x3
 850 0294 96010000 		.4byte	.LASF50
 851 0298 08       		.byte	0x8
 852 0299 E5       		.byte	0xe5
 853 029a 9E020000 		.4byte	0x29e
 854 029e 0A       		.uleb128 0xa
 855 029f 04       		.byte	0x4
 856 02a0 03       		.uleb128 0x3
 857 02a1 1B020000 		.4byte	.LASF51
 858 02a5 08       		.byte	0x8
 859 02a6 EB       		.byte	0xeb
 860 02a7 C3000000 		.4byte	0xc3
 861 02ab 0B       		.uleb128 0xb
 862 02ac 82030000 		.4byte	.LASF52
 863 02b0 24       		.byte	0x24
 864 02b1 08       		.byte	0x8
 865 02b2 0C01     		.2byte	0x10c
 866 02b4 27030000 		.4byte	0x327
 867 02b8 0C       		.uleb128 0xc
 868 02b9 723400   		.ascii	"r4\000"
 869 02bc 08       		.byte	0x8
 870 02bd 1F01     		.2byte	0x11f
 871 02bf 93020000 		.4byte	0x293
 872 02c3 00       		.byte	0
 873 02c4 0C       		.uleb128 0xc
 874 02c5 723500   		.ascii	"r5\000"
 875 02c8 08       		.byte	0x8
 876 02c9 2001     		.2byte	0x120
 877 02cb 93020000 		.4byte	0x293
 878 02cf 04       		.byte	0x4
 879 02d0 0C       		.uleb128 0xc
 880 02d1 723600   		.ascii	"r6\000"
 881 02d4 08       		.byte	0x8
 882 02d5 2101     		.2byte	0x121
 883 02d7 93020000 		.4byte	0x293
 884 02db 08       		.byte	0x8
 885 02dc 0C       		.uleb128 0xc
 886 02dd 723700   		.ascii	"r7\000"
 887 02e0 08       		.byte	0x8
 888 02e1 2201     		.2byte	0x122
 889 02e3 93020000 		.4byte	0x293
 890 02e7 0C       		.byte	0xc
 891 02e8 0C       		.uleb128 0xc
ARM GAS  /tmp/cc0Pu7ii.s 			page 17


 892 02e9 723800   		.ascii	"r8\000"
 893 02ec 08       		.byte	0x8
 894 02ed 2301     		.2byte	0x123
 895 02ef 93020000 		.4byte	0x293
 896 02f3 10       		.byte	0x10
 897 02f4 0C       		.uleb128 0xc
 898 02f5 723900   		.ascii	"r9\000"
 899 02f8 08       		.byte	0x8
 900 02f9 2401     		.2byte	0x124
 901 02fb 93020000 		.4byte	0x293
 902 02ff 14       		.byte	0x14
 903 0300 0C       		.uleb128 0xc
 904 0301 72313000 		.ascii	"r10\000"
 905 0305 08       		.byte	0x8
 906 0306 2501     		.2byte	0x125
 907 0308 93020000 		.4byte	0x293
 908 030c 18       		.byte	0x18
 909 030d 0C       		.uleb128 0xc
 910 030e 72313100 		.ascii	"r11\000"
 911 0312 08       		.byte	0x8
 912 0313 2601     		.2byte	0x126
 913 0315 93020000 		.4byte	0x293
 914 0319 1C       		.byte	0x1c
 915 031a 0C       		.uleb128 0xc
 916 031b 6C7200   		.ascii	"lr\000"
 917 031e 08       		.byte	0x8
 918 031f 2701     		.2byte	0x127
 919 0321 93020000 		.4byte	0x293
 920 0325 20       		.byte	0x20
 921 0326 00       		.byte	0
 922 0327 0B       		.uleb128 0xb
 923 0328 CF010000 		.4byte	.LASF53
 924 032c 04       		.byte	0x4
 925 032d 08       		.byte	0x8
 926 032e 3101     		.2byte	0x131
 927 0330 42030000 		.4byte	0x342
 928 0334 0C       		.uleb128 0xc
 929 0335 72313300 		.ascii	"r13\000"
 930 0339 08       		.byte	0x8
 931 033a 3201     		.2byte	0x132
 932 033c 42030000 		.4byte	0x342
 933 0340 00       		.byte	0
 934 0341 00       		.byte	0
 935 0342 09       		.uleb128 0x9
 936 0343 04       		.byte	0x4
 937 0344 AB020000 		.4byte	0x2ab
 938 0348 04       		.uleb128 0x4
 939 0349 04       		.byte	0x4
 940 034a 07       		.byte	0x7
 941 034b 46020000 		.4byte	.LASF54
 942 034f 0D       		.uleb128 0xd
 943 0350 22010000 		.4byte	0x122
 944 0354 05       		.uleb128 0x5
 945 0355 15020000 		.4byte	.LASF55
 946 0359 10       		.byte	0x10
 947 035a 09       		.byte	0x9
 948 035b 2C       		.byte	0x2c
ARM GAS  /tmp/cc0Pu7ii.s 			page 18


 949 035c 85030000 		.4byte	0x385
 950 0360 06       		.uleb128 0x6
 951 0361 54010000 		.4byte	.LASF56
 952 0365 09       		.byte	0x9
 953 0366 2D       		.byte	0x2d
 954 0367 68020000 		.4byte	0x268
 955 036b 00       		.byte	0
 956 036c 06       		.uleb128 0x6
 957 036d 07040000 		.4byte	.LASF57
 958 0371 09       		.byte	0x9
 959 0372 2F       		.byte	0x2f
 960 0373 62020000 		.4byte	0x262
 961 0377 08       		.byte	0x8
 962 0378 06       		.uleb128 0x6
 963 0379 55030000 		.4byte	.LASF58
 964 037d 09       		.byte	0x9
 965 037e 31       		.byte	0x31
 966 037f 85030000 		.4byte	0x385
 967 0383 0C       		.byte	0xc
 968 0384 00       		.byte	0
 969 0385 09       		.uleb128 0x9
 970 0386 04       		.byte	0x4
 971 0387 54030000 		.4byte	0x354
 972 038b 03       		.uleb128 0x3
 973 038c 15020000 		.4byte	.LASF55
 974 0390 09       		.byte	0x9
 975 0391 33       		.byte	0x33
 976 0392 54030000 		.4byte	0x354
 977 0396 03       		.uleb128 0x3
 978 0397 27000000 		.4byte	.LASF59
 979 039b 0A       		.byte	0xa
 980 039c 2C       		.byte	0x2c
 981 039d A1030000 		.4byte	0x3a1
 982 03a1 09       		.uleb128 0x9
 983 03a2 04       		.byte	0x4
 984 03a3 A7030000 		.4byte	0x3a7
 985 03a7 0E       		.uleb128 0xe
 986 03a8 9E020000 		.4byte	0x29e
 987 03ac B6030000 		.4byte	0x3b6
 988 03b0 0F       		.uleb128 0xf
 989 03b1 2C000000 		.4byte	0x2c
 990 03b5 00       		.byte	0
 991 03b6 03       		.uleb128 0x3
 992 03b7 6E020000 		.4byte	.LASF60
 993 03bb 0B       		.byte	0xb
 994 03bc 34       		.byte	0x34
 995 03bd C1030000 		.4byte	0x3c1
 996 03c1 05       		.uleb128 0x5
 997 03c2 1F040000 		.4byte	.LASF61
 998 03c6 20       		.byte	0x20
 999 03c7 0B       		.byte	0xb
 1000 03c8 47       		.byte	0x47
 1001 03c9 F2030000 		.4byte	0x3f2
 1002 03cd 06       		.uleb128 0x6
 1003 03ce B7020000 		.4byte	.LASF62
 1004 03d2 0B       		.byte	0xb
 1005 03d3 48       		.byte	0x48
ARM GAS  /tmp/cc0Pu7ii.s 			page 19


 1006 03d4 96030000 		.4byte	0x396
 1007 03d8 00       		.byte	0
 1008 03d9 06       		.uleb128 0x6
 1009 03da F1000000 		.4byte	.LASF63
 1010 03de 0B       		.byte	0xb
 1011 03df 4A       		.byte	0x4a
 1012 03e0 11040000 		.4byte	0x411
 1013 03e4 08       		.byte	0x8
 1014 03e5 06       		.uleb128 0x6
 1015 03e6 46010000 		.4byte	.LASF64
 1016 03ea 0B       		.byte	0xb
 1017 03eb 4C       		.byte	0x4c
 1018 03ec 8B030000 		.4byte	0x38b
 1019 03f0 10       		.byte	0x10
 1020 03f1 00       		.byte	0
 1021 03f2 10       		.uleb128 0x10
 1022 03f3 04       		.byte	0x4
 1023 03f4 0B       		.byte	0xb
 1024 03f5 3C       		.byte	0x3c
 1025 03f6 11040000 		.4byte	0x411
 1026 03fa 11       		.uleb128 0x11
 1027 03fb 20010000 		.4byte	.LASF65
 1028 03ff 0B       		.byte	0xb
 1029 0400 3D       		.byte	0x3d
 1030 0401 32040000 		.4byte	0x432
 1031 0405 11       		.uleb128 0x11
 1032 0406 31030000 		.4byte	.LASF66
 1033 040a 0B       		.byte	0xb
 1034 040b 3E       		.byte	0x3e
 1035 040c 38040000 		.4byte	0x438
 1036 0410 00       		.byte	0
 1037 0411 12       		.uleb128 0x12
 1038 0412 E8020000 		.4byte	.LASF88
 1039 0416 08       		.byte	0x8
 1040 0417 0B       		.byte	0xb
 1041 0418 39       		.byte	0x39
 1042 0419 32040000 		.4byte	0x432
 1043 041d 11       		.uleb128 0x11
 1044 041e 9F010000 		.4byte	.LASF67
 1045 0422 0B       		.byte	0xb
 1046 0423 3A       		.byte	0x3a
 1047 0424 A0020000 		.4byte	0x2a0
 1048 0428 13       		.uleb128 0x13
 1049 0429 6800     		.ascii	"h\000"
 1050 042b 0B       		.byte	0xb
 1051 042c 41       		.byte	0x41
 1052 042d 3E040000 		.4byte	0x43e
 1053 0431 00       		.byte	0
 1054 0432 09       		.uleb128 0x9
 1055 0433 04       		.byte	0x4
 1056 0434 11040000 		.4byte	0x411
 1057 0438 09       		.uleb128 0x9
 1058 0439 04       		.byte	0x4
 1059 043a B6030000 		.4byte	0x3b6
 1060 043e 08       		.uleb128 0x8
 1061 043f 08       		.byte	0x8
 1062 0440 0B       		.byte	0xb
ARM GAS  /tmp/cc0Pu7ii.s 			page 20


 1063 0441 3B       		.byte	0x3b
 1064 0442 5D040000 		.4byte	0x45d
 1065 0446 07       		.uleb128 0x7
 1066 0447 7500     		.ascii	"u\000"
 1067 0449 0B       		.byte	0xb
 1068 044a 3F       		.byte	0x3f
 1069 044b F2030000 		.4byte	0x3f2
 1070 044f 00       		.byte	0
 1071 0450 06       		.uleb128 0x6
 1072 0451 D7010000 		.4byte	.LASF68
 1073 0455 0B       		.byte	0xb
 1074 0456 40       		.byte	0x40
 1075 0457 2C000000 		.4byte	0x2c
 1076 045b 04       		.byte	0x4
 1077 045c 00       		.byte	0
 1078 045d 10       		.uleb128 0x10
 1079 045e 04       		.byte	0x4
 1080 045f 07       		.byte	0x7
 1081 0460 96       		.byte	0x96
 1082 0461 92040000 		.4byte	0x492
 1083 0465 11       		.uleb128 0x11
 1084 0466 0D000000 		.4byte	.LASF69
 1085 046a 07       		.byte	0x7
 1086 046b 9D       		.byte	0x9d
 1087 046c 0C010000 		.4byte	0x10c
 1088 0470 11       		.uleb128 0x11
 1089 0471 E8000000 		.4byte	.LASF70
 1090 0475 07       		.byte	0x7
 1091 0476 A4       		.byte	0xa4
 1092 0477 0C010000 		.4byte	0x10c
 1093 047b 11       		.uleb128 0x11
 1094 047c E8030000 		.4byte	.LASF71
 1095 0480 07       		.byte	0x7
 1096 0481 AB       		.byte	0xab
 1097 0482 9E020000 		.4byte	0x29e
 1098 0486 11       		.uleb128 0x11
 1099 0487 F4020000 		.4byte	.LASF72
 1100 048b 07       		.byte	0x7
 1101 048c B2       		.byte	0xb2
 1102 048d 17010000 		.4byte	0x117
 1103 0491 00       		.byte	0
 1104 0492 09       		.uleb128 0x9
 1105 0493 04       		.byte	0x4
 1106 0494 98040000 		.4byte	0x498
 1107 0498 14       		.uleb128 0x14
 1108 0499 9D040000 		.4byte	0x49d
 1109 049d 04       		.uleb128 0x4
 1110 049e 01       		.byte	0x1
 1111 049f 08       		.byte	0x8
 1112 04a0 43030000 		.4byte	.LASF73
 1113 04a4 09       		.uleb128 0x9
 1114 04a5 04       		.byte	0x4
 1115 04a6 A0020000 		.4byte	0x2a0
 1116 04aa 09       		.uleb128 0x9
 1117 04ab 04       		.byte	0x4
 1118 04ac 8B030000 		.4byte	0x38b
 1119 04b0 15       		.uleb128 0x15
ARM GAS  /tmp/cc0Pu7ii.s 			page 21


 1120 04b1 FC030000 		.4byte	.LASF74
 1121 04b5 01       		.byte	0x1
 1122 04b6 4B       		.byte	0x4b
 1123 04b7 00000000 		.4byte	.LFB7
 1124 04bb 20000000 		.4byte	.LFE7-.LFB7
 1125 04bf 01       		.uleb128 0x1
 1126 04c0 9C       		.byte	0x9c
 1127 04c1 D9040000 		.4byte	0x4d9
 1128 04c5 16       		.uleb128 0x16
 1129 04c6 20000000 		.4byte	.LVL0
 1130 04ca 1F070000 		.4byte	0x71f
 1131 04ce 17       		.uleb128 0x17
 1132 04cf 01       		.uleb128 0x1
 1133 04d0 50       		.byte	0x50
 1134 04d1 05       		.uleb128 0x5
 1135 04d2 03       		.byte	0x3
 1136 04d3 10000000 		.4byte	.LANCHOR0+16
 1137 04d7 00       		.byte	0
 1138 04d8 00       		.byte	0
 1139 04d9 15       		.uleb128 0x15
 1140 04da 15010000 		.4byte	.LASF75
 1141 04de 01       		.byte	0x1
 1142 04df 63       		.byte	0x63
 1143 04e0 00000000 		.4byte	.LFB8
 1144 04e4 36000000 		.4byte	.LFE8-.LFB8
 1145 04e8 01       		.uleb128 0x1
 1146 04e9 9C       		.byte	0x9c
 1147 04ea 54050000 		.4byte	0x554
 1148 04ee 18       		.uleb128 0x18
 1149 04ef 03010000 		.4byte	.LASF76
 1150 04f3 01       		.byte	0x1
 1151 04f4 63       		.byte	0x63
 1152 04f5 38040000 		.4byte	0x438
 1153 04f9 00000000 		.4byte	.LLST0
 1154 04fd 19       		.uleb128 0x19
 1155 04fe 62756600 		.ascii	"buf\000"
 1156 0502 01       		.byte	0x1
 1157 0503 63       		.byte	0x63
 1158 0504 9E020000 		.4byte	0x29e
 1159 0508 39000000 		.4byte	.LLST1
 1160 050c 18       		.uleb128 0x18
 1161 050d D7010000 		.4byte	.LASF68
 1162 0511 01       		.byte	0x1
 1163 0512 63       		.byte	0x63
 1164 0513 2C000000 		.4byte	0x2c
 1165 0517 65000000 		.4byte	.LLST2
 1166 051b 1A       		.uleb128 0x1a
 1167 051c 687000   		.ascii	"hp\000"
 1168 051f 01       		.byte	0x1
 1169 0520 64       		.byte	0x64
 1170 0521 32040000 		.4byte	0x432
 1171 0525 B1000000 		.4byte	.LLST3
 1172 0529 1B       		.uleb128 0x1b
 1173 052a 1C000000 		.4byte	.LVL4
 1174 052e 30070000 		.4byte	0x730
 1175 0532 40050000 		.4byte	0x540
 1176 0536 17       		.uleb128 0x17
ARM GAS  /tmp/cc0Pu7ii.s 			page 22


 1177 0537 01       		.uleb128 0x1
 1178 0538 50       		.byte	0x50
 1179 0539 05       		.uleb128 0x5
 1180 053a 03       		.byte	0x3
 1181 053b 00000000 		.4byte	.LC0
 1182 053f 00       		.byte	0
 1183 0540 16       		.uleb128 0x16
 1184 0541 36000000 		.4byte	.LVL9
 1185 0545 1F070000 		.4byte	0x71f
 1186 0549 17       		.uleb128 0x17
 1187 054a 01       		.uleb128 0x1
 1188 054b 50       		.byte	0x50
 1189 054c 05       		.uleb128 0x5
 1190 054d F3       		.byte	0xf3
 1191 054e 01       		.uleb128 0x1
 1192 054f 50       		.byte	0x50
 1193 0550 23       		.byte	0x23
 1194 0551 10       		.uleb128 0x10
 1195 0552 00       		.byte	0
 1196 0553 00       		.byte	0
 1197 0554 1C       		.uleb128 0x1c
 1198 0555 11030000 		.4byte	.LASF78
 1199 0559 01       		.byte	0x1
 1200 055a 84       		.byte	0x84
 1201 055b 9E020000 		.4byte	0x29e
 1202 055f 00000000 		.4byte	.LFB9
 1203 0563 86000000 		.4byte	.LFE9-.LFB9
 1204 0567 01       		.uleb128 0x1
 1205 0568 9C       		.byte	0x9c
 1206 0569 EC050000 		.4byte	0x5ec
 1207 056d 18       		.uleb128 0x18
 1208 056e 03010000 		.4byte	.LASF76
 1209 0572 01       		.byte	0x1
 1210 0573 84       		.byte	0x84
 1211 0574 38040000 		.4byte	0x438
 1212 0578 DE000000 		.4byte	.LLST4
 1213 057c 18       		.uleb128 0x18
 1214 057d D7010000 		.4byte	.LASF68
 1215 0581 01       		.byte	0x1
 1216 0582 84       		.byte	0x84
 1217 0583 2C000000 		.4byte	0x2c
 1218 0587 FC000000 		.4byte	.LLST5
 1219 058b 1A       		.uleb128 0x1a
 1220 058c 717000   		.ascii	"qp\000"
 1221 058f 01       		.byte	0x1
 1222 0590 85       		.byte	0x85
 1223 0591 32040000 		.4byte	0x432
 1224 0595 27010000 		.4byte	.LLST6
 1225 0599 1A       		.uleb128 0x1a
 1226 059a 687000   		.ascii	"hp\000"
 1227 059d 01       		.byte	0x1
 1228 059e 85       		.byte	0x85
 1229 059f 32040000 		.4byte	0x432
 1230 05a3 50010000 		.4byte	.LLST7
 1231 05a7 1A       		.uleb128 0x1a
 1232 05a8 667000   		.ascii	"fp\000"
 1233 05ab 01       		.byte	0x1
ARM GAS  /tmp/cc0Pu7ii.s 			page 23


 1234 05ac 85       		.byte	0x85
 1235 05ad 32040000 		.4byte	0x432
 1236 05b1 A9010000 		.4byte	.LLST8
 1237 05b5 1B       		.uleb128 0x1b
 1238 05b6 22000000 		.4byte	.LVL15
 1239 05ba 41070000 		.4byte	0x741
 1240 05be C9050000 		.4byte	0x5c9
 1241 05c2 17       		.uleb128 0x17
 1242 05c3 01       		.uleb128 0x1
 1243 05c4 50       		.byte	0x50
 1244 05c5 02       		.uleb128 0x2
 1245 05c6 76       		.byte	0x76
 1246 05c7 10       		.sleb128 16
 1247 05c8 00       		.byte	0
 1248 05c9 1D       		.uleb128 0x1d
 1249 05ca 36000000 		.4byte	.LVL19
 1250 05ce 52070000 		.4byte	0x752
 1251 05d2 1E       		.uleb128 0x1e
 1252 05d3 40000000 		.4byte	.LVL20
 1253 05d7 E2050000 		.4byte	0x5e2
 1254 05db 17       		.uleb128 0x17
 1255 05dc 01       		.uleb128 0x1
 1256 05dd 50       		.byte	0x50
 1257 05de 02       		.uleb128 0x2
 1258 05df 75       		.byte	0x75
 1259 05e0 08       		.sleb128 8
 1260 05e1 00       		.byte	0
 1261 05e2 1D       		.uleb128 0x1d
 1262 05e3 64000000 		.4byte	.LVL25
 1263 05e7 52070000 		.4byte	0x752
 1264 05eb 00       		.byte	0
 1265 05ec 15       		.uleb128 0x15
 1266 05ed 5C010000 		.4byte	.LASF77
 1267 05f1 01       		.byte	0x1
 1268 05f2 C2       		.byte	0xc2
 1269 05f3 00000000 		.4byte	.LFB10
 1270 05f7 CC000000 		.4byte	.LFE10-.LFB10
 1271 05fb 01       		.uleb128 0x1
 1272 05fc 9C       		.byte	0x9c
 1273 05fd 8A060000 		.4byte	0x68a
 1274 0601 19       		.uleb128 0x19
 1275 0602 7000     		.ascii	"p\000"
 1276 0604 01       		.byte	0x1
 1277 0605 C2       		.byte	0xc2
 1278 0606 9E020000 		.4byte	0x29e
 1279 060a BC010000 		.4byte	.LLST9
 1280 060e 1A       		.uleb128 0x1a
 1281 060f 717000   		.ascii	"qp\000"
 1282 0612 01       		.byte	0x1
 1283 0613 C3       		.byte	0xc3
 1284 0614 32040000 		.4byte	0x432
 1285 0618 17020000 		.4byte	.LLST10
 1286 061c 1A       		.uleb128 0x1a
 1287 061d 687000   		.ascii	"hp\000"
 1288 0620 01       		.byte	0x1
 1289 0621 C3       		.byte	0xc3
 1290 0622 32040000 		.4byte	0x432
ARM GAS  /tmp/cc0Pu7ii.s 			page 24


 1291 0626 40020000 		.4byte	.LLST11
 1292 062a 1F       		.uleb128 0x1f
 1293 062b 03010000 		.4byte	.LASF76
 1294 062f 01       		.byte	0x1
 1295 0630 C4       		.byte	0xc4
 1296 0631 38040000 		.4byte	0x438
 1297 0635 7E020000 		.4byte	.LLST12
 1298 0639 1B       		.uleb128 0x1b
 1299 063a 14000000 		.4byte	.LVL32
 1300 063e 41070000 		.4byte	0x741
 1301 0642 4D060000 		.4byte	0x64d
 1302 0646 17       		.uleb128 0x17
 1303 0647 01       		.uleb128 0x1
 1304 0648 50       		.byte	0x50
 1305 0649 02       		.uleb128 0x2
 1306 064a 76       		.byte	0x76
 1307 064b 10       		.sleb128 16
 1308 064c 00       		.byte	0
 1309 064d 1B       		.uleb128 0x1b
 1310 064e 4E000000 		.4byte	.LVL35
 1311 0652 30070000 		.4byte	0x730
 1312 0656 64060000 		.4byte	0x664
 1313 065a 17       		.uleb128 0x17
 1314 065b 01       		.uleb128 0x1
 1315 065c 50       		.byte	0x50
 1316 065d 05       		.uleb128 0x5
 1317 065e 03       		.byte	0x3
 1318 065f 20000000 		.4byte	.LC2
 1319 0663 00       		.byte	0
 1320 0664 20       		.uleb128 0x20
 1321 0665 8A000000 		.4byte	.LVL39
 1322 0669 52070000 		.4byte	0x752
 1323 066d 20       		.uleb128 0x20
 1324 066e BE000000 		.4byte	.LVL41
 1325 0672 52070000 		.4byte	0x752
 1326 0676 21       		.uleb128 0x21
 1327 0677 CA000000 		.4byte	.LVL43
 1328 067b 30070000 		.4byte	0x730
 1329 067f 17       		.uleb128 0x17
 1330 0680 01       		.uleb128 0x1
 1331 0681 50       		.byte	0x50
 1332 0682 05       		.uleb128 0x5
 1333 0683 03       		.byte	0x3
 1334 0684 10000000 		.4byte	.LC1
 1335 0688 00       		.byte	0
 1336 0689 00       		.byte	0
 1337 068a 1C       		.uleb128 0x1c
 1338 068b 48030000 		.4byte	.LASF79
 1339 068f 01       		.byte	0x1
 1340 0690 FA       		.byte	0xfa
 1341 0691 2C000000 		.4byte	0x2c
 1342 0695 00000000 		.4byte	.LFB11
 1343 0699 42000000 		.4byte	.LFE11-.LFB11
 1344 069d 01       		.uleb128 0x1
 1345 069e 9C       		.byte	0x9c
 1346 069f 08070000 		.4byte	0x708
 1347 06a3 18       		.uleb128 0x18
ARM GAS  /tmp/cc0Pu7ii.s 			page 25


 1348 06a4 03010000 		.4byte	.LASF76
 1349 06a8 01       		.byte	0x1
 1350 06a9 FA       		.byte	0xfa
 1351 06aa 38040000 		.4byte	0x438
 1352 06ae A0020000 		.4byte	.LLST13
 1353 06b2 18       		.uleb128 0x18
 1354 06b3 EF030000 		.4byte	.LASF80
 1355 06b7 01       		.byte	0x1
 1356 06b8 FA       		.byte	0xfa
 1357 06b9 08070000 		.4byte	0x708
 1358 06bd 03030000 		.4byte	.LLST14
 1359 06c1 1A       		.uleb128 0x1a
 1360 06c2 717000   		.ascii	"qp\000"
 1361 06c5 01       		.byte	0x1
 1362 06c6 FB       		.byte	0xfb
 1363 06c7 32040000 		.4byte	0x432
 1364 06cb 21030000 		.4byte	.LLST15
 1365 06cf 1A       		.uleb128 0x1a
 1366 06d0 6E00     		.ascii	"n\000"
 1367 06d2 01       		.byte	0x1
 1368 06d3 FC       		.byte	0xfc
 1369 06d4 2C000000 		.4byte	0x2c
 1370 06d8 81030000 		.4byte	.LLST16
 1371 06dc 1A       		.uleb128 0x1a
 1372 06dd 737A00   		.ascii	"sz\000"
 1373 06e0 01       		.byte	0x1
 1374 06e1 FC       		.byte	0xfc
 1375 06e2 2C000000 		.4byte	0x2c
 1376 06e6 C4030000 		.4byte	.LLST17
 1377 06ea 1B       		.uleb128 0x1b
 1378 06eb 1C000000 		.4byte	.LVL46
 1379 06ef 41070000 		.4byte	0x741
 1380 06f3 FE060000 		.4byte	0x6fe
 1381 06f7 17       		.uleb128 0x17
 1382 06f8 01       		.uleb128 0x1
 1383 06f9 50       		.byte	0x50
 1384 06fa 02       		.uleb128 0x2
 1385 06fb 74       		.byte	0x74
 1386 06fc 10       		.sleb128 16
 1387 06fd 00       		.byte	0
 1388 06fe 1D       		.uleb128 0x1d
 1389 06ff 38000000 		.4byte	.LVL51
 1390 0703 52070000 		.4byte	0x752
 1391 0707 00       		.byte	0
 1392 0708 09       		.uleb128 0x9
 1393 0709 04       		.byte	0x4
 1394 070a 2C000000 		.4byte	0x2c
 1395 070e 22       		.uleb128 0x22
 1396 070f 36030000 		.4byte	.LASF81
 1397 0713 01       		.byte	0x1
 1398 0714 44       		.byte	0x44
 1399 0715 B6030000 		.4byte	0x3b6
 1400 0719 05       		.uleb128 0x5
 1401 071a 03       		.byte	0x3
 1402 071b 00000000 		.4byte	default_heap
 1403 071f 23       		.uleb128 0x23
 1404 0720 94030000 		.4byte	.LASF82
ARM GAS  /tmp/cc0Pu7ii.s 			page 26


 1405 0724 09       		.byte	0x9
 1406 0725 38       		.byte	0x38
 1407 0726 30070000 		.4byte	0x730
 1408 072a 0F       		.uleb128 0xf
 1409 072b AA040000 		.4byte	0x4aa
 1410 072f 00       		.byte	0
 1411 0730 23       		.uleb128 0x23
 1412 0731 F8000000 		.4byte	.LASF83
 1413 0735 0C       		.byte	0xc
 1414 0736 F6       		.byte	0xf6
 1415 0737 41070000 		.4byte	0x741
 1416 073b 0F       		.uleb128 0xf
 1417 073c 92040000 		.4byte	0x492
 1418 0740 00       		.byte	0
 1419 0741 23       		.uleb128 0x23
 1420 0742 4F020000 		.4byte	.LASF84
 1421 0746 09       		.byte	0x9
 1422 0747 39       		.byte	0x39
 1423 0748 52070000 		.4byte	0x752
 1424 074c 0F       		.uleb128 0xf
 1425 074d AA040000 		.4byte	0x4aa
 1426 0751 00       		.byte	0
 1427 0752 24       		.uleb128 0x24
 1428 0753 09010000 		.4byte	.LASF89
 1429 0757 09       		.byte	0x9
 1430 0758 3D       		.byte	0x3d
 1431 0759 AA040000 		.4byte	0x4aa
 1432 075d 00       		.byte	0
 1433              		.section	.debug_abbrev,"",%progbits
 1434              	.Ldebug_abbrev0:
 1435 0000 01       		.uleb128 0x1
 1436 0001 11       		.uleb128 0x11
 1437 0002 01       		.byte	0x1
 1438 0003 25       		.uleb128 0x25
 1439 0004 0E       		.uleb128 0xe
 1440 0005 13       		.uleb128 0x13
 1441 0006 0B       		.uleb128 0xb
 1442 0007 03       		.uleb128 0x3
 1443 0008 0E       		.uleb128 0xe
 1444 0009 1B       		.uleb128 0x1b
 1445 000a 0E       		.uleb128 0xe
 1446 000b 55       		.uleb128 0x55
 1447 000c 17       		.uleb128 0x17
 1448 000d 11       		.uleb128 0x11
 1449 000e 01       		.uleb128 0x1
 1450 000f 10       		.uleb128 0x10
 1451 0010 17       		.uleb128 0x17
 1452 0011 00       		.byte	0
 1453 0012 00       		.byte	0
 1454 0013 02       		.uleb128 0x2
 1455 0014 24       		.uleb128 0x24
 1456 0015 00       		.byte	0
 1457 0016 0B       		.uleb128 0xb
 1458 0017 0B       		.uleb128 0xb
 1459 0018 3E       		.uleb128 0x3e
 1460 0019 0B       		.uleb128 0xb
 1461 001a 03       		.uleb128 0x3
ARM GAS  /tmp/cc0Pu7ii.s 			page 27


 1462 001b 08       		.uleb128 0x8
 1463 001c 00       		.byte	0
 1464 001d 00       		.byte	0
 1465 001e 03       		.uleb128 0x3
 1466 001f 16       		.uleb128 0x16
 1467 0020 00       		.byte	0
 1468 0021 03       		.uleb128 0x3
 1469 0022 0E       		.uleb128 0xe
 1470 0023 3A       		.uleb128 0x3a
 1471 0024 0B       		.uleb128 0xb
 1472 0025 3B       		.uleb128 0x3b
 1473 0026 0B       		.uleb128 0xb
 1474 0027 49       		.uleb128 0x49
 1475 0028 13       		.uleb128 0x13
 1476 0029 00       		.byte	0
 1477 002a 00       		.byte	0
 1478 002b 04       		.uleb128 0x4
 1479 002c 24       		.uleb128 0x24
 1480 002d 00       		.byte	0
 1481 002e 0B       		.uleb128 0xb
 1482 002f 0B       		.uleb128 0xb
 1483 0030 3E       		.uleb128 0x3e
 1484 0031 0B       		.uleb128 0xb
 1485 0032 03       		.uleb128 0x3
 1486 0033 0E       		.uleb128 0xe
 1487 0034 00       		.byte	0
 1488 0035 00       		.byte	0
 1489 0036 05       		.uleb128 0x5
 1490 0037 13       		.uleb128 0x13
 1491 0038 01       		.byte	0x1
 1492 0039 03       		.uleb128 0x3
 1493 003a 0E       		.uleb128 0xe
 1494 003b 0B       		.uleb128 0xb
 1495 003c 0B       		.uleb128 0xb
 1496 003d 3A       		.uleb128 0x3a
 1497 003e 0B       		.uleb128 0xb
 1498 003f 3B       		.uleb128 0x3b
 1499 0040 0B       		.uleb128 0xb
 1500 0041 01       		.uleb128 0x1
 1501 0042 13       		.uleb128 0x13
 1502 0043 00       		.byte	0
 1503 0044 00       		.byte	0
 1504 0045 06       		.uleb128 0x6
 1505 0046 0D       		.uleb128 0xd
 1506 0047 00       		.byte	0
 1507 0048 03       		.uleb128 0x3
 1508 0049 0E       		.uleb128 0xe
 1509 004a 3A       		.uleb128 0x3a
 1510 004b 0B       		.uleb128 0xb
 1511 004c 3B       		.uleb128 0x3b
 1512 004d 0B       		.uleb128 0xb
 1513 004e 49       		.uleb128 0x49
 1514 004f 13       		.uleb128 0x13
 1515 0050 38       		.uleb128 0x38
 1516 0051 0B       		.uleb128 0xb
 1517 0052 00       		.byte	0
 1518 0053 00       		.byte	0
ARM GAS  /tmp/cc0Pu7ii.s 			page 28


 1519 0054 07       		.uleb128 0x7
 1520 0055 0D       		.uleb128 0xd
 1521 0056 00       		.byte	0
 1522 0057 03       		.uleb128 0x3
 1523 0058 08       		.uleb128 0x8
 1524 0059 3A       		.uleb128 0x3a
 1525 005a 0B       		.uleb128 0xb
 1526 005b 3B       		.uleb128 0x3b
 1527 005c 0B       		.uleb128 0xb
 1528 005d 49       		.uleb128 0x49
 1529 005e 13       		.uleb128 0x13
 1530 005f 38       		.uleb128 0x38
 1531 0060 0B       		.uleb128 0xb
 1532 0061 00       		.byte	0
 1533 0062 00       		.byte	0
 1534 0063 08       		.uleb128 0x8
 1535 0064 13       		.uleb128 0x13
 1536 0065 01       		.byte	0x1
 1537 0066 0B       		.uleb128 0xb
 1538 0067 0B       		.uleb128 0xb
 1539 0068 3A       		.uleb128 0x3a
 1540 0069 0B       		.uleb128 0xb
 1541 006a 3B       		.uleb128 0x3b
 1542 006b 0B       		.uleb128 0xb
 1543 006c 01       		.uleb128 0x1
 1544 006d 13       		.uleb128 0x13
 1545 006e 00       		.byte	0
 1546 006f 00       		.byte	0
 1547 0070 09       		.uleb128 0x9
 1548 0071 0F       		.uleb128 0xf
 1549 0072 00       		.byte	0
 1550 0073 0B       		.uleb128 0xb
 1551 0074 0B       		.uleb128 0xb
 1552 0075 49       		.uleb128 0x49
 1553 0076 13       		.uleb128 0x13
 1554 0077 00       		.byte	0
 1555 0078 00       		.byte	0
 1556 0079 0A       		.uleb128 0xa
 1557 007a 0F       		.uleb128 0xf
 1558 007b 00       		.byte	0
 1559 007c 0B       		.uleb128 0xb
 1560 007d 0B       		.uleb128 0xb
 1561 007e 00       		.byte	0
 1562 007f 00       		.byte	0
 1563 0080 0B       		.uleb128 0xb
 1564 0081 13       		.uleb128 0x13
 1565 0082 01       		.byte	0x1
 1566 0083 03       		.uleb128 0x3
 1567 0084 0E       		.uleb128 0xe
 1568 0085 0B       		.uleb128 0xb
 1569 0086 0B       		.uleb128 0xb
 1570 0087 3A       		.uleb128 0x3a
 1571 0088 0B       		.uleb128 0xb
 1572 0089 3B       		.uleb128 0x3b
 1573 008a 05       		.uleb128 0x5
 1574 008b 01       		.uleb128 0x1
 1575 008c 13       		.uleb128 0x13
ARM GAS  /tmp/cc0Pu7ii.s 			page 29


 1576 008d 00       		.byte	0
 1577 008e 00       		.byte	0
 1578 008f 0C       		.uleb128 0xc
 1579 0090 0D       		.uleb128 0xd
 1580 0091 00       		.byte	0
 1581 0092 03       		.uleb128 0x3
 1582 0093 08       		.uleb128 0x8
 1583 0094 3A       		.uleb128 0x3a
 1584 0095 0B       		.uleb128 0xb
 1585 0096 3B       		.uleb128 0x3b
 1586 0097 05       		.uleb128 0x5
 1587 0098 49       		.uleb128 0x49
 1588 0099 13       		.uleb128 0x13
 1589 009a 38       		.uleb128 0x38
 1590 009b 0B       		.uleb128 0xb
 1591 009c 00       		.byte	0
 1592 009d 00       		.byte	0
 1593 009e 0D       		.uleb128 0xd
 1594 009f 35       		.uleb128 0x35
 1595 00a0 00       		.byte	0
 1596 00a1 49       		.uleb128 0x49
 1597 00a2 13       		.uleb128 0x13
 1598 00a3 00       		.byte	0
 1599 00a4 00       		.byte	0
 1600 00a5 0E       		.uleb128 0xe
 1601 00a6 15       		.uleb128 0x15
 1602 00a7 01       		.byte	0x1
 1603 00a8 27       		.uleb128 0x27
 1604 00a9 19       		.uleb128 0x19
 1605 00aa 49       		.uleb128 0x49
 1606 00ab 13       		.uleb128 0x13
 1607 00ac 01       		.uleb128 0x1
 1608 00ad 13       		.uleb128 0x13
 1609 00ae 00       		.byte	0
 1610 00af 00       		.byte	0
 1611 00b0 0F       		.uleb128 0xf
 1612 00b1 05       		.uleb128 0x5
 1613 00b2 00       		.byte	0
 1614 00b3 49       		.uleb128 0x49
 1615 00b4 13       		.uleb128 0x13
 1616 00b5 00       		.byte	0
 1617 00b6 00       		.byte	0
 1618 00b7 10       		.uleb128 0x10
 1619 00b8 17       		.uleb128 0x17
 1620 00b9 01       		.byte	0x1
 1621 00ba 0B       		.uleb128 0xb
 1622 00bb 0B       		.uleb128 0xb
 1623 00bc 3A       		.uleb128 0x3a
 1624 00bd 0B       		.uleb128 0xb
 1625 00be 3B       		.uleb128 0x3b
 1626 00bf 0B       		.uleb128 0xb
 1627 00c0 01       		.uleb128 0x1
 1628 00c1 13       		.uleb128 0x13
 1629 00c2 00       		.byte	0
 1630 00c3 00       		.byte	0
 1631 00c4 11       		.uleb128 0x11
 1632 00c5 0D       		.uleb128 0xd
ARM GAS  /tmp/cc0Pu7ii.s 			page 30


 1633 00c6 00       		.byte	0
 1634 00c7 03       		.uleb128 0x3
 1635 00c8 0E       		.uleb128 0xe
 1636 00c9 3A       		.uleb128 0x3a
 1637 00ca 0B       		.uleb128 0xb
 1638 00cb 3B       		.uleb128 0x3b
 1639 00cc 0B       		.uleb128 0xb
 1640 00cd 49       		.uleb128 0x49
 1641 00ce 13       		.uleb128 0x13
 1642 00cf 00       		.byte	0
 1643 00d0 00       		.byte	0
 1644 00d1 12       		.uleb128 0x12
 1645 00d2 17       		.uleb128 0x17
 1646 00d3 01       		.byte	0x1
 1647 00d4 03       		.uleb128 0x3
 1648 00d5 0E       		.uleb128 0xe
 1649 00d6 0B       		.uleb128 0xb
 1650 00d7 0B       		.uleb128 0xb
 1651 00d8 3A       		.uleb128 0x3a
 1652 00d9 0B       		.uleb128 0xb
 1653 00da 3B       		.uleb128 0x3b
 1654 00db 0B       		.uleb128 0xb
 1655 00dc 01       		.uleb128 0x1
 1656 00dd 13       		.uleb128 0x13
 1657 00de 00       		.byte	0
 1658 00df 00       		.byte	0
 1659 00e0 13       		.uleb128 0x13
 1660 00e1 0D       		.uleb128 0xd
 1661 00e2 00       		.byte	0
 1662 00e3 03       		.uleb128 0x3
 1663 00e4 08       		.uleb128 0x8
 1664 00e5 3A       		.uleb128 0x3a
 1665 00e6 0B       		.uleb128 0xb
 1666 00e7 3B       		.uleb128 0x3b
 1667 00e8 0B       		.uleb128 0xb
 1668 00e9 49       		.uleb128 0x49
 1669 00ea 13       		.uleb128 0x13
 1670 00eb 00       		.byte	0
 1671 00ec 00       		.byte	0
 1672 00ed 14       		.uleb128 0x14
 1673 00ee 26       		.uleb128 0x26
 1674 00ef 00       		.byte	0
 1675 00f0 49       		.uleb128 0x49
 1676 00f1 13       		.uleb128 0x13
 1677 00f2 00       		.byte	0
 1678 00f3 00       		.byte	0
 1679 00f4 15       		.uleb128 0x15
 1680 00f5 2E       		.uleb128 0x2e
 1681 00f6 01       		.byte	0x1
 1682 00f7 3F       		.uleb128 0x3f
 1683 00f8 19       		.uleb128 0x19
 1684 00f9 03       		.uleb128 0x3
 1685 00fa 0E       		.uleb128 0xe
 1686 00fb 3A       		.uleb128 0x3a
 1687 00fc 0B       		.uleb128 0xb
 1688 00fd 3B       		.uleb128 0x3b
 1689 00fe 0B       		.uleb128 0xb
ARM GAS  /tmp/cc0Pu7ii.s 			page 31


 1690 00ff 27       		.uleb128 0x27
 1691 0100 19       		.uleb128 0x19
 1692 0101 11       		.uleb128 0x11
 1693 0102 01       		.uleb128 0x1
 1694 0103 12       		.uleb128 0x12
 1695 0104 06       		.uleb128 0x6
 1696 0105 40       		.uleb128 0x40
 1697 0106 18       		.uleb128 0x18
 1698 0107 9742     		.uleb128 0x2117
 1699 0109 19       		.uleb128 0x19
 1700 010a 01       		.uleb128 0x1
 1701 010b 13       		.uleb128 0x13
 1702 010c 00       		.byte	0
 1703 010d 00       		.byte	0
 1704 010e 16       		.uleb128 0x16
 1705 010f 898201   		.uleb128 0x4109
 1706 0112 01       		.byte	0x1
 1707 0113 11       		.uleb128 0x11
 1708 0114 01       		.uleb128 0x1
 1709 0115 9542     		.uleb128 0x2115
 1710 0117 19       		.uleb128 0x19
 1711 0118 31       		.uleb128 0x31
 1712 0119 13       		.uleb128 0x13
 1713 011a 00       		.byte	0
 1714 011b 00       		.byte	0
 1715 011c 17       		.uleb128 0x17
 1716 011d 8A8201   		.uleb128 0x410a
 1717 0120 00       		.byte	0
 1718 0121 02       		.uleb128 0x2
 1719 0122 18       		.uleb128 0x18
 1720 0123 9142     		.uleb128 0x2111
 1721 0125 18       		.uleb128 0x18
 1722 0126 00       		.byte	0
 1723 0127 00       		.byte	0
 1724 0128 18       		.uleb128 0x18
 1725 0129 05       		.uleb128 0x5
 1726 012a 00       		.byte	0
 1727 012b 03       		.uleb128 0x3
 1728 012c 0E       		.uleb128 0xe
 1729 012d 3A       		.uleb128 0x3a
 1730 012e 0B       		.uleb128 0xb
 1731 012f 3B       		.uleb128 0x3b
 1732 0130 0B       		.uleb128 0xb
 1733 0131 49       		.uleb128 0x49
 1734 0132 13       		.uleb128 0x13
 1735 0133 02       		.uleb128 0x2
 1736 0134 17       		.uleb128 0x17
 1737 0135 00       		.byte	0
 1738 0136 00       		.byte	0
 1739 0137 19       		.uleb128 0x19
 1740 0138 05       		.uleb128 0x5
 1741 0139 00       		.byte	0
 1742 013a 03       		.uleb128 0x3
 1743 013b 08       		.uleb128 0x8
 1744 013c 3A       		.uleb128 0x3a
 1745 013d 0B       		.uleb128 0xb
 1746 013e 3B       		.uleb128 0x3b
ARM GAS  /tmp/cc0Pu7ii.s 			page 32


 1747 013f 0B       		.uleb128 0xb
 1748 0140 49       		.uleb128 0x49
 1749 0141 13       		.uleb128 0x13
 1750 0142 02       		.uleb128 0x2
 1751 0143 17       		.uleb128 0x17
 1752 0144 00       		.byte	0
 1753 0145 00       		.byte	0
 1754 0146 1A       		.uleb128 0x1a
 1755 0147 34       		.uleb128 0x34
 1756 0148 00       		.byte	0
 1757 0149 03       		.uleb128 0x3
 1758 014a 08       		.uleb128 0x8
 1759 014b 3A       		.uleb128 0x3a
 1760 014c 0B       		.uleb128 0xb
 1761 014d 3B       		.uleb128 0x3b
 1762 014e 0B       		.uleb128 0xb
 1763 014f 49       		.uleb128 0x49
 1764 0150 13       		.uleb128 0x13
 1765 0151 02       		.uleb128 0x2
 1766 0152 17       		.uleb128 0x17
 1767 0153 00       		.byte	0
 1768 0154 00       		.byte	0
 1769 0155 1B       		.uleb128 0x1b
 1770 0156 898201   		.uleb128 0x4109
 1771 0159 01       		.byte	0x1
 1772 015a 11       		.uleb128 0x11
 1773 015b 01       		.uleb128 0x1
 1774 015c 31       		.uleb128 0x31
 1775 015d 13       		.uleb128 0x13
 1776 015e 01       		.uleb128 0x1
 1777 015f 13       		.uleb128 0x13
 1778 0160 00       		.byte	0
 1779 0161 00       		.byte	0
 1780 0162 1C       		.uleb128 0x1c
 1781 0163 2E       		.uleb128 0x2e
 1782 0164 01       		.byte	0x1
 1783 0165 3F       		.uleb128 0x3f
 1784 0166 19       		.uleb128 0x19
 1785 0167 03       		.uleb128 0x3
 1786 0168 0E       		.uleb128 0xe
 1787 0169 3A       		.uleb128 0x3a
 1788 016a 0B       		.uleb128 0xb
 1789 016b 3B       		.uleb128 0x3b
 1790 016c 0B       		.uleb128 0xb
 1791 016d 27       		.uleb128 0x27
 1792 016e 19       		.uleb128 0x19
 1793 016f 49       		.uleb128 0x49
 1794 0170 13       		.uleb128 0x13
 1795 0171 11       		.uleb128 0x11
 1796 0172 01       		.uleb128 0x1
 1797 0173 12       		.uleb128 0x12
 1798 0174 06       		.uleb128 0x6
 1799 0175 40       		.uleb128 0x40
 1800 0176 18       		.uleb128 0x18
 1801 0177 9742     		.uleb128 0x2117
 1802 0179 19       		.uleb128 0x19
 1803 017a 01       		.uleb128 0x1
ARM GAS  /tmp/cc0Pu7ii.s 			page 33


 1804 017b 13       		.uleb128 0x13
 1805 017c 00       		.byte	0
 1806 017d 00       		.byte	0
 1807 017e 1D       		.uleb128 0x1d
 1808 017f 898201   		.uleb128 0x4109
 1809 0182 00       		.byte	0
 1810 0183 11       		.uleb128 0x11
 1811 0184 01       		.uleb128 0x1
 1812 0185 31       		.uleb128 0x31
 1813 0186 13       		.uleb128 0x13
 1814 0187 00       		.byte	0
 1815 0188 00       		.byte	0
 1816 0189 1E       		.uleb128 0x1e
 1817 018a 898201   		.uleb128 0x4109
 1818 018d 01       		.byte	0x1
 1819 018e 11       		.uleb128 0x11
 1820 018f 01       		.uleb128 0x1
 1821 0190 01       		.uleb128 0x1
 1822 0191 13       		.uleb128 0x13
 1823 0192 00       		.byte	0
 1824 0193 00       		.byte	0
 1825 0194 1F       		.uleb128 0x1f
 1826 0195 34       		.uleb128 0x34
 1827 0196 00       		.byte	0
 1828 0197 03       		.uleb128 0x3
 1829 0198 0E       		.uleb128 0xe
 1830 0199 3A       		.uleb128 0x3a
 1831 019a 0B       		.uleb128 0xb
 1832 019b 3B       		.uleb128 0x3b
 1833 019c 0B       		.uleb128 0xb
 1834 019d 49       		.uleb128 0x49
 1835 019e 13       		.uleb128 0x13
 1836 019f 02       		.uleb128 0x2
 1837 01a0 17       		.uleb128 0x17
 1838 01a1 00       		.byte	0
 1839 01a2 00       		.byte	0
 1840 01a3 20       		.uleb128 0x20
 1841 01a4 898201   		.uleb128 0x4109
 1842 01a7 00       		.byte	0
 1843 01a8 11       		.uleb128 0x11
 1844 01a9 01       		.uleb128 0x1
 1845 01aa 9542     		.uleb128 0x2115
 1846 01ac 19       		.uleb128 0x19
 1847 01ad 31       		.uleb128 0x31
 1848 01ae 13       		.uleb128 0x13
 1849 01af 00       		.byte	0
 1850 01b0 00       		.byte	0
 1851 01b1 21       		.uleb128 0x21
 1852 01b2 898201   		.uleb128 0x4109
 1853 01b5 01       		.byte	0x1
 1854 01b6 11       		.uleb128 0x11
 1855 01b7 01       		.uleb128 0x1
 1856 01b8 31       		.uleb128 0x31
 1857 01b9 13       		.uleb128 0x13
 1858 01ba 00       		.byte	0
 1859 01bb 00       		.byte	0
 1860 01bc 22       		.uleb128 0x22
ARM GAS  /tmp/cc0Pu7ii.s 			page 34


 1861 01bd 34       		.uleb128 0x34
 1862 01be 00       		.byte	0
 1863 01bf 03       		.uleb128 0x3
 1864 01c0 0E       		.uleb128 0xe
 1865 01c1 3A       		.uleb128 0x3a
 1866 01c2 0B       		.uleb128 0xb
 1867 01c3 3B       		.uleb128 0x3b
 1868 01c4 0B       		.uleb128 0xb
 1869 01c5 49       		.uleb128 0x49
 1870 01c6 13       		.uleb128 0x13
 1871 01c7 02       		.uleb128 0x2
 1872 01c8 18       		.uleb128 0x18
 1873 01c9 00       		.byte	0
 1874 01ca 00       		.byte	0
 1875 01cb 23       		.uleb128 0x23
 1876 01cc 2E       		.uleb128 0x2e
 1877 01cd 01       		.byte	0x1
 1878 01ce 3F       		.uleb128 0x3f
 1879 01cf 19       		.uleb128 0x19
 1880 01d0 03       		.uleb128 0x3
 1881 01d1 0E       		.uleb128 0xe
 1882 01d2 3A       		.uleb128 0x3a
 1883 01d3 0B       		.uleb128 0xb
 1884 01d4 3B       		.uleb128 0x3b
 1885 01d5 0B       		.uleb128 0xb
 1886 01d6 27       		.uleb128 0x27
 1887 01d7 19       		.uleb128 0x19
 1888 01d8 3C       		.uleb128 0x3c
 1889 01d9 19       		.uleb128 0x19
 1890 01da 01       		.uleb128 0x1
 1891 01db 13       		.uleb128 0x13
 1892 01dc 00       		.byte	0
 1893 01dd 00       		.byte	0
 1894 01de 24       		.uleb128 0x24
 1895 01df 2E       		.uleb128 0x2e
 1896 01e0 00       		.byte	0
 1897 01e1 3F       		.uleb128 0x3f
 1898 01e2 19       		.uleb128 0x19
 1899 01e3 03       		.uleb128 0x3
 1900 01e4 0E       		.uleb128 0xe
 1901 01e5 3A       		.uleb128 0x3a
 1902 01e6 0B       		.uleb128 0xb
 1903 01e7 3B       		.uleb128 0x3b
 1904 01e8 0B       		.uleb128 0xb
 1905 01e9 27       		.uleb128 0x27
 1906 01ea 19       		.uleb128 0x19
 1907 01eb 49       		.uleb128 0x49
 1908 01ec 13       		.uleb128 0x13
 1909 01ed 3C       		.uleb128 0x3c
 1910 01ee 19       		.uleb128 0x19
 1911 01ef 00       		.byte	0
 1912 01f0 00       		.byte	0
 1913 01f1 00       		.byte	0
 1914              		.section	.debug_loc,"",%progbits
 1915              	.Ldebug_loc0:
 1916              	.LLST0:
 1917 0000 00000000 		.4byte	.LVL1
ARM GAS  /tmp/cc0Pu7ii.s 			page 35


 1918 0004 14000000 		.4byte	.LVL3
 1919 0008 0100     		.2byte	0x1
 1920 000a 50       		.byte	0x50
 1921 000b 14000000 		.4byte	.LVL3
 1922 000f 32000000 		.4byte	.LVL8
 1923 0013 0100     		.2byte	0x1
 1924 0015 55       		.byte	0x55
 1925 0016 32000000 		.4byte	.LVL8
 1926 001a 35000000 		.4byte	.LVL9-1
 1927 001e 0300     		.2byte	0x3
 1928 0020 70       		.byte	0x70
 1929 0021 70       		.sleb128 -16
 1930 0022 9F       		.byte	0x9f
 1931 0023 35000000 		.4byte	.LVL9-1
 1932 0027 36000000 		.4byte	.LFE8
 1933 002b 0400     		.2byte	0x4
 1934 002d F3       		.byte	0xf3
 1935 002e 01       		.uleb128 0x1
 1936 002f 50       		.byte	0x50
 1937 0030 9F       		.byte	0x9f
 1938 0031 00000000 		.4byte	0
 1939 0035 00000000 		.4byte	0
 1940              	.LLST1:
 1941 0039 00000000 		.4byte	.LVL1
 1942 003d 1B000000 		.4byte	.LVL4-1
 1943 0041 0100     		.2byte	0x1
 1944 0043 51       		.byte	0x51
 1945 0044 1B000000 		.4byte	.LVL4-1
 1946 0048 32000000 		.4byte	.LVL8
 1947 004c 0100     		.2byte	0x1
 1948 004e 54       		.byte	0x54
 1949 004f 32000000 		.4byte	.LVL8
 1950 0053 36000000 		.4byte	.LFE8
 1951 0057 0400     		.2byte	0x4
 1952 0059 F3       		.byte	0xf3
 1953 005a 01       		.uleb128 0x1
 1954 005b 51       		.byte	0x51
 1955 005c 9F       		.byte	0x9f
 1956 005d 00000000 		.4byte	0
 1957 0061 00000000 		.4byte	0
 1958              	.LLST2:
 1959 0065 00000000 		.4byte	.LVL1
 1960 0069 06000000 		.4byte	.LVL2
 1961 006d 0100     		.2byte	0x1
 1962 006f 52       		.byte	0x52
 1963 0070 06000000 		.4byte	.LVL2
 1964 0074 20000000 		.4byte	.LVL5
 1965 0078 0100     		.2byte	0x1
 1966 007a 56       		.byte	0x56
 1967 007b 20000000 		.4byte	.LVL5
 1968 007f 32000000 		.4byte	.LVL8
 1969 0083 0300     		.2byte	0x3
 1970 0085 76       		.byte	0x76
 1971 0086 08       		.sleb128 8
 1972 0087 9F       		.byte	0x9f
 1973 0088 32000000 		.4byte	.LVL8
 1974 008c 35000000 		.4byte	.LVL9-1
ARM GAS  /tmp/cc0Pu7ii.s 			page 36


 1975 0090 0900     		.2byte	0x9
 1976 0092 F3       		.byte	0xf3
 1977 0093 01       		.uleb128 0x1
 1978 0094 51       		.byte	0x51
 1979 0095 23       		.byte	0x23
 1980 0096 04       		.uleb128 0x4
 1981 0097 06       		.byte	0x6
 1982 0098 23       		.byte	0x23
 1983 0099 08       		.uleb128 0x8
 1984 009a 9F       		.byte	0x9f
 1985 009b 35000000 		.4byte	.LVL9-1
 1986 009f 36000000 		.4byte	.LFE8
 1987 00a3 0400     		.2byte	0x4
 1988 00a5 F3       		.byte	0xf3
 1989 00a6 01       		.uleb128 0x1
 1990 00a7 52       		.byte	0x52
 1991 00a8 9F       		.byte	0x9f
 1992 00a9 00000000 		.4byte	0
 1993 00ad 00000000 		.4byte	0
 1994              	.LLST3:
 1995 00b1 24000000 		.4byte	.LVL6
 1996 00b5 2A000000 		.4byte	.LVL7
 1997 00b9 0200     		.2byte	0x2
 1998 00bb 75       		.byte	0x75
 1999 00bc 08       		.sleb128 8
 2000 00bd 2A000000 		.4byte	.LVL7
 2001 00c1 32000000 		.4byte	.LVL8
 2002 00c5 0100     		.2byte	0x1
 2003 00c7 54       		.byte	0x54
 2004 00c8 32000000 		.4byte	.LVL8
 2005 00cc 36000000 		.4byte	.LFE8
 2006 00d0 0400     		.2byte	0x4
 2007 00d2 F3       		.byte	0xf3
 2008 00d3 01       		.uleb128 0x1
 2009 00d4 51       		.byte	0x51
 2010 00d5 9F       		.byte	0x9f
 2011 00d6 00000000 		.4byte	0
 2012 00da 00000000 		.4byte	0
 2013              	.LLST4:
 2014 00de 00000000 		.4byte	.LVL10
 2015 00e2 10000000 		.4byte	.LVL11
 2016 00e6 0100     		.2byte	0x1
 2017 00e8 50       		.byte	0x50
 2018 00e9 10000000 		.4byte	.LVL11
 2019 00ed 86000000 		.4byte	.LFE9
 2020 00f1 0100     		.2byte	0x1
 2021 00f3 56       		.byte	0x56
 2022 00f4 00000000 		.4byte	0
 2023 00f8 00000000 		.4byte	0
 2024              	.LLST5:
 2025 00fc 00000000 		.4byte	.LVL10
 2026 0100 12000000 		.4byte	.LVL12
 2027 0104 0100     		.2byte	0x1
 2028 0106 51       		.byte	0x51
 2029 0107 12000000 		.4byte	.LVL12
 2030 010b 1A000000 		.4byte	.LVL13
 2031 010f 0300     		.2byte	0x3
ARM GAS  /tmp/cc0Pu7ii.s 			page 37


 2032 0111 71       		.byte	0x71
 2033 0112 79       		.sleb128 -7
 2034 0113 9F       		.byte	0x9f
 2035 0114 1A000000 		.4byte	.LVL13
 2036 0118 86000000 		.4byte	.LFE9
 2037 011c 0100     		.2byte	0x1
 2038 011e 55       		.byte	0x55
 2039 011f 00000000 		.4byte	0
 2040 0123 00000000 		.4byte	0
 2041              	.LLST6:
 2042 0127 1E000000 		.4byte	.LVL14
 2043 012b 4A000000 		.4byte	.LVL22
 2044 012f 0100     		.2byte	0x1
 2045 0131 54       		.byte	0x54
 2046 0132 4E000000 		.4byte	.LVL23
 2047 0136 5C000000 		.4byte	.LVL24
 2048 013a 0100     		.2byte	0x1
 2049 013c 54       		.byte	0x54
 2050 013d 68000000 		.4byte	.LVL26
 2051 0141 84000000 		.4byte	.LVL29
 2052 0145 0100     		.2byte	0x1
 2053 0147 54       		.byte	0x54
 2054 0148 00000000 		.4byte	0
 2055 014c 00000000 		.4byte	0
 2056              	.LLST7:
 2057 0150 24000000 		.4byte	.LVL16
 2058 0154 2C000000 		.4byte	.LVL17
 2059 0158 0100     		.2byte	0x1
 2060 015a 53       		.byte	0x53
 2061 015b 2E000000 		.4byte	.LVL18
 2062 015f 35000000 		.4byte	.LVL19-1
 2063 0163 0100     		.2byte	0x1
 2064 0165 53       		.byte	0x53
 2065 0166 40000000 		.4byte	.LVL20
 2066 016a 46000000 		.4byte	.LVL21
 2067 016e 0100     		.2byte	0x1
 2068 0170 50       		.byte	0x50
 2069 0171 46000000 		.4byte	.LVL21
 2070 0175 4A000000 		.4byte	.LVL22
 2071 0179 0300     		.2byte	0x3
 2072 017b 70       		.byte	0x70
 2073 017c 08       		.sleb128 8
 2074 017d 9F       		.byte	0x9f
 2075 017e 4E000000 		.4byte	.LVL23
 2076 0182 63000000 		.4byte	.LVL25-1
 2077 0186 0100     		.2byte	0x1
 2078 0188 53       		.byte	0x53
 2079 0189 63000000 		.4byte	.LVL25-1
 2080 018d 68000000 		.4byte	.LVL26
 2081 0191 0300     		.2byte	0x3
 2082 0193 74       		.byte	0x74
 2083 0194 78       		.sleb128 -8
 2084 0195 9F       		.byte	0x9f
 2085 0196 68000000 		.4byte	.LVL26
 2086 019a 82000000 		.4byte	.LVL28
 2087 019e 0100     		.2byte	0x1
 2088 01a0 53       		.byte	0x53
ARM GAS  /tmp/cc0Pu7ii.s 			page 38


 2089 01a1 00000000 		.4byte	0
 2090 01a5 00000000 		.4byte	0
 2091              	.LLST8:
 2092 01a9 74000000 		.4byte	.LVL27
 2093 01ad 82000000 		.4byte	.LVL28
 2094 01b1 0100     		.2byte	0x1
 2095 01b3 57       		.byte	0x57
 2096 01b4 00000000 		.4byte	0
 2097 01b8 00000000 		.4byte	0
 2098              	.LLST9:
 2099 01bc 00000000 		.4byte	.LVL30
 2100 01c0 08000000 		.4byte	.LVL31
 2101 01c4 0100     		.2byte	0x1
 2102 01c6 50       		.byte	0x50
 2103 01c7 08000000 		.4byte	.LVL31
 2104 01cb 86000000 		.4byte	.LVL38
 2105 01cf 0100     		.2byte	0x1
 2106 01d1 57       		.byte	0x57
 2107 01d2 86000000 		.4byte	.LVL38
 2108 01d6 8A000000 		.4byte	.LVL39
 2109 01da 0400     		.2byte	0x4
 2110 01dc F3       		.byte	0xf3
 2111 01dd 01       		.uleb128 0x1
 2112 01de 50       		.byte	0x50
 2113 01df 9F       		.byte	0x9f
 2114 01e0 8A000000 		.4byte	.LVL39
 2115 01e4 BA000000 		.4byte	.LVL40
 2116 01e8 0100     		.2byte	0x1
 2117 01ea 57       		.byte	0x57
 2118 01eb BA000000 		.4byte	.LVL40
 2119 01ef BE000000 		.4byte	.LVL41
 2120 01f3 0400     		.2byte	0x4
 2121 01f5 F3       		.byte	0xf3
 2122 01f6 01       		.uleb128 0x1
 2123 01f7 50       		.byte	0x50
 2124 01f8 9F       		.byte	0x9f
 2125 01f9 BE000000 		.4byte	.LVL41
 2126 01fd C2000000 		.4byte	.LVL42
 2127 0201 0100     		.2byte	0x1
 2128 0203 50       		.byte	0x50
 2129 0204 C2000000 		.4byte	.LVL42
 2130 0208 CC000000 		.4byte	.LFE10
 2131 020c 0100     		.2byte	0x1
 2132 020e 57       		.byte	0x57
 2133 020f 00000000 		.4byte	0
 2134 0213 00000000 		.4byte	0
 2135              	.LLST10:
 2136 0217 1C000000 		.4byte	.LVL33
 2137 021b 5C000000 		.4byte	.LVL36
 2138 021f 0100     		.2byte	0x1
 2139 0221 54       		.byte	0x54
 2140 0222 5E000000 		.4byte	.LVL37
 2141 0226 86000000 		.4byte	.LVL38
 2142 022a 0100     		.2byte	0x1
 2143 022c 54       		.byte	0x54
 2144 022d 8A000000 		.4byte	.LVL39
 2145 0231 BA000000 		.4byte	.LVL40
ARM GAS  /tmp/cc0Pu7ii.s 			page 39


 2146 0235 0100     		.2byte	0x1
 2147 0237 54       		.byte	0x54
 2148 0238 00000000 		.4byte	0
 2149 023c 00000000 		.4byte	0
 2150              	.LLST11:
 2151 0240 1C000000 		.4byte	.LVL33
 2152 0244 86000000 		.4byte	.LVL38
 2153 0248 0100     		.2byte	0x1
 2154 024a 55       		.byte	0x55
 2155 024b 86000000 		.4byte	.LVL38
 2156 024f 8A000000 		.4byte	.LVL39
 2157 0253 0600     		.2byte	0x6
 2158 0255 F3       		.byte	0xf3
 2159 0256 01       		.uleb128 0x1
 2160 0257 50       		.byte	0x50
 2161 0258 38       		.byte	0x38
 2162 0259 1C       		.byte	0x1c
 2163 025a 9F       		.byte	0x9f
 2164 025b 8A000000 		.4byte	.LVL39
 2165 025f BA000000 		.4byte	.LVL40
 2166 0263 0100     		.2byte	0x1
 2167 0265 55       		.byte	0x55
 2168 0266 BA000000 		.4byte	.LVL40
 2169 026a BE000000 		.4byte	.LVL41
 2170 026e 0600     		.2byte	0x6
 2171 0270 F3       		.byte	0xf3
 2172 0271 01       		.uleb128 0x1
 2173 0272 50       		.byte	0x50
 2174 0273 38       		.byte	0x38
 2175 0274 1C       		.byte	0x1c
 2176 0275 9F       		.byte	0x9f
 2177 0276 00000000 		.4byte	0
 2178 027a 00000000 		.4byte	0
 2179              	.LLST12:
 2180 027e 1C000000 		.4byte	.LVL33
 2181 0282 86000000 		.4byte	.LVL38
 2182 0286 0300     		.2byte	0x3
 2183 0288 76       		.byte	0x76
 2184 0289 78       		.sleb128 -8
 2185 028a 9F       		.byte	0x9f
 2186 028b 8A000000 		.4byte	.LVL39
 2187 028f BA000000 		.4byte	.LVL40
 2188 0293 0300     		.2byte	0x3
 2189 0295 76       		.byte	0x76
 2190 0296 78       		.sleb128 -8
 2191 0297 9F       		.byte	0x9f
 2192 0298 00000000 		.4byte	0
 2193 029c 00000000 		.4byte	0
 2194              	.LLST13:
 2195 02a0 00000000 		.4byte	.LVL44
 2196 02a4 12000000 		.4byte	.LVL45
 2197 02a8 0100     		.2byte	0x1
 2198 02aa 50       		.byte	0x50
 2199 02ab 12000000 		.4byte	.LVL45
 2200 02af 24000000 		.4byte	.LVL47
 2201 02b3 0100     		.2byte	0x1
 2202 02b5 54       		.byte	0x54
ARM GAS  /tmp/cc0Pu7ii.s 			page 40


 2203 02b6 24000000 		.4byte	.LVL47
 2204 02ba 3C000000 		.4byte	.LVL52
 2205 02be 1300     		.2byte	0x13
 2206 02c0 F3       		.byte	0xf3
 2207 02c1 01       		.uleb128 0x1
 2208 02c2 50       		.byte	0x50
 2209 02c3 03       		.byte	0x3
 2210 02c4 00000000 		.4byte	.LANCHOR0
 2211 02c8 F3       		.byte	0xf3
 2212 02c9 01       		.uleb128 0x1
 2213 02ca 50       		.byte	0x50
 2214 02cb 30       		.byte	0x30
 2215 02cc 2E       		.byte	0x2e
 2216 02cd 28       		.byte	0x28
 2217 02ce 0100     		.2byte	0x1
 2218 02d0 16       		.byte	0x16
 2219 02d1 13       		.byte	0x13
 2220 02d2 9F       		.byte	0x9f
 2221 02d3 3C000000 		.4byte	.LVL52
 2222 02d7 40000000 		.4byte	.LVL53
 2223 02db 0100     		.2byte	0x1
 2224 02dd 54       		.byte	0x54
 2225 02de 40000000 		.4byte	.LVL53
 2226 02e2 42000000 		.4byte	.LFE11
 2227 02e6 1300     		.2byte	0x13
 2228 02e8 F3       		.byte	0xf3
 2229 02e9 01       		.uleb128 0x1
 2230 02ea 50       		.byte	0x50
 2231 02eb 03       		.byte	0x3
 2232 02ec 00000000 		.4byte	.LANCHOR0
 2233 02f0 F3       		.byte	0xf3
 2234 02f1 01       		.uleb128 0x1
 2235 02f2 50       		.byte	0x50
 2236 02f3 30       		.byte	0x30
 2237 02f4 2E       		.byte	0x2e
 2238 02f5 28       		.byte	0x28
 2239 02f6 0100     		.2byte	0x1
 2240 02f8 16       		.byte	0x16
 2241 02f9 13       		.byte	0x13
 2242 02fa 9F       		.byte	0x9f
 2243 02fb 00000000 		.4byte	0
 2244 02ff 00000000 		.4byte	0
 2245              	.LLST14:
 2246 0303 00000000 		.4byte	.LVL44
 2247 0307 1B000000 		.4byte	.LVL46-1
 2248 030b 0100     		.2byte	0x1
 2249 030d 51       		.byte	0x51
 2250 030e 1B000000 		.4byte	.LVL46-1
 2251 0312 42000000 		.4byte	.LFE11
 2252 0316 0100     		.2byte	0x1
 2253 0318 55       		.byte	0x55
 2254 0319 00000000 		.4byte	0
 2255 031d 00000000 		.4byte	0
 2256              	.LLST15:
 2257 0321 1C000000 		.4byte	.LVL46
 2258 0325 24000000 		.4byte	.LVL47
 2259 0329 0300     		.2byte	0x3
ARM GAS  /tmp/cc0Pu7ii.s 			page 41


 2260 032b 74       		.byte	0x74
 2261 032c 08       		.sleb128 8
 2262 032d 9F       		.byte	0x9f
 2263 032e 24000000 		.4byte	.LVL47
 2264 0332 2C000000 		.4byte	.LVL49
 2265 0336 1500     		.2byte	0x15
 2266 0338 F3       		.byte	0xf3
 2267 0339 01       		.uleb128 0x1
 2268 033a 50       		.byte	0x50
 2269 033b 03       		.byte	0x3
 2270 033c 00000000 		.4byte	.LANCHOR0
 2271 0340 F3       		.byte	0xf3
 2272 0341 01       		.uleb128 0x1
 2273 0342 50       		.byte	0x50
 2274 0343 30       		.byte	0x30
 2275 0344 2E       		.byte	0x2e
 2276 0345 28       		.byte	0x28
 2277 0346 0100     		.2byte	0x1
 2278 0348 16       		.byte	0x16
 2279 0349 13       		.byte	0x13
 2280 034a 23       		.byte	0x23
 2281 034b 08       		.uleb128 0x8
 2282 034c 9F       		.byte	0x9f
 2283 034d 3C000000 		.4byte	.LVL52
 2284 0351 40000000 		.4byte	.LVL53
 2285 0355 0300     		.2byte	0x3
 2286 0357 74       		.byte	0x74
 2287 0358 08       		.sleb128 8
 2288 0359 9F       		.byte	0x9f
 2289 035a 40000000 		.4byte	.LVL53
 2290 035e 42000000 		.4byte	.LFE11
 2291 0362 1500     		.2byte	0x15
 2292 0364 F3       		.byte	0xf3
 2293 0365 01       		.uleb128 0x1
 2294 0366 50       		.byte	0x50
 2295 0367 03       		.byte	0x3
 2296 0368 00000000 		.4byte	.LANCHOR0
 2297 036c F3       		.byte	0xf3
 2298 036d 01       		.uleb128 0x1
 2299 036e 50       		.byte	0x50
 2300 036f 30       		.byte	0x30
 2301 0370 2E       		.byte	0x2e
 2302 0371 28       		.byte	0x28
 2303 0372 0100     		.2byte	0x1
 2304 0374 16       		.byte	0x16
 2305 0375 13       		.byte	0x13
 2306 0376 23       		.byte	0x23
 2307 0377 08       		.uleb128 0x8
 2308 0378 9F       		.byte	0x9f
 2309 0379 00000000 		.4byte	0
 2310 037d 00000000 		.4byte	0
 2311              	.LLST16:
 2312 0381 1C000000 		.4byte	.LVL46
 2313 0385 24000000 		.4byte	.LVL47
 2314 0389 0200     		.2byte	0x2
 2315 038b 30       		.byte	0x30
 2316 038c 9F       		.byte	0x9f
ARM GAS  /tmp/cc0Pu7ii.s 			page 42


 2317 038d 24000000 		.4byte	.LVL47
 2318 0391 2A000000 		.4byte	.LVL48
 2319 0395 0100     		.2byte	0x1
 2320 0397 54       		.byte	0x54
 2321 0398 2A000000 		.4byte	.LVL48
 2322 039c 2C000000 		.4byte	.LVL49
 2323 03a0 0300     		.2byte	0x3
 2324 03a2 74       		.byte	0x74
 2325 03a3 7F       		.sleb128 -1
 2326 03a4 9F       		.byte	0x9f
 2327 03a5 2C000000 		.4byte	.LVL49
 2328 03a9 30000000 		.4byte	.LVL50
 2329 03ad 0100     		.2byte	0x1
 2330 03af 54       		.byte	0x54
 2331 03b0 3C000000 		.4byte	.LVL52
 2332 03b4 42000000 		.4byte	.LFE11
 2333 03b8 0200     		.2byte	0x2
 2334 03ba 30       		.byte	0x30
 2335 03bb 9F       		.byte	0x9f
 2336 03bc 00000000 		.4byte	0
 2337 03c0 00000000 		.4byte	0
 2338              	.LLST17:
 2339 03c4 1C000000 		.4byte	.LVL46
 2340 03c8 24000000 		.4byte	.LVL47
 2341 03cc 0200     		.2byte	0x2
 2342 03ce 30       		.byte	0x30
 2343 03cf 9F       		.byte	0x9f
 2344 03d0 24000000 		.4byte	.LVL47
 2345 03d4 30000000 		.4byte	.LVL50
 2346 03d8 0100     		.2byte	0x1
 2347 03da 52       		.byte	0x52
 2348 03db 3C000000 		.4byte	.LVL52
 2349 03df 42000000 		.4byte	.LFE11
 2350 03e3 0200     		.2byte	0x2
 2351 03e5 30       		.byte	0x30
 2352 03e6 9F       		.byte	0x9f
 2353 03e7 00000000 		.4byte	0
 2354 03eb 00000000 		.4byte	0
 2355              		.section	.debug_aranges,"",%progbits
 2356 0000 3C000000 		.4byte	0x3c
 2357 0004 0200     		.2byte	0x2
 2358 0006 00000000 		.4byte	.Ldebug_info0
 2359 000a 04       		.byte	0x4
 2360 000b 00       		.byte	0
 2361 000c 0000     		.2byte	0
 2362 000e 0000     		.2byte	0
 2363 0010 00000000 		.4byte	.LFB7
 2364 0014 20000000 		.4byte	.LFE7-.LFB7
 2365 0018 00000000 		.4byte	.LFB8
 2366 001c 36000000 		.4byte	.LFE8-.LFB8
 2367 0020 00000000 		.4byte	.LFB9
 2368 0024 86000000 		.4byte	.LFE9-.LFB9
 2369 0028 00000000 		.4byte	.LFB10
 2370 002c CC000000 		.4byte	.LFE10-.LFB10
 2371 0030 00000000 		.4byte	.LFB11
 2372 0034 42000000 		.4byte	.LFE11-.LFB11
 2373 0038 00000000 		.4byte	0
ARM GAS  /tmp/cc0Pu7ii.s 			page 43


 2374 003c 00000000 		.4byte	0
 2375              		.section	.debug_ranges,"",%progbits
 2376              	.Ldebug_ranges0:
 2377 0000 00000000 		.4byte	.LFB7
 2378 0004 20000000 		.4byte	.LFE7
 2379 0008 00000000 		.4byte	.LFB8
 2380 000c 36000000 		.4byte	.LFE8
 2381 0010 00000000 		.4byte	.LFB9
 2382 0014 86000000 		.4byte	.LFE9
 2383 0018 00000000 		.4byte	.LFB10
 2384 001c CC000000 		.4byte	.LFE10
 2385 0020 00000000 		.4byte	.LFB11
 2386 0024 42000000 		.4byte	.LFE11
 2387 0028 00000000 		.4byte	0
 2388 002c 00000000 		.4byte	0
 2389              		.section	.debug_line,"",%progbits
 2390              	.Ldebug_line0:
 2391 0000 7A020000 		.section	.debug_str,"MS",%progbits,1
 2391      02005F01 
 2391      00000201 
 2391      FB0E0D00 
 2391      01010101 
 2392              	.LASF43:
 2393 0000 705F6D73 		.ascii	"p_msg\000"
 2393      6700
 2394              	.LASF2:
 2395 0006 73697A65 		.ascii	"size_t\000"
 2395      5F7400
 2396              	.LASF69:
 2397 000d 7264796D 		.ascii	"rdymsg\000"
 2397      736700
 2398              	.LASF17:
 2399 0014 75696E74 		.ascii	"uint64_t\000"
 2399      36345F74 
 2399      00
 2400              	.LASF3:
 2401 001d 5F5F7569 		.ascii	"__uint8_t\000"
 2401      6E74385F 
 2401      7400
 2402              	.LASF59:
 2403 0027 6D656D67 		.ascii	"memgetfunc_t\000"
 2403      65746675 
 2403      6E635F74 
 2403      00
 2404              	.LASF85:
 2405 0034 474E5520 		.ascii	"GNU C 4.8.2 -mcpu=cortex-m4 -mno-thumb-interwork -m"
 2405      4320342E 
 2405      382E3220 
 2405      2D6D6370 
 2405      753D636F 
 2406 0067 7468756D 		.ascii	"thumb -ggdb -O2 -fomit-frame-pointer -falign-functi"
 2406      62202D67 
 2406      67646220 
 2406      2D4F3220 
 2406      2D666F6D 
 2407 009a 6F6E733D 		.ascii	"ons=16 -ffunction-sections -fdata-sections -fno-com"
 2407      3136202D 
ARM GAS  /tmp/cc0Pu7ii.s 			page 44


 2407      6666756E 
 2407      6374696F 
 2407      6E2D7365 
 2408 00cd 6D6F6E00 		.ascii	"mon\000"
 2409              	.LASF13:
 2410 00d1 6C6F6E67 		.ascii	"long long unsigned int\000"
 2410      206C6F6E 
 2410      6720756E 
 2410      7369676E 
 2410      65642069 
 2411              	.LASF70:
 2412 00e8 65786974 		.ascii	"exitcode\000"
 2412      636F6465 
 2412      00
 2413              	.LASF63:
 2414 00f1 685F6672 		.ascii	"h_free\000"
 2414      656500
 2415              	.LASF83:
 2416 00f8 63684462 		.ascii	"chDbgPanic\000"
 2416      6750616E 
 2416      696300
 2417              	.LASF76:
 2418 0103 68656170 		.ascii	"heapp\000"
 2418      7000
 2419              	.LASF89:
 2420 0109 63684D74 		.ascii	"chMtxUnlock\000"
 2420      78556E6C 
 2420      6F636B00 
 2421              	.LASF75:
 2422 0115 63684865 		.ascii	"chHeapInit\000"
 2422      6170496E 
 2422      697400
 2423              	.LASF65:
 2424 0120 6E657874 		.ascii	"next\000"
 2424      00
 2425              	.LASF30:
 2426 0125 705F7072 		.ascii	"p_prio\000"
 2426      696F00
 2427              	.LASF11:
 2428 012c 6C6F6E67 		.ascii	"long long int\000"
 2428      206C6F6E 
 2428      6720696E 
 2428      7400
 2429              	.LASF1:
 2430 013a 7369676E 		.ascii	"signed char\000"
 2430      65642063 
 2430      68617200 
 2431              	.LASF64:
 2432 0146 685F6D74 		.ascii	"h_mtx\000"
 2432      7800
 2433              	.LASF47:
 2434 014c 705F6D70 		.ascii	"p_mpool\000"
 2434      6F6F6C00 
 2435              	.LASF56:
 2436 0154 6D5F7175 		.ascii	"m_queue\000"
 2436      65756500 
 2437              	.LASF77:
ARM GAS  /tmp/cc0Pu7ii.s 			page 45


 2438 015c 63684865 		.ascii	"chHeapFree\000"
 2438      61704672 
 2438      656500
 2439              	.LASF22:
 2440 0167 74736C69 		.ascii	"tslices_t\000"
 2440      6365735F 
 2440      7400
 2441              	.LASF8:
 2442 0171 6C6F6E67 		.ascii	"long int\000"
 2442      20696E74 
 2442      00
 2443              	.LASF20:
 2444 017a 74737461 		.ascii	"tstate_t\000"
 2444      74655F74 
 2444      00
 2445              	.LASF32:
 2446 0183 705F6E65 		.ascii	"p_newer\000"
 2446      77657200 
 2447              	.LASF9:
 2448 018b 5F5F7569 		.ascii	"__uint32_t\000"
 2448      6E743332 
 2448      5F7400
 2449              	.LASF50:
 2450 0196 72656761 		.ascii	"regarm_t\000"
 2450      726D5F74 
 2450      00
 2451              	.LASF67:
 2452 019f 616C6967 		.ascii	"align\000"
 2452      6E00
 2453              	.LASF35:
 2454 01a5 705F7374 		.ascii	"p_stklimit\000"
 2454      6B6C696D 
 2454      697400
 2455              	.LASF0:
 2456 01b0 756E7369 		.ascii	"unsigned int\000"
 2456      676E6564 
 2456      20696E74 
 2456      00
 2457              	.LASF10:
 2458 01bd 6C6F6E67 		.ascii	"long unsigned int\000"
 2458      20756E73 
 2458      69676E65 
 2458      6420696E 
 2458      7400
 2459              	.LASF53:
 2460 01cf 636F6E74 		.ascii	"context\000"
 2460      65787400 
 2461              	.LASF68:
 2462 01d7 73697A65 		.ascii	"size\000"
 2462      00
 2463              	.LASF6:
 2464 01dc 73686F72 		.ascii	"short unsigned int\000"
 2464      7420756E 
 2464      7369676E 
 2464      65642069 
 2464      6E7400
 2465              	.LASF24:
ARM GAS  /tmp/cc0Pu7ii.s 			page 46


 2466 01ef 6D73675F 		.ascii	"msg_t\000"
 2466      7400
 2467              	.LASF19:
 2468 01f5 746D6F64 		.ascii	"tmode_t\000"
 2468      655F7400 
 2469              	.LASF49:
 2470 01fd 54687265 		.ascii	"ThreadsList\000"
 2470      6164734C 
 2470      69737400 
 2471              	.LASF25:
 2472 0209 6576656E 		.ascii	"eventmask_t\000"
 2472      746D6173 
 2472      6B5F7400 
 2473              	.LASF55:
 2474 0215 4D757465 		.ascii	"Mutex\000"
 2474      7800
 2475              	.LASF51:
 2476 021b 73746B61 		.ascii	"stkalign_t\000"
 2476      6C69676E 
 2476      5F7400
 2477              	.LASF86:
 2478 0226 2E2E2F2E 		.ascii	"../../../os/kernel/src/chheap.c\000"
 2478      2E2F2E2E 
 2478      2F6F732F 
 2478      6B65726E 
 2478      656C2F73 
 2479              	.LASF54:
 2480 0246 73697A65 		.ascii	"sizetype\000"
 2480      74797065 
 2480      00
 2481              	.LASF84:
 2482 024f 63684D74 		.ascii	"chMtxLock\000"
 2482      784C6F63 
 2482      6B00
 2483              	.LASF33:
 2484 0259 705F6F6C 		.ascii	"p_older\000"
 2484      64657200 
 2485              	.LASF48:
 2486 0261 54687265 		.ascii	"ThreadsQueue\000"
 2486      61647351 
 2486      75657565 
 2486      00
 2487              	.LASF60:
 2488 026e 4D656D6F 		.ascii	"MemoryHeap\000"
 2488      72794865 
 2488      617000
 2489              	.LASF12:
 2490 0279 5F5F7569 		.ascii	"__uint64_t\000"
 2490      6E743634 
 2490      5F7400
 2491              	.LASF21:
 2492 0284 74726566 		.ascii	"trefs_t\000"
 2492      735F7400 
 2493              	.LASF29:
 2494 028c 705F7072 		.ascii	"p_prev\000"
 2494      657600
 2495              	.LASF23:
ARM GAS  /tmp/cc0Pu7ii.s 			page 47


 2496 0293 74707269 		.ascii	"tprio_t\000"
 2496      6F5F7400 
 2497              	.LASF18:
 2498 029b 5F426F6F 		.ascii	"_Bool\000"
 2498      6C00
 2499              	.LASF15:
 2500 02a1 696E7433 		.ascii	"int32_t\000"
 2500      325F7400 
 2501              	.LASF4:
 2502 02a9 756E7369 		.ascii	"unsigned char\000"
 2502      676E6564 
 2502      20636861 
 2502      7200
 2503              	.LASF62:
 2504 02b7 685F7072 		.ascii	"h_provider\000"
 2504      6F766964 
 2504      657200
 2505              	.LASF45:
 2506 02c2 705F6D74 		.ascii	"p_mtxlist\000"
 2506      786C6973 
 2506      7400
 2507              	.LASF5:
 2508 02cc 73686F72 		.ascii	"short int\000"
 2508      7420696E 
 2508      7400
 2509              	.LASF36:
 2510 02d6 705F7374 		.ascii	"p_state\000"
 2510      61746500 
 2511              	.LASF39:
 2512 02de 705F7072 		.ascii	"p_preempt\000"
 2512      65656D70 
 2512      7400
 2513              	.LASF88:
 2514 02e8 68656170 		.ascii	"heap_header\000"
 2514      5F686561 
 2514      64657200 
 2515              	.LASF72:
 2516 02f4 65776D61 		.ascii	"ewmask\000"
 2516      736B00
 2517              	.LASF28:
 2518 02fb 705F6E65 		.ascii	"p_next\000"
 2518      787400
 2519              	.LASF37:
 2520 0302 705F666C 		.ascii	"p_flags\000"
 2520      61677300 
 2521              	.LASF27:
 2522 030a 54687265 		.ascii	"Thread\000"
 2522      616400
 2523              	.LASF78:
 2524 0311 63684865 		.ascii	"chHeapAlloc\000"
 2524      6170416C 
 2524      6C6F6300 
 2525              	.LASF44:
 2526 031d 705F6570 		.ascii	"p_epending\000"
 2526      656E6469 
 2526      6E6700
 2527              	.LASF16:
ARM GAS  /tmp/cc0Pu7ii.s 			page 48


 2528 0328 75696E74 		.ascii	"uint32_t\000"
 2528      33325F74 
 2528      00
 2529              	.LASF66:
 2530 0331 68656170 		.ascii	"heap\000"
 2530      00
 2531              	.LASF81:
 2532 0336 64656661 		.ascii	"default_heap\000"
 2532      756C745F 
 2532      68656170 
 2532      00
 2533              	.LASF73:
 2534 0343 63686172 		.ascii	"char\000"
 2534      00
 2535              	.LASF79:
 2536 0348 63684865 		.ascii	"chHeapStatus\000"
 2536      61705374 
 2536      61747573 
 2536      00
 2537              	.LASF58:
 2538 0355 6D5F6E65 		.ascii	"m_next\000"
 2538      787400
 2539              	.LASF26:
 2540 035c 73797374 		.ascii	"systime_t\000"
 2540      696D655F 
 2540      7400
 2541              	.LASF46:
 2542 0366 705F7265 		.ascii	"p_realprio\000"
 2542      616C7072 
 2542      696F00
 2543              	.LASF7:
 2544 0371 5F5F696E 		.ascii	"__int32_t\000"
 2544      7433325F 
 2544      7400
 2545              	.LASF40:
 2546 037b 705F7469 		.ascii	"p_time\000"
 2546      6D6500
 2547              	.LASF52:
 2548 0382 696E7463 		.ascii	"intctx\000"
 2548      747800
 2549              	.LASF42:
 2550 0389 705F6D73 		.ascii	"p_msgqueue\000"
 2550      67717565 
 2550      756500
 2551              	.LASF82:
 2552 0394 63684D74 		.ascii	"chMtxInit\000"
 2552      78496E69 
 2552      7400
 2553              	.LASF38:
 2554 039e 705F7265 		.ascii	"p_refs\000"
 2554      667300
 2555              	.LASF14:
 2556 03a5 75696E74 		.ascii	"uint8_t\000"
 2556      385F7400 
 2557              	.LASF87:
 2558 03ad 2F686F6D 		.ascii	"/home/makkmarci/devel/ChibiOS_2.6.5/testhal/STM32F4"
 2558      652F6D61 
ARM GAS  /tmp/cc0Pu7ii.s 			page 49


 2558      6B6B6D61 
 2558      7263692F 
 2558      64657665 
 2559 03e0 78782F41 		.ascii	"xx/ADC/\000"
 2559      44432F00 
 2560              	.LASF71:
 2561 03e8 77746F62 		.ascii	"wtobjp\000"
 2561      6A7000
 2562              	.LASF80:
 2563 03ef 73697A65 		.ascii	"sizep\000"
 2563      7000
 2564              	.LASF34:
 2565 03f5 705F6E61 		.ascii	"p_name\000"
 2565      6D6500
 2566              	.LASF74:
 2567 03fc 5F686561 		.ascii	"_heap_init\000"
 2567      705F696E 
 2567      697400
 2568              	.LASF57:
 2569 0407 6D5F6F77 		.ascii	"m_owner\000"
 2569      6E657200 
 2570              	.LASF31:
 2571 040f 705F6374 		.ascii	"p_ctx\000"
 2571      7800
 2572              	.LASF41:
 2573 0415 705F7761 		.ascii	"p_waiting\000"
 2573      6974696E 
 2573      6700
 2574              	.LASF61:
 2575 041f 6D656D6F 		.ascii	"memory_heap\000"
 2575      72795F68 
 2575      65617000 
 2576              		.ident	"GCC: (4.8.2-14ubuntu1+6) 4.8.2"
ARM GAS  /tmp/cc0Pu7ii.s 			page 50


DEFINED SYMBOLS
                            *ABS*:00000000 chheap.c
     /tmp/cc0Pu7ii.s:19     .text._heap_init:00000000 $t
     /tmp/cc0Pu7ii.s:25     .text._heap_init:00000000 _heap_init
     /tmp/cc0Pu7ii.s:507    .bss.default_heap:00000000 .LANCHOR0
     /tmp/cc0Pu7ii.s:56     .text.chHeapInit:00000000 $t
     /tmp/cc0Pu7ii.s:62     .text.chHeapInit:00000000 chHeapInit
     /tmp/cc0Pu7ii.s:497    .rodata.str1.4:00000000 .LC0
     /tmp/cc0Pu7ii.s:123    .text.chHeapAlloc:00000000 $t
     /tmp/cc0Pu7ii.s:129    .text.chHeapAlloc:00000000 chHeapAlloc
     /tmp/cc0Pu7ii.s:256    .text.chHeapFree:00000000 $t
     /tmp/cc0Pu7ii.s:262    .text.chHeapFree:00000000 chHeapFree
     /tmp/cc0Pu7ii.s:503    .rodata.str1.4:00000020 .LC2
     /tmp/cc0Pu7ii.s:500    .rodata.str1.4:00000010 .LC1
     /tmp/cc0Pu7ii.s:416    .text.chHeapStatus:00000000 $t
     /tmp/cc0Pu7ii.s:422    .text.chHeapStatus:00000000 chHeapStatus
     /tmp/cc0Pu7ii.s:496    .rodata.str1.4:00000000 $d
     /tmp/cc0Pu7ii.s:506    .bss.default_heap:00000000 $d
     /tmp/cc0Pu7ii.s:510    .bss.default_heap:00000000 default_heap
                     .debug_frame:00000010 $d

UNDEFINED SYMBOLS
chCoreAlloc
chMtxInit
chDbgPanic
chMtxLock
chMtxUnlock
