ARM GAS  /tmp/ccmAzrHN.s 			page 1


   1              		.syntax unified
   2              		.cpu cortex-m4
   3              		.fpu softvfp
   4              		.eabi_attribute 20, 1
   5              		.eabi_attribute 21, 1
   6              		.eabi_attribute 23, 3
   7              		.eabi_attribute 24, 1
   8              		.eabi_attribute 25, 1
   9              		.eabi_attribute 26, 1
  10              		.eabi_attribute 30, 2
  11              		.eabi_attribute 34, 1
  12              		.eabi_attribute 18, 4
  13              		.thumb
  14              		.file	"tm.c"
  15              		.text
  16              	.Ltext0:
  17              		.cfi_sections	.debug_frame
  18              		.section	.text.tm_start,"ax",%progbits
  19              		.align	2
  20              		.p2align 4,,15
  21              		.thumb
  22              		.thumb_func
  23              		.type	tm_start, %function
  24              	tm_start:
  25              	.LFB118:
  26              		.file 1 "../../../os/hal/src/tm.c"
  27              		.loc 1 69 0
  28              		.cfi_startproc
  29              		@ args = 0, pretend = 0, frame = 0
  30              		@ frame_needed = 0, uses_anonymous_args = 0
  31              		@ link register save eliminated.
  32              	.LVL0:
  33              		.loc 1 71 0
  34 0000 4FF48053 		mov	r3, #4096
  35 0004 CEF20003 		movt	r3, 57344
  36 0008 5B68     		ldr	r3, [r3, #4]
  37 000a 8360     		str	r3, [r0, #8]
  38 000c 7047     		bx	lr
  39              		.cfi_endproc
  40              	.LFE118:
  41              		.size	tm_start, .-tm_start
  42              		.section	.text.tm_stop,"ax",%progbits
  43              		.align	2
  44              		.p2align 4,,15
  45              		.thumb
  46              		.thumb_func
  47              		.type	tm_stop, %function
  48              	tm_stop:
  49              	.LFB119:
  50              		.loc 1 81 0
  51              		.cfi_startproc
  52              		@ args = 0, pretend = 0, frame = 0
  53              		@ frame_needed = 0, uses_anonymous_args = 0
  54              		@ link register save eliminated.
  55              	.LVL1:
  56              		.loc 1 83 0
  57 0000 4FF48053 		mov	r3, #4096
ARM GAS  /tmp/ccmAzrHN.s 			page 2


  58 0004 CEF20003 		movt	r3, 57344
  59              		.loc 1 84 0
  60 0008 40F20002 		movw	r2, #:lower16:.LANCHOR0
  61 000c C0F20002 		movt	r2, #:upper16:.LANCHOR0
  62              		.loc 1 83 0
  63 0010 5B68     		ldr	r3, [r3, #4]
  64              	.LVL2:
  65              		.loc 1 84 0
  66 0012 8168     		ldr	r1, [r0, #8]
  67              		.loc 1 81 0
  68 0014 10B4     		push	{r4}
  69              		.cfi_def_cfa_offset 4
  70              		.cfi_offset 4, -4
  71              		.loc 1 84 0
  72 0016 1468     		ldr	r4, [r2]
  73              		.loc 1 85 0
  74 0018 C268     		ldr	r2, [r0, #12]
  75              		.loc 1 84 0
  76 001a 5B1A     		subs	r3, r3, r1
  77              	.LVL3:
  78 001c 1B1B     		subs	r3, r3, r4
  79              		.loc 1 85 0
  80 001e 9342     		cmp	r3, r2
  81              		.loc 1 84 0
  82 0020 8360     		str	r3, [r0, #8]
  83              		.loc 1 86 0
  84 0022 88BF     		it	hi
  85 0024 C360     		strhi	r3, [r0, #12]
  86              		.loc 1 85 0
  87 0026 03D8     		bhi	.L2
  88              		.loc 1 87 0
  89 0028 0269     		ldr	r2, [r0, #16]
  90 002a 9342     		cmp	r3, r2
  91              		.loc 1 88 0
  92 002c 38BF     		it	cc
  93 002e 0361     		strcc	r3, [r0, #16]
  94              	.L2:
  95              		.loc 1 89 0
  96 0030 5DF8044B 		ldr	r4, [sp], #4
  97 0034 7047     		bx	lr
  98              		.cfi_endproc
  99              	.LFE119:
 100              		.size	tm_stop, .-tm_stop
 101 0036 00BFAFF3 		.section	.text.tmInit,"ax",%progbits
 101      0080AFF3 
 101      0080
 102              		.align	2
 103              		.p2align 4,,15
 104              		.global	tmInit
 105              		.thumb
 106              		.thumb_func
 107              		.type	tmInit, %function
 108              	tmInit:
 109              	.LFB120:
 110              		.loc 1 104 0
 111              		.cfi_startproc
 112              		@ args = 0, pretend = 0, frame = 24
ARM GAS  /tmp/ccmAzrHN.s 			page 3


 113              		@ frame_needed = 0, uses_anonymous_args = 0
 114 0000 10B5     		push	{r4, lr}
 115              		.cfi_def_cfa_offset 8
 116              		.cfi_offset 4, -8
 117              		.cfi_offset 14, -4
 118              		.loc 1 110 0
 119 0002 40F20004 		movw	r4, #:lower16:.LANCHOR0
 120              		.loc 1 104 0
 121 0006 86B0     		sub	sp, sp, #24
 122              		.cfi_def_cfa_offset 32
 123              		.loc 1 110 0
 124 0008 C0F20004 		movt	r4, #:upper16:.LANCHOR0
 125              	.LBB8:
 126              	.LBB9:
 127              		.loc 1 71 0
 128 000c 4FF48053 		mov	r3, #4096
 129              	.LBE9:
 130              	.LBE8:
 131              		.loc 1 110 0
 132 0010 0022     		movs	r2, #0
 133              	.LBB13:
 134              	.LBB10:
 135              		.loc 1 71 0
 136 0012 CEF20003 		movt	r3, 57344
 137              	.LBE10:
 138              	.LBE13:
 139              	.LBB14:
 140              	.LBB15:
 141              		.loc 1 130 0
 142 0016 4FF0FF31 		mov	r1, #-1
 143              	.LBE15:
 144              	.LBE14:
 145              		.loc 1 110 0
 146 001a 2260     		str	r2, [r4]
 147              	.LVL4:
 148              	.LBB20:
 149              	.LBB16:
 150              		.loc 1 129 0
 151 001c 0492     		str	r2, [sp, #16]
 152              		.loc 1 130 0
 153 001e 0591     		str	r1, [sp, #20]
 154              	.LVL5:
 155              	.LBE16:
 156              	.LBE20:
 157              	.LBB21:
 158              	.LBB11:
 159              		.loc 1 71 0
 160 0020 5968     		ldr	r1, [r3, #4]
 161              	.LBE11:
 162              	.LBE21:
 163              	.LBB22:
 164              	.LBB17:
 165              		.loc 1 126 0
 166 0022 40F20002 		movw	r2, #:lower16:tm_start
 167              		.loc 1 127 0
 168 0026 40F20003 		movw	r3, #:lower16:tm_stop
 169              		.loc 1 126 0
ARM GAS  /tmp/ccmAzrHN.s 			page 4


 170 002a C0F20002 		movt	r2, #:upper16:tm_start
 171              		.loc 1 127 0
 172 002e C0F20003 		movt	r3, #:upper16:tm_stop
 173              	.LBE17:
 174              	.LBE22:
 175              		.loc 1 113 0
 176 0032 01A8     		add	r0, sp, #4
 177              	.LVL6:
 178              	.LBB23:
 179              	.LBB18:
 180              		.loc 1 127 0
 181 0034 0293     		str	r3, [sp, #8]
 182              	.LBE18:
 183              	.LBE23:
 184              	.LBB24:
 185              	.LBB12:
 186              		.loc 1 71 0
 187 0036 0391     		str	r1, [sp, #12]
 188              	.LBE12:
 189              	.LBE24:
 190              	.LBB25:
 191              	.LBB19:
 192              		.loc 1 126 0
 193 0038 0192     		str	r2, [sp, #4]
 194              	.LBE19:
 195              	.LBE25:
 196              		.loc 1 113 0
 197 003a FFF7FEFF 		bl	tm_stop
 198              	.LVL7:
 199              		.loc 1 114 0
 200 003e 039B     		ldr	r3, [sp, #12]
 201 0040 2360     		str	r3, [r4]
 202              		.loc 1 115 0
 203 0042 06B0     		add	sp, sp, #24
 204              		@ sp needed
 205 0044 10BD     		pop	{r4, pc}
 206              		.cfi_endproc
 207              	.LFE120:
 208              		.size	tmInit, .-tmInit
 209 0046 00BFAFF3 		.section	.text.tmObjectInit,"ax",%progbits
 209      0080AFF3 
 209      0080
 210              		.align	2
 211              		.p2align 4,,15
 212              		.global	tmObjectInit
 213              		.thumb
 214              		.thumb_func
 215              		.type	tmObjectInit, %function
 216              	tmObjectInit:
 217              	.LFB121:
 218              		.loc 1 124 0
 219              		.cfi_startproc
 220              		@ args = 0, pretend = 0, frame = 0
 221              		@ frame_needed = 0, uses_anonymous_args = 0
 222              		@ link register save eliminated.
 223              	.LVL8:
 224              		.loc 1 126 0
ARM GAS  /tmp/ccmAzrHN.s 			page 5


 225 0000 40F20002 		movw	r2, #:lower16:tm_start
 226              		.loc 1 127 0
 227 0004 40F20003 		movw	r3, #:lower16:tm_stop
 228              		.loc 1 124 0
 229 0008 10B4     		push	{r4}
 230              		.cfi_def_cfa_offset 4
 231              		.cfi_offset 4, -4
 232              		.loc 1 128 0
 233 000a 0021     		movs	r1, #0
 234              		.loc 1 130 0
 235 000c 4FF0FF34 		mov	r4, #-1
 236              		.loc 1 126 0
 237 0010 C0F20002 		movt	r2, #:upper16:tm_start
 238              		.loc 1 127 0
 239 0014 C0F20003 		movt	r3, #:upper16:tm_stop
 240              		.loc 1 130 0
 241 0018 0461     		str	r4, [r0, #16]
 242              		.loc 1 127 0
 243 001a 80E80C00 		stmia	r0, {r2, r3}
 244              		.loc 1 128 0
 245 001e 8160     		str	r1, [r0, #8]
 246              		.loc 1 129 0
 247 0020 C160     		str	r1, [r0, #12]
 248              		.loc 1 131 0
 249 0022 5DF8044B 		ldr	r4, [sp], #4
 250 0026 7047     		bx	lr
 251              		.cfi_endproc
 252              	.LFE121:
 253              		.size	tmObjectInit, .-tmObjectInit
 254 0028 AFF30080 		.section	.bss.measurement_offset,"aw",%nobits
 254      AFF30080 
 255              		.align	2
 256              		.set	.LANCHOR0,. + 0
 257              		.type	measurement_offset, %object
 258              		.size	measurement_offset, 4
 259              	measurement_offset:
 260 0000 00000000 		.space	4
 261              		.text
 262              	.Letext0:
 263              		.file 2 "/usr/include/newlib/machine/_default_types.h"
 264              		.file 3 "/usr/include/newlib/stdint.h"
 265              		.file 4 "../../../os/ports/common/ARMCMx/nvic.h"
 266              		.file 5 "../../../os/hal/platforms/STM32F4xx/hal_lld.h"
 267              		.file 6 "../../../os/hal/include/tm.h"
 268              		.file 7 "../../../os/ports/common/ARMCMx/CMSIS/include/core_cm4.h"
 269              		.section	.debug_info,"",%progbits
 270              	.Ldebug_info0:
 271 0000 D5020000 		.4byte	0x2d5
 272 0004 0400     		.2byte	0x4
 273 0006 00000000 		.4byte	.Ldebug_abbrev0
 274 000a 04       		.byte	0x4
 275 000b 01       		.uleb128 0x1
 276 000c E2000000 		.4byte	.LASF34
 277 0010 01       		.byte	0x1
 278 0011 22000000 		.4byte	.LASF35
 279 0015 7F010000 		.4byte	.LASF36
 280 0019 58000000 		.4byte	.Ldebug_ranges0+0x58
ARM GAS  /tmp/ccmAzrHN.s 			page 6


 281 001d 00000000 		.4byte	0
 282 0021 00000000 		.4byte	.Ldebug_line0
 283 0025 02       		.uleb128 0x2
 284 0026 04       		.byte	0x4
 285 0027 05       		.byte	0x5
 286 0028 696E7400 		.ascii	"int\000"
 287 002c 03       		.uleb128 0x3
 288 002d 04       		.byte	0x4
 289 002e 07       		.byte	0x7
 290 002f BA010000 		.4byte	.LASF0
 291 0033 03       		.uleb128 0x3
 292 0034 01       		.byte	0x1
 293 0035 06       		.byte	0x6
 294 0036 4F020000 		.4byte	.LASF1
 295 003a 03       		.uleb128 0x3
 296 003b 01       		.byte	0x1
 297 003c 08       		.byte	0x8
 298 003d 60000000 		.4byte	.LASF2
 299 0041 03       		.uleb128 0x3
 300 0042 02       		.byte	0x2
 301 0043 05       		.byte	0x5
 302 0044 26020000 		.4byte	.LASF3
 303 0048 03       		.uleb128 0x3
 304 0049 02       		.byte	0x2
 305 004a 07       		.byte	0x7
 306 004b 9B000000 		.4byte	.LASF4
 307 004f 04       		.uleb128 0x4
 308 0050 0A000000 		.4byte	.LASF6
 309 0054 02       		.byte	0x2
 310 0055 37       		.byte	0x37
 311 0056 5A000000 		.4byte	0x5a
 312 005a 03       		.uleb128 0x3
 313 005b 04       		.byte	0x4
 314 005c 05       		.byte	0x5
 315 005d 46020000 		.4byte	.LASF5
 316 0061 04       		.uleb128 0x4
 317 0062 D0000000 		.4byte	.LASF7
 318 0066 02       		.byte	0x2
 319 0067 38       		.byte	0x38
 320 0068 6C000000 		.4byte	0x6c
 321 006c 03       		.uleb128 0x3
 322 006d 04       		.byte	0x4
 323 006e 07       		.byte	0x7
 324 006f 7C000000 		.4byte	.LASF8
 325 0073 03       		.uleb128 0x3
 326 0074 08       		.byte	0x8
 327 0075 05       		.byte	0x5
 328 0076 FD010000 		.4byte	.LASF9
 329 007a 03       		.uleb128 0x3
 330 007b 08       		.byte	0x8
 331 007c 07       		.byte	0x7
 332 007d 49000000 		.4byte	.LASF10
 333 0081 04       		.uleb128 0x4
 334 0082 EC010000 		.4byte	.LASF11
 335 0086 03       		.byte	0x3
 336 0087 41       		.byte	0x41
 337 0088 4F000000 		.4byte	0x4f
ARM GAS  /tmp/ccmAzrHN.s 			page 7


 338 008c 04       		.uleb128 0x4
 339 008d 3D020000 		.4byte	.LASF12
 340 0091 03       		.byte	0x3
 341 0092 42       		.byte	0x42
 342 0093 61000000 		.4byte	0x61
 343 0097 03       		.uleb128 0x3
 344 0098 01       		.byte	0x1
 345 0099 02       		.byte	0x2
 346 009a 6B020000 		.4byte	.LASF13
 347 009e 04       		.uleb128 0x4
 348 009f 0B020000 		.4byte	.LASF14
 349 00a3 04       		.byte	0x4
 350 00a4 3A       		.byte	0x3a
 351 00a5 A9000000 		.4byte	0xa9
 352 00a9 05       		.uleb128 0x5
 353 00aa 8C000000 		.4byte	0x8c
 354 00ae 03       		.uleb128 0x3
 355 00af 04       		.byte	0x4
 356 00b0 07       		.byte	0x7
 357 00b1 F4010000 		.4byte	.LASF15
 358 00b5 06       		.uleb128 0x6
 359 00b6 20       		.byte	0x20
 360 00b7 04       		.byte	0x4
 361 00b8 0601     		.2byte	0x106
 362 00ba 27010000 		.4byte	0x127
 363 00be 07       		.uleb128 0x7
 364 00bf E0010000 		.4byte	.LASF16
 365 00c3 04       		.byte	0x4
 366 00c4 0701     		.2byte	0x107
 367 00c6 9E000000 		.4byte	0x9e
 368 00ca 00       		.byte	0
 369 00cb 07       		.uleb128 0x7
 370 00cc 6E000000 		.4byte	.LASF17
 371 00d0 04       		.byte	0x4
 372 00d1 0801     		.2byte	0x108
 373 00d3 9E000000 		.4byte	0x9e
 374 00d7 04       		.byte	0x4
 375 00d8 07       		.uleb128 0x7
 376 00d9 AE000000 		.4byte	.LASF18
 377 00dd 04       		.byte	0x4
 378 00de 0901     		.2byte	0x109
 379 00e0 9E000000 		.4byte	0x9e
 380 00e4 08       		.byte	0x8
 381 00e5 07       		.uleb128 0x7
 382 00e6 E5010000 		.4byte	.LASF19
 383 00ea 04       		.byte	0x4
 384 00eb 0A01     		.2byte	0x10a
 385 00ed 9E000000 		.4byte	0x9e
 386 00f1 0C       		.byte	0xc
 387 00f2 07       		.uleb128 0x7
 388 00f3 3B000000 		.4byte	.LASF20
 389 00f7 04       		.byte	0x4
 390 00f8 0B01     		.2byte	0x10b
 391 00fa 9E000000 		.4byte	0x9e
 392 00fe 10       		.byte	0x10
 393 00ff 07       		.uleb128 0x7
 394 0100 DB000000 		.4byte	.LASF21
ARM GAS  /tmp/ccmAzrHN.s 			page 8


 395 0104 04       		.byte	0x4
 396 0105 0C01     		.2byte	0x10c
 397 0107 9E000000 		.4byte	0x9e
 398 010b 14       		.byte	0x14
 399 010c 07       		.uleb128 0x7
 400 010d C2000000 		.4byte	.LASF22
 401 0111 04       		.byte	0x4
 402 0112 0D01     		.2byte	0x10d
 403 0114 9E000000 		.4byte	0x9e
 404 0118 18       		.byte	0x18
 405 0119 07       		.uleb128 0x7
 406 011a 05000000 		.4byte	.LASF23
 407 011e 04       		.byte	0x4
 408 011f 0E01     		.2byte	0x10e
 409 0121 9E000000 		.4byte	0x9e
 410 0125 1C       		.byte	0x1c
 411 0126 00       		.byte	0
 412 0127 08       		.uleb128 0x8
 413 0128 30020000 		.4byte	.LASF24
 414 012c 04       		.byte	0x4
 415 012d 0F01     		.2byte	0x10f
 416 012f B5000000 		.4byte	0xb5
 417 0133 03       		.uleb128 0x3
 418 0134 01       		.byte	0x1
 419 0135 08       		.byte	0x8
 420 0136 D2010000 		.4byte	.LASF25
 421 013a 05       		.uleb128 0x5
 422 013b 81000000 		.4byte	0x81
 423 013f 08       		.uleb128 0x8
 424 0140 C7010000 		.4byte	.LASF26
 425 0144 05       		.byte	0x5
 426 0145 C006     		.2byte	0x6c0
 427 0147 8C000000 		.4byte	0x8c
 428 014b 04       		.uleb128 0x4
 429 014c 5B020000 		.4byte	.LASF27
 430 0150 06       		.byte	0x6
 431 0151 45       		.byte	0x45
 432 0152 56010000 		.4byte	0x156
 433 0156 09       		.uleb128 0x9
 434 0157 5B020000 		.4byte	.LASF27
 435 015b 14       		.byte	0x14
 436 015c 06       		.byte	0x6
 437 015d 4A       		.byte	0x4a
 438 015e 9F010000 		.4byte	0x19f
 439 0162 0A       		.uleb128 0xa
 440 0163 1C000000 		.4byte	.LASF28
 441 0167 06       		.byte	0x6
 442 0168 4B       		.byte	0x4b
 443 0169 B0010000 		.4byte	0x1b0
 444 016d 00       		.byte	0
 445 016e 0A       		.uleb128 0xa
 446 016f 44000000 		.4byte	.LASF29
 447 0173 06       		.byte	0x6
 448 0174 4C       		.byte	0x4c
 449 0175 B0010000 		.4byte	0x1b0
 450 0179 04       		.byte	0x4
 451 017a 0A       		.uleb128 0xa
ARM GAS  /tmp/ccmAzrHN.s 			page 9


 452 017b 00000000 		.4byte	.LASF30
 453 017f 06       		.byte	0x6
 454 0180 4D       		.byte	0x4d
 455 0181 3F010000 		.4byte	0x13f
 456 0185 08       		.byte	0x8
 457 0186 0A       		.uleb128 0xa
 458 0187 CA000000 		.4byte	.LASF31
 459 018b 06       		.byte	0x6
 460 018c 4E       		.byte	0x4e
 461 018d 3F010000 		.4byte	0x13f
 462 0191 0C       		.byte	0xc
 463 0192 0A       		.uleb128 0xa
 464 0193 38020000 		.4byte	.LASF32
 465 0197 06       		.byte	0x6
 466 0198 4F       		.byte	0x4f
 467 0199 3F010000 		.4byte	0x13f
 468 019d 10       		.byte	0x10
 469 019e 00       		.byte	0
 470 019f 0B       		.uleb128 0xb
 471 01a0 AA010000 		.4byte	0x1aa
 472 01a4 0C       		.uleb128 0xc
 473 01a5 AA010000 		.4byte	0x1aa
 474 01a9 00       		.byte	0
 475 01aa 0D       		.uleb128 0xd
 476 01ab 04       		.byte	0x4
 477 01ac 4B010000 		.4byte	0x14b
 478 01b0 0D       		.uleb128 0xd
 479 01b1 04       		.byte	0x4
 480 01b2 9F010000 		.4byte	0x19f
 481 01b6 0E       		.uleb128 0xe
 482 01b7 8E000000 		.4byte	.LASF37
 483 01bb 01       		.byte	0x1
 484 01bc 7C       		.byte	0x7c
 485 01bd 01       		.byte	0x1
 486 01be CE010000 		.4byte	0x1ce
 487 01c2 0F       		.uleb128 0xf
 488 01c3 746D7000 		.ascii	"tmp\000"
 489 01c7 01       		.byte	0x1
 490 01c8 7C       		.byte	0x7c
 491 01c9 AA010000 		.4byte	0x1aa
 492 01cd 00       		.byte	0
 493 01ce 10       		.uleb128 0x10
 494 01cf D7010000 		.4byte	.LASF38
 495 01d3 01       		.byte	0x1
 496 01d4 45       		.byte	0x45
 497 01d5 01       		.byte	0x1
 498 01d6 E6010000 		.4byte	0x1e6
 499 01da 0F       		.uleb128 0xf
 500 01db 746D7000 		.ascii	"tmp\000"
 501 01df 01       		.byte	0x1
 502 01e0 45       		.byte	0x45
 503 01e1 AA010000 		.4byte	0x1aa
 504 01e5 00       		.byte	0
 505 01e6 11       		.uleb128 0x11
 506 01e7 CE010000 		.4byte	0x1ce
 507 01eb 00000000 		.4byte	.LFB118
 508 01ef 0E000000 		.4byte	.LFE118-.LFB118
ARM GAS  /tmp/ccmAzrHN.s 			page 10


 509 01f3 01       		.uleb128 0x1
 510 01f4 9C       		.byte	0x9c
 511 01f5 01020000 		.4byte	0x201
 512 01f9 12       		.uleb128 0x12
 513 01fa DA010000 		.4byte	0x1da
 514 01fe 01       		.uleb128 0x1
 515 01ff 50       		.byte	0x50
 516 0200 00       		.byte	0
 517 0201 13       		.uleb128 0x13
 518 0202 14000000 		.4byte	.LASF39
 519 0206 01       		.byte	0x1
 520 0207 51       		.byte	0x51
 521 0208 00000000 		.4byte	.LFB119
 522 020c 36000000 		.4byte	.LFE119-.LFB119
 523 0210 01       		.uleb128 0x1
 524 0211 9C       		.byte	0x9c
 525 0212 33020000 		.4byte	0x233
 526 0216 14       		.uleb128 0x14
 527 0217 746D7000 		.ascii	"tmp\000"
 528 021b 01       		.byte	0x1
 529 021c 51       		.byte	0x51
 530 021d AA010000 		.4byte	0x1aa
 531 0221 01       		.uleb128 0x1
 532 0222 50       		.byte	0x50
 533 0223 15       		.uleb128 0x15
 534 0224 6E6F7700 		.ascii	"now\000"
 535 0228 01       		.byte	0x1
 536 0229 53       		.byte	0x53
 537 022a 3F010000 		.4byte	0x13f
 538 022e 00000000 		.4byte	.LLST0
 539 0232 00       		.byte	0
 540 0233 16       		.uleb128 0x16
 541 0234 75000000 		.4byte	.LASF40
 542 0238 01       		.byte	0x1
 543 0239 68       		.byte	0x68
 544 023a 00000000 		.4byte	.LFB120
 545 023e 46000000 		.4byte	.LFE120-.LFB120
 546 0242 01       		.uleb128 0x1
 547 0243 9C       		.byte	0x9c
 548 0244 A0020000 		.4byte	0x2a0
 549 0248 17       		.uleb128 0x17
 550 0249 746D00   		.ascii	"tm\000"
 551 024c 01       		.byte	0x1
 552 024d 69       		.byte	0x69
 553 024e 4B010000 		.4byte	0x14b
 554 0252 02       		.uleb128 0x2
 555 0253 91       		.byte	0x91
 556 0254 64       		.sleb128 -28
 557 0255 18       		.uleb128 0x18
 558 0256 CE010000 		.4byte	0x1ce
 559 025a 0C000000 		.4byte	.LBB8
 560 025e 00000000 		.4byte	.Ldebug_ranges0+0
 561 0262 01       		.byte	0x1
 562 0263 70       		.byte	0x70
 563 0264 72020000 		.4byte	0x272
 564 0268 19       		.uleb128 0x19
 565 0269 DA010000 		.4byte	0x1da
ARM GAS  /tmp/ccmAzrHN.s 			page 11


 566 026d 13000000 		.4byte	.LLST1
 567 0271 00       		.byte	0
 568 0272 18       		.uleb128 0x18
 569 0273 B6010000 		.4byte	0x1b6
 570 0277 16000000 		.4byte	.LBB14
 571 027b 28000000 		.4byte	.Ldebug_ranges0+0x28
 572 027f 01       		.byte	0x1
 573 0280 6F       		.byte	0x6f
 574 0281 8F020000 		.4byte	0x28f
 575 0285 19       		.uleb128 0x19
 576 0286 C2010000 		.4byte	0x1c2
 577 028a 40000000 		.4byte	.LLST2
 578 028e 00       		.byte	0
 579 028f 1A       		.uleb128 0x1a
 580 0290 3E000000 		.4byte	.LVL7
 581 0294 01020000 		.4byte	0x201
 582 0298 1B       		.uleb128 0x1b
 583 0299 01       		.uleb128 0x1
 584 029a 50       		.byte	0x50
 585 029b 02       		.uleb128 0x2
 586 029c 91       		.byte	0x91
 587 029d 64       		.sleb128 -28
 588 029e 00       		.byte	0
 589 029f 00       		.byte	0
 590 02a0 11       		.uleb128 0x11
 591 02a1 B6010000 		.4byte	0x1b6
 592 02a5 00000000 		.4byte	.LFB121
 593 02a9 28000000 		.4byte	.LFE121-.LFB121
 594 02ad 01       		.uleb128 0x1
 595 02ae 9C       		.byte	0x9c
 596 02af BB020000 		.4byte	0x2bb
 597 02b3 12       		.uleb128 0x12
 598 02b4 C2010000 		.4byte	0x1c2
 599 02b8 01       		.uleb128 0x1
 600 02b9 50       		.byte	0x50
 601 02ba 00       		.byte	0
 602 02bb 1C       		.uleb128 0x1c
 603 02bc 13020000 		.4byte	.LASF33
 604 02c0 01       		.byte	0x1
 605 02c1 38       		.byte	0x38
 606 02c2 3F010000 		.4byte	0x13f
 607 02c6 05       		.uleb128 0x5
 608 02c7 03       		.byte	0x3
 609 02c8 00000000 		.4byte	measurement_offset
 610 02cc 1D       		.uleb128 0x1d
 611 02cd B5000000 		.4byte	.LASF41
 612 02d1 07       		.byte	0x7
 613 02d2 9806     		.2byte	0x698
 614 02d4 3A010000 		.4byte	0x13a
 615 02d8 00       		.byte	0
 616              		.section	.debug_abbrev,"",%progbits
 617              	.Ldebug_abbrev0:
 618 0000 01       		.uleb128 0x1
 619 0001 11       		.uleb128 0x11
 620 0002 01       		.byte	0x1
 621 0003 25       		.uleb128 0x25
 622 0004 0E       		.uleb128 0xe
ARM GAS  /tmp/ccmAzrHN.s 			page 12


 623 0005 13       		.uleb128 0x13
 624 0006 0B       		.uleb128 0xb
 625 0007 03       		.uleb128 0x3
 626 0008 0E       		.uleb128 0xe
 627 0009 1B       		.uleb128 0x1b
 628 000a 0E       		.uleb128 0xe
 629 000b 55       		.uleb128 0x55
 630 000c 17       		.uleb128 0x17
 631 000d 11       		.uleb128 0x11
 632 000e 01       		.uleb128 0x1
 633 000f 10       		.uleb128 0x10
 634 0010 17       		.uleb128 0x17
 635 0011 00       		.byte	0
 636 0012 00       		.byte	0
 637 0013 02       		.uleb128 0x2
 638 0014 24       		.uleb128 0x24
 639 0015 00       		.byte	0
 640 0016 0B       		.uleb128 0xb
 641 0017 0B       		.uleb128 0xb
 642 0018 3E       		.uleb128 0x3e
 643 0019 0B       		.uleb128 0xb
 644 001a 03       		.uleb128 0x3
 645 001b 08       		.uleb128 0x8
 646 001c 00       		.byte	0
 647 001d 00       		.byte	0
 648 001e 03       		.uleb128 0x3
 649 001f 24       		.uleb128 0x24
 650 0020 00       		.byte	0
 651 0021 0B       		.uleb128 0xb
 652 0022 0B       		.uleb128 0xb
 653 0023 3E       		.uleb128 0x3e
 654 0024 0B       		.uleb128 0xb
 655 0025 03       		.uleb128 0x3
 656 0026 0E       		.uleb128 0xe
 657 0027 00       		.byte	0
 658 0028 00       		.byte	0
 659 0029 04       		.uleb128 0x4
 660 002a 16       		.uleb128 0x16
 661 002b 00       		.byte	0
 662 002c 03       		.uleb128 0x3
 663 002d 0E       		.uleb128 0xe
 664 002e 3A       		.uleb128 0x3a
 665 002f 0B       		.uleb128 0xb
 666 0030 3B       		.uleb128 0x3b
 667 0031 0B       		.uleb128 0xb
 668 0032 49       		.uleb128 0x49
 669 0033 13       		.uleb128 0x13
 670 0034 00       		.byte	0
 671 0035 00       		.byte	0
 672 0036 05       		.uleb128 0x5
 673 0037 35       		.uleb128 0x35
 674 0038 00       		.byte	0
 675 0039 49       		.uleb128 0x49
 676 003a 13       		.uleb128 0x13
 677 003b 00       		.byte	0
 678 003c 00       		.byte	0
 679 003d 06       		.uleb128 0x6
ARM GAS  /tmp/ccmAzrHN.s 			page 13


 680 003e 13       		.uleb128 0x13
 681 003f 01       		.byte	0x1
 682 0040 0B       		.uleb128 0xb
 683 0041 0B       		.uleb128 0xb
 684 0042 3A       		.uleb128 0x3a
 685 0043 0B       		.uleb128 0xb
 686 0044 3B       		.uleb128 0x3b
 687 0045 05       		.uleb128 0x5
 688 0046 01       		.uleb128 0x1
 689 0047 13       		.uleb128 0x13
 690 0048 00       		.byte	0
 691 0049 00       		.byte	0
 692 004a 07       		.uleb128 0x7
 693 004b 0D       		.uleb128 0xd
 694 004c 00       		.byte	0
 695 004d 03       		.uleb128 0x3
 696 004e 0E       		.uleb128 0xe
 697 004f 3A       		.uleb128 0x3a
 698 0050 0B       		.uleb128 0xb
 699 0051 3B       		.uleb128 0x3b
 700 0052 05       		.uleb128 0x5
 701 0053 49       		.uleb128 0x49
 702 0054 13       		.uleb128 0x13
 703 0055 38       		.uleb128 0x38
 704 0056 0B       		.uleb128 0xb
 705 0057 00       		.byte	0
 706 0058 00       		.byte	0
 707 0059 08       		.uleb128 0x8
 708 005a 16       		.uleb128 0x16
 709 005b 00       		.byte	0
 710 005c 03       		.uleb128 0x3
 711 005d 0E       		.uleb128 0xe
 712 005e 3A       		.uleb128 0x3a
 713 005f 0B       		.uleb128 0xb
 714 0060 3B       		.uleb128 0x3b
 715 0061 05       		.uleb128 0x5
 716 0062 49       		.uleb128 0x49
 717 0063 13       		.uleb128 0x13
 718 0064 00       		.byte	0
 719 0065 00       		.byte	0
 720 0066 09       		.uleb128 0x9
 721 0067 13       		.uleb128 0x13
 722 0068 01       		.byte	0x1
 723 0069 03       		.uleb128 0x3
 724 006a 0E       		.uleb128 0xe
 725 006b 0B       		.uleb128 0xb
 726 006c 0B       		.uleb128 0xb
 727 006d 3A       		.uleb128 0x3a
 728 006e 0B       		.uleb128 0xb
 729 006f 3B       		.uleb128 0x3b
 730 0070 0B       		.uleb128 0xb
 731 0071 01       		.uleb128 0x1
 732 0072 13       		.uleb128 0x13
 733 0073 00       		.byte	0
 734 0074 00       		.byte	0
 735 0075 0A       		.uleb128 0xa
 736 0076 0D       		.uleb128 0xd
ARM GAS  /tmp/ccmAzrHN.s 			page 14


 737 0077 00       		.byte	0
 738 0078 03       		.uleb128 0x3
 739 0079 0E       		.uleb128 0xe
 740 007a 3A       		.uleb128 0x3a
 741 007b 0B       		.uleb128 0xb
 742 007c 3B       		.uleb128 0x3b
 743 007d 0B       		.uleb128 0xb
 744 007e 49       		.uleb128 0x49
 745 007f 13       		.uleb128 0x13
 746 0080 38       		.uleb128 0x38
 747 0081 0B       		.uleb128 0xb
 748 0082 00       		.byte	0
 749 0083 00       		.byte	0
 750 0084 0B       		.uleb128 0xb
 751 0085 15       		.uleb128 0x15
 752 0086 01       		.byte	0x1
 753 0087 27       		.uleb128 0x27
 754 0088 19       		.uleb128 0x19
 755 0089 01       		.uleb128 0x1
 756 008a 13       		.uleb128 0x13
 757 008b 00       		.byte	0
 758 008c 00       		.byte	0
 759 008d 0C       		.uleb128 0xc
 760 008e 05       		.uleb128 0x5
 761 008f 00       		.byte	0
 762 0090 49       		.uleb128 0x49
 763 0091 13       		.uleb128 0x13
 764 0092 00       		.byte	0
 765 0093 00       		.byte	0
 766 0094 0D       		.uleb128 0xd
 767 0095 0F       		.uleb128 0xf
 768 0096 00       		.byte	0
 769 0097 0B       		.uleb128 0xb
 770 0098 0B       		.uleb128 0xb
 771 0099 49       		.uleb128 0x49
 772 009a 13       		.uleb128 0x13
 773 009b 00       		.byte	0
 774 009c 00       		.byte	0
 775 009d 0E       		.uleb128 0xe
 776 009e 2E       		.uleb128 0x2e
 777 009f 01       		.byte	0x1
 778 00a0 3F       		.uleb128 0x3f
 779 00a1 19       		.uleb128 0x19
 780 00a2 03       		.uleb128 0x3
 781 00a3 0E       		.uleb128 0xe
 782 00a4 3A       		.uleb128 0x3a
 783 00a5 0B       		.uleb128 0xb
 784 00a6 3B       		.uleb128 0x3b
 785 00a7 0B       		.uleb128 0xb
 786 00a8 27       		.uleb128 0x27
 787 00a9 19       		.uleb128 0x19
 788 00aa 20       		.uleb128 0x20
 789 00ab 0B       		.uleb128 0xb
 790 00ac 01       		.uleb128 0x1
 791 00ad 13       		.uleb128 0x13
 792 00ae 00       		.byte	0
 793 00af 00       		.byte	0
ARM GAS  /tmp/ccmAzrHN.s 			page 15


 794 00b0 0F       		.uleb128 0xf
 795 00b1 05       		.uleb128 0x5
 796 00b2 00       		.byte	0
 797 00b3 03       		.uleb128 0x3
 798 00b4 08       		.uleb128 0x8
 799 00b5 3A       		.uleb128 0x3a
 800 00b6 0B       		.uleb128 0xb
 801 00b7 3B       		.uleb128 0x3b
 802 00b8 0B       		.uleb128 0xb
 803 00b9 49       		.uleb128 0x49
 804 00ba 13       		.uleb128 0x13
 805 00bb 00       		.byte	0
 806 00bc 00       		.byte	0
 807 00bd 10       		.uleb128 0x10
 808 00be 2E       		.uleb128 0x2e
 809 00bf 01       		.byte	0x1
 810 00c0 03       		.uleb128 0x3
 811 00c1 0E       		.uleb128 0xe
 812 00c2 3A       		.uleb128 0x3a
 813 00c3 0B       		.uleb128 0xb
 814 00c4 3B       		.uleb128 0x3b
 815 00c5 0B       		.uleb128 0xb
 816 00c6 27       		.uleb128 0x27
 817 00c7 19       		.uleb128 0x19
 818 00c8 20       		.uleb128 0x20
 819 00c9 0B       		.uleb128 0xb
 820 00ca 01       		.uleb128 0x1
 821 00cb 13       		.uleb128 0x13
 822 00cc 00       		.byte	0
 823 00cd 00       		.byte	0
 824 00ce 11       		.uleb128 0x11
 825 00cf 2E       		.uleb128 0x2e
 826 00d0 01       		.byte	0x1
 827 00d1 31       		.uleb128 0x31
 828 00d2 13       		.uleb128 0x13
 829 00d3 11       		.uleb128 0x11
 830 00d4 01       		.uleb128 0x1
 831 00d5 12       		.uleb128 0x12
 832 00d6 06       		.uleb128 0x6
 833 00d7 40       		.uleb128 0x40
 834 00d8 18       		.uleb128 0x18
 835 00d9 9742     		.uleb128 0x2117
 836 00db 19       		.uleb128 0x19
 837 00dc 01       		.uleb128 0x1
 838 00dd 13       		.uleb128 0x13
 839 00de 00       		.byte	0
 840 00df 00       		.byte	0
 841 00e0 12       		.uleb128 0x12
 842 00e1 05       		.uleb128 0x5
 843 00e2 00       		.byte	0
 844 00e3 31       		.uleb128 0x31
 845 00e4 13       		.uleb128 0x13
 846 00e5 02       		.uleb128 0x2
 847 00e6 18       		.uleb128 0x18
 848 00e7 00       		.byte	0
 849 00e8 00       		.byte	0
 850 00e9 13       		.uleb128 0x13
ARM GAS  /tmp/ccmAzrHN.s 			page 16


 851 00ea 2E       		.uleb128 0x2e
 852 00eb 01       		.byte	0x1
 853 00ec 03       		.uleb128 0x3
 854 00ed 0E       		.uleb128 0xe
 855 00ee 3A       		.uleb128 0x3a
 856 00ef 0B       		.uleb128 0xb
 857 00f0 3B       		.uleb128 0x3b
 858 00f1 0B       		.uleb128 0xb
 859 00f2 27       		.uleb128 0x27
 860 00f3 19       		.uleb128 0x19
 861 00f4 11       		.uleb128 0x11
 862 00f5 01       		.uleb128 0x1
 863 00f6 12       		.uleb128 0x12
 864 00f7 06       		.uleb128 0x6
 865 00f8 40       		.uleb128 0x40
 866 00f9 18       		.uleb128 0x18
 867 00fa 9742     		.uleb128 0x2117
 868 00fc 19       		.uleb128 0x19
 869 00fd 01       		.uleb128 0x1
 870 00fe 13       		.uleb128 0x13
 871 00ff 00       		.byte	0
 872 0100 00       		.byte	0
 873 0101 14       		.uleb128 0x14
 874 0102 05       		.uleb128 0x5
 875 0103 00       		.byte	0
 876 0104 03       		.uleb128 0x3
 877 0105 08       		.uleb128 0x8
 878 0106 3A       		.uleb128 0x3a
 879 0107 0B       		.uleb128 0xb
 880 0108 3B       		.uleb128 0x3b
 881 0109 0B       		.uleb128 0xb
 882 010a 49       		.uleb128 0x49
 883 010b 13       		.uleb128 0x13
 884 010c 02       		.uleb128 0x2
 885 010d 18       		.uleb128 0x18
 886 010e 00       		.byte	0
 887 010f 00       		.byte	0
 888 0110 15       		.uleb128 0x15
 889 0111 34       		.uleb128 0x34
 890 0112 00       		.byte	0
 891 0113 03       		.uleb128 0x3
 892 0114 08       		.uleb128 0x8
 893 0115 3A       		.uleb128 0x3a
 894 0116 0B       		.uleb128 0xb
 895 0117 3B       		.uleb128 0x3b
 896 0118 0B       		.uleb128 0xb
 897 0119 49       		.uleb128 0x49
 898 011a 13       		.uleb128 0x13
 899 011b 02       		.uleb128 0x2
 900 011c 17       		.uleb128 0x17
 901 011d 00       		.byte	0
 902 011e 00       		.byte	0
 903 011f 16       		.uleb128 0x16
 904 0120 2E       		.uleb128 0x2e
 905 0121 01       		.byte	0x1
 906 0122 3F       		.uleb128 0x3f
 907 0123 19       		.uleb128 0x19
ARM GAS  /tmp/ccmAzrHN.s 			page 17


 908 0124 03       		.uleb128 0x3
 909 0125 0E       		.uleb128 0xe
 910 0126 3A       		.uleb128 0x3a
 911 0127 0B       		.uleb128 0xb
 912 0128 3B       		.uleb128 0x3b
 913 0129 0B       		.uleb128 0xb
 914 012a 27       		.uleb128 0x27
 915 012b 19       		.uleb128 0x19
 916 012c 11       		.uleb128 0x11
 917 012d 01       		.uleb128 0x1
 918 012e 12       		.uleb128 0x12
 919 012f 06       		.uleb128 0x6
 920 0130 40       		.uleb128 0x40
 921 0131 18       		.uleb128 0x18
 922 0132 9742     		.uleb128 0x2117
 923 0134 19       		.uleb128 0x19
 924 0135 01       		.uleb128 0x1
 925 0136 13       		.uleb128 0x13
 926 0137 00       		.byte	0
 927 0138 00       		.byte	0
 928 0139 17       		.uleb128 0x17
 929 013a 34       		.uleb128 0x34
 930 013b 00       		.byte	0
 931 013c 03       		.uleb128 0x3
 932 013d 08       		.uleb128 0x8
 933 013e 3A       		.uleb128 0x3a
 934 013f 0B       		.uleb128 0xb
 935 0140 3B       		.uleb128 0x3b
 936 0141 0B       		.uleb128 0xb
 937 0142 49       		.uleb128 0x49
 938 0143 13       		.uleb128 0x13
 939 0144 02       		.uleb128 0x2
 940 0145 18       		.uleb128 0x18
 941 0146 00       		.byte	0
 942 0147 00       		.byte	0
 943 0148 18       		.uleb128 0x18
 944 0149 1D       		.uleb128 0x1d
 945 014a 01       		.byte	0x1
 946 014b 31       		.uleb128 0x31
 947 014c 13       		.uleb128 0x13
 948 014d 52       		.uleb128 0x52
 949 014e 01       		.uleb128 0x1
 950 014f 55       		.uleb128 0x55
 951 0150 17       		.uleb128 0x17
 952 0151 58       		.uleb128 0x58
 953 0152 0B       		.uleb128 0xb
 954 0153 59       		.uleb128 0x59
 955 0154 0B       		.uleb128 0xb
 956 0155 01       		.uleb128 0x1
 957 0156 13       		.uleb128 0x13
 958 0157 00       		.byte	0
 959 0158 00       		.byte	0
 960 0159 19       		.uleb128 0x19
 961 015a 05       		.uleb128 0x5
 962 015b 00       		.byte	0
 963 015c 31       		.uleb128 0x31
 964 015d 13       		.uleb128 0x13
ARM GAS  /tmp/ccmAzrHN.s 			page 18


 965 015e 02       		.uleb128 0x2
 966 015f 17       		.uleb128 0x17
 967 0160 00       		.byte	0
 968 0161 00       		.byte	0
 969 0162 1A       		.uleb128 0x1a
 970 0163 898201   		.uleb128 0x4109
 971 0166 01       		.byte	0x1
 972 0167 11       		.uleb128 0x11
 973 0168 01       		.uleb128 0x1
 974 0169 31       		.uleb128 0x31
 975 016a 13       		.uleb128 0x13
 976 016b 00       		.byte	0
 977 016c 00       		.byte	0
 978 016d 1B       		.uleb128 0x1b
 979 016e 8A8201   		.uleb128 0x410a
 980 0171 00       		.byte	0
 981 0172 02       		.uleb128 0x2
 982 0173 18       		.uleb128 0x18
 983 0174 9142     		.uleb128 0x2111
 984 0176 18       		.uleb128 0x18
 985 0177 00       		.byte	0
 986 0178 00       		.byte	0
 987 0179 1C       		.uleb128 0x1c
 988 017a 34       		.uleb128 0x34
 989 017b 00       		.byte	0
 990 017c 03       		.uleb128 0x3
 991 017d 0E       		.uleb128 0xe
 992 017e 3A       		.uleb128 0x3a
 993 017f 0B       		.uleb128 0xb
 994 0180 3B       		.uleb128 0x3b
 995 0181 0B       		.uleb128 0xb
 996 0182 49       		.uleb128 0x49
 997 0183 13       		.uleb128 0x13
 998 0184 02       		.uleb128 0x2
 999 0185 18       		.uleb128 0x18
 1000 0186 00       		.byte	0
 1001 0187 00       		.byte	0
 1002 0188 1D       		.uleb128 0x1d
 1003 0189 34       		.uleb128 0x34
 1004 018a 00       		.byte	0
 1005 018b 03       		.uleb128 0x3
 1006 018c 0E       		.uleb128 0xe
 1007 018d 3A       		.uleb128 0x3a
 1008 018e 0B       		.uleb128 0xb
 1009 018f 3B       		.uleb128 0x3b
 1010 0190 05       		.uleb128 0x5
 1011 0191 49       		.uleb128 0x49
 1012 0192 13       		.uleb128 0x13
 1013 0193 3F       		.uleb128 0x3f
 1014 0194 19       		.uleb128 0x19
 1015 0195 3C       		.uleb128 0x3c
 1016 0196 19       		.uleb128 0x19
 1017 0197 00       		.byte	0
 1018 0198 00       		.byte	0
 1019 0199 00       		.byte	0
 1020              		.section	.debug_loc,"",%progbits
 1021              	.Ldebug_loc0:
ARM GAS  /tmp/ccmAzrHN.s 			page 19


 1022              	.LLST0:
 1023 0000 12000000 		.4byte	.LVL2
 1024 0004 1C000000 		.4byte	.LVL3
 1025 0008 0100     		.2byte	0x1
 1026 000a 53       		.byte	0x53
 1027 000b 00000000 		.4byte	0
 1028 000f 00000000 		.4byte	0
 1029              	.LLST1:
 1030 0013 20000000 		.4byte	.LVL5
 1031 0017 34000000 		.4byte	.LVL6
 1032 001b 0300     		.2byte	0x3
 1033 001d 91       		.byte	0x91
 1034 001e 64       		.sleb128 -28
 1035 001f 9F       		.byte	0x9f
 1036 0020 34000000 		.4byte	.LVL6
 1037 0024 3D000000 		.4byte	.LVL7-1
 1038 0028 0100     		.2byte	0x1
 1039 002a 50       		.byte	0x50
 1040 002b 3D000000 		.4byte	.LVL7-1
 1041 002f 46000000 		.4byte	.LFE120
 1042 0033 0300     		.2byte	0x3
 1043 0035 91       		.byte	0x91
 1044 0036 64       		.sleb128 -28
 1045 0037 9F       		.byte	0x9f
 1046 0038 00000000 		.4byte	0
 1047 003c 00000000 		.4byte	0
 1048              	.LLST2:
 1049 0040 1C000000 		.4byte	.LVL4
 1050 0044 34000000 		.4byte	.LVL6
 1051 0048 0300     		.2byte	0x3
 1052 004a 91       		.byte	0x91
 1053 004b 64       		.sleb128 -28
 1054 004c 9F       		.byte	0x9f
 1055 004d 34000000 		.4byte	.LVL6
 1056 0051 3D000000 		.4byte	.LVL7-1
 1057 0055 0100     		.2byte	0x1
 1058 0057 50       		.byte	0x50
 1059 0058 3D000000 		.4byte	.LVL7-1
 1060 005c 46000000 		.4byte	.LFE120
 1061 0060 0300     		.2byte	0x3
 1062 0062 91       		.byte	0x91
 1063 0063 64       		.sleb128 -28
 1064 0064 9F       		.byte	0x9f
 1065 0065 00000000 		.4byte	0
 1066 0069 00000000 		.4byte	0
 1067              		.section	.debug_aranges,"",%progbits
 1068 0000 34000000 		.4byte	0x34
 1069 0004 0200     		.2byte	0x2
 1070 0006 00000000 		.4byte	.Ldebug_info0
 1071 000a 04       		.byte	0x4
 1072 000b 00       		.byte	0
 1073 000c 0000     		.2byte	0
 1074 000e 0000     		.2byte	0
 1075 0010 00000000 		.4byte	.LFB118
 1076 0014 0E000000 		.4byte	.LFE118-.LFB118
 1077 0018 00000000 		.4byte	.LFB119
 1078 001c 36000000 		.4byte	.LFE119-.LFB119
ARM GAS  /tmp/ccmAzrHN.s 			page 20


 1079 0020 00000000 		.4byte	.LFB120
 1080 0024 46000000 		.4byte	.LFE120-.LFB120
 1081 0028 00000000 		.4byte	.LFB121
 1082 002c 28000000 		.4byte	.LFE121-.LFB121
 1083 0030 00000000 		.4byte	0
 1084 0034 00000000 		.4byte	0
 1085              		.section	.debug_ranges,"",%progbits
 1086              	.Ldebug_ranges0:
 1087 0000 0C000000 		.4byte	.LBB8
 1088 0004 10000000 		.4byte	.LBE8
 1089 0008 12000000 		.4byte	.LBB13
 1090 000c 16000000 		.4byte	.LBE13
 1091 0010 20000000 		.4byte	.LBB21
 1092 0014 22000000 		.4byte	.LBE21
 1093 0018 36000000 		.4byte	.LBB24
 1094 001c 38000000 		.4byte	.LBE24
 1095 0020 00000000 		.4byte	0
 1096 0024 00000000 		.4byte	0
 1097 0028 16000000 		.4byte	.LBB14
 1098 002c 1A000000 		.4byte	.LBE14
 1099 0030 1C000000 		.4byte	.LBB20
 1100 0034 20000000 		.4byte	.LBE20
 1101 0038 22000000 		.4byte	.LBB22
 1102 003c 32000000 		.4byte	.LBE22
 1103 0040 34000000 		.4byte	.LBB23
 1104 0044 36000000 		.4byte	.LBE23
 1105 0048 38000000 		.4byte	.LBB25
 1106 004c 3A000000 		.4byte	.LBE25
 1107 0050 00000000 		.4byte	0
 1108 0054 00000000 		.4byte	0
 1109 0058 00000000 		.4byte	.LFB118
 1110 005c 0E000000 		.4byte	.LFE118
 1111 0060 00000000 		.4byte	.LFB119
 1112 0064 36000000 		.4byte	.LFE119
 1113 0068 00000000 		.4byte	.LFB120
 1114 006c 46000000 		.4byte	.LFE120
 1115 0070 00000000 		.4byte	.LFB121
 1116 0074 28000000 		.4byte	.LFE121
 1117 0078 00000000 		.4byte	0
 1118 007c 00000000 		.4byte	0
 1119              		.section	.debug_line,"",%progbits
 1120              	.Ldebug_line0:
 1121 0000 CA010000 		.section	.debug_str,"MS",%progbits,1
 1121      02003601 
 1121      00000201 
 1121      FB0E0D00 
 1121      01010101 
 1122              	.LASF30:
 1123 0000 6C617374 		.ascii	"last\000"
 1123      00
 1124              	.LASF23:
 1125 0005 50435352 		.ascii	"PCSR\000"
 1125      00
 1126              	.LASF6:
 1127 000a 5F5F696E 		.ascii	"__int32_t\000"
 1127      7433325F 
 1127      7400
ARM GAS  /tmp/ccmAzrHN.s 			page 21


 1128              	.LASF39:
 1129 0014 746D5F73 		.ascii	"tm_stop\000"
 1129      746F7000 
 1130              	.LASF28:
 1131 001c 73746172 		.ascii	"start\000"
 1131      7400
 1132              	.LASF35:
 1133 0022 2E2E2F2E 		.ascii	"../../../os/hal/src/tm.c\000"
 1133      2E2F2E2E 
 1133      2F6F732F 
 1133      68616C2F 
 1133      7372632F 
 1134              	.LASF20:
 1135 003b 534C4545 		.ascii	"SLEEPCNT\000"
 1135      50434E54 
 1135      00
 1136              	.LASF29:
 1137 0044 73746F70 		.ascii	"stop\000"
 1137      00
 1138              	.LASF10:
 1139 0049 6C6F6E67 		.ascii	"long long unsigned int\000"
 1139      206C6F6E 
 1139      6720756E 
 1139      7369676E 
 1139      65642069 
 1140              	.LASF2:
 1141 0060 756E7369 		.ascii	"unsigned char\000"
 1141      676E6564 
 1141      20636861 
 1141      7200
 1142              	.LASF17:
 1143 006e 43594343 		.ascii	"CYCCNT\000"
 1143      4E5400
 1144              	.LASF40:
 1145 0075 746D496E 		.ascii	"tmInit\000"
 1145      697400
 1146              	.LASF8:
 1147 007c 6C6F6E67 		.ascii	"long unsigned int\000"
 1147      20756E73 
 1147      69676E65 
 1147      6420696E 
 1147      7400
 1148              	.LASF37:
 1149 008e 746D4F62 		.ascii	"tmObjectInit\000"
 1149      6A656374 
 1149      496E6974 
 1149      00
 1150              	.LASF4:
 1151 009b 73686F72 		.ascii	"short unsigned int\000"
 1151      7420756E 
 1151      7369676E 
 1151      65642069 
 1151      6E7400
 1152              	.LASF18:
 1153 00ae 43504943 		.ascii	"CPICNT\000"
 1153      4E5400
 1154              	.LASF41:
ARM GAS  /tmp/ccmAzrHN.s 			page 22


 1155 00b5 49544D5F 		.ascii	"ITM_RxBuffer\000"
 1155      52784275 
 1155      66666572 
 1155      00
 1156              	.LASF22:
 1157 00c2 464F4C44 		.ascii	"FOLDCNT\000"
 1157      434E5400 
 1158              	.LASF31:
 1159 00ca 776F7273 		.ascii	"worst\000"
 1159      7400
 1160              	.LASF7:
 1161 00d0 5F5F7569 		.ascii	"__uint32_t\000"
 1161      6E743332 
 1161      5F7400
 1162              	.LASF21:
 1163 00db 4C535543 		.ascii	"LSUCNT\000"
 1163      4E5400
 1164              	.LASF34:
 1165 00e2 474E5520 		.ascii	"GNU C 4.8.2 -mcpu=cortex-m4 -mno-thumb-interwork -m"
 1165      4320342E 
 1165      382E3220 
 1165      2D6D6370 
 1165      753D636F 
 1166 0115 7468756D 		.ascii	"thumb -ggdb -O2 -fomit-frame-pointer -falign-functi"
 1166      62202D67 
 1166      67646220 
 1166      2D4F3220 
 1166      2D666F6D 
 1167 0148 6F6E733D 		.ascii	"ons=16 -ffunction-sections -fdata-sections -fno-com"
 1167      3136202D 
 1167      6666756E 
 1167      6374696F 
 1167      6E2D7365 
 1168 017b 6D6F6E00 		.ascii	"mon\000"
 1169              	.LASF36:
 1170 017f 2F686F6D 		.ascii	"/home/makkmarci/devel/ChibiOS_2.6.5/testhal/STM32F4"
 1170      652F6D61 
 1170      6B6B6D61 
 1170      7263692F 
 1170      64657665 
 1171 01b2 78782F41 		.ascii	"xx/ADC/\000"
 1171      44432F00 
 1172              	.LASF0:
 1173 01ba 756E7369 		.ascii	"unsigned int\000"
 1173      676E6564 
 1173      20696E74 
 1173      00
 1174              	.LASF26:
 1175 01c7 68616C72 		.ascii	"halrtcnt_t\000"
 1175      74636E74 
 1175      5F7400
 1176              	.LASF25:
 1177 01d2 63686172 		.ascii	"char\000"
 1177      00
 1178              	.LASF38:
 1179 01d7 746D5F73 		.ascii	"tm_start\000"
 1179      74617274 
ARM GAS  /tmp/ccmAzrHN.s 			page 23


 1179      00
 1180              	.LASF16:
 1181 01e0 4354524C 		.ascii	"CTRL\000"
 1181      00
 1182              	.LASF19:
 1183 01e5 45584343 		.ascii	"EXCCNT\000"
 1183      4E5400
 1184              	.LASF11:
 1185 01ec 696E7433 		.ascii	"int32_t\000"
 1185      325F7400 
 1186              	.LASF15:
 1187 01f4 73697A65 		.ascii	"sizetype\000"
 1187      74797065 
 1187      00
 1188              	.LASF9:
 1189 01fd 6C6F6E67 		.ascii	"long long int\000"
 1189      206C6F6E 
 1189      6720696E 
 1189      7400
 1190              	.LASF14:
 1191 020b 494F5245 		.ascii	"IOREG32\000"
 1191      47333200 
 1192              	.LASF33:
 1193 0213 6D656173 		.ascii	"measurement_offset\000"
 1193      7572656D 
 1193      656E745F 
 1193      6F666673 
 1193      657400
 1194              	.LASF3:
 1195 0226 73686F72 		.ascii	"short int\000"
 1195      7420696E 
 1195      7400
 1196              	.LASF24:
 1197 0230 434D785F 		.ascii	"CMx_DWT\000"
 1197      44575400 
 1198              	.LASF32:
 1199 0238 62657374 		.ascii	"best\000"
 1199      00
 1200              	.LASF12:
 1201 023d 75696E74 		.ascii	"uint32_t\000"
 1201      33325F74 
 1201      00
 1202              	.LASF5:
 1203 0246 6C6F6E67 		.ascii	"long int\000"
 1203      20696E74 
 1203      00
 1204              	.LASF1:
 1205 024f 7369676E 		.ascii	"signed char\000"
 1205      65642063 
 1205      68617200 
 1206              	.LASF27:
 1207 025b 54696D65 		.ascii	"TimeMeasurement\000"
 1207      4D656173 
 1207      7572656D 
 1207      656E7400 
 1208              	.LASF13:
 1209 026b 5F426F6F 		.ascii	"_Bool\000"
ARM GAS  /tmp/ccmAzrHN.s 			page 24


 1209      6C00
 1210              		.ident	"GCC: (4.8.2-14ubuntu1+6) 4.8.2"
ARM GAS  /tmp/ccmAzrHN.s 			page 25


DEFINED SYMBOLS
                            *ABS*:00000000 tm.c
     /tmp/ccmAzrHN.s:19     .text.tm_start:00000000 $t
     /tmp/ccmAzrHN.s:24     .text.tm_start:00000000 tm_start
     /tmp/ccmAzrHN.s:43     .text.tm_stop:00000000 $t
     /tmp/ccmAzrHN.s:48     .text.tm_stop:00000000 tm_stop
     /tmp/ccmAzrHN.s:256    .bss.measurement_offset:00000000 .LANCHOR0
     /tmp/ccmAzrHN.s:102    .text.tmInit:00000000 $t
     /tmp/ccmAzrHN.s:108    .text.tmInit:00000000 tmInit
     /tmp/ccmAzrHN.s:210    .text.tmObjectInit:00000000 $t
     /tmp/ccmAzrHN.s:216    .text.tmObjectInit:00000000 tmObjectInit
     /tmp/ccmAzrHN.s:255    .bss.measurement_offset:00000000 $d
     /tmp/ccmAzrHN.s:259    .bss.measurement_offset:00000000 measurement_offset
                     .debug_frame:00000010 $d

NO UNDEFINED SYMBOLS
